[
  {
    "link_thumb": "https://live.staticflickr.com/65535/50352712177_28ca2f9d7e_n.jpg",
    "id_album": "-462831703",
    "description": "Cat_469335",
    "title": "Cat_469335",
    "link_img": "https://live.staticflickr.com/65535/50352712177_f986b8c03b_o.jpg",
    "id_image": "Cat_469335",
    "count_view": 0
  },
  {
    "link_thumb": "https://live.staticflickr.com/65535/50352712327_2f9120c0aa_n.jpg",
    "id_album": "-462831703",
    "description": "Cat_469356",
    "title": "Cat_469356",
    "link_img": "https://live.staticflickr.com/65535/50352712327_876b776f4f_o.jpg",
    "id_image": "Cat_469356",
    "count_view": 0
  },
  {
    "link_thumb": "https://live.staticflickr.com/65535/50351856653_76c5db7ae0_n.jpg",
    "id_album": "-462831703",
    "description": "Cat_470151",
    "title": "Cat_470151",
    "link_img": "https://live.staticflickr.com/65535/50351856653_1b269e0835_o.jpg",
    "id_image": "Cat_470151",
    "count_view": 0
  },
  {
    "link_thumb": "https://live.staticflickr.com/65535/50352553796_8f255f54b3_n.jpg",
    "id_album": "-462831703",
    "description": "Cat_470347",
    "title": "Cat_470347",
    "link_img": "https://live.staticflickr.com/65535/50352553796_99e8a1bbea_o.jpg",
    "id_image": "Cat_470347",
    "count_view": 0
  },
  {
    "link_thumb": "https://live.staticflickr.com/65535/50351856963_08baa41bf2_n.jpg",
    "id_album": "-462831703",
    "description": "Cat_470349",
    "title": "Cat_470349",
    "link_img": "https://live.staticflickr.com/65535/50351856963_fa3d87f46b_o.jpg",
    "id_image": "Cat_470349",
    "count_view": 0
  },
  {
    "link_thumb": "https://live.staticflickr.com/65535/50352554126_614ebf32c6_n.jpg",
    "id_album": "-462831703",
    "description": "Cat_470360",
    "title": "Cat_470360",
    "link_img": "https://live.staticflickr.com/65535/50352554126_41ded91d5e_o.jpg",
    "id_image": "Cat_470360",
    "count_view": 0
  },
  {
    "link_thumb": "https://live.staticflickr.com/65535/50352713387_d6953c447d_n.jpg",
    "id_album": "-462831703",
    "description": "Cat_470592",
    "title": "Cat_470592",
    "link_img": "https://live.staticflickr.com/65535/50352713387_7dd6d7dcbc_o.jpg",
    "id_image": "Cat_470592",
    "count_view": 0
  },
  {
    "link_thumb": "https://live.staticflickr.com/65535/50351857373_15e2f90270_n.jpg",
    "id_album": "-462831703",
    "description": "Cat_470998",
    "title": "Cat_470998",
    "link_img": "https://live.staticflickr.com/65535/50351857373_0f4405ca4f_o.jpg",
    "id_image": "Cat_470998",
    "count_view": 0
  },
  {
    "link_thumb": "https://live.staticflickr.com/65535/50352554611_7cf90fec35_n.jpg",
    "id_album": "-462831703",
    "description": "Cat_471002",
    "title": "Cat_471002",
    "link_img": "https://live.staticflickr.com/65535/50352554611_397b48bac3_o.jpg",
    "id_image": "Cat_471002",
    "count_view": 0
  },
  {
    "link_thumb": "https://live.staticflickr.com/65535/50351857648_4e4acbb442_n.jpg",
    "id_album": "-462831703",
    "description": "Cat_471369",
    "title": "Cat_471369",
    "link_img": "https://live.staticflickr.com/65535/50351857648_d200988018_o.jpg",
    "id_image": "Cat_471369",
    "count_view": 0
  },
  {
    "link_thumb": "https://live.staticflickr.com/65535/50351857798_bb1e5d160b_n.jpg",
    "id_album": "-462831703",
    "description": "Cat_471884",
    "title": "Cat_471884",
    "link_img": "https://live.staticflickr.com/65535/50351857798_d027d2cbaa_o.jpg",
    "id_image": "Cat_471884",
    "count_view": 0
  },
  {
    "link_thumb": "https://live.staticflickr.com/65535/50351857983_aae1a26f92_n.jpg",
    "id_album": "-462831703",
    "description": "Cat_474009",
    "title": "Cat_474009",
    "link_img": "https://live.staticflickr.com/65535/50351857983_d7e5d7e5c8_o.jpg",
    "id_image": "Cat_474009",
    "count_view": 0
  },
  {
    "link_thumb": "https://live.staticflickr.com/65535/50351858143_1912bbc27d_n.jpg",
    "id_album": "-462831703",
    "description": "Cat_474645",
    "title": "Cat_474645",
    "link_img": "https://live.staticflickr.com/65535/50351858143_cf4392bb1b_o.jpg",
    "id_image": "Cat_474645",
    "count_view": 0
  },
  {
    "link_thumb": "https://live.staticflickr.com/65535/50352555366_e4518f1395_n.jpg",
    "id_album": "-462831703",
    "description": "Cat_475224",
    "title": "Cat_475224",
    "link_img": "https://live.staticflickr.com/65535/50352555366_8194b7bbe3_o.jpg",
    "id_image": "Cat_475224",
    "count_view": 0
  },
  {
    "link_thumb": "https://live.staticflickr.com/65535/50352555666_e1fea8462c_n.jpg",
    "id_album": "-462831703",
    "description": "Cat_477271",
    "title": "Cat_477271",
    "link_img": "https://live.staticflickr.com/65535/50352555666_28b2bf306b_o.jpg",
    "id_image": "Cat_477271",
    "count_view": 0
  },
  {
    "link_thumb": "https://live.staticflickr.com/65535/50351858728_0a4e906f93_n.jpg",
    "id_album": "-462831703",
    "description": "Cat_477509",
    "title": "Cat_477509",
    "link_img": "https://live.staticflickr.com/65535/50351858728_d403951719_o.jpg",
    "id_image": "Cat_477509",
    "count_view": 0
  },
  {
    "link_thumb": "https://live.staticflickr.com/65535/50352715222_fd2f36413c_n.jpg",
    "id_album": "-462831703",
    "description": "Cat_478664",
    "title": "Cat_478664",
    "link_img": "https://live.staticflickr.com/65535/50352715222_2d185f9cac_o.jpg",
    "id_image": "Cat_478664",
    "count_view": 0
  },
  {
    "link_thumb": "https://live.staticflickr.com/65535/50351859088_34b0de27f3_n.jpg",
    "id_album": "-462831703",
    "description": "Cat_478699",
    "title": "Cat_478699",
    "link_img": "https://live.staticflickr.com/65535/50351859088_76248de921_o.jpg",
    "id_image": "Cat_478699",
    "count_view": 0
  },
  {
    "link_thumb": "https://live.staticflickr.com/65535/50351859168_63e72130b5_n.jpg",
    "id_album": "-462831703",
    "description": "Cat_479295",
    "title": "Cat_479295",
    "link_img": "https://live.staticflickr.com/65535/50351859168_e853aff723_o.jpg",
    "id_image": "Cat_479295",
    "count_view": 0
  },
  {
    "link_thumb": "https://live.staticflickr.com/65535/50351859553_5c0638255a_n.jpg",
    "id_album": "-462831703",
    "description": "Cat_480393",
    "title": "Cat_480393",
    "link_img": "https://live.staticflickr.com/65535/50351859553_a268963834_o.jpg",
    "id_image": "Cat_480393",
    "count_view": 0
  },
  {
    "link_thumb": "https://live.staticflickr.com/65535/50351860093_3e9599f5ca_n.jpg",
    "id_album": "-462831703",
    "description": "Cat_483722",
    "title": "Cat_483722",
    "link_img": "https://live.staticflickr.com/65535/50351860093_291fe55c15_o.jpg",
    "id_image": "Cat_483722",
    "count_view": 0
  },
  {
    "link_thumb": "https://live.staticflickr.com/65535/50352557591_d0a096460d_n.jpg",
    "id_album": "-462831703",
    "description": "Cat_483729",
    "title": "Cat_483729",
    "link_img": "https://live.staticflickr.com/65535/50352557591_c05a4b3b97_o.jpg",
    "id_image": "Cat_483729",
    "count_view": 0
  },
  {
    "link_thumb": "https://live.staticflickr.com/65535/50352716937_9a69c8cbb8_n.jpg",
    "id_album": "-462831703",
    "description": "Cat_483735",
    "title": "Cat_483735",
    "link_img": "https://live.staticflickr.com/65535/50352716937_c9dcc32bc1_o.jpg",
    "id_image": "Cat_483735",
    "count_view": 0
  },
  {
    "link_thumb": "https://live.staticflickr.com/65535/50352717282_390392acb0_n.jpg",
    "id_album": "-462831703",
    "description": "Cat_483736",
    "title": "Cat_483736",
    "link_img": "https://live.staticflickr.com/65535/50352717282_e0a82d413a_o.jpg",
    "id_image": "Cat_483736",
    "count_view": 0
  },
  {
    "link_thumb": "https://live.staticflickr.com/65535/50352558621_0c3d9d08eb_n.jpg",
    "id_album": "-462831703",
    "description": "Cat_483739",
    "title": "Cat_483739",
    "link_img": "https://live.staticflickr.com/65535/50352558621_140f5a488a_o.jpg",
    "id_image": "Cat_483739",
    "count_view": 0
  },
  {
    "link_thumb": "https://live.staticflickr.com/65535/50351861558_3c6a926845_n.jpg",
    "id_album": "-462831703",
    "description": "Cat_483740",
    "title": "Cat_483740",
    "link_img": "https://live.staticflickr.com/65535/50351861558_638a07a92f_o.jpg",
    "id_image": "Cat_483740",
    "count_view": 0
  },
  {
    "link_thumb": "https://live.staticflickr.com/65535/50351861828_7a6c53fede_n.jpg",
    "id_album": "-462831703",
    "description": "Cat_484187",
    "title": "Cat_484187",
    "link_img": "https://live.staticflickr.com/65535/50351861828_59294ff899_o.jpg",
    "id_image": "Cat_484187",
    "count_view": 0
  },
  {
    "link_thumb": "https://live.staticflickr.com/65535/50351862053_9399469806_n.jpg",
    "id_album": "-462831703",
    "description": "Cat_484574",
    "title": "Cat_484574",
    "link_img": "https://live.staticflickr.com/65535/50351862053_ee32f04fee_o.jpg",
    "id_image": "Cat_484574",
    "count_view": 0
  },
  {
    "link_thumb": "https://live.staticflickr.com/65535/50351862353_73b9d45c35_n.jpg",
    "id_album": "-462831703",
    "description": "Cat_484590",
    "title": "Cat_484590",
    "link_img": "https://live.staticflickr.com/65535/50351862353_c603ab5463_o.jpg",
    "id_image": "Cat_484590",
    "count_view": 0
  },
  {
    "link_thumb": "https://live.staticflickr.com/65535/50352719197_fe8c02ae9a_n.jpg",
    "id_album": "-462831703",
    "description": "Cat_484591",
    "title": "Cat_484591",
    "link_img": "https://live.staticflickr.com/65535/50352719197_4350f2e9f6_o.jpg",
    "id_image": "Cat_484591",
    "count_view": 0
  },
  {
    "link_thumb": "https://live.staticflickr.com/65535/50352560401_7aacfb2639_n.jpg",
    "id_album": "-462831703",
    "description": "Cat_485257",
    "title": "Cat_485257",
    "link_img": "https://live.staticflickr.com/65535/50352560401_e2d186f581_o.jpg",
    "id_image": "Cat_485257",
    "count_view": 0
  },
  {
    "link_thumb": "https://live.staticflickr.com/65535/50352560631_5f28bdf9ce_n.jpg",
    "id_album": "-462831703",
    "description": "Cat_485258",
    "title": "Cat_485258",
    "link_img": "https://live.staticflickr.com/65535/50352560631_56c91f47b0_o.jpg",
    "id_image": "Cat_485258",
    "count_view": 0
  },
  {
    "link_thumb": "https://live.staticflickr.com/65535/50351863403_73a29c57d1_n.jpg",
    "id_album": "-462831703",
    "description": "Cat_485912",
    "title": "Cat_485912",
    "link_img": "https://live.staticflickr.com/65535/50351863403_171cb9807d_o.jpg",
    "id_image": "Cat_485912",
    "count_view": 0
  },
  {
    "link_thumb": "https://live.staticflickr.com/65535/50352720222_1f74caca03_n.jpg",
    "id_album": "-462831703",
    "description": "Cat_488654",
    "title": "Cat_488654",
    "link_img": "https://live.staticflickr.com/65535/50352720222_70ddd0d89a_o.jpg",
    "id_image": "Cat_488654",
    "count_view": 0
  },
  {
    "link_thumb": "https://live.staticflickr.com/65535/50352561711_6f036555b7_n.jpg",
    "id_album": "-462831703",
    "description": "Cat_488897",
    "title": "Cat_488897",
    "link_img": "https://live.staticflickr.com/65535/50352561711_5ca52c3958_o.jpg",
    "id_image": "Cat_488897",
    "count_view": 0
  },
  {
    "link_thumb": "https://live.staticflickr.com/65535/50352561916_ce900026d7_n.jpg",
    "id_album": "-462831703",
    "description": "Cat_490670",
    "title": "Cat_490670",
    "link_img": "https://live.staticflickr.com/65535/50352561916_ac7f0b9e9a_o.jpg",
    "id_image": "Cat_490670",
    "count_view": 0
  },
  {
    "link_thumb": "https://live.staticflickr.com/65535/50352721252_35b61e5733_n.jpg",
    "id_album": "-462831703",
    "description": "Cat_491944",
    "title": "Cat_491944",
    "link_img": "https://live.staticflickr.com/65535/50352721252_fa916ea0e4_o.jpg",
    "id_image": "Cat_491944",
    "count_view": 0
  },
  {
    "link_thumb": "https://live.staticflickr.com/65535/50351865153_6ce1934eae_n.jpg",
    "id_album": "-462831703",
    "description": "Cat_492249",
    "title": "Cat_492249",
    "link_img": "https://live.staticflickr.com/65535/50351865153_c875d9bf6d_o.jpg",
    "id_image": "Cat_492249",
    "count_view": 0
  },
  {
    "link_thumb": "https://live.staticflickr.com/65535/50351865778_7da64d8549_n.jpg",
    "id_album": "-462831703",
    "description": "Cat_492718",
    "title": "Cat_492718",
    "link_img": "https://live.staticflickr.com/65535/50351865778_8e3867e4ca_o.jpg",
    "id_image": "Cat_492718",
    "count_view": 0
  },
  {
    "link_thumb": "https://live.staticflickr.com/65535/50351866688_3b2c15a83b_n.jpg",
    "id_album": "-462831703",
    "description": "Cat_493227",
    "title": "Cat_493227",
    "link_img": "https://live.staticflickr.com/65535/50351866688_027a02e42a_o.jpg",
    "id_image": "Cat_493227",
    "count_view": 0
  },
  {
    "link_thumb": "https://live.staticflickr.com/65535/50352564396_fc740726f7_n.jpg",
    "id_album": "-462831703",
    "description": "Cat_493955",
    "title": "Cat_493955",
    "link_img": "https://live.staticflickr.com/65535/50352564396_f8a70062e0_o.jpg",
    "id_image": "Cat_493955",
    "count_view": 0
  },
  {
    "link_thumb": "https://live.staticflickr.com/65535/50352564671_a79996a803_n.jpg",
    "id_album": "-462831703",
    "description": "Cat_494058",
    "title": "Cat_494058",
    "link_img": "https://live.staticflickr.com/65535/50352564671_b3a883838f_o.jpg",
    "id_image": "Cat_494058",
    "count_view": 0
  },
  {
    "link_thumb": "https://live.staticflickr.com/65535/50352724122_fdb184ee2d_n.jpg",
    "id_album": "-462831703",
    "description": "Cat_494059",
    "title": "Cat_494059",
    "link_img": "https://live.staticflickr.com/65535/50352724122_ef8ba70027_o.jpg",
    "id_image": "Cat_494059",
    "count_view": 0
  },
  {
    "link_thumb": "https://live.staticflickr.com/65535/50352724277_4e6f47ff45_n.jpg",
    "id_album": "-462831703",
    "description": "Cat_494093",
    "title": "Cat_494093",
    "link_img": "https://live.staticflickr.com/65535/50352724277_f07a5c8fff_o.jpg",
    "id_image": "Cat_494093",
    "count_view": 0
  },
  {
    "link_thumb": "https://live.staticflickr.com/65535/50352565266_a4d6fc9b13_n.jpg",
    "id_album": "-462831703",
    "description": "Cat_494094",
    "title": "Cat_494094",
    "link_img": "https://live.staticflickr.com/65535/50352565266_0dc4a80792_o.jpg",
    "id_image": "Cat_494094",
    "count_view": 0
  },
  {
    "link_thumb": "https://live.staticflickr.com/65535/50352565466_35d7cb8cae_n.jpg",
    "id_album": "-462831703",
    "description": "Cat_494095",
    "title": "Cat_494095",
    "link_img": "https://live.staticflickr.com/65535/50352565466_f792fda537_o.jpg",
    "id_image": "Cat_494095",
    "count_view": 0
  },
  {
    "link_thumb": "https://live.staticflickr.com/65535/50351868193_94d1592ed3_n.jpg",
    "id_album": "-462831703",
    "description": "Cat_494096",
    "title": "Cat_494096",
    "link_img": "https://live.staticflickr.com/65535/50351868193_ea15fd5f84_o.jpg",
    "id_image": "Cat_494096",
    "count_view": 0
  },
  {
    "link_thumb": "https://live.staticflickr.com/65535/50352565781_3770e92719_n.jpg",
    "id_album": "-462831703",
    "description": "Cat_494097",
    "title": "Cat_494097",
    "link_img": "https://live.staticflickr.com/65535/50352565781_183d73e501_o.jpg",
    "id_image": "Cat_494097",
    "count_view": 0
  },
  {
    "link_thumb": "https://live.staticflickr.com/65535/50351868608_373d1f2713_n.jpg",
    "id_album": "-462831703",
    "description": "Cat_494104",
    "title": "Cat_494104",
    "link_img": "https://live.staticflickr.com/65535/50351868608_f61ab3fd2b_o.jpg",
    "id_image": "Cat_494104",
    "count_view": 0
  },
  {
    "link_thumb": "https://live.staticflickr.com/65535/50352726252_1f42edc89f_n.jpg",
    "id_album": "-462831703",
    "description": "Cat_494307",
    "title": "Cat_494307",
    "link_img": "https://live.staticflickr.com/65535/50352726252_3eee56ebb9_o.jpg",
    "id_image": "Cat_494307",
    "count_view": 0
  },
  {
    "link_thumb": "https://live.staticflickr.com/65535/50352568511_170e01fb89_n.jpg",
    "id_album": "-462831703",
    "description": "Cat_496185",
    "title": "Cat_496185",
    "link_img": "https://live.staticflickr.com/65535/50352568511_89937fcfc3_o.jpg",
    "id_image": "Cat_496185",
    "count_view": 0
  },
  {
    "link_thumb": "https://live.staticflickr.com/65535/50351871278_80b8142661_n.jpg",
    "id_album": "-462831703",
    "description": "Cat_496528",
    "title": "Cat_496528",
    "link_img": "https://live.staticflickr.com/65535/50351871278_7bd5731354_o.jpg",
    "id_image": "Cat_496528",
    "count_view": 0
  },
  {
    "link_thumb": "https://live.staticflickr.com/65535/50352729262_8541d2e088_n.jpg",
    "id_album": "-462831703",
    "description": "Cat_498999",
    "title": "Cat_498999",
    "link_img": "https://live.staticflickr.com/65535/50352729262_37f5774fcc_o.jpg",
    "id_image": "Cat_498999",
    "count_view": 0
  },
  {
    "link_thumb": "https://live.staticflickr.com/65535/50351872838_1e0eed4dce_n.jpg",
    "id_album": "-462831703",
    "description": "Cat_499000",
    "title": "Cat_499000",
    "link_img": "https://live.staticflickr.com/65535/50351872838_4237f0f2ce_o.jpg",
    "id_image": "Cat_499000",
    "count_view": 0
  },
  {
    "link_thumb": "https://live.staticflickr.com/65535/50352729657_98d423d4bd_n.jpg",
    "id_album": "-462831703",
    "description": "Cat_499039",
    "title": "Cat_499039",
    "link_img": "https://live.staticflickr.com/65535/50352729657_1cc2c2e8e1_o.jpg",
    "id_image": "Cat_499039",
    "count_view": 0
  },
  {
    "link_thumb": "https://live.staticflickr.com/65535/50351873268_24d9394edd_n.jpg",
    "id_album": "-462831703",
    "description": "Cat_499076",
    "title": "Cat_499076",
    "link_img": "https://live.staticflickr.com/65535/50351873268_ef0bcb4dc1_o.jpg",
    "id_image": "Cat_499076",
    "count_view": 0
  },
  {
    "link_thumb": "https://live.staticflickr.com/65535/50352730227_7282e15cba_n.jpg",
    "id_album": "-462831703",
    "description": "Cat_499427",
    "title": "Cat_499427",
    "link_img": "https://live.staticflickr.com/65535/50352730227_33c3a3a861_o.jpg",
    "id_image": "Cat_499427",
    "count_view": 0
  },
  {
    "link_thumb": "https://live.staticflickr.com/65535/50351873823_7572d7e16b_n.jpg",
    "id_album": "-462831703",
    "description": "Cat_499620",
    "title": "Cat_499620",
    "link_img": "https://live.staticflickr.com/65535/50351873823_4af11943d6_o.jpg",
    "id_image": "Cat_499620",
    "count_view": 0
  },
  {
    "link_thumb": "https://live.staticflickr.com/65535/50352730642_acfeaef284_n.jpg",
    "id_album": "-462831703",
    "description": "Cat_499892",
    "title": "Cat_499892",
    "link_img": "https://live.staticflickr.com/65535/50352730642_58068d4f59_o.jpg",
    "id_image": "Cat_499892",
    "count_view": 0
  },
  {
    "link_thumb": "https://live.staticflickr.com/65535/50352730807_1c841e7fc4_n.jpg",
    "id_album": "-462831703",
    "description": "Cat_500505",
    "title": "Cat_500505",
    "link_img": "https://live.staticflickr.com/65535/50352730807_96713870d5_o.jpg",
    "id_image": "Cat_500505",
    "count_view": 0
  },
  {
    "link_thumb": "https://live.staticflickr.com/65535/50352732072_5a3da73b9b_n.jpg",
    "id_album": "-462831703",
    "description": "Cat_501387",
    "title": "Cat_501387",
    "link_img": "https://live.staticflickr.com/65535/50352732072_5fc56ec06c_o.jpg",
    "id_image": "Cat_501387",
    "count_view": 0
  },
  {
    "link_thumb": "https://live.staticflickr.com/65535/50351876003_1622ce944f_n.jpg",
    "id_album": "-462831703",
    "description": "Cat_503107",
    "title": "Cat_503107",
    "link_img": "https://live.staticflickr.com/65535/50351876003_7996424795_o.jpg",
    "id_image": "Cat_503107",
    "count_view": 0
  },
  {
    "link_thumb": "https://live.staticflickr.com/65535/50352732587_2acc11aaf4_n.jpg",
    "id_album": "-462831703",
    "description": "Cat_503150",
    "title": "Cat_503150",
    "link_img": "https://live.staticflickr.com/65535/50352732587_b817aa1a85_o.jpg",
    "id_image": "Cat_503150",
    "count_view": 0
  },
  {
    "link_thumb": "https://live.staticflickr.com/65535/50352573711_306f3d8e05_n.jpg",
    "id_album": "-462831703",
    "description": "Cat_503777",
    "title": "Cat_503777",
    "link_img": "https://live.staticflickr.com/65535/50352573711_fdc356fda5_o.jpg",
    "id_image": "Cat_503777",
    "count_view": 0
  },
  {
    "link_thumb": "https://live.staticflickr.com/65535/50351876638_5e54fb479e_n.jpg",
    "id_album": "-462831703",
    "description": "Cat_503815",
    "title": "Cat_503815",
    "link_img": "https://live.staticflickr.com/65535/50351876638_d6c8184c31_o.jpg",
    "id_image": "Cat_503815",
    "count_view": 0
  },
  {
    "link_thumb": "https://live.staticflickr.com/65535/50352574366_61d5e9d6b3_n.jpg",
    "id_album": "-462831703",
    "description": "Cat_504088",
    "title": "Cat_504088",
    "link_img": "https://live.staticflickr.com/65535/50352574366_911c2b5180_o.jpg",
    "id_image": "Cat_504088",
    "count_view": 0
  },
  {
    "link_thumb": "https://live.staticflickr.com/65535/50352574526_2082153573_n.jpg",
    "id_album": "-462831703",
    "description": "Cat_504786",
    "title": "Cat_504786",
    "link_img": "https://live.staticflickr.com/65535/50352574526_ec61a83a4c_o.jpg",
    "id_image": "Cat_504786",
    "count_view": 0
  },
  {
    "link_thumb": "https://live.staticflickr.com/65535/50352574686_34397fc0d5_n.jpg",
    "id_album": "-462831703",
    "description": "Cat_505008",
    "title": "Cat_505008",
    "link_img": "https://live.staticflickr.com/65535/50352574686_6f9f797914_o.jpg",
    "id_image": "Cat_505008",
    "count_view": 0
  },
  {
    "link_thumb": "https://live.staticflickr.com/65535/50351877423_3bf74bc488_n.jpg",
    "id_album": "-462831703",
    "description": "Cat_505009",
    "title": "Cat_505009",
    "link_img": "https://live.staticflickr.com/65535/50351877423_93fdd1d2af_o.jpg",
    "id_image": "Cat_505009",
    "count_view": 0
  },
  {
    "link_thumb": "https://live.staticflickr.com/65535/50351877698_8149efbd7a_n.jpg",
    "id_album": "-462831703",
    "description": "Cat_505297",
    "title": "Cat_505297",
    "link_img": "https://live.staticflickr.com/65535/50351877698_7028dc6d0c_o.jpg",
    "id_image": "Cat_505297",
    "count_view": 0
  },
  {
    "link_thumb": "https://live.staticflickr.com/65535/50351877898_e902446fc8_n.jpg",
    "id_album": "-462831703",
    "description": "Cat_505463",
    "title": "Cat_505463",
    "link_img": "https://live.staticflickr.com/65535/50351877898_acd79a2a4e_o.jpg",
    "id_image": "Cat_505463",
    "count_view": 0
  },
  {
    "link_thumb": "https://live.staticflickr.com/65535/50351878133_5726f5afda_n.jpg",
    "id_album": "-462831703",
    "description": "Cat_505537",
    "title": "Cat_505537",
    "link_img": "https://live.staticflickr.com/65535/50351878133_a25f005c3f_o.jpg",
    "id_image": "Cat_505537",
    "count_view": 0
  },
  {
    "link_thumb": "https://live.staticflickr.com/65535/50351878328_99c1bca0e5_n.jpg",
    "id_album": "-462831703",
    "description": "Cat_506042",
    "title": "Cat_506042",
    "link_img": "https://live.staticflickr.com/65535/50351878328_418fba820e_o.jpg",
    "id_image": "Cat_506042",
    "count_view": 0
  },
  {
    "link_thumb": "https://live.staticflickr.com/65535/50352575841_2fa726f0a2_n.jpg",
    "id_album": "-462831703",
    "description": "Cat_506064",
    "title": "Cat_506064",
    "link_img": "https://live.staticflickr.com/65535/50352575841_420f293330_o.jpg",
    "id_image": "Cat_506064",
    "count_view": 0
  },
  {
    "link_thumb": "https://live.staticflickr.com/65535/50352735107_720c0492f9_n.jpg",
    "id_album": "-462831703",
    "description": "Cat_506065",
    "title": "Cat_506065",
    "link_img": "https://live.staticflickr.com/65535/50352735107_ced0b95ffd_o.jpg",
    "id_image": "Cat_506065",
    "count_view": 0
  },
  {
    "link_thumb": "https://live.staticflickr.com/65535/50351878998_4c06b4955c_n.jpg",
    "id_album": "-462831703",
    "description": "Cat_506134",
    "title": "Cat_506134",
    "link_img": "https://live.staticflickr.com/65535/50351878998_e874d359bf_o.jpg",
    "id_image": "Cat_506134",
    "count_view": 0
  },
  {
    "link_thumb": "https://live.staticflickr.com/65535/50351879188_c55bd02468_n.jpg",
    "id_album": "-462831703",
    "description": "Cat_506136",
    "title": "Cat_506136",
    "link_img": "https://live.staticflickr.com/65535/50351879188_b47bb882cf_o.jpg",
    "id_image": "Cat_506136",
    "count_view": 0
  },
  {
    "link_thumb": "https://live.staticflickr.com/65535/50352576466_09910dac90_n.jpg",
    "id_album": "-462831703",
    "description": "Cat_506400",
    "title": "Cat_506400",
    "link_img": "https://live.staticflickr.com/65535/50352576466_c5bb2121c0_o.jpg",
    "id_image": "Cat_506400",
    "count_view": 0
  },
  {
    "link_thumb": "https://live.staticflickr.com/65535/50352576621_9a52792ae1_n.jpg",
    "id_album": "-462831703",
    "description": "Cat_506946",
    "title": "Cat_506946",
    "link_img": "https://live.staticflickr.com/65535/50352576621_d42e7370eb_o.jpg",
    "id_image": "Cat_506946",
    "count_view": 0
  },
  {
    "link_thumb": "https://live.staticflickr.com/65535/50351879818_f55a750672_n.jpg",
    "id_album": "-462831703",
    "description": "Cat_507085",
    "title": "Cat_507085",
    "link_img": "https://live.staticflickr.com/65535/50351879818_4a824f7bc6_o.jpg",
    "id_image": "Cat_507085",
    "count_view": 0
  },
  {
    "link_thumb": "https://live.staticflickr.com/65535/50352736207_33ba188813_n.jpg",
    "id_album": "-462831703",
    "description": "Cat_507262",
    "title": "Cat_507262",
    "link_img": "https://live.staticflickr.com/65535/50352736207_886b7e20af_o.jpg",
    "id_image": "Cat_507262",
    "count_view": 0
  },
  {
    "link_thumb": "https://live.staticflickr.com/65535/50351880138_3435ebb497_n.jpg",
    "id_album": "-462831703",
    "description": "Cat_507800",
    "title": "Cat_507800",
    "link_img": "https://live.staticflickr.com/65535/50351880138_6a126fe6e7_o.jpg",
    "id_image": "Cat_507800",
    "count_view": 0
  },
  {
    "link_thumb": "https://live.staticflickr.com/65535/50352577371_cac8ee17d3_n.jpg",
    "id_album": "-462831703",
    "description": "Cat_508242",
    "title": "Cat_508242",
    "link_img": "https://live.staticflickr.com/65535/50352577371_9835c03074_o.jpg",
    "id_image": "Cat_508242",
    "count_view": 0
  },
  {
    "link_thumb": "https://live.staticflickr.com/65535/50351880558_f84f5b61ba_n.jpg",
    "id_album": "-462831703",
    "description": "Cat_508655",
    "title": "Cat_508655",
    "link_img": "https://live.staticflickr.com/65535/50351880558_14523ba2c1_o.jpg",
    "id_image": "Cat_508655",
    "count_view": 0
  },
  {
    "link_thumb": "https://live.staticflickr.com/65535/50352736982_e5915589f5_n.jpg",
    "id_album": "-462831703",
    "description": "Cat_509049",
    "title": "Cat_509049",
    "link_img": "https://live.staticflickr.com/65535/50352736982_b49e9bd674_o.jpg",
    "id_image": "Cat_509049",
    "count_view": 0
  },
  {
    "link_thumb": "https://live.staticflickr.com/65535/50351880913_a7521e665d_n.jpg",
    "id_album": "-462831703",
    "description": "Cat_511318",
    "title": "Cat_511318",
    "link_img": "https://live.staticflickr.com/65535/50351880913_0854bdceb9_o.jpg",
    "id_image": "Cat_511318",
    "count_view": 0
  },
  {
    "link_thumb": "https://live.staticflickr.com/65535/50352578101_de1d76eb56_n.jpg",
    "id_album": "-462831703",
    "description": "Cat_511415",
    "title": "Cat_511415",
    "link_img": "https://live.staticflickr.com/65535/50352578101_c33eb7f80e_o.jpg",
    "id_image": "Cat_511415",
    "count_view": 0
  },
  {
    "link_thumb": "https://live.staticflickr.com/65535/50351881318_e8ce5018fc_n.jpg",
    "id_album": "-462831703",
    "description": "Cat_511417",
    "title": "Cat_511417",
    "link_img": "https://live.staticflickr.com/65535/50351881318_11e41f8bc0_o.jpg",
    "id_image": "Cat_511417",
    "count_view": 0
  },
  {
    "link_thumb": "https://live.staticflickr.com/65535/50352578456_23b9145a23_n.jpg",
    "id_album": "-462831703",
    "description": "Cat_511418",
    "title": "Cat_511418",
    "link_img": "https://live.staticflickr.com/65535/50352578456_a15e33c432_o.jpg",
    "id_image": "Cat_511418",
    "count_view": 0
  },
  {
    "link_thumb": "https://live.staticflickr.com/65535/50352578566_a399f6c9f2_n.jpg",
    "id_album": "-462831703",
    "description": "Cat_511420",
    "title": "Cat_511420",
    "link_img": "https://live.staticflickr.com/65535/50352578566_82bae11511_o.jpg",
    "id_image": "Cat_511420",
    "count_view": 0
  },
  {
    "link_thumb": "https://live.staticflickr.com/65535/50352738012_fb2f131bf7_n.jpg",
    "id_album": "-462831703",
    "description": "Cat_511423",
    "title": "Cat_511423",
    "link_img": "https://live.staticflickr.com/65535/50352738012_310ec19083_o.jpg",
    "id_image": "Cat_511423",
    "count_view": 0
  },
  {
    "link_thumb": "https://live.staticflickr.com/65535/50351881943_3133d00846_n.jpg",
    "id_album": "-462831703",
    "description": "Cat_511424",
    "title": "Cat_511424",
    "link_img": "https://live.staticflickr.com/65535/50351881943_4b9bb7b2d2_o.jpg",
    "id_image": "Cat_511424",
    "count_view": 0
  },
  {
    "link_thumb": "https://live.staticflickr.com/65535/50352738282_66342613af_n.jpg",
    "id_album": "-462831703",
    "description": "Cat_512245",
    "title": "Cat_512245",
    "link_img": "https://live.staticflickr.com/65535/50352738282_d598678355_o.jpg",
    "id_image": "Cat_512245",
    "count_view": 0
  },
  {
    "link_thumb": "https://live.staticflickr.com/65535/50351882248_7ee57ce498_n.jpg",
    "id_album": "-462831703",
    "description": "Cat_512279",
    "title": "Cat_512279",
    "link_img": "https://live.staticflickr.com/65535/50351882248_a551e8aee3_o.jpg",
    "id_image": "Cat_512279",
    "count_view": 0
  },
  {
    "link_thumb": "https://live.staticflickr.com/65535/50351882353_75e47d37ff_n.jpg",
    "id_album": "-462831703",
    "description": "Cat_513259",
    "title": "Cat_513259",
    "link_img": "https://live.staticflickr.com/65535/50351882353_db2a554dfc_o.jpg",
    "id_image": "Cat_513259",
    "count_view": 0
  },
  {
    "link_thumb": "https://live.staticflickr.com/65535/50352738722_f675efb706_n.jpg",
    "id_album": "-462831703",
    "description": "Cat_513299",
    "title": "Cat_513299",
    "link_img": "https://live.staticflickr.com/65535/50352738722_283cb9d49b_o.jpg",
    "id_image": "Cat_513299",
    "count_view": 0
  },
  {
    "link_thumb": "https://live.staticflickr.com/65535/50352738902_7d953cb75b_n.jpg",
    "id_album": "-462831703",
    "description": "Cat_514148",
    "title": "Cat_514148",
    "link_img": "https://live.staticflickr.com/65535/50352738902_4dabba56b0_o.jpg",
    "id_image": "Cat_514148",
    "count_view": 0
  },
  {
    "link_thumb": "https://live.staticflickr.com/65535/50351882878_ca8d3663a9_n.jpg",
    "id_album": "-462831703",
    "description": "Cat_514264",
    "title": "Cat_514264",
    "link_img": "https://live.staticflickr.com/65535/50351882878_706338edd1_o.jpg",
    "id_image": "Cat_514264",
    "count_view": 0
  },
  {
    "link_thumb": "https://live.staticflickr.com/65535/50352739247_16d5da312c_n.jpg",
    "id_album": "-462831703",
    "description": "Cat_514347",
    "title": "Cat_514347",
    "link_img": "https://live.staticflickr.com/65535/50352739247_18236d8709_o.jpg",
    "id_image": "Cat_514347",
    "count_view": 0
  },
  {
    "link_thumb": "https://live.staticflickr.com/65535/50352580211_5ac2abf197_n.jpg",
    "id_album": "-462831703",
    "description": "Cat_514366",
    "title": "Cat_514366",
    "link_img": "https://live.staticflickr.com/65535/50352580211_07ac0f3f7e_o.jpg",
    "id_image": "Cat_514366",
    "count_view": 0
  },
  {
    "link_thumb": "https://live.staticflickr.com/65535/50352580331_f6fd7cff02_n.jpg",
    "id_album": "-462831703",
    "description": "Cat_514494",
    "title": "Cat_514494",
    "link_img": "https://live.staticflickr.com/65535/50352580331_2afac64a9c_o.jpg",
    "id_image": "Cat_514494",
    "count_view": 0
  },
  {
    "link_thumb": "https://live.staticflickr.com/65535/50352580426_7c7b555eac_n.jpg",
    "id_album": "-462831703",
    "description": "Cat_514505",
    "title": "Cat_514505",
    "link_img": "https://live.staticflickr.com/65535/50352580426_73705679ec_o.jpg",
    "id_image": "Cat_514505",
    "count_view": 0
  },
  {
    "link_thumb": "https://live.staticflickr.com/65535/50352580596_d9eda6f85f_n.jpg",
    "id_album": "-462831703",
    "description": "Cat_514541",
    "title": "Cat_514541",
    "link_img": "https://live.staticflickr.com/65535/50352580596_f9d7b23dc1_o.jpg",
    "id_image": "Cat_514541",
    "count_view": 0
  },
  {
    "link_thumb": "https://live.staticflickr.com/65535/50352580816_8d0a8fe8a0_n.jpg",
    "id_album": "-462831703",
    "description": "Cat_514542",
    "title": "Cat_514542",
    "link_img": "https://live.staticflickr.com/65535/50352580816_924431b4d5_o.jpg",
    "id_image": "Cat_514542",
    "count_view": 0
  },
  {
    "link_thumb": "https://live.staticflickr.com/65535/50351883933_034040b3d7_n.jpg",
    "id_album": "-462831703",
    "description": "Cat_514551",
    "title": "Cat_514551",
    "link_img": "https://live.staticflickr.com/65535/50351883933_865991bb62_o.jpg",
    "id_image": "Cat_514551",
    "count_view": 0
  },
  {
    "link_thumb": "https://live.staticflickr.com/65535/50352581171_3cbce01271_n.jpg",
    "id_album": "-462831703",
    "description": "Cat_514560",
    "title": "Cat_514560",
    "link_img": "https://live.staticflickr.com/65535/50352581171_1cc67a3bcd_o.jpg",
    "id_image": "Cat_514560",
    "count_view": 0
  },
  {
    "link_thumb": "https://live.staticflickr.com/65535/50352740382_8f211d577d_n.jpg",
    "id_album": "-462831703",
    "description": "Cat_515084",
    "title": "Cat_515084",
    "link_img": "https://live.staticflickr.com/65535/50352740382_a67819fc47_o.jpg",
    "id_image": "Cat_515084",
    "count_view": 0
  },
  {
    "link_thumb": "https://live.staticflickr.com/65535/50352740632_5417247a23_n.jpg",
    "id_album": "-462831703",
    "description": "Cat_515368",
    "title": "Cat_515368",
    "link_img": "https://live.staticflickr.com/65535/50352740632_a983eed7b1_o.jpg",
    "id_image": "Cat_515368",
    "count_view": 0
  },
  {
    "link_thumb": "https://live.staticflickr.com/65535/50352581761_b5a217d0b7_n.jpg",
    "id_album": "-462831703",
    "description": "Cat_515545",
    "title": "Cat_515545",
    "link_img": "https://live.staticflickr.com/65535/50352581761_ed4afca841_o.jpg",
    "id_image": "Cat_515545",
    "count_view": 0
  },
  {
    "link_thumb": "https://live.staticflickr.com/65535/50352740937_c62649a4e3_n.jpg",
    "id_album": "-462831703",
    "description": "Cat_515816",
    "title": "Cat_515816",
    "link_img": "https://live.staticflickr.com/65535/50352740937_a35641d554_o.jpg",
    "id_image": "Cat_515816",
    "count_view": 0
  },
  {
    "link_thumb": "https://live.staticflickr.com/65535/50352582061_54f9a33c46_n.jpg",
    "id_album": "-462831703",
    "description": "Cat_516001",
    "title": "Cat_516001",
    "link_img": "https://live.staticflickr.com/65535/50352582061_71e53b18fd_o.jpg",
    "id_image": "Cat_516001",
    "count_view": 0
  },
  {
    "link_thumb": "https://live.staticflickr.com/65535/50351885158_aca9199bbe_n.jpg",
    "id_album": "-462831703",
    "description": "Cat_518966",
    "title": "Cat_518966",
    "link_img": "https://live.staticflickr.com/65535/50351885158_bb7fa3220b_o.jpg",
    "id_image": "Cat_518966",
    "count_view": 0
  },
  {
    "link_thumb": "https://live.staticflickr.com/65535/50351885288_df4bebac5b_n.jpg",
    "id_album": "-462831703",
    "description": "Cat_519598",
    "title": "Cat_519598",
    "link_img": "https://live.staticflickr.com/65535/50351885288_a7868e4bd7_o.jpg",
    "id_image": "Cat_519598",
    "count_view": 0
  },
  {
    "link_thumb": "https://live.staticflickr.com/65535/50352741657_3c70b299b9_n.jpg",
    "id_album": "-462831703",
    "description": "Cat_519601",
    "title": "Cat_519601",
    "link_img": "https://live.staticflickr.com/65535/50352741657_df2620457d_o.jpg",
    "id_image": "Cat_519601",
    "count_view": 0
  },
  {
    "link_thumb": "https://live.staticflickr.com/65535/50352741917_bf683a6c46_n.jpg",
    "id_album": "-462831703",
    "description": "Cat_519941",
    "title": "Cat_519941",
    "link_img": "https://live.staticflickr.com/65535/50352741917_2ecdd4aaa5_o.jpg",
    "id_image": "Cat_519941",
    "count_view": 0
  },
  {
    "link_thumb": "https://live.staticflickr.com/65535/50351885913_9d2b7b2dcf_n.jpg",
    "id_album": "-462831703",
    "description": "Cat_521216",
    "title": "Cat_521216",
    "link_img": "https://live.staticflickr.com/65535/50351885913_cbcdd3aeeb_o.jpg",
    "id_image": "Cat_521216",
    "count_view": 0
  },
  {
    "link_thumb": "https://live.staticflickr.com/65535/50352583226_39f8c1a303_n.jpg",
    "id_album": "-462831703",
    "description": "Cat_521282",
    "title": "Cat_521282",
    "link_img": "https://live.staticflickr.com/65535/50352583226_7ae9cdc79e_o.jpg",
    "id_image": "Cat_521282",
    "count_view": 0
  },
  {
    "link_thumb": "https://live.staticflickr.com/65535/50352742457_70b5d69759_n.jpg",
    "id_album": "-462831703",
    "description": "Cat_521283",
    "title": "Cat_521283",
    "link_img": "https://live.staticflickr.com/65535/50352742457_5f746a6da1_o.jpg",
    "id_image": "Cat_521283",
    "count_view": 0
  },
  {
    "link_thumb": "https://live.staticflickr.com/65535/50352583616_3e61c9dc69_n.jpg",
    "id_album": "-462831703",
    "description": "Cat_521298",
    "title": "Cat_521298",
    "link_img": "https://live.staticflickr.com/65535/50352583616_2797530a3b_o.jpg",
    "id_image": "Cat_521298",
    "count_view": 0
  },
  {
    "link_thumb": "https://live.staticflickr.com/65535/50352583841_455bdf0595_n.jpg",
    "id_album": "-462831703",
    "description": "Cat_521461",
    "title": "Cat_521461",
    "link_img": "https://live.staticflickr.com/65535/50352583841_f90af83bbf_o.jpg",
    "id_image": "Cat_521461",
    "count_view": 0
  },
  {
    "link_thumb": "https://live.staticflickr.com/65535/50352584026_5541e76e8b_n.jpg",
    "id_album": "-462831703",
    "description": "Cat_521717",
    "title": "Cat_521717",
    "link_img": "https://live.staticflickr.com/65535/50352584026_1754e43c0c_o.jpg",
    "id_image": "Cat_521717",
    "count_view": 0
  },
  {
    "link_thumb": "https://live.staticflickr.com/65535/50352584166_50ec48f573_n.jpg",
    "id_album": "-462831703",
    "description": "Cat_522600",
    "title": "Cat_522600",
    "link_img": "https://live.staticflickr.com/65535/50352584166_414f608fb8_o.jpg",
    "id_image": "Cat_522600",
    "count_view": 0
  },
  {
    "link_thumb": "https://live.staticflickr.com/65535/50352743322_86a09846aa_n.jpg",
    "id_album": "-462831703",
    "description": "Cat_522638",
    "title": "Cat_522638",
    "link_img": "https://live.staticflickr.com/65535/50352743322_aa5cbfc18b_o.jpg",
    "id_image": "Cat_522638",
    "count_view": 0
  },
  {
    "link_thumb": "https://live.staticflickr.com/65535/50352584531_64880723e1_n.jpg",
    "id_album": "-462831703",
    "description": "Cat_522982",
    "title": "Cat_522982",
    "link_img": "https://live.staticflickr.com/65535/50352584531_6e33e7ed2f_o.jpg",
    "id_image": "Cat_522982",
    "count_view": 0
  },
  {
    "link_thumb": "https://live.staticflickr.com/65535/50352584696_f41b91b642_n.jpg",
    "id_album": "-462831703",
    "description": "Cat_523262",
    "title": "Cat_523262",
    "link_img": "https://live.staticflickr.com/65535/50352584696_7859264e1d_o.jpg",
    "id_image": "Cat_523262",
    "count_view": 0
  },
  {
    "link_thumb": "https://live.staticflickr.com/65535/50352743982_96f2c9fc12_n.jpg",
    "id_album": "-462831703",
    "description": "Cat_523267",
    "title": "Cat_523267",
    "link_img": "https://live.staticflickr.com/65535/50352743982_d4290bf324_o.jpg",
    "id_image": "Cat_523267",
    "count_view": 0
  },
  {
    "link_thumb": "https://live.staticflickr.com/65535/50352585151_c502d2d9dd_n.jpg",
    "id_album": "-462831703",
    "description": "Cat_523589",
    "title": "Cat_523589",
    "link_img": "https://live.staticflickr.com/65535/50352585151_6d53534754_o.jpg",
    "id_image": "Cat_523589",
    "count_view": 0
  },
  {
    "link_thumb": "https://live.staticflickr.com/65535/50351888238_e750aa45c3_n.jpg",
    "id_album": "-462831703",
    "description": "Cat_523666",
    "title": "Cat_523666",
    "link_img": "https://live.staticflickr.com/65535/50351888238_22f0fddc55_o.jpg",
    "id_image": "Cat_523666",
    "count_view": 0
  },
  {
    "link_thumb": "https://live.staticflickr.com/65535/50351888483_d2835c823b_n.jpg",
    "id_album": "-462831703",
    "description": "Cat_523687",
    "title": "Cat_523687",
    "link_img": "https://live.staticflickr.com/65535/50351888483_122991d464_o.jpg",
    "id_image": "Cat_523687",
    "count_view": 0
  },
  {
    "link_thumb": "https://live.staticflickr.com/65535/50351888663_889430e4bf_n.jpg",
    "id_album": "-462831703",
    "description": "Cat_523769",
    "title": "Cat_523769",
    "link_img": "https://live.staticflickr.com/65535/50351888663_41184d72e5_o.jpg",
    "id_image": "Cat_523769",
    "count_view": 0
  },
  {
    "link_thumb": "https://live.staticflickr.com/65535/50352585881_af2f6db3c0_n.jpg",
    "id_album": "-462831703",
    "description": "Cat_524439",
    "title": "Cat_524439",
    "link_img": "https://live.staticflickr.com/65535/50352585881_79de7d59a4_o.jpg",
    "id_image": "Cat_524439",
    "count_view": 0
  },
  {
    "link_thumb": "https://live.staticflickr.com/65535/50352586101_ac457a1868_n.jpg",
    "id_album": "-462831703",
    "description": "Cat_524442",
    "title": "Cat_524442",
    "link_img": "https://live.staticflickr.com/65535/50352586101_a9b495c665_o.jpg",
    "id_image": "Cat_524442",
    "count_view": 0
  },
  {
    "link_thumb": "https://live.staticflickr.com/65535/50352586346_e4404684af_n.jpg",
    "id_album": "-462831703",
    "description": "Cat_524450",
    "title": "Cat_524450",
    "link_img": "https://live.staticflickr.com/65535/50352586346_54ed102269_o.jpg",
    "id_image": "Cat_524450",
    "count_view": 0
  },
  {
    "link_thumb": "https://live.staticflickr.com/65535/50352586571_773be5f796_n.jpg",
    "id_album": "-462831703",
    "description": "Cat_524523",
    "title": "Cat_524523",
    "link_img": "https://live.staticflickr.com/65535/50352586571_3cb86605f9_o.jpg",
    "id_image": "Cat_524523",
    "count_view": 0
  },
  {
    "link_thumb": "https://live.staticflickr.com/65535/50352586771_4aa8c7f653_n.jpg",
    "id_album": "-462831703",
    "description": "Cat_524574",
    "title": "Cat_524574",
    "link_img": "https://live.staticflickr.com/65535/50352586771_2e0d53bc86_o.jpg",
    "id_image": "Cat_524574",
    "count_view": 0
  },
  {
    "link_thumb": "https://live.staticflickr.com/65535/50351889988_ba57c639ec_n.jpg",
    "id_album": "-462831703",
    "description": "Cat_525799",
    "title": "Cat_525799",
    "link_img": "https://live.staticflickr.com/65535/50351889988_20b826414b_o.jpg",
    "id_image": "Cat_525799",
    "count_view": 0
  },
  {
    "link_thumb": "https://live.staticflickr.com/65535/50352587101_174d2a5e48_n.jpg",
    "id_album": "-462831703",
    "description": "Cat_526060",
    "title": "Cat_526060",
    "link_img": "https://live.staticflickr.com/65535/50352587101_2fd4a1edc7_o.jpg",
    "id_image": "Cat_526060",
    "count_view": 0
  },
  {
    "link_thumb": "https://live.staticflickr.com/65535/50352587326_1a30bebbc2_n.jpg",
    "id_album": "-462831703",
    "description": "Cat_526093",
    "title": "Cat_526093",
    "link_img": "https://live.staticflickr.com/65535/50352587326_4cfb04ee2d_o.jpg",
    "id_image": "Cat_526093",
    "count_view": 0
  },
  {
    "link_thumb": "https://live.staticflickr.com/65535/50351890493_1fc659829f_n.jpg",
    "id_album": "-462831703",
    "description": "Cat_526344",
    "title": "Cat_526344",
    "link_img": "https://live.staticflickr.com/65535/50351890493_33af40fc79_o.jpg",
    "id_image": "Cat_526344",
    "count_view": 0
  },
  {
    "link_thumb": "https://live.staticflickr.com/65535/50352587751_7daee38b47_n.jpg",
    "id_album": "-462831703",
    "description": "Cat_526588",
    "title": "Cat_526588",
    "link_img": "https://live.staticflickr.com/65535/50352587751_117f7102df_o.jpg",
    "id_image": "Cat_526588",
    "count_view": 0
  },
  {
    "link_thumb": "https://live.staticflickr.com/65535/50352587906_d442cdc0d2_n.jpg",
    "id_album": "-462831703",
    "description": "Cat_526681",
    "title": "Cat_526681",
    "link_img": "https://live.staticflickr.com/65535/50352587906_b082ba2fdb_o.jpg",
    "id_image": "Cat_526681",
    "count_view": 0
  },
  {
    "link_thumb": "https://live.staticflickr.com/65535/50352747432_b827165d57_n.jpg",
    "id_album": "-462831703",
    "description": "Cat_526830",
    "title": "Cat_526830",
    "link_img": "https://live.staticflickr.com/65535/50352747432_e6a62abb9c_o.jpg",
    "id_image": "Cat_526830",
    "count_view": 0
  },
  {
    "link_thumb": "https://live.staticflickr.com/65535/50351891363_5e32dabb8d_n.jpg",
    "id_album": "-462831703",
    "description": "Cat_526861",
    "title": "Cat_526861",
    "link_img": "https://live.staticflickr.com/65535/50351891363_990866786d_o.jpg",
    "id_image": "Cat_526861",
    "count_view": 0
  },
  {
    "link_thumb": "https://live.staticflickr.com/65535/50351891593_c6022f5742_n.jpg",
    "id_album": "-462831703",
    "description": "Cat_527486",
    "title": "Cat_527486",
    "link_img": "https://live.staticflickr.com/65535/50351891593_90ca217c81_o.jpg",
    "id_image": "Cat_527486",
    "count_view": 0
  },
  {
    "link_thumb": "https://live.staticflickr.com/65535/50352748142_da02651011_n.jpg",
    "id_album": "-462831703",
    "description": "Cat_527494",
    "title": "Cat_527494",
    "link_img": "https://live.staticflickr.com/65535/50352748142_b5155515ac_o.jpg",
    "id_image": "Cat_527494",
    "count_view": 0
  },
  {
    "link_thumb": "https://live.staticflickr.com/65535/50351892068_1bf1e8109c_n.jpg",
    "id_album": "-462831703",
    "description": "Cat_527832",
    "title": "Cat_527832",
    "link_img": "https://live.staticflickr.com/65535/50351892068_5bc986bb73_o.jpg",
    "id_image": "Cat_527832",
    "count_view": 0
  },
  {
    "link_thumb": "https://live.staticflickr.com/65535/50352589256_8dac003700_n.jpg",
    "id_album": "-462831703",
    "description": "Cat_527956",
    "title": "Cat_527956",
    "link_img": "https://live.staticflickr.com/65535/50352589256_e1e136a3cd_o.jpg",
    "id_image": "Cat_527956",
    "count_view": 0
  },
  {
    "link_thumb": "https://live.staticflickr.com/65535/50351892608_327f8ffda4_n.jpg",
    "id_album": "-462831703",
    "description": "Cat_528322",
    "title": "Cat_528322",
    "link_img": "https://live.staticflickr.com/65535/50351892608_1c313c819b_o.jpg",
    "id_image": "Cat_528322",
    "count_view": 0
  },
  {
    "link_thumb": "https://live.staticflickr.com/65535/50352589846_fd92805557_n.jpg",
    "id_album": "-462831703",
    "description": "Cat_529211",
    "title": "Cat_529211",
    "link_img": "https://live.staticflickr.com/65535/50352589846_5636929416_o.jpg",
    "id_image": "Cat_529211",
    "count_view": 0
  },
  {
    "link_thumb": "https://live.staticflickr.com/65535/50351893068_51b90b6113_n.jpg",
    "id_album": "-462831703",
    "description": "Cat_529294",
    "title": "Cat_529294",
    "link_img": "https://live.staticflickr.com/65535/50351893068_68c53104e7_o.jpg",
    "id_image": "Cat_529294",
    "count_view": 0
  },
  {
    "link_thumb": "https://live.staticflickr.com/65535/50351893268_c902be6afa_n.jpg",
    "id_album": "-462831703",
    "description": "Cat_529341",
    "title": "Cat_529341",
    "link_img": "https://live.staticflickr.com/65535/50351893268_8e48258533_o.jpg",
    "id_image": "Cat_529341",
    "count_view": 0
  },
  {
    "link_thumb": "https://live.staticflickr.com/65535/50352590386_4c41a794d4_n.jpg",
    "id_album": "-462831703",
    "description": "Cat_529355",
    "title": "Cat_529355",
    "link_img": "https://live.staticflickr.com/65535/50352590386_ff31ba8815_o.jpg",
    "id_image": "Cat_529355",
    "count_view": 0
  },
  {
    "link_thumb": "https://live.staticflickr.com/65535/50352750002_81dc5c149c_n.jpg",
    "id_album": "-462831703",
    "description": "Cat_529445",
    "title": "Cat_529445",
    "link_img": "https://live.staticflickr.com/65535/50352750002_d63dfef815_o.jpg",
    "id_image": "Cat_529445",
    "count_view": 0
  },
  {
    "link_thumb": "https://live.staticflickr.com/65535/50351893933_8a22cfd4be_n.jpg",
    "id_album": "-462831703",
    "description": "Cat_529605",
    "title": "Cat_529605",
    "link_img": "https://live.staticflickr.com/65535/50351893933_624a38b49c_o.jpg",
    "id_image": "Cat_529605",
    "count_view": 0
  },
  {
    "link_thumb": "https://live.staticflickr.com/65535/50352591086_687c27efa7_n.jpg",
    "id_album": "-462831703",
    "description": "Cat_529609",
    "title": "Cat_529609",
    "link_img": "https://live.staticflickr.com/65535/50352591086_05bd6ac567_o.jpg",
    "id_image": "Cat_529609",
    "count_view": 0
  },
  {
    "link_thumb": "https://live.staticflickr.com/65535/50352591321_4984534692_n.jpg",
    "id_album": "-462831703",
    "description": "Cat_530238",
    "title": "Cat_530238",
    "link_img": "https://live.staticflickr.com/65535/50352591321_e34737a726_o.jpg",
    "id_image": "Cat_530238",
    "count_view": 0
  },
  {
    "link_thumb": "https://live.staticflickr.com/65535/50352591566_3375586e5c_n.jpg",
    "id_album": "-462831703",
    "description": "Cat_530604",
    "title": "Cat_530604",
    "link_img": "https://live.staticflickr.com/65535/50352591566_d5f97505a6_o.jpg",
    "id_image": "Cat_530604",
    "count_view": 0
  },
  {
    "link_thumb": "https://live.staticflickr.com/65535/50352750992_5b5690a21d_n.jpg",
    "id_album": "-462831703",
    "description": "Cat_531362",
    "title": "Cat_531362",
    "link_img": "https://live.staticflickr.com/65535/50352750992_4355d5cce1_o.jpg",
    "id_image": "Cat_531362",
    "count_view": 0
  },
  {
    "link_thumb": "https://live.staticflickr.com/65535/50352592221_e72a5c5c4c_n.jpg",
    "id_album": "-462831703",
    "description": "Cat_531427",
    "title": "Cat_531427",
    "link_img": "https://live.staticflickr.com/65535/50352592221_368f75d5f6_o.jpg",
    "id_image": "Cat_531427",
    "count_view": 0
  },
  {
    "link_thumb": "https://live.staticflickr.com/65535/50351895203_9b7f812541_n.jpg",
    "id_album": "-462831703",
    "description": "Cat_533002",
    "title": "Cat_533002",
    "link_img": "https://live.staticflickr.com/65535/50351895203_42354cbe63_o.jpg",
    "id_image": "Cat_533002",
    "count_view": 0
  },
  {
    "link_thumb": "https://live.staticflickr.com/65535/50352751792_38f2551fc6_n.jpg",
    "id_album": "-462831703",
    "description": "Cat_533625",
    "title": "Cat_533625",
    "link_img": "https://live.staticflickr.com/65535/50352751792_e43fd95f4e_o.jpg",
    "id_image": "Cat_533625",
    "count_view": 0
  },
  {
    "link_thumb": "https://live.staticflickr.com/65535/50352751967_172f659878_n.jpg",
    "id_album": "-462831703",
    "description": "Cat_533991",
    "title": "Cat_533991",
    "link_img": "https://live.staticflickr.com/65535/50352751967_7ff1a359ef_o.jpg",
    "id_image": "Cat_533991",
    "count_view": 0
  },
  {
    "link_thumb": "https://live.staticflickr.com/65535/50351895778_7eb7880e2b_n.jpg",
    "id_album": "-462831703",
    "description": "Cat_534025",
    "title": "Cat_534025",
    "link_img": "https://live.staticflickr.com/65535/50351895778_1d2702c44f_o.jpg",
    "id_image": "Cat_534025",
    "count_view": 0
  },
  {
    "link_thumb": "https://live.staticflickr.com/65535/50351896023_9617d9a955_n.jpg",
    "id_album": "-462831703",
    "description": "Cat_534026",
    "title": "Cat_534026",
    "link_img": "https://live.staticflickr.com/65535/50351896023_21e5d3cda4_o.jpg",
    "id_image": "Cat_534026",
    "count_view": 0
  },
  {
    "link_thumb": "https://live.staticflickr.com/65535/50352593251_db3e4730a7_n.jpg",
    "id_album": "-462831703",
    "description": "Cat_534108",
    "title": "Cat_534108",
    "link_img": "https://live.staticflickr.com/65535/50352593251_6285df5c31_o.jpg",
    "id_image": "Cat_534108",
    "count_view": 0
  },
  {
    "link_thumb": "https://live.staticflickr.com/65535/50352593421_9feef7b295_n.jpg",
    "id_album": "-462831703",
    "description": "Cat_534770",
    "title": "Cat_534770",
    "link_img": "https://live.staticflickr.com/65535/50352593421_1fb3acb50f_o.jpg",
    "id_image": "Cat_534770",
    "count_view": 0
  },
  {
    "link_thumb": "https://live.staticflickr.com/65535/50351896578_e317d32c22_n.jpg",
    "id_album": "-462831703",
    "description": "Cat_535167",
    "title": "Cat_535167",
    "link_img": "https://live.staticflickr.com/65535/50351896578_1d2bac062e_o.jpg",
    "id_image": "Cat_535167",
    "count_view": 0
  },
  {
    "link_thumb": "https://live.staticflickr.com/65535/50351896853_f9e1b31431_n.jpg",
    "id_album": "-462831703",
    "description": "Cat_535309",
    "title": "Cat_535309",
    "link_img": "https://live.staticflickr.com/65535/50351896853_4ffd1f97ba_o.jpg",
    "id_image": "Cat_535309",
    "count_view": 0
  },
  {
    "link_thumb": "https://live.staticflickr.com/65535/50352753452_6240dec44a_n.jpg",
    "id_album": "-462831703",
    "description": "Cat_535310",
    "title": "Cat_535310",
    "link_img": "https://live.staticflickr.com/65535/50352753452_88eebbda33_o.jpg",
    "id_image": "Cat_535310",
    "count_view": 0
  },
  {
    "link_thumb": "https://live.staticflickr.com/65535/50351897258_b91b3f19a5_n.jpg",
    "id_album": "-462831703",
    "description": "Cat_535320",
    "title": "Cat_535320",
    "link_img": "https://live.staticflickr.com/65535/50351897258_538b1d8222_o.jpg",
    "id_image": "Cat_535320",
    "count_view": 0
  },
  {
    "link_thumb": "https://live.staticflickr.com/65535/50352594381_07d053dc63_n.jpg",
    "id_album": "-462831703",
    "description": "Cat_535387",
    "title": "Cat_535387",
    "link_img": "https://live.staticflickr.com/65535/50352594381_8128fa5dda_o.jpg",
    "id_image": "Cat_535387",
    "count_view": 0
  },
  {
    "link_thumb": "https://live.staticflickr.com/65535/50351897603_9ffbcc051c_n.jpg",
    "id_album": "-462831703",
    "description": "Cat_536190",
    "title": "Cat_536190",
    "link_img": "https://live.staticflickr.com/65535/50351897603_560b7ed67b_o.jpg",
    "id_image": "Cat_536190",
    "count_view": 0
  },
  {
    "link_thumb": "https://live.staticflickr.com/65535/50352594706_a7a85b8279_n.jpg",
    "id_album": "-462831703",
    "description": "Cat_536223",
    "title": "Cat_536223",
    "link_img": "https://live.staticflickr.com/65535/50352594706_eec2b08106_o.jpg",
    "id_image": "Cat_536223",
    "count_view": 0
  },
  {
    "link_thumb": "https://live.staticflickr.com/65535/50351897993_b81f67fdc0_n.jpg",
    "id_album": "-462831703",
    "description": "Cat_538061",
    "title": "Cat_538061",
    "link_img": "https://live.staticflickr.com/65535/50351897993_0a1eae9c0b_o.jpg",
    "id_image": "Cat_538061",
    "count_view": 0
  },
  {
    "link_thumb": "https://live.staticflickr.com/65535/50352754797_00321b5881_n.jpg",
    "id_album": "-462831703",
    "description": "Cat_542674",
    "title": "Cat_542674",
    "link_img": "https://live.staticflickr.com/65535/50352754797_6b08a0dd4f_o.jpg",
    "id_image": "Cat_542674",
    "count_view": 0
  },
  {
    "link_thumb": "https://live.staticflickr.com/65535/50351898523_b0ee650655_n.jpg",
    "id_album": "-462831703",
    "description": "Cat_543341",
    "title": "Cat_543341",
    "link_img": "https://live.staticflickr.com/65535/50351898523_0146b9bc31_o.jpg",
    "id_image": "Cat_543341",
    "count_view": 0
  },
  {
    "link_thumb": "https://live.staticflickr.com/65535/50352595591_c75d8b2498_n.jpg",
    "id_album": "-462831703",
    "description": "Cat_543749",
    "title": "Cat_543749",
    "link_img": "https://live.staticflickr.com/65535/50352595591_d90ae2917a_o.jpg",
    "id_image": "Cat_543749",
    "count_view": 0
  },
  {
    "link_thumb": "https://live.staticflickr.com/65535/50352595961_51f488c0b8_n.jpg",
    "id_album": "-462831703",
    "description": "Cat_544010",
    "title": "Cat_544010",
    "link_img": "https://live.staticflickr.com/65535/50352595961_8d42aa3922_o.jpg",
    "id_image": "Cat_544010",
    "count_view": 0
  },
  {
    "link_thumb": "https://live.staticflickr.com/65535/50351899378_f65a711467_n.jpg",
    "id_album": "-462831703",
    "description": "Cat_544011",
    "title": "Cat_544011",
    "link_img": "https://live.staticflickr.com/65535/50351899378_1af14faaf3_o.jpg",
    "id_image": "Cat_544011",
    "count_view": 0
  },
  {
    "link_thumb": "https://live.staticflickr.com/65535/50351899978_8f2b3b9b54_n.jpg",
    "id_album": "-462831703",
    "description": "Cat_546886",
    "title": "Cat_546886",
    "link_img": "https://live.staticflickr.com/65535/50351899978_cd8bec8d7c_o.jpg",
    "id_image": "Cat_546886",
    "count_view": 0
  },
  {
    "link_thumb": "https://live.staticflickr.com/65535/50352756362_6a332c7fdd_n.jpg",
    "id_album": "-462831703",
    "description": "Cat_547192",
    "title": "Cat_547192",
    "link_img": "https://live.staticflickr.com/65535/50352756362_416211cd5f_o.jpg",
    "id_image": "Cat_547192",
    "count_view": 0
  },
  {
    "link_thumb": "https://live.staticflickr.com/65535/50352597106_6d32c89c9d_n.jpg",
    "id_album": "-462831703",
    "description": "Cat_547462",
    "title": "Cat_547462",
    "link_img": "https://live.staticflickr.com/65535/50352597106_845f6d2492_o.jpg",
    "id_image": "Cat_547462",
    "count_view": 0
  },
  {
    "link_thumb": "https://live.staticflickr.com/65535/50352756857_ab4ecb8e0a_n.jpg",
    "id_album": "-462831703",
    "description": "Cat_547951",
    "title": "Cat_547951",
    "link_img": "https://live.staticflickr.com/65535/50352756857_8ee5a8b4e2_o.jpg",
    "id_image": "Cat_547951",
    "count_view": 0
  },
  {
    "link_thumb": "https://live.staticflickr.com/65535/50351900848_56deedac48_n.jpg",
    "id_album": "-462831703",
    "description": "Cat_548282",
    "title": "Cat_548282",
    "link_img": "https://live.staticflickr.com/65535/50351900848_f83da54f21_o.jpg",
    "id_image": "Cat_548282",
    "count_view": 0
  },
  {
    "link_thumb": "https://live.staticflickr.com/65535/50352597646_7133ffddd2_n.jpg",
    "id_album": "-462831703",
    "description": "Cat_548283",
    "title": "Cat_548283",
    "link_img": "https://live.staticflickr.com/65535/50352597646_118476a126_o.jpg",
    "id_image": "Cat_548283",
    "count_view": 0
  },
  {
    "link_thumb": "https://live.staticflickr.com/65535/50352597821_d6c86170c6_n.jpg",
    "id_album": "-462831703",
    "description": "Cat_548284",
    "title": "Cat_548284",
    "link_img": "https://live.staticflickr.com/65535/50352597821_78b2c51cc1_o.jpg",
    "id_image": "Cat_548284",
    "count_view": 0
  },
  {
    "link_thumb": "https://live.staticflickr.com/65535/50351901198_ffc668ebb2_n.jpg",
    "id_album": "-462831703",
    "description": "Cat_548285",
    "title": "Cat_548285",
    "link_img": "https://live.staticflickr.com/65535/50351901198_e85d1f5744_o.jpg",
    "id_image": "Cat_548285",
    "count_view": 0
  },
  {
    "link_thumb": "https://live.staticflickr.com/65535/50352598166_f243ec43df_n.jpg",
    "id_album": "-462831703",
    "description": "Cat_548649",
    "title": "Cat_548649",
    "link_img": "https://live.staticflickr.com/65535/50352598166_e156807738_o.jpg",
    "id_image": "Cat_548649",
    "count_view": 0
  },
  {
    "link_thumb": "https://live.staticflickr.com/65535/50352598336_e02ecec03e_n.jpg",
    "id_album": "-462831703",
    "description": "Cat_548650",
    "title": "Cat_548650",
    "link_img": "https://live.staticflickr.com/65535/50352598336_b6256cbe3a_o.jpg",
    "id_image": "Cat_548650",
    "count_view": 0
  },
  {
    "link_thumb": "https://live.staticflickr.com/65535/50351901828_d9d5432440_n.jpg",
    "id_album": "-462831703",
    "description": "Cat_548658",
    "title": "Cat_548658",
    "link_img": "https://live.staticflickr.com/65535/50351901828_3302ff7d5e_o.jpg",
    "id_image": "Cat_548658",
    "count_view": 0
  },
  {
    "link_thumb": "https://live.staticflickr.com/65535/50351902298_25e610ba41_n.jpg",
    "id_album": "-462831703",
    "description": "Cat_548728",
    "title": "Cat_548728",
    "link_img": "https://live.staticflickr.com/65535/50351902298_e754c0a830_o.jpg",
    "id_image": "Cat_548728",
    "count_view": 0
  },
  {
    "link_thumb": "https://live.staticflickr.com/65535/50351902523_06c07386dc_n.jpg",
    "id_album": "-462831703",
    "description": "Cat_548758",
    "title": "Cat_548758",
    "link_img": "https://live.staticflickr.com/65535/50351902523_1d31d822bf_o.jpg",
    "id_image": "Cat_548758",
    "count_view": 0
  },
  {
    "link_thumb": "https://live.staticflickr.com/65535/50352599676_dd16694fd9_n.jpg",
    "id_album": "-462831703",
    "description": "Cat_548970",
    "title": "Cat_548970",
    "link_img": "https://live.staticflickr.com/65535/50352599676_b1fcbe09b5_o.jpg",
    "id_image": "Cat_548970",
    "count_view": 0
  },
  {
    "link_thumb": "https://live.staticflickr.com/65535/50352759672_809170ed2a_n.jpg",
    "id_album": "-462831703",
    "description": "Cat_548971",
    "title": "Cat_548971",
    "link_img": "https://live.staticflickr.com/65535/50352759672_ee2e5f92e0_o.jpg",
    "id_image": "Cat_548971",
    "count_view": 0
  },
  {
    "link_thumb": "https://live.staticflickr.com/65535/50352600316_5cf74ca0a4_n.jpg",
    "id_album": "-462831703",
    "description": "Cat_548972",
    "title": "Cat_548972",
    "link_img": "https://live.staticflickr.com/65535/50352600316_c5bedb8764_o.jpg",
    "id_image": "Cat_548972",
    "count_view": 0
  },
  {
    "link_thumb": "https://live.staticflickr.com/65535/50352760317_1d9486555b_n.jpg",
    "id_album": "-462831703",
    "description": "Cat_548973",
    "title": "Cat_548973",
    "link_img": "https://live.staticflickr.com/65535/50352760317_49a3f57ca1_o.jpg",
    "id_image": "Cat_548973",
    "count_view": 0
  },
  {
    "link_thumb": "https://live.staticflickr.com/65535/50352600931_8dc30dbf5f_n.jpg",
    "id_album": "-462831703",
    "description": "Cat_548974",
    "title": "Cat_548974",
    "link_img": "https://live.staticflickr.com/65535/50352600931_53ae8fe42b_o.jpg",
    "id_image": "Cat_548974",
    "count_view": 0
  },
  {
    "link_thumb": "https://live.staticflickr.com/65535/50352760832_45c53fabde_n.jpg",
    "id_album": "-462831703",
    "description": "Cat_548975",
    "title": "Cat_548975",
    "link_img": "https://live.staticflickr.com/65535/50352760832_9987c49285_o.jpg",
    "id_image": "Cat_548975",
    "count_view": 0
  },
  {
    "link_thumb": "https://live.staticflickr.com/65535/50352761377_4e190db860_n.jpg",
    "id_album": "-462831703",
    "description": "Cat_548986",
    "title": "Cat_548986",
    "link_img": "https://live.staticflickr.com/65535/50352761377_df1e8f42ea_o.jpg",
    "id_image": "Cat_548986",
    "count_view": 0
  },
  {
    "link_thumb": "https://live.staticflickr.com/65535/50352602056_57fded3438_n.jpg",
    "id_album": "-462831703",
    "description": "Cat_548987",
    "title": "Cat_548987",
    "link_img": "https://live.staticflickr.com/65535/50352602056_01ea2c20e7_o.jpg",
    "id_image": "Cat_548987",
    "count_view": 0
  }
]