[
  {
    "link_thumb": "https://live.staticflickr.com/65535/50352618837_a88d531223_n.jpg",
    "id_album": "-462831703",
    "description": "Cat_353994",
    "title": "Cat_353994",
    "link_img": "https://live.staticflickr.com/65535/50352618837_fd3af73fb7_o.jpg",
    "id_image": "Cat_353994",
    "count_view": 0
  },
  {
    "link_thumb": "https://live.staticflickr.com/65535/50352858247_e92933eed8_n.jpg",
    "id_album": "-462831702",
    "description": "Cat_20927",
    "title": "Cat_20927",
    "link_img": "https://live.staticflickr.com/65535/50352858247_b6eeccbf2e_o.jpg",
    "id_image": "Cat_20927",
    "count_view": 0
  },
  {
    "link_thumb": "https://live.staticflickr.com/65535/50020141846_1210a1563f_n.jpg",
    "id_album": "-149330232",
    "description": "Dog_195037",
    "title": "Dog_195037",
    "link_img": "https://live.staticflickr.com/65535/50020141846_73ac5e94b0_o.jpg",
    "id_image": "Dog_195037",
    "count_view": 0
  },
  {
    "link_thumb": "https://live.staticflickr.com/65535/50023182481_4c489b3193_n.jpg",
    "id_album": "-434874555",
    "description": "RainbowLorikeet_836843",
    "title": "RainbowLorikeet_836843",
    "link_img": "https://live.staticflickr.com/65535/50023182481_2f9a91e677_o.jpg",
    "id_image": "RainbowLorikeet_836843",
    "count_view": 0
  },
  {
    "link_thumb": "https://live.staticflickr.com/65535/50020088836_ff841e1841_n.jpg",
    "id_album": "297232732",
    "description": "Dinosaur_418783",
    "title": "Dinosaur_418783",
    "link_img": "https://live.staticflickr.com/65535/50020088836_e29242e6f3_o.jpg",
    "id_image": "Dinosaur_418783",
    "count_view": 0
  },
  {
    "link_thumb": "https://live.staticflickr.com/65535/50022159856_79b8c2b27c_n.jpg",
    "id_album": "1894617400",
    "description": "Lynx_767675",
    "title": "Lynx_767675",
    "link_img": "https://live.staticflickr.com/65535/50022159856_0173b10649_o.jpg",
    "id_image": "Lynx_767675",
    "count_view": 0
  },
  {
    "link_thumb": "https://live.staticflickr.com/65535/50018116486_86e4676c7e_n.jpg",
    "id_album": "-462831702",
    "description": "Cat_386166",
    "title": "Cat_386166",
    "link_img": "https://live.staticflickr.com/65535/50018116486_2bdf37f904_o.jpg",
    "id_image": "Cat_386166",
    "count_view": 0
  },
  {
    "link_thumb": "https://live.staticflickr.com/65535/50020698676_33ae86d65c_n.jpg",
    "id_album": "-39098563",
    "description": "Eagle_361503",
    "title": "Eagle_361503",
    "link_img": "https://live.staticflickr.com/65535/50020698676_ab96e7e45a_o.jpg",
    "id_image": "Eagle_361503",
    "count_view": 0
  },
  {
    "link_thumb": "https://live.staticflickr.com/65535/50019918581_3d7d16c723_n.jpg",
    "id_album": "1273365283",
    "description": "Cute_247940",
    "title": "Cute_247940",
    "link_img": "https://live.staticflickr.com/65535/50019918581_50c3b36ca5_o.jpg",
    "id_image": "Cute_247940",
    "count_view": 0
  },
  {
    "link_thumb": "https://live.staticflickr.com/65535/50019706867_125432f4f1_n.jpg",
    "id_album": "-462831705",
    "description": "Cat_91394",
    "title": "Cat_91394",
    "link_img": "https://live.staticflickr.com/65535/50019706867_1ba8b14c94_o.jpg",
    "id_image": "Cat_91394",
    "count_view": 0
  },
  {
    "link_thumb": "https://live.staticflickr.com/65535/50024277312_b88c816d33_n.jpg",
    "id_album": "1579675410",
    "description": "Swan_898708",
    "title": "Swan_898708",
    "link_img": "https://live.staticflickr.com/65535/50024277312_d0bb278369_o.jpg",
    "id_image": "Swan_898708",
    "count_view": 0
  },
  {
    "link_thumb": "https://live.staticflickr.com/65535/50017924722_809fce889a_n.jpg",
    "id_album": "-401151552",
    "description": "Butterfly_773527",
    "title": "Butterfly_773527",
    "link_img": "https://live.staticflickr.com/65535/50017924722_00a38538f1_o.jpg",
    "id_image": "Butterfly_773527",
    "count_view": 0
  },
  {
    "link_thumb": "https://live.staticflickr.com/65535/50020497648_cfbb74fe8c_n.jpg",
    "id_album": "704811092",
    "description": "FrenchBulldog_431477",
    "title": "FrenchBulldog_431477",
    "link_img": "https://live.staticflickr.com/65535/50020497648_64f916d385_o.jpg",
    "id_image": "FrenchBulldog_431477",
    "count_view": 0
  },
  {
    "link_thumb": "https://live.staticflickr.com/65535/50016921353_25f3255e7f_n.jpg",
    "id_album": "-1561645279",
    "description": "BlackPanther_276076",
    "title": "BlackPanther_276076",
    "link_img": "https://live.staticflickr.com/65535/50016921353_b3a0ac6f80_o.jpg",
    "id_image": "BlackPanther_276076",
    "count_view": 0
  },
  {
    "link_thumb": "https://live.staticflickr.com/65535/50022397853_ab990d1674_n.jpg",
    "id_album": "-1431524681",
    "description": "Pug_256974",
    "title": "Pug_256974",
    "link_img": "https://live.staticflickr.com/65535/50022397853_b23d0c9e57_o.jpg",
    "id_image": "Pug_256974",
    "count_view": 0
  },
  {
    "link_thumb": "https://live.staticflickr.com/65535/50017778752_fc2af66e54_n.jpg",
    "id_album": "1696155652",
    "description": "Boxer_369713",
    "title": "Boxer_369713",
    "link_img": "https://live.staticflickr.com/65535/50017778752_a49fbd2c76_o.jpg",
    "id_image": "Boxer_369713",
    "count_view": 0
  },
  {
    "link_thumb": "https://live.staticflickr.com/65535/50021353936_f5c55aabd6_n.jpg",
    "id_album": "2060159334",
    "description": "GoldenRetriever_668919",
    "title": "GoldenRetriever_668919",
    "link_img": "https://live.staticflickr.com/65535/50021353936_05466e5f56_o.jpg",
    "id_image": "GoldenRetriever_668919",
    "count_view": 0
  },
  {
    "link_thumb": "https://live.staticflickr.com/65535/50023648243_9cec0e40de_n.jpg",
    "id_album": "405170427",
    "description": "Tiger_696239",
    "title": "Tiger_696239",
    "link_img": "https://live.staticflickr.com/65535/50023648243_61eca2d040_o.jpg",
    "id_image": "Tiger_696239",
    "count_view": 0
  },
  {
    "link_thumb": "https://live.staticflickr.com/65535/50021288478_65f46eafc6_n.jpg",
    "id_album": "1307335982",
    "description": "LabradorRetriever_696232",
    "title": "LabradorRetriever_696232",
    "link_img": "https://live.staticflickr.com/65535/50021288478_e8e6376e26_o.jpg",
    "id_image": "LabradorRetriever_696232",
    "count_view": 0
  },
  {
    "link_thumb": "https://live.staticflickr.com/65535/50021164453_332baa7d0b_n.jpg",
    "id_album": "1658866795",
    "description": "Insect_574452",
    "title": "Insect_574452",
    "link_img": "https://live.staticflickr.com/65535/50021164453_c86e296438_o.jpg",
    "id_image": "Insect_574452",
    "count_view": 0
  },
  {
    "link_thumb": "https://live.staticflickr.com/65535/50021340038_c043e60fb5_n.jpg",
    "id_album": "1392348450",
    "description": "Leopard_103119",
    "title": "Leopard_103119",
    "link_img": "https://live.staticflickr.com/65535/50021340038_db07e38560_o.jpg",
    "id_image": "Leopard_103119",
    "count_view": 0
  },
  {
    "link_thumb": "https://live.staticflickr.com/65535/50017793132_e8f7eb4892_n.jpg",
    "id_album": "-401151552",
    "description": "Butterfly_110342",
    "title": "Butterfly_110342",
    "link_img": "https://live.staticflickr.com/65535/50017793132_d4fa033995_o.jpg",
    "id_image": "Butterfly_110342",
    "count_view": 0
  },
  {
    "link_thumb": "https://live.staticflickr.com/65535/50352629826_5e96e5fb93_n.jpg",
    "id_album": "-462831703",
    "description": "Cat_637258",
    "title": "Cat_637258",
    "link_img": "https://live.staticflickr.com/65535/50352629826_d49b009789_o.jpg",
    "id_image": "Cat_637258",
    "count_view": 0
  },
  {
    "link_thumb": "https://live.staticflickr.com/65535/50022918458_cbf7e78cc4_n.jpg",
    "id_album": "-1596347105",
    "description": "Shark_786477",
    "title": "Shark_786477",
    "link_img": "https://live.staticflickr.com/65535/50022918458_b855282463_o.jpg",
    "id_image": "Shark_786477",
    "count_view": 0
  },
  {
    "link_thumb": "https://live.staticflickr.com/65535/50019348036_0e7acf62a1_n.jpg",
    "id_album": "-462831705",
    "description": "Cat_86699",
    "title": "Cat_86699",
    "link_img": "https://live.staticflickr.com/65535/50019348036_8a3860976a_o.jpg",
    "id_image": "Cat_86699",
    "count_view": 0
  },
  {
    "link_thumb": "https://live.staticflickr.com/65535/50019934023_561f2b29f9_n.jpg",
    "id_album": "-149330231",
    "description": "Dog_595631",
    "title": "Dog_595631",
    "link_img": "https://live.staticflickr.com/65535/50019934023_a48292b082_o.jpg",
    "id_image": "Dog_595631",
    "count_view": 0
  },
  {
    "link_thumb": "https://live.staticflickr.com/65535/50021263417_2d2a3478b3_n.jpg",
    "id_album": "-128218148",
    "description": "Fox_829907",
    "title": "Fox_829907",
    "link_img": "https://live.staticflickr.com/65535/50021263417_154e628e98_o.jpg",
    "id_image": "Fox_829907",
    "count_view": 0
  },
  {
    "link_thumb": "https://live.staticflickr.com/65535/50017821566_8db855e1fa_n.jpg",
    "id_album": "-462831705",
    "description": "Cat_181055",
    "title": "Cat_181055",
    "link_img": "https://live.staticflickr.com/65535/50017821566_f6b8f52cc3_o.jpg",
    "id_image": "Cat_181055",
    "count_view": 0
  },
  {
    "link_thumb": "https://live.staticflickr.com/65535/50023391322_31b173ca5e_n.jpg",
    "id_album": "-1940643173",
    "description": "Rabbit_917721",
    "title": "Rabbit_917721",
    "link_img": "https://live.staticflickr.com/65535/50023391322_7eb020d01a_o.jpg",
    "id_image": "Rabbit_917721",
    "count_view": 0
  },
  {
    "link_thumb": "https://live.staticflickr.com/65535/50019762386_cd211e29cf_n.jpg",
    "id_album": "791455625",
    "description": "Chipmunk_514151",
    "title": "Chipmunk_514151",
    "link_img": "https://live.staticflickr.com/65535/50019762386_ed4fa72001_o.jpg",
    "id_image": "Chipmunk_514151",
    "count_view": 0
  },
  {
    "link_thumb": "https://live.staticflickr.com/65535/50023611957_e522ec56f9_n.jpg",
    "id_album": "1656131695",
    "description": "Seagull_351112",
    "title": "Seagull_351112",
    "link_img": "https://live.staticflickr.com/65535/50023611957_926d6d7fe6_o.jpg",
    "id_image": "Seagull_351112",
    "count_view": 0
  },
  {
    "link_thumb": "https://live.staticflickr.com/65535/50020809946_7812378679_n.jpg",
    "id_album": "822895535",
    "description": "Falcon_384994",
    "title": "Falcon_384994",
    "link_img": "https://live.staticflickr.com/65535/50020809946_4b0af7e2f4_o.jpg",
    "id_image": "Falcon_384994",
    "count_view": 0
  },
  {
    "link_thumb": "https://live.staticflickr.com/65535/50019399783_8760545101_n.jpg",
    "id_album": "1273365283",
    "description": "Cute_282687",
    "title": "Cute_282687",
    "link_img": "https://live.staticflickr.com/65535/50019399783_cfc7d22a72_o.jpg",
    "id_image": "Cute_282687",
    "count_view": 0
  },
  {
    "link_thumb": "https://live.staticflickr.com/65535/50020767457_d2776df5df_n.jpg",
    "id_album": "-149330231",
    "description": "Dog_772244",
    "title": "Dog_772244",
    "link_img": "https://live.staticflickr.com/65535/50020767457_1921d4a0d5_o.jpg",
    "id_image": "Dog_772244",
    "count_view": 0
  },
  {
    "link_thumb": "https://live.staticflickr.com/65535/50017085386_4f72f9b8fc_n.jpg",
    "id_album": "-422187261",
    "description": "Bear_817554",
    "title": "Bear_817554",
    "link_img": "https://live.staticflickr.com/65535/50017085386_b01d66a2e3_o.jpg",
    "id_image": "Bear_817554",
    "count_view": 0
  },
  {
    "link_thumb": "https://live.staticflickr.com/65535/50020783263_78ab1a29bd_n.jpg",
    "id_album": "713572662",
    "description": "Giraffe_424158",
    "title": "Giraffe_424158",
    "link_img": "https://live.staticflickr.com/65535/50020783263_b794a07475_o.jpg",
    "id_image": "Giraffe_424158",
    "count_view": 0
  },
  {
    "link_thumb": "https://live.staticflickr.com/65535/50019970118_df2aeffba1_n.jpg",
    "id_album": "-149330231",
    "description": "Dog_742810",
    "title": "Dog_742810",
    "link_img": "https://live.staticflickr.com/65535/50019970118_9bd37f325e_o.jpg",
    "id_image": "Dog_742810",
    "count_view": 0
  },
  {
    "link_thumb": "https://live.staticflickr.com/65535/50019186381_ec93357d18_n.jpg",
    "id_album": "-462831702",
    "description": "Cat_431987",
    "title": "Cat_431987",
    "link_img": "https://live.staticflickr.com/65535/50019186381_e2aa5e72c4_o.jpg",
    "id_image": "Cat_431987",
    "count_view": 0
  },
  {
    "link_thumb": "https://live.staticflickr.com/65535/50022006857_41d6665bd6_n.jpg",
    "id_album": "665694624",
    "description": "JapaneseMacaque_668975",
    "title": "JapaneseMacaque_668975",
    "link_img": "https://live.staticflickr.com/65535/50022006857_ed2cbb9553_o.jpg",
    "id_image": "JapaneseMacaque_668975",
    "count_view": 0
  },
  {
    "link_thumb": "https://live.staticflickr.com/65535/50352015438_8bf8b63633_n.jpg",
    "id_album": "-462831702",
    "description": "Cat_99298",
    "title": "Cat_99298",
    "link_img": "https://live.staticflickr.com/65535/50352015438_c67803ba9a_o.jpg",
    "id_image": "Cat_99298",
    "count_view": 0
  },
  {
    "link_thumb": "https://live.staticflickr.com/65535/50352449551_7059c138f5_n.jpg",
    "id_album": "-462831703",
    "description": "Cat_270867",
    "title": "Cat_270867",
    "link_img": "https://live.staticflickr.com/65535/50352449551_b093e0125f_o.jpg",
    "id_image": "Cat_270867",
    "count_view": 0
  },
  {
    "link_thumb": "https://live.staticflickr.com/65535/50017249487_ef9faac191_n.jpg",
    "id_album": "809937717",
    "description": "Beagle_526878",
    "title": "Beagle_526878",
    "link_img": "https://live.staticflickr.com/65535/50017249487_40953e4306_o.jpg",
    "id_image": "Beagle_526878",
    "count_view": 0
  },
  {
    "link_thumb": "https://live.staticflickr.com/65535/50016832051_0d22bf7d3d_n.jpg",
    "id_album": "-1741290715",
    "description": "Ant_379664",
    "title": "Ant_379664",
    "link_img": "https://live.staticflickr.com/65535/50016832051_685932de99_o.jpg",
    "id_image": "Ant_379664",
    "count_view": 0
  },
  {
    "link_thumb": "https://live.staticflickr.com/65535/50016599733_5690280920_n.jpg",
    "id_album": "1699594607",
    "description": "Bee_344795",
    "title": "Bee_344795",
    "link_img": "https://live.staticflickr.com/65535/50016599733_1b99981a72_o.jpg",
    "id_image": "Bee_344795",
    "count_view": 0
  },
  {
    "link_thumb": "https://live.staticflickr.com/65535/50022874102_efefaedf05_n.jpg",
    "id_album": "1146438617",
    "description": "Pelican_351541",
    "title": "Pelican_351541",
    "link_img": "https://live.staticflickr.com/65535/50022874102_f01832df00_o.jpg",
    "id_image": "Pelican_351541",
    "count_view": 0
  },
  {
    "link_thumb": "https://live.staticflickr.com/65535/50021427996_b2548136db_n.jpg",
    "id_album": "1469520430",
    "description": "Hedgehog_272609",
    "title": "Hedgehog_272609",
    "link_img": "https://live.staticflickr.com/65535/50021427996_68d6343c86_o.jpg",
    "id_image": "Hedgehog_272609",
    "count_view": 0
  },
  {
    "link_thumb": "https://live.staticflickr.com/65535/50018122996_869b18cd11_n.jpg",
    "id_album": "-462831702",
    "description": "Cat_390955",
    "title": "Cat_390955",
    "link_img": "https://live.staticflickr.com/65535/50018122996_71f46274e9_o.jpg",
    "id_image": "Cat_390955",
    "count_view": 0
  },
  {
    "link_thumb": "https://live.staticflickr.com/65535/50020479062_6708984f1c_n.jpg",
    "id_album": "-149330232",
    "description": "Dog_282218",
    "title": "Dog_282218",
    "link_img": "https://live.staticflickr.com/65535/50020479062_28c8bd3a29_o.jpg",
    "id_image": "Dog_282218",
    "count_view": 0
  },
  {
    "link_thumb": "https://live.staticflickr.com/65535/50020576883_8029283592_n.jpg",
    "id_album": "-462831704",
    "description": "Cat_569585",
    "title": "Cat_569585",
    "link_img": "https://live.staticflickr.com/65535/50020576883_579d5a5d45_o.jpg",
    "id_image": "Cat_569585",
    "count_view": 0
  },
  {
    "link_thumb": "https://live.staticflickr.com/65535/50019405921_f365f1ec8a_n.jpg",
    "id_album": "-462831703",
    "description": "Cat_896731",
    "title": "Cat_896731",
    "link_img": "https://live.staticflickr.com/65535/50019405921_7f01fe029a_o.jpg",
    "id_image": "Cat_896731",
    "count_view": 0
  },
  {
    "link_thumb": "https://live.staticflickr.com/65535/50023239127_118662819a_n.jpg",
    "id_album": "-353898617",
    "description": "Puppy_373247",
    "title": "Puppy_373247",
    "link_img": "https://live.staticflickr.com/65535/50023239127_eca9626927_o.jpg",
    "id_image": "Puppy_373247",
    "count_view": 0
  },
  {
    "link_thumb": "https://live.staticflickr.com/65535/50020250217_40a60c8379_n.jpg",
    "id_album": "1903411565",
    "description": "Deer_334934",
    "title": "Deer_334934",
    "link_img": "https://live.staticflickr.com/65535/50020250217_d24820ca63_o.jpg",
    "id_image": "Deer_334934",
    "count_view": 0
  },
  {
    "link_thumb": "https://live.staticflickr.com/65535/50016944408_4e9dea810e_n.jpg",
    "id_album": "-530283314",
    "description": "BlueandyellowMacaw_663002",
    "title": "BlueandyellowMacaw_663002",
    "link_img": "https://live.staticflickr.com/65535/50016944408_feb27837e9_o.jpg",
    "id_image": "BlueandyellowMacaw_663002",
    "count_view": 0
  },
  {
    "link_thumb": "https://live.staticflickr.com/65535/50024501097_2886a47ed1_n.jpg",
    "id_album": "405170427",
    "description": "Tiger_921183",
    "title": "Tiger_921183",
    "link_img": "https://live.staticflickr.com/65535/50024501097_8641f807a2_o.jpg",
    "id_image": "Tiger_921183",
    "count_view": 0
  },
  {
    "link_thumb": "https://live.staticflickr.com/65535/50022967416_18ccf7ac11_n.jpg",
    "id_album": "-353898617",
    "description": "Puppy_364736",
    "title": "Puppy_364736",
    "link_img": "https://live.staticflickr.com/65535/50022967416_531d9a8c26_o.jpg",
    "id_image": "Puppy_364736",
    "count_view": 0
  },
  {
    "link_thumb": "https://live.staticflickr.com/65535/50024259222_a0c3872f3b_n.jpg",
    "id_album": "1244464375",
    "description": "Starfish_782485",
    "title": "Starfish_782485",
    "link_img": "https://live.staticflickr.com/65535/50024259222_5000a75b69_o.jpg",
    "id_image": "Starfish_782485",
    "count_view": 0
  },
  {
    "link_thumb": "https://live.staticflickr.com/65535/50020870848_66dbd30449_n.jpg",
    "id_album": "109779448",
    "description": "Hare_380020",
    "title": "Hare_380020",
    "link_img": "https://live.staticflickr.com/65535/50020870848_2b23000443_o.jpg",
    "id_image": "Hare_380020",
    "count_view": 0
  },
  {
    "link_thumb": "https://live.staticflickr.com/65535/50019168773_f92db54337_n.jpg",
    "id_album": "-1481843714",
    "description": "Cheetah_366245",
    "title": "Cheetah_366245",
    "link_img": "https://live.staticflickr.com/65535/50019168773_73cf0b8449_o.jpg",
    "id_image": "Cheetah_366245",
    "count_view": 0
  },
  {
    "link_thumb": "https://live.staticflickr.com/65535/50019685221_e5b113dfd9_n.jpg",
    "id_album": "-1481843714",
    "description": "Cheetah_260280",
    "title": "Cheetah_260280",
    "link_img": "https://live.staticflickr.com/65535/50019685221_8199d1511b_o.jpg",
    "id_image": "Cheetah_260280",
    "count_view": 0
  },
  {
    "link_thumb": "https://live.staticflickr.com/65535/50017940316_de1fa1b3ef_n.jpg",
    "id_album": "-462831702",
    "description": "Cat_288208",
    "title": "Cat_288208",
    "link_img": "https://live.staticflickr.com/65535/50017940316_c49efed0af_o.jpg",
    "id_image": "Cat_288208",
    "count_view": 0
  },
  {
    "link_thumb": "https://live.staticflickr.com/65535/50017605016_d95517ceb6_n.jpg",
    "id_album": "-401151552",
    "description": "Butterfly_462694",
    "title": "Butterfly_462694",
    "link_img": "https://live.staticflickr.com/65535/50017605016_0d06dc1961_o.jpg",
    "id_image": "Butterfly_462694",
    "count_view": 0
  },
  {
    "link_thumb": "https://live.staticflickr.com/65535/50020064151_c654aeb1a4_n.jpg",
    "id_album": "1903411565",
    "description": "Deer_936924",
    "title": "Deer_936924",
    "link_img": "https://live.staticflickr.com/65535/50020064151_ddff84216c_o.jpg",
    "id_image": "Deer_936924",
    "count_view": 0
  },
  {
    "link_thumb": "https://live.staticflickr.com/65535/50017484603_e7f8769902_n.jpg",
    "id_album": "-462831702",
    "description": "Cat_341413",
    "title": "Cat_341413",
    "link_img": "https://live.staticflickr.com/65535/50017484603_f9ae839ea9_o.jpg",
    "id_image": "Cat_341413",
    "count_view": 0
  },
  {
    "link_thumb": "https://live.staticflickr.com/65535/50022687798_8e8fb0c285_n.jpg",
    "id_album": "332874268",
    "description": "RedPanda_740479",
    "title": "RedPanda_740479",
    "link_img": "https://live.staticflickr.com/65535/50022687798_117ef96578_o.jpg",
    "id_image": "RedPanda_740479",
    "count_view": 0
  },
  {
    "link_thumb": "https://live.staticflickr.com/65535/50023720508_1780133774_n.jpg",
    "id_album": "-809392728",
    "description": "Titmouse_925209",
    "title": "Titmouse_925209",
    "link_img": "https://live.staticflickr.com/65535/50023720508_ba6048f541_o.jpg",
    "id_image": "Titmouse_925209",
    "count_view": 0
  },
  {
    "link_thumb": "https://live.staticflickr.com/65535/50019711467_c2eb7bfa33_n.jpg",
    "id_album": "-462831705",
    "description": "Cat_91440",
    "title": "Cat_91440",
    "link_img": "https://live.staticflickr.com/65535/50019711467_6bbd87617d_o.jpg",
    "id_image": "Cat_91440",
    "count_view": 0
  },
  {
    "link_thumb": "https://live.staticflickr.com/65535/50017092967_9b19d0d240_n.jpg",
    "id_album": "-1741290715",
    "description": "Ant_391510",
    "title": "Ant_391510",
    "link_img": "https://live.staticflickr.com/65535/50017092967_b4fb396a9f_o.jpg",
    "id_image": "Ant_391510",
    "count_view": 0
  },
  {
    "link_thumb": "https://live.staticflickr.com/65535/50017419693_9431e17595_n.jpg",
    "id_album": "-462831702",
    "description": "Cat_301883",
    "title": "Cat_301883",
    "link_img": "https://live.staticflickr.com/65535/50017419693_65c09323af_o.jpg",
    "id_image": "Cat_301883",
    "count_view": 0
  },
  {
    "link_thumb": "https://live.staticflickr.com/65535/50016366063_fb4216679d_n.jpg",
    "id_album": "523598895",
    "description": "Artistic_300906",
    "title": "Artistic_300906",
    "link_img": "https://live.staticflickr.com/65535/50016366063_009d624300_o.jpg",
    "id_image": "Artistic_300906",
    "count_view": 0
  },
  {
    "link_thumb": "https://live.staticflickr.com/65535/50016306683_76685efbb1_n.jpg",
    "id_album": "-1741290715",
    "description": "Ant_433762",
    "title": "Ant_433762",
    "link_img": "https://live.staticflickr.com/65535/50016306683_c1daa42e4b_o.jpg",
    "id_image": "Ant_433762",
    "count_view": 0
  },
  {
    "link_thumb": "https://live.staticflickr.com/65535/50016369623_e486053d68_n.jpg",
    "id_album": "523598895",
    "description": "Artistic_329298",
    "title": "Artistic_329298",
    "link_img": "https://live.staticflickr.com/65535/50016369623_f2932fb267_o.jpg",
    "id_image": "Artistic_329298",
    "count_view": 0
  },
  {
    "link_thumb": "https://live.staticflickr.com/65535/50019836877_0e0e770da8_n.jpg",
    "id_album": "-1930903528",
    "description": "CatDog_522516",
    "title": "CatDog_522516",
    "link_img": "https://live.staticflickr.com/65535/50019836877_799672a982_o.jpg",
    "id_image": "CatDog_522516",
    "count_view": 0
  },
  {
    "link_thumb": "https://live.staticflickr.com/65535/50024019598_232970269a_n.jpg",
    "id_album": "-709711865",
    "description": "Wolf_967108",
    "title": "Wolf_967108",
    "link_img": "https://live.staticflickr.com/65535/50024019598_31d17653a7_o.jpg",
    "id_image": "Wolf_967108",
    "count_view": 0
  },
  {
    "link_thumb": "https://live.staticflickr.com/65535/50019052018_79a96483fd_n.jpg",
    "id_album": "-1930903528",
    "description": "CatDog_690832",
    "title": "CatDog_690832",
    "link_img": "https://live.staticflickr.com/65535/50019052018_d0f737ff88_o.jpg",
    "id_image": "CatDog_690832",
    "count_view": 0
  },
  {
    "link_thumb": "https://live.staticflickr.com/65535/50023620981_04dc99b673_n.jpg",
    "id_album": "-1131363127",
    "description": "SnowLeopard_235215",
    "title": "SnowLeopard_235215",
    "link_img": "https://live.staticflickr.com/65535/50023620981_b6b2683716_o.jpg",
    "id_image": "SnowLeopard_235215",
    "count_view": 0
  },
  {
    "link_thumb": "https://live.staticflickr.com/65535/50016583403_57be51ec6f_n.jpg",
    "id_album": "-422187261",
    "description": "Bear_956368",
    "title": "Bear_956368",
    "link_img": "https://live.staticflickr.com/65535/50016583403_0b57f92314_o.jpg",
    "id_image": "Bear_956368",
    "count_view": 0
  },
  {
    "link_thumb": "https://live.staticflickr.com/65535/50019468622_764474e091_n.jpg",
    "id_album": "-462831704",
    "description": "Cat_442123",
    "title": "Cat_442123",
    "link_img": "https://live.staticflickr.com/65535/50019468622_b807e85837_o.jpg",
    "id_image": "Cat_442123",
    "count_view": 0
  },
  {
    "link_thumb": "https://live.staticflickr.com/65535/50021877536_87fca084cd_n.jpg",
    "id_album": "1918884325",
    "description": "Lemur_709343",
    "title": "Lemur_709343",
    "link_img": "https://live.staticflickr.com/65535/50021877536_38021f6d7d_o.jpg",
    "id_image": "Lemur_709343",
    "count_view": 0
  },
  {
    "link_thumb": "https://live.staticflickr.com/65535/50019764048_85b8bc3228_n.jpg",
    "id_album": "-149330232",
    "description": "Dog_349401",
    "title": "Dog_349401",
    "link_img": "https://live.staticflickr.com/65535/50019764048_9ab9b3cc03_o.jpg",
    "id_image": "Dog_349401",
    "count_view": 0
  },
  {
    "link_thumb": "https://live.staticflickr.com/65535/50021004097_8949578763_n.jpg",
    "id_album": "1270947998",
    "description": "Elephant_359537",
    "title": "Elephant_359537",
    "link_img": "https://live.staticflickr.com/65535/50021004097_02f6e486d4_o.jpg",
    "id_image": "Elephant_359537",
    "count_view": 0
  },
  {
    "link_thumb": "https://live.staticflickr.com/65535/50020936512_15e9eccfd9_n.jpg",
    "id_album": "-39098563",
    "description": "Eagle_113739",
    "title": "Eagle_113739",
    "link_img": "https://live.staticflickr.com/65535/50020936512_9d2325c5c9_o.jpg",
    "id_image": "Eagle_113739",
    "count_view": 0
  },
  {
    "link_thumb": "https://live.staticflickr.com/65535/50352619127_a753da8925_n.jpg",
    "id_album": "-462831703",
    "description": "Cat_354215",
    "title": "Cat_354215",
    "link_img": "https://live.staticflickr.com/65535/50352619127_dc093049b2_o.jpg",
    "id_image": "Cat_354215",
    "count_view": 0
  },
  {
    "link_thumb": "https://live.staticflickr.com/65535/50017129372_0a738e561d_n.jpg",
    "id_album": "523598895",
    "description": "Artistic_131529",
    "title": "Artistic_131529",
    "link_img": "https://live.staticflickr.com/65535/50017129372_9f8ff44176_o.jpg",
    "id_image": "Artistic_131529",
    "count_view": 0
  },
  {
    "link_thumb": "https://live.staticflickr.com/65535/50020919952_a9a18a3f1a_n.jpg",
    "id_album": "1168627767",
    "description": "Duck_546782",
    "title": "Duck_546782",
    "link_img": "https://live.staticflickr.com/65535/50020919952_ee9d45241f_o.jpg",
    "id_image": "Duck_546782",
    "count_view": 0
  },
  {
    "link_thumb": "https://live.staticflickr.com/65535/50017101567_dee781e128_n.jpg",
    "id_album": "-834314226",
    "description": "ArcticFox_236106",
    "title": "ArcticFox_236106",
    "link_img": "https://live.staticflickr.com/65535/50017101567_36d9b2e6de_o.jpg",
    "id_image": "ArcticFox_236106",
    "count_view": 0
  },
  {
    "link_thumb": "https://live.staticflickr.com/65535/50021411708_3f87087735_n.jpg",
    "id_album": "1392348450",
    "description": "Leopard_870009",
    "title": "Leopard_870009",
    "link_img": "https://live.staticflickr.com/65535/50021411708_921a40c34d_o.jpg",
    "id_image": "Leopard_870009",
    "count_view": 0
  },
  {
    "link_thumb": "https://live.staticflickr.com/65535/50023330347_fb2b57b4c4_n.jpg",
    "id_album": "-353898617",
    "description": "Puppy_948254",
    "title": "Puppy_948254",
    "link_img": "https://live.staticflickr.com/65535/50023330347_5787bcfdc6_o.jpg",
    "id_image": "Puppy_948254",
    "count_view": 0
  },
  {
    "link_thumb": "https://live.staticflickr.com/65535/50020317577_4bbf808038_n.jpg",
    "id_album": "1903411565",
    "description": "Deer_873970",
    "title": "Deer_873970",
    "link_img": "https://live.staticflickr.com/65535/50020317577_6f24015c47_o.jpg",
    "id_image": "Deer_873970",
    "count_view": 0
  },
  {
    "link_thumb": "https://live.staticflickr.com/65535/50017225576_1a10bf4000_n.jpg",
    "id_album": "-1846011410",
    "description": "Bird_272283",
    "title": "Bird_272283",
    "link_img": "https://live.staticflickr.com/65535/50017225576_6330323a15_o.jpg",
    "id_image": "Bird_272283",
    "count_view": 0
  },
  {
    "link_thumb": "https://live.staticflickr.com/65535/50016316223_87402a011a_n.jpg",
    "id_album": "-834314226",
    "description": "ArcticFox_384218",
    "title": "ArcticFox_384218",
    "link_img": "https://live.staticflickr.com/65535/50016316223_6647936d1b_o.jpg",
    "id_image": "ArcticFox_384218",
    "count_view": 0
  },
  {
    "link_thumb": "https://live.staticflickr.com/65535/50018108321_1e61d4410b_n.jpg",
    "id_album": "-462831702",
    "description": "Cat_381293",
    "title": "Cat_381293",
    "link_img": "https://live.staticflickr.com/65535/50018108321_645ee4751c_o.jpg",
    "id_image": "Cat_381293",
    "count_view": 0
  },
  {
    "link_thumb": "https://live.staticflickr.com/65535/50016678373_5299189a3c_n.jpg",
    "id_album": "-1846011410",
    "description": "Bird_173980",
    "title": "Bird_173980",
    "link_img": "https://live.staticflickr.com/65535/50016678373_9446ef5f9f_o.jpg",
    "id_image": "Bird_173980",
    "count_view": 0
  },
  {
    "link_thumb": "https://live.staticflickr.com/65535/50022784347_865d026d06_n.jpg",
    "id_album": "-358592519",
    "description": "Panda_361494",
    "title": "Panda_361494",
    "link_img": "https://live.staticflickr.com/65535/50022784347_a07ee41a1f_o.jpg",
    "id_image": "Panda_361494",
    "count_view": 0
  },
  {
    "link_thumb": "https://live.staticflickr.com/65535/50020640252_24168d6a5f_n.jpg",
    "id_album": "-149330231",
    "description": "Dog_407212",
    "title": "Dog_407212",
    "link_img": "https://live.staticflickr.com/65535/50020640252_e0fd5d279d_o.jpg",
    "id_image": "Dog_407212",
    "count_view": 0
  },
  {
    "link_thumb": "https://live.staticflickr.com/65535/50352461686_d9da390bf1_n.jpg",
    "id_album": "-462831703",
    "description": "Cat_357896",
    "title": "Cat_357896",
    "link_img": "https://live.staticflickr.com/65535/50352461686_cd6c646478_o.jpg",
    "id_image": "Cat_357896",
    "count_view": 0
  },
  {
    "link_thumb": "https://live.staticflickr.com/65535/50020898288_e567dc2ef3_n.jpg",
    "id_album": "1469520430",
    "description": "Hedgehog_949130",
    "title": "Hedgehog_949130",
    "link_img": "https://live.staticflickr.com/65535/50020898288_f415f613d5_o.jpg",
    "id_image": "Hedgehog_949130",
    "count_view": 0
  },
  {
    "link_thumb": "https://live.staticflickr.com/65535/50019514286_40fa8f69cf_n.jpg",
    "id_album": "-462831703",
    "description": "Cat_951505",
    "title": "Cat_951505",
    "link_img": "https://live.staticflickr.com/65535/50019514286_3e1276e851_o.jpg",
    "id_image": "Cat_951505",
    "count_view": 0
  },
  {
    "link_thumb": "https://live.staticflickr.com/65535/50021087868_c9851e4404_n.jpg",
    "id_album": "-712553376",
    "description": "Husky_365156",
    "title": "Husky_365156",
    "link_img": "https://live.staticflickr.com/65535/50021087868_8a4fd02239_o.jpg",
    "id_image": "Husky_365156",
    "count_view": 0
  },
  {
    "link_thumb": "https://live.staticflickr.com/65535/50018152326_ddd71da6d6_n.jpg",
    "id_album": "-462831702",
    "description": "Cat_407642",
    "title": "Cat_407642",
    "link_img": "https://live.staticflickr.com/65535/50018152326_4843c85796_o.jpg",
    "id_image": "Cat_407642",
    "count_view": 0
  },
  {
    "link_thumb": "https://live.staticflickr.com/65535/50022883012_3c8c196df2_n.jpg",
    "id_album": "1146438617",
    "description": "Pelican_433512",
    "title": "Pelican_433512",
    "link_img": "https://live.staticflickr.com/65535/50022883012_4e3acd69a8_o.jpg",
    "id_image": "Pelican_433512",
    "count_view": 0
  },
  {
    "link_thumb": "https://live.staticflickr.com/65535/50019132993_a284b05325_n.jpg",
    "id_album": "-766919393",
    "description": "Chameleon_771583",
    "title": "Chameleon_771583",
    "link_img": "https://live.staticflickr.com/65535/50019132993_3bb9087f24_o.jpg",
    "id_image": "Chameleon_771583",
    "count_view": 0
  },
  {
    "link_thumb": "https://live.staticflickr.com/65535/50021047641_5e4d04f50d_n.jpg",
    "id_album": "704811092",
    "description": "FrenchBulldog_879527",
    "title": "FrenchBulldog_879527",
    "link_img": "https://live.staticflickr.com/65535/50021047641_b294e6b3bb_o.jpg",
    "id_image": "FrenchBulldog_879527",
    "count_view": 0
  },
  {
    "link_thumb": "https://live.staticflickr.com/65535/50024516046_dc35c6ea33_n.jpg",
    "id_album": "-709711865",
    "description": "Wolf_546660",
    "title": "Wolf_546660",
    "link_img": "https://live.staticflickr.com/65535/50024516046_065fb36337_o.jpg",
    "id_image": "Wolf_546660",
    "count_view": 0
  },
  {
    "link_thumb": "https://live.staticflickr.com/65535/50023692042_45dfc500ae_n.jpg",
    "id_album": "-1596347105",
    "description": "Shark_302330",
    "title": "Shark_302330",
    "link_img": "https://live.staticflickr.com/65535/50023692042_53be2efdba_o.jpg",
    "id_image": "Shark_302330",
    "count_view": 0
  },
  {
    "link_thumb": "https://live.staticflickr.com/65535/50020885648_48a11319be_n.jpg",
    "id_album": "1469520430",
    "description": "Hedgehog_227313",
    "title": "Hedgehog_227313",
    "link_img": "https://live.staticflickr.com/65535/50020885648_cfaa0b18ce_o.jpg",
    "id_image": "Hedgehog_227313",
    "count_view": 0
  },
  {
    "link_thumb": "https://live.staticflickr.com/65535/50021469027_ddb176e34e_n.jpg",
    "id_album": "-462831703",
    "description": "Cat_736968",
    "title": "Cat_736968",
    "link_img": "https://live.staticflickr.com/65535/50021469027_134f157a4f_o.jpg",
    "id_image": "Cat_736968",
    "count_view": 0
  },
  {
    "link_thumb": "https://live.staticflickr.com/65535/50020354598_20e17b08cb_n.jpg",
    "id_album": "-1758557371",
    "description": "Flamingo_426040",
    "title": "Flamingo_426040",
    "link_img": "https://live.staticflickr.com/65535/50020354598_9e43858de1_o.jpg",
    "id_image": "Flamingo_426040",
    "count_view": 0
  },
  {
    "link_thumb": "https://live.staticflickr.com/65535/50022022892_2ecdc986e8_n.jpg",
    "id_album": "1562047127",
    "description": "Jellyfish_656674",
    "title": "Jellyfish_656674",
    "link_img": "https://live.staticflickr.com/65535/50022022892_067d3fd39c_o.jpg",
    "id_image": "Jellyfish_656674",
    "count_view": 0
  },
  {
    "link_thumb": "https://live.staticflickr.com/65535/50020863341_414d4b1c09_n.jpg",
    "id_album": "-1118073211",
    "description": "Fish_541507",
    "title": "Fish_541507",
    "link_img": "https://live.staticflickr.com/65535/50020863341_0095c71f0d_o.jpg",
    "id_image": "Fish_541507",
    "count_view": 0
  },
  {
    "link_thumb": "https://live.staticflickr.com/65535/50021850301_66b4f7a113_n.jpg",
    "id_album": "-1882491687",
    "description": "Ladybug_428335",
    "title": "Ladybug_428335",
    "link_img": "https://live.staticflickr.com/65535/50021850301_1b002535a1_o.jpg",
    "id_image": "Ladybug_428335",
    "count_view": 0
  },
  {
    "link_thumb": "https://live.staticflickr.com/65535/50023216183_f3e0702d83_n.jpg",
    "id_album": "-1082521515",
    "description": "Spider_425186",
    "title": "Spider_425186",
    "link_img": "https://live.staticflickr.com/65535/50023216183_24df33eb25_o.jpg",
    "id_image": "Spider_425186",
    "count_view": 0
  },
  {
    "link_thumb": "https://live.staticflickr.com/65535/50024430431_b20789756b_n.jpg",
    "id_album": "766572659",
    "description": "WhiteTiger_289511",
    "title": "WhiteTiger_289511",
    "link_img": "https://live.staticflickr.com/65535/50024430431_d6993b866a_o.jpg",
    "id_image": "WhiteTiger_289511",
    "count_view": 0
  },
  {
    "link_thumb": "https://live.staticflickr.com/65535/50019701898_48b5079a44_n.jpg",
    "id_album": "-149330232",
    "description": "Dog_310132",
    "title": "Dog_310132",
    "link_img": "https://live.staticflickr.com/65535/50019701898_f0a5ef6a72_o.jpg",
    "id_image": "Dog_310132",
    "count_view": 0
  },
  {
    "link_thumb": "https://live.staticflickr.com/65535/50020331181_7784c1ab59_n.jpg",
    "id_album": "-149330232",
    "description": "Dog_365362",
    "title": "Dog_365362",
    "link_img": "https://live.staticflickr.com/65535/50020331181_ef09f0aa98_o.jpg",
    "id_image": "Dog_365362",
    "count_view": 0
  },
  {
    "link_thumb": "https://live.staticflickr.com/65535/50017104902_0d8839bda9_n.jpg",
    "id_album": "-834314226",
    "description": "ArcticFox_405015",
    "title": "ArcticFox_405015",
    "link_img": "https://live.staticflickr.com/65535/50017104902_af227f0a7d_o.jpg",
    "id_image": "ArcticFox_405015",
    "count_view": 0
  },
  {
    "link_thumb": "https://live.staticflickr.com/65535/50016894221_277bc407c0_n.jpg",
    "id_album": "523598895",
    "description": "Artistic_310057",
    "title": "Artistic_310057",
    "link_img": "https://live.staticflickr.com/65535/50016894221_3218db9e0e_o.jpg",
    "id_image": "Artistic_310057",
    "count_view": 0
  },
  {
    "link_thumb": "https://live.staticflickr.com/65535/50021089586_5e26962dac_n.jpg",
    "id_album": "844170697",
    "description": "Frog_986592",
    "title": "Frog_986592",
    "link_img": "https://live.staticflickr.com/65535/50021089586_21563da887_o.jpg",
    "id_image": "Frog_986592",
    "count_view": 0
  },
  {
    "link_thumb": "https://live.staticflickr.com/65535/50352600262_257cfd1de3_n.jpg",
    "id_album": "-462831703",
    "description": "Cat_247385",
    "title": "Cat_247385",
    "link_img": "https://live.staticflickr.com/65535/50352600262_0e014f19bf_o.jpg",
    "id_image": "Cat_247385",
    "count_view": 0
  },
  {
    "link_thumb": "https://live.staticflickr.com/65535/50021513322_b8bd5e8555_n.jpg",
    "id_album": "-462831703",
    "description": "Cat_808800",
    "title": "Cat_808800",
    "link_img": "https://live.staticflickr.com/65535/50021513322_deee7645b2_o.jpg",
    "id_image": "Cat_808800",
    "count_view": 0
  },
  {
    "link_thumb": "https://live.staticflickr.com/65535/50024302286_7bf4a2191e_n.jpg",
    "id_album": "46520366",
    "description": "Turtle_276174",
    "title": "Turtle_276174",
    "link_img": "https://live.staticflickr.com/65535/50024302286_f5b767c8cf_o.jpg",
    "id_image": "Turtle_276174",
    "count_view": 0
  },
  {
    "link_thumb": "https://live.staticflickr.com/65535/50021761547_eb4610b0a6_n.jpg",
    "id_album": "-1933715543",
    "description": "Horse_384861",
    "title": "Horse_384861",
    "link_img": "https://live.staticflickr.com/65535/50021761547_73f62f484c_o.jpg",
    "id_image": "Horse_384861",
    "count_view": 0
  },
  {
    "link_thumb": "https://live.staticflickr.com/65535/50016878396_d771690ea3_n.jpg",
    "id_album": "523598895",
    "description": "Artistic_199841",
    "title": "Artistic_199841",
    "link_img": "https://live.staticflickr.com/65535/50016878396_15234b5dce_o.jpg",
    "id_image": "Artistic_199841",
    "count_view": 0
  },
  {
    "link_thumb": "https://live.staticflickr.com/65535/50021427491_8476129913_n.jpg",
    "id_album": "1469520430",
    "description": "Hedgehog_210840",
    "title": "Hedgehog_210840",
    "link_img": "https://live.staticflickr.com/65535/50021427491_bc5e680d32_o.jpg",
    "id_image": "Hedgehog_210840",
    "count_view": 0
  },
  {
    "link_thumb": "https://live.staticflickr.com/65535/50022124532_7473908c6b_n.jpg",
    "id_album": "-1882491687",
    "description": "Ladybug_915902",
    "title": "Ladybug_915902",
    "link_img": "https://live.staticflickr.com/65535/50022124532_ba99c38bb4_o.jpg",
    "id_image": "Ladybug_915902",
    "count_view": 0
  },
  {
    "link_thumb": "https://live.staticflickr.com/65535/50024240391_4791ac969e_n.jpg",
    "id_album": "405170427",
    "description": "Tiger_918195",
    "title": "Tiger_918195",
    "link_img": "https://live.staticflickr.com/65535/50024240391_9164a8a62c_o.jpg",
    "id_image": "Tiger_918195",
    "count_view": 0
  },
  {
    "link_thumb": "https://live.staticflickr.com/65535/50018307142_7bda8042e8_n.jpg",
    "id_album": "-462831702",
    "description": "Cat_357946",
    "title": "Cat_357946",
    "link_img": "https://live.staticflickr.com/65535/50018307142_c46d2b3bdb_o.jpg",
    "id_image": "Cat_357946",
    "count_view": 0
  },
  {
    "link_thumb": "https://live.staticflickr.com/65535/50022114037_85b00af155_n.jpg",
    "id_album": "-1882491687",
    "description": "Ladybug_603744",
    "title": "Ladybug_603744",
    "link_img": "https://live.staticflickr.com/65535/50022114037_492bea15b4_o.jpg",
    "id_image": "Ladybug_603744",
    "count_view": 0
  },
  {
    "link_thumb": "https://live.staticflickr.com/65535/50023750396_3f4c125aec_n.jpg",
    "id_album": "-1082521515",
    "description": "Spider_396427",
    "title": "Spider_396427",
    "link_img": "https://live.staticflickr.com/65535/50023750396_2b89d09969_o.jpg",
    "id_image": "Spider_396427",
    "count_view": 0
  },
  {
    "link_thumb": "https://live.staticflickr.com/65535/50024718192_c99303465c_n.jpg",
    "id_album": "-709711865",
    "description": "Wolf_122521",
    "title": "Wolf_122521",
    "link_img": "https://live.staticflickr.com/65535/50024718192_d49de14962_o.jpg",
    "id_image": "Wolf_122521",
    "count_view": 0
  },
  {
    "link_thumb": "https://live.staticflickr.com/65535/50019867147_256052910e_n.jpg",
    "id_album": "-420782796",
    "description": "Caterpillar_574046",
    "title": "Caterpillar_574046",
    "link_img": "https://live.staticflickr.com/65535/50019867147_47638d8dcf_o.jpg",
    "id_image": "Caterpillar_574046",
    "count_view": 0
  },
  {
    "link_thumb": "https://live.staticflickr.com/65535/50016746288_6473394548_n.jpg",
    "id_album": "-1846011410",
    "description": "Bird_361071",
    "title": "Bird_361071",
    "link_img": "https://live.staticflickr.com/65535/50016746288_ed0fa33d5b_o.jpg",
    "id_image": "Bird_361071",
    "count_view": 0
  },
  {
    "link_thumb": "https://live.staticflickr.com/65535/50020272781_78c49dcfb9_n.jpg",
    "id_album": "-149330232",
    "description": "Dog_337916",
    "title": "Dog_337916",
    "link_img": "https://live.staticflickr.com/65535/50020272781_08a8644ea4_o.jpg",
    "id_image": "Dog_337916",
    "count_view": 0
  },
  {
    "link_thumb": "https://live.staticflickr.com/65535/50020319582_38acc48d49_n.jpg",
    "id_album": "1903411565",
    "description": "Deer_882828",
    "title": "Deer_882828",
    "link_img": "https://live.staticflickr.com/65535/50020319582_d181aae9c8_o.jpg",
    "id_image": "Deer_882828",
    "count_view": 0
  },
  {
    "link_thumb": "https://live.staticflickr.com/65535/50021806451_d78d9db733_n.jpg",
    "id_album": "770105808",
    "description": "Kingfisher_662940",
    "title": "Kingfisher_662940",
    "link_img": "https://live.staticflickr.com/65535/50021806451_5b632151d3_o.jpg",
    "id_image": "Kingfisher_662940",
    "count_view": 0
  },
  {
    "link_thumb": "https://live.staticflickr.com/65535/50020865903_c941eab7e6_n.jpg",
    "id_album": "82558972",
    "description": "GuineaPig_416268",
    "title": "GuineaPig_416268",
    "link_img": "https://live.staticflickr.com/65535/50020865903_848c497278_o.jpg",
    "id_image": "GuineaPig_416268",
    "count_view": 0
  },
  {
    "link_thumb": "https://live.staticflickr.com/65535/50020460351_f5007efccc_n.jpg",
    "id_album": "-149330231",
    "description": "Dog_570553",
    "title": "Dog_570553",
    "link_img": "https://live.staticflickr.com/65535/50020460351_d4c8ace55f_o.jpg",
    "id_image": "Dog_570553",
    "count_view": 0
  },
  {
    "link_thumb": "https://live.staticflickr.com/65535/50021583176_130432dd63_n.jpg",
    "id_album": "-1933715543",
    "description": "Horse_903801",
    "title": "Horse_903801",
    "link_img": "https://live.staticflickr.com/65535/50021583176_8c29d92159_o.jpg",
    "id_image": "Horse_903801",
    "count_view": 0
  },
  {
    "link_thumb": "https://live.staticflickr.com/65535/50023231676_e81db81dd8_n.jpg",
    "id_album": "332874268",
    "description": "RedPanda_782584",
    "title": "RedPanda_782584",
    "link_img": "https://live.staticflickr.com/65535/50023231676_cf0b9f96f8_o.jpg",
    "id_image": "RedPanda_782584",
    "count_view": 0
  },
  {
    "link_thumb": "https://live.staticflickr.com/65535/50019210098_d9d88f8fa8_n.jpg",
    "id_album": "-1481843714",
    "description": "Cheetah_982505",
    "title": "Cheetah_982505",
    "link_img": "https://live.staticflickr.com/65535/50019210098_ae13ff301e_o.jpg",
    "id_image": "Cheetah_982505",
    "count_view": 0
  },
  {
    "link_thumb": "https://live.staticflickr.com/65535/50020658151_3fbf271c48_n.jpg",
    "id_album": "1168627767",
    "description": "Duck_427169",
    "title": "Duck_427169",
    "link_img": "https://live.staticflickr.com/65535/50020658151_d401d5777f_o.jpg",
    "id_image": "Duck_427169",
    "count_view": 0
  },
  {
    "link_thumb": "https://live.staticflickr.com/65535/50024022298_529b22a5a1_n.jpg",
    "id_album": "1104421803",
    "description": "Zebra_168035",
    "title": "Zebra_168035",
    "link_img": "https://live.staticflickr.com/65535/50024022298_6e00ced9e2_o.jpg",
    "id_image": "Zebra_168035",
    "count_view": 0
  },
  {
    "link_thumb": "https://live.staticflickr.com/65535/50351880558_f84f5b61ba_n.jpg",
    "id_album": "-462831703",
    "description": "Cat_508655",
    "title": "Cat_508655",
    "link_img": "https://live.staticflickr.com/65535/50351880558_14523ba2c1_o.jpg",
    "id_image": "Cat_508655",
    "count_view": 0
  },
  {
    "link_thumb": "https://live.staticflickr.com/65535/50019934543_825e5a8f2a_n.jpg",
    "id_album": "-149330231",
    "description": "Dog_597434",
    "title": "Dog_597434",
    "link_img": "https://live.staticflickr.com/65535/50019934543_d5f3ff10c3_o.jpg",
    "id_image": "Dog_597434",
    "count_view": 0
  },
  {
    "link_thumb": "https://live.staticflickr.com/65535/50016870246_0e8062aaf1_n.jpg",
    "id_album": "523598895",
    "description": "Artistic_150312",
    "title": "Artistic_150312",
    "link_img": "https://live.staticflickr.com/65535/50016870246_75f81a238f_o.jpg",
    "id_image": "Artistic_150312",
    "count_view": 0
  },
  {
    "link_thumb": "https://live.staticflickr.com/65535/50017624591_14322f8b7c_n.jpg",
    "id_album": "-401151552",
    "description": "Butterfly_546367",
    "title": "Butterfly_546367",
    "link_img": "https://live.staticflickr.com/65535/50017624591_e6b206f4ae_o.jpg",
    "id_image": "Butterfly_546367",
    "count_view": 0
  },
  {
    "link_thumb": "https://live.staticflickr.com/65535/50024264456_4389b8f041_n.jpg",
    "id_album": "-809392728",
    "description": "Titmouse_888190",
    "title": "Titmouse_888190",
    "link_img": "https://live.staticflickr.com/65535/50024264456_5bfe535da3_o.jpg",
    "id_image": "Titmouse_888190",
    "count_view": 0
  },
  {
    "link_thumb": "https://live.staticflickr.com/65535/50020027518_964263a268_n.jpg",
    "id_album": "-54509188",
    "description": "Dolphin_118020",
    "title": "Dolphin_118020",
    "link_img": "https://live.staticflickr.com/65535/50020027518_06f1be7b83_o.jpg",
    "id_image": "Dolphin_118020",
    "count_view": 0
  },
  {
    "link_thumb": "https://live.staticflickr.com/65535/50019669951_50be65edd5_n.jpg",
    "id_album": "-766919393",
    "description": "Chameleon_848749",
    "title": "Chameleon_848749",
    "link_img": "https://live.staticflickr.com/65535/50019669951_78c8bc1c5e_o.jpg",
    "id_image": "Chameleon_848749",
    "count_view": 0
  },
  {
    "link_thumb": "https://live.staticflickr.com/65535/50020110046_52df24a18d_n.jpg",
    "id_album": "297232732",
    "description": "Dinosaur_996009",
    "title": "Dinosaur_996009",
    "link_img": "https://live.staticflickr.com/65535/50020110046_3c2477c5fd_o.jpg",
    "id_image": "Dinosaur_996009",
    "count_view": 0
  },
  {
    "link_thumb": "https://live.staticflickr.com/65535/50021300383_1435b58dc7_n.jpg",
    "id_album": "-1882491687",
    "description": "Ladybug_276163",
    "title": "Ladybug_276163",
    "link_img": "https://live.staticflickr.com/65535/50021300383_99dba5b325_o.jpg",
    "id_image": "Ladybug_276163",
    "count_view": 0
  },
  {
    "link_thumb": "https://live.staticflickr.com/65535/50021655313_b3a6791d2b_n.jpg",
    "id_album": "-784970094",
    "description": "Monkey_258367",
    "title": "Monkey_258367",
    "link_img": "https://live.staticflickr.com/65535/50021655313_771f6a670e_o.jpg",
    "id_image": "Monkey_258367",
    "count_view": 0
  },
  {
    "link_thumb": "https://live.staticflickr.com/65535/50020645702_cfd62105b9_n.jpg",
    "id_album": "-149330231",
    "description": "Dog_409158",
    "title": "Dog_409158",
    "link_img": "https://live.staticflickr.com/65535/50020645702_3db302bb00_o.jpg",
    "id_image": "Dog_409158",
    "count_view": 0
  },
  {
    "link_thumb": "https://live.staticflickr.com/65535/50022946588_df62802dc6_n.jpg",
    "id_album": "-755466332",
    "description": "Sheep_792867",
    "title": "Sheep_792867",
    "link_img": "https://live.staticflickr.com/65535/50022946588_5d405585ca_o.jpg",
    "id_image": "Sheep_792867",
    "count_view": 0
  },
  {
    "link_thumb": "https://live.staticflickr.com/65535/50020260317_f8307825d5_n.jpg",
    "id_album": "1903411565",
    "description": "Deer_391394",
    "title": "Deer_391394",
    "link_img": "https://live.staticflickr.com/65535/50020260317_6ac1a246db_o.jpg",
    "id_image": "Deer_391394",
    "count_view": 0
  },
  {
    "link_thumb": "https://live.staticflickr.com/65535/50021878228_56e39ed411_n.jpg",
    "id_album": "-1384601601",
    "description": "Owl_421096",
    "title": "Owl_421096",
    "link_img": "https://live.staticflickr.com/65535/50021878228_f7a52e90d1_o.jpg",
    "id_image": "Owl_421096",
    "count_view": 0
  },
  {
    "link_thumb": "https://live.staticflickr.com/65535/50019088068_478650f93e_n.jpg",
    "id_album": "1889777354",
    "description": "CGI_116483",
    "title": "CGI_116483",
    "link_img": "https://live.staticflickr.com/65535/50019088068_315d0640c9_o.jpg",
    "id_image": "CGI_116483",
    "count_view": 0
  },
  {
    "link_thumb": "https://live.staticflickr.com/65535/50023988036_312eb2e9e7_n.jpg",
    "id_album": "1244464375",
    "description": "Starfish_206147",
    "title": "Starfish_206147",
    "link_img": "https://live.staticflickr.com/65535/50023988036_c01e7bc1ff_o.jpg",
    "id_image": "Starfish_206147",
    "count_view": 0
  },
  {
    "link_thumb": "https://live.staticflickr.com/65535/50017794516_0226592bc4_n.jpg",
    "id_album": "-462831705",
    "description": "Cat_166133",
    "title": "Cat_166133",
    "link_img": "https://live.staticflickr.com/65535/50017794516_6236ab2111_o.jpg",
    "id_image": "Cat_166133",
    "count_view": 0
  },
  {
    "link_thumb": "https://live.staticflickr.com/65535/50020402617_06c4e1f388_n.jpg",
    "id_album": "-149330232",
    "description": "Dog_197408",
    "title": "Dog_197408",
    "link_img": "https://live.staticflickr.com/65535/50020402617_34e79f0fe5_o.jpg",
    "id_image": "Dog_197408",
    "count_view": 0
  },
  {
    "link_thumb": "https://live.staticflickr.com/65535/50020737957_d882e2e43a_n.jpg",
    "id_album": "-149330231",
    "description": "Dog_686843",
    "title": "Dog_686843",
    "link_img": "https://live.staticflickr.com/65535/50020737957_2ae4389c29_o.jpg",
    "id_image": "Dog_686843",
    "count_view": 0
  },
  {
    "link_thumb": "https://live.staticflickr.com/65535/50018251047_59aafe8ddd_n.jpg",
    "id_album": "-462831702",
    "description": "Cat_331367",
    "title": "Cat_331367",
    "link_img": "https://live.staticflickr.com/65535/50018251047_5a2bf80e41_o.jpg",
    "id_image": "Cat_331367",
    "count_view": 0
  },
  {
    "link_thumb": "https://live.staticflickr.com/65535/50021919891_ac46a10ffd_n.jpg",
    "id_album": "1392348450",
    "description": "Leopard_405124",
    "title": "Leopard_405124",
    "link_img": "https://live.staticflickr.com/65535/50021919891_29c67c03ba_o.jpg",
    "id_image": "Leopard_405124",
    "count_view": 0
  },
  {
    "link_thumb": "https://live.staticflickr.com/65535/50020743876_311f24c27b_n.jpg",
    "id_album": "1270947998",
    "description": "Elephant_340534",
    "title": "Elephant_340534",
    "link_img": "https://live.staticflickr.com/65535/50020743876_5e29a02420_o.jpg",
    "id_image": "Elephant_340534",
    "count_view": 0
  },
  {
    "link_thumb": "https://live.staticflickr.com/65535/50023756358_65cfb3d16a_n.jpg",
    "id_album": "46520366",
    "description": "Turtle_235107",
    "title": "Turtle_235107",
    "link_img": "https://live.staticflickr.com/65535/50023756358_e9ec1b4b9a_o.jpg",
    "id_image": "Turtle_235107",
    "count_view": 0
  },
  {
    "link_thumb": "https://live.staticflickr.com/65535/50016853286_844fcc47b2_n.jpg",
    "id_album": "-834314226",
    "description": "ArcticFox_837818",
    "title": "ArcticFox_837818",
    "link_img": "https://live.staticflickr.com/65535/50016853286_a580579b62_o.jpg",
    "id_image": "ArcticFox_837818",
    "count_view": 0
  },
  {
    "link_thumb": "https://live.staticflickr.com/65535/50022045123_c135fac377_n.jpg",
    "id_album": "-801414987",
    "description": "Peacock_367676",
    "title": "Peacock_367676",
    "link_img": "https://live.staticflickr.com/65535/50022045123_dff76fc52f_o.jpg",
    "id_image": "Peacock_367676",
    "count_view": 0
  },
  {
    "link_thumb": "https://live.staticflickr.com/65535/50017089446_afc454c36f_n.jpg",
    "id_album": "-422187261",
    "description": "Bear_859470",
    "title": "Bear_859470",
    "link_img": "https://live.staticflickr.com/65535/50017089446_e20dac7a41_o.jpg",
    "id_image": "Bear_859470",
    "count_view": 0
  },
  {
    "link_thumb": "https://live.staticflickr.com/65535/50020808652_bf0351c74f_n.jpg",
    "id_album": "-149330231",
    "description": "Dog_967128",
    "title": "Dog_967128",
    "link_img": "https://live.staticflickr.com/65535/50020808652_e5a1841c25_o.jpg",
    "id_image": "Dog_967128",
    "count_view": 0
  },
  {
    "link_thumb": "https://live.staticflickr.com/65535/50023160501_d0b1402a9b_n.jpg",
    "id_album": "248289288",
    "description": "Raccoon_736401",
    "title": "Raccoon_736401",
    "link_img": "https://live.staticflickr.com/65535/50023160501_f0813687fe_o.jpg",
    "id_image": "Raccoon_736401",
    "count_view": 0
  },
  {
    "link_thumb": "https://live.staticflickr.com/65535/50020585038_3e2aa04c4f_n.jpg",
    "id_album": "-462831704",
    "description": "Cat_588983",
    "title": "Cat_588983",
    "link_img": "https://live.staticflickr.com/65535/50020585038_b0e1925ae1_o.jpg",
    "id_image": "Cat_588983",
    "count_view": 0
  },
  {
    "link_thumb": "https://live.staticflickr.com/65535/50021377968_d296491ea2_n.jpg",
    "id_album": "1392348450",
    "description": "Leopard_406541",
    "title": "Leopard_406541",
    "link_img": "https://live.staticflickr.com/65535/50021377968_df020fd3c9_o.jpg",
    "id_image": "Leopard_406541",
    "count_view": 0
  },
  {
    "link_thumb": "https://live.staticflickr.com/65535/50019763883_6be4e80b80_n.jpg",
    "id_album": "-149330232",
    "description": "Dog_349312",
    "title": "Dog_349312",
    "link_img": "https://live.staticflickr.com/65535/50019763883_8a764d45b0_o.jpg",
    "id_image": "Dog_349312",
    "count_view": 0
  },
  {
    "link_thumb": "https://live.staticflickr.com/65535/50352763762_9a99c7c752_n.jpg",
    "id_album": "-462831703",
    "description": "Cat_554998",
    "title": "Cat_554998",
    "link_img": "https://live.staticflickr.com/65535/50352763762_a96e450c43_o.jpg",
    "id_image": "Cat_554998",
    "count_view": 0
  },
  {
    "link_thumb": "https://live.staticflickr.com/65535/50020889441_1fc9b6a275_n.jpg",
    "id_album": "-1758557371",
    "description": "Flamingo_389041",
    "title": "Flamingo_389041",
    "link_img": "https://live.staticflickr.com/65535/50020889441_e4e7120867_o.jpg",
    "id_image": "Flamingo_389041",
    "count_view": 0
  },
  {
    "link_thumb": "https://live.staticflickr.com/65535/50022147827_1246b67d59_n.jpg",
    "id_album": "1392348450",
    "description": "Leopard_242105",
    "title": "Leopard_242105",
    "link_img": "https://live.staticflickr.com/65535/50022147827_9eab7c4800_o.jpg",
    "id_image": "Leopard_242105",
    "count_view": 0
  },
  {
    "link_thumb": "https://live.staticflickr.com/65535/50022702761_f227c2668b_n.jpg",
    "id_album": "392248205",
    "description": "Penguin_479489",
    "title": "Penguin_479489",
    "link_img": "https://live.staticflickr.com/65535/50022702761_bc9c01db15_o.jpg",
    "id_image": "Penguin_479489",
    "count_view": 0
  },
  {
    "link_thumb": "https://live.staticflickr.com/65535/50021928026_2b88078970_n.jpg",
    "id_album": "1392348450",
    "description": "Leopard_439950",
    "title": "Leopard_439950",
    "link_img": "https://live.staticflickr.com/65535/50021928026_c3f96452ab_o.jpg",
    "id_image": "Leopard_439950",
    "count_view": 0
  },
  {
    "link_thumb": "https://live.staticflickr.com/65535/50019883557_7d7cf15450_n.jpg",
    "id_album": "1889777354",
    "description": "CGI_351746",
    "title": "CGI_351746",
    "link_img": "https://live.staticflickr.com/65535/50019883557_e1dac1bf77_o.jpg",
    "id_image": "CGI_351746",
    "count_view": 0
  },
  {
    "link_thumb": "https://live.staticflickr.com/65535/50017736337_6dd58318c3_n.jpg",
    "id_album": "-530283314",
    "description": "BlueandyellowMacaw_774635",
    "title": "BlueandyellowMacaw_774635",
    "link_img": "https://live.staticflickr.com/65535/50017736337_441ed4a044_o.jpg",
    "id_image": "BlueandyellowMacaw_774635",
    "count_view": 0
  },
  {
    "link_thumb": "https://live.staticflickr.com/65535/50020276222_335afeda60_n.jpg",
    "id_album": "1903411565",
    "description": "Deer_520590",
    "title": "Deer_520590",
    "link_img": "https://live.staticflickr.com/65535/50020276222_2c61280173_o.jpg",
    "id_image": "Deer_520590",
    "count_view": 0
  },
  {
    "link_thumb": "https://live.staticflickr.com/65535/50024398867_5a00f83a14_n.jpg",
    "id_album": "405170427",
    "description": "Tiger_458433",
    "title": "Tiger_458433",
    "link_img": "https://live.staticflickr.com/65535/50024398867_68de435165_o.jpg",
    "id_image": "Tiger_458433",
    "count_view": 0
  },
  {
    "link_thumb": "https://live.staticflickr.com/65535/50352407276_99e2150443_n.jpg",
    "id_album": "-462831703",
    "description": "Cat_172763",
    "title": "Cat_172763",
    "link_img": "https://live.staticflickr.com/65535/50352407276_196fbdb825_o.jpg",
    "id_image": "Cat_172763",
    "count_view": 0
  },
  {
    "link_thumb": "https://live.staticflickr.com/65535/50352650101_fa32b412db_n.jpg",
    "id_album": "-462831703",
    "description": "Cat_697608",
    "title": "Cat_697608",
    "link_img": "https://live.staticflickr.com/65535/50352650101_a2b075a428_o.jpg",
    "id_image": "Cat_697608",
    "count_view": 0
  },
  {
    "link_thumb": "https://live.staticflickr.com/65535/50021479007_129f723820_n.jpg",
    "id_album": "-462831703",
    "description": "Cat_746332",
    "title": "Cat_746332",
    "link_img": "https://live.staticflickr.com/65535/50021479007_948ffbb53e_o.jpg",
    "id_image": "Cat_746332",
    "count_view": 0
  },
  {
    "link_thumb": "https://live.staticflickr.com/65535/50019834247_2c4fe936fc_n.jpg",
    "id_album": "-1930903528",
    "description": "CatDog_205405",
    "title": "CatDog_205405",
    "link_img": "https://live.staticflickr.com/65535/50019834247_3eae062067_o.jpg",
    "id_image": "CatDog_205405",
    "count_view": 0
  },
  {
    "link_thumb": "https://live.staticflickr.com/65535/50352619731_25bf6745e0_n.jpg",
    "id_album": "-462831703",
    "description": "Cat_594785",
    "title": "Cat_594785",
    "link_img": "https://live.staticflickr.com/65535/50352619731_f56940f7b5_o.jpg",
    "id_image": "Cat_594785",
    "count_view": 0
  },
  {
    "link_thumb": "https://live.staticflickr.com/65535/50021917971_df5e23347b_n.jpg",
    "id_album": "1392348450",
    "description": "Leopard_390323",
    "title": "Leopard_390323",
    "link_img": "https://live.staticflickr.com/65535/50021917971_828a7cfcf4_o.jpg",
    "id_image": "Leopard_390323",
    "count_view": 0
  },
  {
    "link_thumb": "https://live.staticflickr.com/65535/50017830592_52120bea4f_n.jpg",
    "id_album": "-401151552",
    "description": "Butterfly_358461",
    "title": "Butterfly_358461",
    "link_img": "https://live.staticflickr.com/65535/50017830592_dbd8bff018_o.jpg",
    "id_image": "Butterfly_358461",
    "count_view": 0
  },
  {
    "link_thumb": "https://live.staticflickr.com/65535/50352560401_7aacfb2639_n.jpg",
    "id_album": "-462831703",
    "description": "Cat_485257",
    "title": "Cat_485257",
    "link_img": "https://live.staticflickr.com/65535/50352560401_e2d186f581_o.jpg",
    "id_image": "Cat_485257",
    "count_view": 0
  },
  {
    "link_thumb": "https://live.staticflickr.com/65535/50022798597_9648f87228_n.jpg",
    "id_album": "-358592519",
    "description": "Panda_541627",
    "title": "Panda_541627",
    "link_img": "https://live.staticflickr.com/65535/50022798597_c2c50a3326_o.jpg",
    "id_image": "Panda_541627",
    "count_view": 0
  },
  {
    "link_thumb": "https://live.staticflickr.com/65535/50022969252_6a567e6fba_n.jpg",
    "id_album": "392248205",
    "description": "Penguin_660795",
    "title": "Penguin_660795",
    "link_img": "https://live.staticflickr.com/65535/50022969252_ae8ba3774f_o.jpg",
    "id_image": "Penguin_660795",
    "count_view": 0
  },
  {
    "link_thumb": "https://live.staticflickr.com/65535/50020656368_6e9724fcb2_n.jpg",
    "id_album": "-462831705",
    "description": "Cat_71655",
    "title": "Cat_71655",
    "link_img": "https://live.staticflickr.com/65535/50020656368_7b57486cc5_o.jpg",
    "id_image": "Cat_71655",
    "count_view": 0
  },
  {
    "link_thumb": "https://live.staticflickr.com/65535/50017725227_d5ff4c04a3_n.jpg",
    "id_album": "-530283314",
    "description": "BlueandyellowMacaw_391847",
    "title": "BlueandyellowMacaw_391847",
    "link_img": "https://live.staticflickr.com/65535/50017725227_62dd5b3d0a_o.jpg",
    "id_image": "BlueandyellowMacaw_391847",
    "count_view": 0
  },
  {
    "link_thumb": "https://live.staticflickr.com/65535/50021217091_a53d39ac57_n.jpg",
    "id_album": "-462831703",
    "description": "Cat_737751",
    "title": "Cat_737751",
    "link_img": "https://live.staticflickr.com/65535/50021217091_481fe46149_o.jpg",
    "id_image": "Cat_737751",
    "count_view": 0
  },
  {
    "link_thumb": "https://live.staticflickr.com/65535/50023607571_a7fba1bc6e_n.jpg",
    "id_album": "-1182356179",
    "description": "Snake_755727",
    "title": "Snake_755727",
    "link_img": "https://live.staticflickr.com/65535/50023607571_8aa8f67923_o.jpg",
    "id_image": "Snake_755727",
    "count_view": 0
  },
  {
    "link_thumb": "https://live.staticflickr.com/65535/50017801077_80cf4d3b1d_n.jpg",
    "id_album": "-401151552",
    "description": "Butterfly_169858",
    "title": "Butterfly_169858",
    "link_img": "https://live.staticflickr.com/65535/50017801077_79ca6703ef_o.jpg",
    "id_image": "Butterfly_169858",
    "count_view": 0
  },
  {
    "link_thumb": "https://live.staticflickr.com/65535/50352593607_35ab52ae55_n.jpg",
    "id_album": "-462831703",
    "description": "Cat_236340",
    "title": "Cat_236340",
    "link_img": "https://live.staticflickr.com/65535/50352593607_ac67c9828d_o.jpg",
    "id_image": "Cat_236340",
    "count_view": 0
  },
  {
    "link_thumb": "https://live.staticflickr.com/65535/50024412747_fe5dc27971_n.jpg",
    "id_album": "405170427",
    "description": "Tiger_533983",
    "title": "Tiger_533983",
    "link_img": "https://live.staticflickr.com/65535/50024412747_c204e980d5_o.jpg",
    "id_image": "Tiger_533983",
    "count_view": 0
  },
  {
    "link_thumb": "https://live.staticflickr.com/65535/50017276332_83a639c582_n.jpg",
    "id_album": "-422187261",
    "description": "Bear_276944",
    "title": "Bear_276944",
    "link_img": "https://live.staticflickr.com/65535/50017276332_5626754950_o.jpg",
    "id_image": "Bear_276944",
    "count_view": 0
  },
  {
    "link_thumb": "https://live.staticflickr.com/65535/50016896776_5d3843b95d_n.jpg",
    "id_album": "523598895",
    "description": "Artistic_330810",
    "title": "Artistic_330810",
    "link_img": "https://live.staticflickr.com/65535/50016896776_53c9196218_o.jpg",
    "id_image": "Artistic_330810",
    "count_view": 0
  },
  {
    "link_thumb": "https://live.staticflickr.com/65535/50352679286_d32fdbb2f2_n.jpg",
    "id_album": "-462831702",
    "description": "Cat_101541",
    "title": "Cat_101541",
    "link_img": "https://live.staticflickr.com/65535/50352679286_61d318bcb5_o.jpg",
    "id_image": "Cat_101541",
    "count_view": 0
  },
  {
    "link_thumb": "https://live.staticflickr.com/65535/50019387638_f2c2e08940_n.jpg",
    "id_album": "1273365283",
    "description": "Cute_236577",
    "title": "Cute_236577",
    "link_img": "https://live.staticflickr.com/65535/50019387638_bc39913def_o.jpg",
    "id_image": "Cute_236577",
    "count_view": 0
  },
  {
    "link_thumb": "https://live.staticflickr.com/65535/50021307491_dff7fd0130_n.jpg",
    "id_album": "-405626519",
    "description": "GermanShepherd_879564",
    "title": "GermanShepherd_879564",
    "link_img": "https://live.staticflickr.com/65535/50021307491_0fc5b4e0d1_o.jpg",
    "id_image": "GermanShepherd_879564",
    "count_view": 0
  },
  {
    "link_thumb": "https://live.staticflickr.com/65535/50019852621_3837341e49_n.jpg",
    "id_album": "-2144640780",
    "description": "Cow_592516",
    "title": "Cow_592516",
    "link_img": "https://live.staticflickr.com/65535/50019852621_77c1952746_o.jpg",
    "id_image": "Cow_592516",
    "count_view": 0
  },
  {
    "link_thumb": "https://live.staticflickr.com/65535/50021903062_4d97509aed_n.jpg",
    "id_album": "-737856092",
    "description": "Iguana_428187",
    "title": "Iguana_428187",
    "link_img": "https://live.staticflickr.com/65535/50021903062_fe6cdef134_o.jpg",
    "id_image": "Iguana_428187",
    "count_view": 0
  },
  {
    "link_thumb": "https://live.staticflickr.com/65535/50021437767_e448bf5445_n.jpg",
    "id_album": "-462831704",
    "description": "Cat_704455",
    "title": "Cat_704455",
    "link_img": "https://live.staticflickr.com/65535/50021437767_3abf3e4245_o.jpg",
    "id_image": "Cat_704455",
    "count_view": 0
  },
  {
    "link_thumb": "https://live.staticflickr.com/65535/50022689686_0b0605edec_n.jpg",
    "id_album": "392248205",
    "description": "Penguin_367220",
    "title": "Penguin_367220",
    "link_img": "https://live.staticflickr.com/65535/50022689686_50aa0dd7c4_o.jpg",
    "id_image": "Penguin_367220",
    "count_view": 0
  },
  {
    "link_thumb": "https://live.staticflickr.com/65535/50016428113_1ec273c8cb_n.jpg",
    "id_album": "231236068",
    "description": "BaldEagle_364090",
    "title": "BaldEagle_364090",
    "link_img": "https://live.staticflickr.com/65535/50016428113_57ebdd5451_o.jpg",
    "id_image": "BaldEagle_364090",
    "count_view": 0
  },
  {
    "link_thumb": "https://live.staticflickr.com/65535/50016981138_afa79fef0a_n.jpg",
    "id_album": "782930701",
    "description": "BorderCollie_910409",
    "title": "BorderCollie_910409",
    "link_img": "https://live.staticflickr.com/65535/50016981138_e91818096a_o.jpg",
    "id_image": "BorderCollie_910409",
    "count_view": 0
  },
  {
    "link_thumb": "https://live.staticflickr.com/65535/50023142462_333d20b1d2_n.jpg",
    "id_album": "191452764",
    "description": "PrayingMantis_391715",
    "title": "PrayingMantis_391715",
    "link_img": "https://live.staticflickr.com/65535/50023142462_21cffffb5f_o.jpg",
    "id_image": "PrayingMantis_391715",
    "count_view": 0
  },
  {
    "link_thumb": "https://live.staticflickr.com/65535/50019407072_f4ab8b3113_n.jpg",
    "id_album": "-462831702",
    "description": "Cat_415949",
    "title": "Cat_415949",
    "link_img": "https://live.staticflickr.com/65535/50019407072_8c537fd6b8_o.jpg",
    "id_image": "Cat_415949",
    "count_view": 0
  },
  {
    "link_thumb": "https://live.staticflickr.com/65535/50022105346_c6f20f9b1a_n.jpg",
    "id_album": "-656526748",
    "description": "Lizard_313489",
    "title": "Lizard_313489",
    "link_img": "https://live.staticflickr.com/65535/50022105346_0eb0c28e66_o.jpg",
    "id_image": "Lizard_313489",
    "count_view": 0
  },
  {
    "link_thumb": "https://live.staticflickr.com/65535/50019994496_7d92917dce_n.jpg",
    "id_album": "1903411565",
    "description": "Deer_342487",
    "title": "Deer_342487",
    "link_img": "https://live.staticflickr.com/65535/50019994496_30b898cc97_o.jpg",
    "id_image": "Deer_342487",
    "count_view": 0
  },
  {
    "link_thumb": "https://live.staticflickr.com/65535/50016772043_d6bb804d8c_n.jpg",
    "id_album": "-1846011410",
    "description": "Bird_392184",
    "title": "Bird_392184",
    "link_img": "https://live.staticflickr.com/65535/50016772043_656b780e46_o.jpg",
    "id_image": "Bird_392184",
    "count_view": 0
  },
  {
    "link_thumb": "https://live.staticflickr.com/65535/50019200436_29bb8e7d43_n.jpg",
    "id_album": "-462831704",
    "description": "Cat_438111",
    "title": "Cat_438111",
    "link_img": "https://live.staticflickr.com/65535/50019200436_dba5991252_o.jpg",
    "id_image": "Cat_438111",
    "count_view": 0
  },
  {
    "link_thumb": "https://live.staticflickr.com/65535/50352677632_a755dc0740_n.jpg",
    "id_album": "-462831703",
    "description": "Cat_433848",
    "title": "Cat_433848",
    "link_img": "https://live.staticflickr.com/65535/50352677632_006b34555b_o.jpg",
    "id_image": "Cat_433848",
    "count_view": 0
  },
  {
    "link_thumb": "https://live.staticflickr.com/65535/50017406247_ed7c8b7ded_n.jpg",
    "id_album": "1699594607",
    "description": "Bee_550254",
    "title": "Bee_550254",
    "link_img": "https://live.staticflickr.com/65535/50017406247_2af45a0cea_o.jpg",
    "id_image": "Bee_550254",
    "count_view": 0
  },
  {
    "link_thumb": "https://live.staticflickr.com/65535/50021705601_38b7367b90_n.jpg",
    "id_album": "1658866795",
    "description": "Insect_574390",
    "title": "Insect_574390",
    "link_img": "https://live.staticflickr.com/65535/50021705601_d5f7d5e862_o.jpg",
    "id_image": "Insect_574390",
    "count_view": 0
  },
  {
    "link_thumb": "https://live.staticflickr.com/65535/50020141367_709f05a786_n.jpg",
    "id_album": "815329026",
    "description": "Crab_794230",
    "title": "Crab_794230",
    "link_img": "https://live.staticflickr.com/65535/50020141367_ce559bf796_o.jpg",
    "id_image": "Crab_794230",
    "count_view": 0
  },
  {
    "link_thumb": "https://live.staticflickr.com/65535/50022170807_715c836ce1_n.jpg",
    "id_album": "1392348450",
    "description": "Leopard_376397",
    "title": "Leopard_376397",
    "link_img": "https://live.staticflickr.com/65535/50022170807_672147823e_o.jpg",
    "id_image": "Leopard_376397",
    "count_view": 0
  },
  {
    "link_thumb": "https://live.staticflickr.com/65535/50022745862_054ea5d953_n.jpg",
    "id_album": "-1384601601",
    "description": "Owl_839856",
    "title": "Owl_839856",
    "link_img": "https://live.staticflickr.com/65535/50022745862_510447d37c_o.jpg",
    "id_image": "Owl_839856",
    "count_view": 0
  },
  {
    "link_thumb": "https://live.staticflickr.com/65535/50017130592_3ea113c6b0_n.jpg",
    "id_album": "523598895",
    "description": "Artistic_151486",
    "title": "Artistic_151486",
    "link_img": "https://live.staticflickr.com/65535/50017130592_07a5ba6aff_o.jpg",
    "id_image": "Artistic_151486",
    "count_view": 0
  },
  {
    "link_thumb": "https://live.staticflickr.com/65535/50021869836_f69f593cf4_n.jpg",
    "id_album": "-1882491687",
    "description": "Ladybug_986085",
    "title": "Ladybug_986085",
    "link_img": "https://live.staticflickr.com/65535/50021869836_177e0acbaf_o.jpg",
    "id_image": "Ladybug_986085",
    "count_view": 0
  },
  {
    "link_thumb": "https://live.staticflickr.com/65535/50021748348_7fd74c1b98_n.jpg",
    "id_album": "1957967135",
    "description": "Mouse_424856",
    "title": "Mouse_424856",
    "link_img": "https://live.staticflickr.com/65535/50021748348_02851f7d06_o.jpg",
    "id_image": "Mouse_424856",
    "count_view": 0
  },
  {
    "link_thumb": "https://live.staticflickr.com/65535/50018772033_6308b7563e_n.jpg",
    "id_album": "-462831704",
    "description": "Cat_534068",
    "title": "Cat_534068",
    "link_img": "https://live.staticflickr.com/65535/50018772033_0e782c0494_o.jpg",
    "id_image": "Cat_534068",
    "count_view": 0
  },
  {
    "link_thumb": "https://live.staticflickr.com/65535/50019626963_3bc7e065c5_n.jpg",
    "id_album": "-149330232",
    "description": "Dog_217266",
    "title": "Dog_217266",
    "link_img": "https://live.staticflickr.com/65535/50019626963_e4edcb14cb_o.jpg",
    "id_image": "Dog_217266",
    "count_view": 0
  },
  {
    "link_thumb": "https://live.staticflickr.com/65535/50018414817_1ddc18d9d2_n.jpg",
    "id_album": "-462831702",
    "description": "Cat_408001",
    "title": "Cat_408001",
    "link_img": "https://live.staticflickr.com/65535/50018414817_c81425931a_o.jpg",
    "id_image": "Cat_408001",
    "count_view": 0
  },
  {
    "link_thumb": "https://live.staticflickr.com/65535/50018273562_41cafcb64c_n.jpg",
    "id_album": "-462831702",
    "description": "Cat_342107",
    "title": "Cat_342107",
    "link_img": "https://live.staticflickr.com/65535/50018273562_a5868201df_o.jpg",
    "id_image": "Cat_342107",
    "count_view": 0
  },
  {
    "link_thumb": "https://live.staticflickr.com/65535/50017522016_bf0fde4715_n.jpg",
    "id_album": "1696155652",
    "description": "Boxer_945026",
    "title": "Boxer_945026",
    "link_img": "https://live.staticflickr.com/65535/50017522016_b06e860e42_o.jpg",
    "id_image": "Boxer_945026",
    "count_view": 0
  },
  {
    "link_thumb": "https://live.staticflickr.com/65535/50018078806_831795e8e4_n.jpg",
    "id_album": "-462831702",
    "description": "Cat_367217",
    "title": "Cat_367217",
    "link_img": "https://live.staticflickr.com/65535/50018078806_afb4bdc5b2_o.jpg",
    "id_image": "Cat_367217",
    "count_view": 0
  },
  {
    "link_thumb": "https://live.staticflickr.com/65535/50020748032_b71776dcce_n.jpg",
    "id_album": "-149330231",
    "description": "Dog_714958",
    "title": "Dog_714958",
    "link_img": "https://live.staticflickr.com/65535/50020748032_a1e1971e5e_o.jpg",
    "id_image": "Dog_714958",
    "count_view": 0
  },
  {
    "link_thumb": "https://live.staticflickr.com/65535/50021381952_6314573369_n.jpg",
    "id_album": "-462831704",
    "description": "Cat_591495",
    "title": "Cat_591495",
    "link_img": "https://live.staticflickr.com/65535/50021381952_7055edce06_o.jpg",
    "id_image": "Cat_591495",
    "count_view": 0
  },
  {
    "link_thumb": "https://live.staticflickr.com/65535/50017464098_70c8224366_n.jpg",
    "id_album": "-462831702",
    "description": "Cat_332198",
    "title": "Cat_332198",
    "link_img": "https://live.staticflickr.com/65535/50017464098_b12825fc7a_o.jpg",
    "id_image": "Cat_332198",
    "count_view": 0
  },
  {
    "link_thumb": "https://live.staticflickr.com/65535/50021411541_a3c95b4dfb_n.jpg",
    "id_album": "82558972",
    "description": "GuineaPig_861449",
    "title": "GuineaPig_861449",
    "link_img": "https://live.staticflickr.com/65535/50021411541_1800840033_o.jpg",
    "id_image": "GuineaPig_861449",
    "count_view": 0
  },
  {
    "link_thumb": "https://live.staticflickr.com/65535/50021383923_eafd0731da_n.jpg",
    "id_album": "1392348450",
    "description": "Leopard_430106",
    "title": "Leopard_430106",
    "link_img": "https://live.staticflickr.com/65535/50021383923_b36798964c_o.jpg",
    "id_image": "Leopard_430106",
    "count_view": 0
  },
  {
    "link_thumb": "https://live.staticflickr.com/65535/50023365832_7dd1393335_n.jpg",
    "id_album": "-1940643173",
    "description": "Rabbit_428116",
    "title": "Rabbit_428116",
    "link_img": "https://live.staticflickr.com/65535/50023365832_6514a29d75_o.jpg",
    "id_image": "Rabbit_428116",
    "count_view": 0
  },
  {
    "link_thumb": "https://live.staticflickr.com/65535/50022190992_b36820b41a_n.jpg",
    "id_album": "1392348450",
    "description": "Leopard_533726",
    "title": "Leopard_533726",
    "link_img": "https://live.staticflickr.com/65535/50022190992_d5fdb01c2a_o.jpg",
    "id_image": "Leopard_533726",
    "count_view": 0
  },
  {
    "link_thumb": "https://live.staticflickr.com/65535/50018924558_801327d370_n.jpg",
    "id_album": "-462831705",
    "description": "Cat_91443",
    "title": "Cat_91443",
    "link_img": "https://live.staticflickr.com/65535/50018924558_00da7a5d43_o.jpg",
    "id_image": "Cat_91443",
    "count_view": 0
  },
  {
    "link_thumb": "https://live.staticflickr.com/65535/50022248158_e02af5a0d2_n.jpg",
    "id_album": "1008910300",
    "description": "PolarBear_241991",
    "title": "PolarBear_241991",
    "link_img": "https://live.staticflickr.com/65535/50022248158_964a1055eb_o.jpg",
    "id_image": "PolarBear_241991",
    "count_view": 0
  },
  {
    "link_thumb": "https://live.staticflickr.com/65535/50022167777_b7a8a9cae5_n.jpg",
    "id_album": "1392348450",
    "description": "Leopard_372790",
    "title": "Leopard_372790",
    "link_img": "https://live.staticflickr.com/65535/50022167777_674bf4ae51_o.jpg",
    "id_image": "Leopard_372790",
    "count_view": 0
  },
  {
    "link_thumb": "https://live.staticflickr.com/65535/50352558621_0c3d9d08eb_n.jpg",
    "id_album": "-462831703",
    "description": "Cat_483739",
    "title": "Cat_483739",
    "link_img": "https://live.staticflickr.com/65535/50352558621_140f5a488a_o.jpg",
    "id_image": "Cat_483739",
    "count_view": 0
  },
  {
    "link_thumb": "https://live.staticflickr.com/65535/50016435538_1e10d66b45_n.jpg",
    "id_album": "231236068",
    "description": "BaldEagle_591303",
    "title": "BaldEagle_591303",
    "link_img": "https://live.staticflickr.com/65535/50016435538_bc5d2b9fd1_o.jpg",
    "id_image": "BaldEagle_591303",
    "count_view": 0
  },
  {
    "link_thumb": "https://live.staticflickr.com/65535/50022814112_cfd4e79b16_n.jpg",
    "id_album": "405592235",
    "description": "Parrot_123678",
    "title": "Parrot_123678",
    "link_img": "https://live.staticflickr.com/65535/50022814112_b5cb2439f1_o.jpg",
    "id_image": "Parrot_123678",
    "count_view": 0
  },
  {
    "link_thumb": "https://live.staticflickr.com/65535/50017887732_c777fb3210_n.jpg",
    "id_album": "-401151552",
    "description": "Butterfly_565230",
    "title": "Butterfly_565230",
    "link_img": "https://live.staticflickr.com/65535/50017887732_4c0d7fa5c7_o.jpg",
    "id_image": "Butterfly_565230",
    "count_view": 0
  },
  {
    "link_thumb": "https://live.staticflickr.com/65535/50351930473_dc71edb95e_n.jpg",
    "id_album": "-462831703",
    "description": "Cat_614350",
    "title": "Cat_614350",
    "link_img": "https://live.staticflickr.com/65535/50351930473_67ff1882d8_o.jpg",
    "id_image": "Cat_614350",
    "count_view": 0
  },
  {
    "link_thumb": "https://live.staticflickr.com/65535/50017257697_fc6c00b4b5_n.jpg",
    "id_album": "809937717",
    "description": "Beagle_859583",
    "title": "Beagle_859583",
    "link_img": "https://live.staticflickr.com/65535/50017257697_8a10f37a73_o.jpg",
    "id_image": "Beagle_859583",
    "count_view": 0
  },
  {
    "link_thumb": "https://live.staticflickr.com/65535/50020471868_fbe7774535_n.jpg",
    "id_album": "-128218148",
    "description": "Fox_869628",
    "title": "Fox_869628",
    "link_img": "https://live.staticflickr.com/65535/50020471868_6264d7069a_o.jpg",
    "id_image": "Fox_869628",
    "count_view": 0
  },
  {
    "link_thumb": "https://live.staticflickr.com/65535/50016875463_efcec7027e_n.jpg",
    "id_album": "-1846011410",
    "description": "Bird_68442",
    "title": "Bird_68442",
    "link_img": "https://live.staticflickr.com/65535/50016875463_bcf8e7db48_o.jpg",
    "id_image": "Bird_68442",
    "count_view": 0
  },
  {
    "link_thumb": "https://live.staticflickr.com/65535/50019249586_199c945977_n.jpg",
    "id_album": "-462831704",
    "description": "Cat_484441",
    "title": "Cat_484441",
    "link_img": "https://live.staticflickr.com/65535/50019249586_6017f4fab5_o.jpg",
    "id_image": "Cat_484441",
    "count_view": 0
  },
  {
    "link_thumb": "https://live.staticflickr.com/65535/50023614103_e443e35a59_n.jpg",
    "id_album": "405170427",
    "description": "Tiger_552438",
    "title": "Tiger_552438",
    "link_img": "https://live.staticflickr.com/65535/50023614103_f162fda1f0_o.jpg",
    "id_image": "Tiger_552438",
    "count_view": 0
  },
  {
    "link_thumb": "https://live.staticflickr.com/65535/50019903228_c8d77d810c_n.jpg",
    "id_album": "-149330231",
    "description": "Dog_471016",
    "title": "Dog_471016",
    "link_img": "https://live.staticflickr.com/65535/50019903228_589d978fc3_o.jpg",
    "id_image": "Dog_471016",
    "count_view": 0
  },
  {
    "link_thumb": "https://live.staticflickr.com/65535/50020024287_550a22bf9b_n.jpg",
    "id_album": "791455625",
    "description": "Chipmunk_695021",
    "title": "Chipmunk_695021",
    "link_img": "https://live.staticflickr.com/65535/50020024287_3afcbc0a33_o.jpg",
    "id_image": "Chipmunk_695021",
    "count_view": 0
  },
  {
    "link_thumb": "https://live.staticflickr.com/65535/50021499963_121fa1f813_n.jpg",
    "id_album": "416744915",
    "description": "Lion_685371",
    "title": "Lion_685371",
    "link_img": "https://live.staticflickr.com/65535/50021499963_e731a3a33c_o.jpg",
    "id_image": "Lion_685371",
    "count_view": 0
  },
  {
    "link_thumb": "https://live.staticflickr.com/65535/50351771818_ac6cf57f14_n.jpg",
    "id_album": "-462831703",
    "description": "Cat_365175",
    "title": "Cat_365175",
    "link_img": "https://live.staticflickr.com/65535/50351771818_79384369a1_o.jpg",
    "id_image": "Cat_365175",
    "count_view": 0
  },
  {
    "link_thumb": "https://live.staticflickr.com/65535/50024283297_d96e9d8fc4_n.jpg",
    "id_album": "405170427",
    "description": "Tiger_105986",
    "title": "Tiger_105986",
    "link_img": "https://live.staticflickr.com/65535/50024283297_e99c60e2b8_o.jpg",
    "id_image": "Tiger_105986",
    "count_view": 0
  },
  {
    "link_thumb": "https://live.staticflickr.com/65535/50019042513_904bbecdca_n.jpg",
    "id_album": "-462831703",
    "description": "Cat_997685",
    "title": "Cat_997685",
    "link_img": "https://live.staticflickr.com/65535/50019042513_60aae80aa7_o.jpg",
    "id_image": "Cat_997685",
    "count_view": 0
  },
  {
    "link_thumb": "https://live.staticflickr.com/65535/50023994231_e5c7568a60_n.jpg",
    "id_album": "1244464375",
    "description": "Starfish_439487",
    "title": "Starfish_439487",
    "link_img": "https://live.staticflickr.com/65535/50023994231_1d430ab611_o.jpg",
    "id_image": "Starfish_439487",
    "count_view": 0
  },
  {
    "link_thumb": "https://live.staticflickr.com/65535/50021854892_9c58367291_n.jpg",
    "id_album": "2144294979",
    "description": "Hummingbird_24961",
    "title": "Hummingbird_24961",
    "link_img": "https://live.staticflickr.com/65535/50021854892_5371319d1e_o.jpg",
    "id_image": "Hummingbird_24961",
    "count_view": 0
  },
  {
    "link_thumb": "https://live.staticflickr.com/65535/50022265841_c504954e6f_n.jpg",
    "id_album": "-817970387",
    "description": "Moose_325715",
    "title": "Moose_325715",
    "link_img": "https://live.staticflickr.com/65535/50022265841_84d84f4a8e_o.jpg",
    "id_image": "Moose_325715",
    "count_view": 0
  },
  {
    "link_thumb": "https://live.staticflickr.com/65535/50017248607_9146624a24_n.jpg",
    "id_album": "809937717",
    "description": "Beagle_438682",
    "title": "Beagle_438682",
    "link_img": "https://live.staticflickr.com/65535/50017248607_e574e9dea2_o.jpg",
    "id_image": "Beagle_438682",
    "count_view": 0
  },
  {
    "link_thumb": "https://live.staticflickr.com/65535/50018385712_bccf5b985a_n.jpg",
    "id_album": "-462831702",
    "description": "Cat_392188",
    "title": "Cat_392188",
    "link_img": "https://live.staticflickr.com/65535/50018385712_e9251e54ae_o.jpg",
    "id_image": "Cat_392188",
    "count_view": 0
  },
  {
    "link_thumb": "https://live.staticflickr.com/65535/50023145793_12399da3b9_n.jpg",
    "id_album": "1933547265",
    "description": "SnowyOwl_542922",
    "title": "SnowyOwl_542922",
    "link_img": "https://live.staticflickr.com/65535/50023145793_e105ed92d5_o.jpg",
    "id_image": "SnowyOwl_542922",
    "count_view": 0
  },
  {
    "link_thumb": "https://live.staticflickr.com/65535/50016287123_833ef1ab09_n.jpg",
    "id_album": "-1473450542",
    "description": "Alpaca_548375",
    "title": "Alpaca_548375",
    "link_img": "https://live.staticflickr.com/65535/50016287123_e451311081_o.jpg",
    "id_image": "Alpaca_548375",
    "count_view": 0
  },
  {
    "link_thumb": "https://live.staticflickr.com/65535/50017141001_faa1b1eb45_n.jpg",
    "id_album": "1699594607",
    "description": "Bee_464910",
    "title": "Bee_464910",
    "link_img": "https://live.staticflickr.com/65535/50017141001_b170b68506_o.jpg",
    "id_image": "Bee_464910",
    "count_view": 0
  },
  {
    "link_thumb": "https://live.staticflickr.com/65535/50352652741_0c1bd72453_n.jpg",
    "id_album": "-462831703",
    "description": "Cat_698434",
    "title": "Cat_698434",
    "link_img": "https://live.staticflickr.com/65535/50352652741_c2629a344b_o.jpg",
    "id_image": "Cat_698434",
    "count_view": 0
  },
  {
    "link_thumb": "https://live.staticflickr.com/65535/50020600081_b94f01dcb9_n.jpg",
    "id_album": "-1859457960",
    "description": "Dove_574038",
    "title": "Dove_574038",
    "link_img": "https://live.staticflickr.com/65535/50020600081_9e5620772c_o.jpg",
    "id_image": "Dove_574038",
    "count_view": 0
  },
  {
    "link_thumb": "https://live.staticflickr.com/65535/50022579478_09391bb2a3_n.jpg",
    "id_album": "-1940643173",
    "description": "Rabbit_708876",
    "title": "Rabbit_708876",
    "link_img": "https://live.staticflickr.com/65535/50022579478_f279b85784_o.jpg",
    "id_image": "Rabbit_708876",
    "count_view": 0
  },
  {
    "link_thumb": "https://live.staticflickr.com/65535/50352800707_c1c9d3f373_n.jpg",
    "id_album": "-462831703",
    "description": "Cat_679507",
    "title": "Cat_679507",
    "link_img": "https://live.staticflickr.com/65535/50352800707_13e776ec90_o.jpg",
    "id_image": "Cat_679507",
    "count_view": 0
  },
  {
    "link_thumb": "https://live.staticflickr.com/65535/50017266647_d1d73f215a_n.jpg",
    "id_album": "-422187261",
    "description": "Bear_190986",
    "title": "Bear_190986",
    "link_img": "https://live.staticflickr.com/65535/50017266647_2be34292e4_o.jpg",
    "id_image": "Bear_190986",
    "count_view": 0
  },
  {
    "link_thumb": "https://live.staticflickr.com/65535/50019178551_6cd7f1260f_n.jpg",
    "id_album": "-462831702",
    "description": "Cat_427742",
    "title": "Cat_427742",
    "link_img": "https://live.staticflickr.com/65535/50019178551_8cd597266b_o.jpg",
    "id_image": "Cat_427742",
    "count_view": 0
  },
  {
    "link_thumb": "https://live.staticflickr.com/65535/50017328273_7b72d57e97_n.jpg",
    "id_album": "-462831705",
    "description": "Cat_210519",
    "title": "Cat_210519",
    "link_img": "https://live.staticflickr.com/65535/50017328273_7dde6b3e2a_o.jpg",
    "id_image": "Cat_210519",
    "count_view": 0
  },
  {
    "link_thumb": "https://live.staticflickr.com/65535/50021064798_bd6da360cd_n.jpg",
    "id_album": "2144294979",
    "description": "Hummingbird_374938",
    "title": "Hummingbird_374938",
    "link_img": "https://live.staticflickr.com/65535/50021064798_c494292e20_o.jpg",
    "id_image": "Hummingbird_374938",
    "count_view": 0
  },
  {
    "link_thumb": "https://live.staticflickr.com/65535/50018803373_55b86acaf5_n.jpg",
    "id_album": "-462831703",
    "description": "Cat_861486",
    "title": "Cat_861486",
    "link_img": "https://live.staticflickr.com/65535/50018803373_b2a0d5f1fe_o.jpg",
    "id_image": "Cat_861486",
    "count_view": 0
  },
  {
    "link_thumb": "https://live.staticflickr.com/65535/50021256067_c076fd1893_n.jpg",
    "id_album": "-128218148",
    "description": "Fox_775625",
    "title": "Fox_775625",
    "link_img": "https://live.staticflickr.com/65535/50021256067_aa135f2dea_o.jpg",
    "id_image": "Fox_775625",
    "count_view": 0
  },
  {
    "link_thumb": "https://live.staticflickr.com/65535/50019748593_97c681e649_n.jpg",
    "id_album": "-149330232",
    "description": "Dog_341609",
    "title": "Dog_341609",
    "link_img": "https://live.staticflickr.com/65535/50019748593_2237b20bf1_o.jpg",
    "id_image": "Dog_341609",
    "count_view": 0
  },
  {
    "link_thumb": "https://live.staticflickr.com/65535/50022311666_db7b88b667_n.jpg",
    "id_album": "1015034486",
    "description": "Muteswan_359944",
    "title": "Muteswan_359944",
    "link_img": "https://live.staticflickr.com/65535/50022311666_60c53bf79a_o.jpg",
    "id_image": "Muteswan_359944",
    "count_view": 0
  },
  {
    "link_thumb": "https://live.staticflickr.com/65535/50023154053_eb5635820e_n.jpg",
    "id_album": "-359606417",
    "description": "Sparrow_210068",
    "title": "Sparrow_210068",
    "link_img": "https://live.staticflickr.com/65535/50023154053_1e3474f221_o.jpg",
    "id_image": "Sparrow_210068",
    "count_view": 0
  },
  {
    "link_thumb": "https://live.staticflickr.com/65535/50017098906_3968542c4f_n.jpg",
    "id_album": "-422187261",
    "description": "Bear_904092",
    "title": "Bear_904092",
    "link_img": "https://live.staticflickr.com/65535/50017098906_7bfc408393_o.jpg",
    "id_image": "Bear_904092",
    "count_view": 0
  },
  {
    "link_thumb": "https://live.staticflickr.com/65535/50352504111_94f9679a01_n.jpg",
    "id_album": "-462831703",
    "description": "Cat_415231",
    "title": "Cat_415231",
    "link_img": "https://live.staticflickr.com/65535/50352504111_d5d6c11c89_o.jpg",
    "id_image": "Cat_415231",
    "count_view": 0
  },
  {
    "link_thumb": "https://live.staticflickr.com/65535/50016851281_c41028eea6_n.jpg",
    "id_album": "-834314226",
    "description": "ArcticFox_735524",
    "title": "ArcticFox_735524",
    "link_img": "https://live.staticflickr.com/65535/50016851281_edd679d069_o.jpg",
    "id_image": "ArcticFox_735524",
    "count_view": 0
  },
  {
    "link_thumb": "https://live.staticflickr.com/65535/50019708573_bb00dde37b_n.jpg",
    "id_album": "-149330232",
    "description": "Dog_323409",
    "title": "Dog_323409",
    "link_img": "https://live.staticflickr.com/65535/50019708573_651e10cd91_o.jpg",
    "id_image": "Dog_323409",
    "count_view": 0
  },
  {
    "link_thumb": "https://live.staticflickr.com/65535/50019040008_c8517fa6f1_n.jpg",
    "id_album": "-462831703",
    "description": "Cat_995818",
    "title": "Cat_995818",
    "link_img": "https://live.staticflickr.com/65535/50019040008_4c388e3d0a_o.jpg",
    "id_image": "Cat_995818",
    "count_view": 0
  },
  {
    "link_thumb": "https://live.staticflickr.com/65535/50018707413_e5510ca003_n.jpg",
    "id_album": "-462831704",
    "description": "Cat_464783",
    "title": "Cat_464783",
    "link_img": "https://live.staticflickr.com/65535/50018707413_897e9f1330_o.jpg",
    "id_image": "Cat_464783",
    "count_view": 0
  },
  {
    "link_thumb": "https://live.staticflickr.com/65535/50017394478_6338b8d1fe_n.jpg",
    "id_album": "-462831705",
    "description": "Cat_270406",
    "title": "Cat_270406",
    "link_img": "https://live.staticflickr.com/65535/50017394478_b26341a33f_o.jpg",
    "id_image": "Cat_270406",
    "count_view": 0
  },
  {
    "link_thumb": "https://live.staticflickr.com/65535/50021307043_20ab13b328_n.jpg",
    "id_album": "-1882491687",
    "description": "Ladybug_408436",
    "title": "Ladybug_408436",
    "link_img": "https://live.staticflickr.com/65535/50021307043_e12227f5a3_o.jpg",
    "id_image": "Ladybug_408436",
    "count_view": 0
  },
  {
    "link_thumb": "https://live.staticflickr.com/65535/50021646852_69eedd4aca_n.jpg",
    "id_album": "1950225324",
    "description": "Gorilla_478543",
    "title": "Gorilla_478543",
    "link_img": "https://live.staticflickr.com/65535/50021646852_41b1507013_o.jpg",
    "id_image": "Gorilla_478543",
    "count_view": 0
  },
  {
    "link_thumb": "https://live.staticflickr.com/65535/50019725497_fca24c97fa_n.jpg",
    "id_album": "-462831703",
    "description": "Cat_920504",
    "title": "Cat_920504",
    "link_img": "https://live.staticflickr.com/65535/50019725497_71f3bf6475_o.jpg",
    "id_image": "Cat_920504",
    "count_view": 0
  },
  {
    "link_thumb": "https://live.staticflickr.com/65535/50351857983_aae1a26f92_n.jpg",
    "id_album": "-462831703",
    "description": "Cat_474009",
    "title": "Cat_474009",
    "link_img": "https://live.staticflickr.com/65535/50351857983_d7e5d7e5c8_o.jpg",
    "id_image": "Cat_474009",
    "count_view": 0
  },
  {
    "link_thumb": "https://live.staticflickr.com/65535/50023171411_a4a9d29571_n.jpg",
    "id_album": "-434874555",
    "description": "RainbowLorikeet_367712",
    "title": "RainbowLorikeet_367712",
    "link_img": "https://live.staticflickr.com/65535/50023171411_bf5dd30a05_o.jpg",
    "id_image": "RainbowLorikeet_367712",
    "count_view": 0
  },
  {
    "link_thumb": "https://live.staticflickr.com/65535/50016343913_2ea3aa0cf4_n.jpg",
    "id_album": "523598895",
    "description": "Artistic_158845",
    "title": "Artistic_158845",
    "link_img": "https://live.staticflickr.com/65535/50016343913_ba4055edb2_o.jpg",
    "id_image": "Artistic_158845",
    "count_view": 0
  },
  {
    "link_thumb": "https://live.staticflickr.com/65535/50019621031_915d77222e_n.jpg",
    "id_album": "1889777354",
    "description": "CGI_188365",
    "title": "CGI_188365",
    "link_img": "https://live.staticflickr.com/65535/50019621031_75d76e0690_o.jpg",
    "id_image": "CGI_188365",
    "count_view": 0
  },
  {
    "link_thumb": "https://live.staticflickr.com/65535/50351798753_a296662bd1_n.jpg",
    "id_album": "-462831703",
    "description": "Cat_398768",
    "title": "Cat_398768",
    "link_img": "https://live.staticflickr.com/65535/50351798753_38676bf0eb_o.jpg",
    "id_image": "Cat_398768",
    "count_view": 0
  },
  {
    "link_thumb": "https://live.staticflickr.com/65535/50352775627_9f3422a822_n.jpg",
    "id_album": "-462831703",
    "description": "Cat_591620",
    "title": "Cat_591620",
    "link_img": "https://live.staticflickr.com/65535/50352775627_acfe46f2f1_o.jpg",
    "id_image": "Cat_591620",
    "count_view": 0
  },
  {
    "link_thumb": "https://live.staticflickr.com/65535/50351788358_ff911b67e0_n.jpg",
    "id_album": "-462831703",
    "description": "Cat_380089",
    "title": "Cat_380089",
    "link_img": "https://live.staticflickr.com/65535/50351788358_d99d430e4c_o.jpg",
    "id_image": "Cat_380089",
    "count_view": 0
  },
  {
    "link_thumb": "https://live.staticflickr.com/65535/50021923506_7cb73d4140_n.jpg",
    "id_album": "1392348450",
    "description": "Leopard_423240",
    "title": "Leopard_423240",
    "link_img": "https://live.staticflickr.com/65535/50021923506_7aaa6416c2_o.jpg",
    "id_image": "Leopard_423240",
    "count_view": 0
  },
  {
    "link_thumb": "https://live.staticflickr.com/65535/50021820578_48a4644d2b_n.jpg",
    "id_album": "106807275",
    "description": "Otter_150221",
    "title": "Otter_150221",
    "link_img": "https://live.staticflickr.com/65535/50021820578_ecfdbc77cb_o.jpg",
    "id_image": "Otter_150221",
    "count_view": 0
  },
  {
    "link_thumb": "https://live.staticflickr.com/65535/50021051896_8830112b68_n.jpg",
    "id_album": "844170697",
    "description": "Frog_207719",
    "title": "Frog_207719",
    "link_img": "https://live.staticflickr.com/65535/50021051896_cc9f578d69_o.jpg",
    "id_image": "Frog_207719",
    "count_view": 0
  },
  {
    "link_thumb": "https://live.staticflickr.com/65535/50023678433_d151aab2b9_n.jpg",
    "id_album": "405170427",
    "description": "Tiger_853828",
    "title": "Tiger_853828",
    "link_img": "https://live.staticflickr.com/65535/50023678433_0065df5092_o.jpg",
    "id_image": "Tiger_853828",
    "count_view": 0
  },
  {
    "link_thumb": "https://live.staticflickr.com/65535/50017426258_d3d16297d0_n.jpg",
    "id_album": "-462831702",
    "description": "Cat_310078",
    "title": "Cat_310078",
    "link_img": "https://live.staticflickr.com/65535/50017426258_befc60f758_o.jpg",
    "id_image": "Cat_310078",
    "count_view": 0
  },
  {
    "link_thumb": "https://live.staticflickr.com/65535/50019277636_c92b12ae90_n.jpg",
    "id_album": "-462831704",
    "description": "Cat_518632",
    "title": "Cat_518632",
    "link_img": "https://live.staticflickr.com/65535/50019277636_9fbc2df745_o.jpg",
    "id_image": "Cat_518632",
    "count_view": 0
  }
]