[
  {
    "link_thumb": "https://live.staticflickr.com/65535/50022164622_e5b575d322_n.jpg",
    "id_album": "1392348450",
    "description": "Leopard_365028",
    "title": "Leopard_365028",
    "link_img": "https://live.staticflickr.com/65535/50022164622_a60fca5c2d_o.jpg",
    "id_image": "Leopard_365028",
    "count_view": 0
  },
  {
    "link_thumb": "https://live.staticflickr.com/65535/50022164792_45f1369e0d_n.jpg",
    "id_album": "1392348450",
    "description": "Leopard_365030",
    "title": "Leopard_365030",
    "link_img": "https://live.staticflickr.com/65535/50022164792_b0a7a3c3f6_o.jpg",
    "id_image": "Leopard_365030",
    "count_view": 0
  },
  {
    "link_thumb": "https://live.staticflickr.com/65535/50022164962_0b4553eacf_n.jpg",
    "id_album": "1392348450",
    "description": "Leopard_365031",
    "title": "Leopard_365031",
    "link_img": "https://live.staticflickr.com/65535/50022164962_b6b88c6ac2_o.jpg",
    "id_image": "Leopard_365031",
    "count_view": 0
  },
  {
    "link_thumb": "https://live.staticflickr.com/65535/50022165057_f532f342d0_n.jpg",
    "id_album": "1392348450",
    "description": "Leopard_365032",
    "title": "Leopard_365032",
    "link_img": "https://live.staticflickr.com/65535/50022165057_f21f522837_o.jpg",
    "id_image": "Leopard_365032",
    "count_view": 0
  },
  {
    "link_thumb": "https://live.staticflickr.com/65535/50022165227_5d73bf584b_n.jpg",
    "id_album": "1392348450",
    "description": "Leopard_365287",
    "title": "Leopard_365287",
    "link_img": "https://live.staticflickr.com/65535/50022165227_3d66d70e08_o.jpg",
    "id_image": "Leopard_365287",
    "count_view": 0
  },
  {
    "link_thumb": "https://live.staticflickr.com/65535/50021366013_f28b909b77_n.jpg",
    "id_album": "1392348450",
    "description": "Leopard_365471",
    "title": "Leopard_365471",
    "link_img": "https://live.staticflickr.com/65535/50021366013_cf809e953b_o.jpg",
    "id_image": "Leopard_365471",
    "count_view": 0
  },
  {
    "link_thumb": "https://live.staticflickr.com/65535/50021908571_a59faf6ef3_n.jpg",
    "id_album": "1392348450",
    "description": "Leopard_366256",
    "title": "Leopard_366256",
    "link_img": "https://live.staticflickr.com/65535/50021908571_6c8710212b_o.jpg",
    "id_image": "Leopard_366256",
    "count_view": 0
  },
  {
    "link_thumb": "https://live.staticflickr.com/65535/50022165517_c85c50e432_n.jpg",
    "id_album": "1392348450",
    "description": "Leopard_366743",
    "title": "Leopard_366743",
    "link_img": "https://live.staticflickr.com/65535/50022165517_467c711778_o.jpg",
    "id_image": "Leopard_366743",
    "count_view": 0
  },
  {
    "link_thumb": "https://live.staticflickr.com/65535/50021908871_7918f1f31e_n.jpg",
    "id_album": "1392348450",
    "description": "Leopard_366893",
    "title": "Leopard_366893",
    "link_img": "https://live.staticflickr.com/65535/50021908871_33c660c757_o.jpg",
    "id_image": "Leopard_366893",
    "count_view": 0
  },
  {
    "link_thumb": "https://live.staticflickr.com/65535/50021908981_e49d73c5c8_n.jpg",
    "id_album": "1392348450",
    "description": "Leopard_367151",
    "title": "Leopard_367151",
    "link_img": "https://live.staticflickr.com/65535/50021908981_9609de66b5_o.jpg",
    "id_image": "Leopard_367151",
    "count_view": 0
  },
  {
    "link_thumb": "https://live.staticflickr.com/65535/50022165917_0a9d57393b_n.jpg",
    "id_album": "1392348450",
    "description": "Leopard_367155",
    "title": "Leopard_367155",
    "link_img": "https://live.staticflickr.com/65535/50022165917_a231acce5a_o.jpg",
    "id_image": "Leopard_367155",
    "count_view": 0
  },
  {
    "link_thumb": "https://live.staticflickr.com/65535/50022166057_cfdf00bbbc_n.jpg",
    "id_album": "1392348450",
    "description": "Leopard_367352",
    "title": "Leopard_367352",
    "link_img": "https://live.staticflickr.com/65535/50022166057_7bb45dfd34_o.jpg",
    "id_image": "Leopard_367352",
    "count_view": 0
  },
  {
    "link_thumb": "https://live.staticflickr.com/65535/50021366933_25a94a391d_n.jpg",
    "id_album": "1392348450",
    "description": "Leopard_367447",
    "title": "Leopard_367447",
    "link_img": "https://live.staticflickr.com/65535/50021366933_7af0ce5716_o.jpg",
    "id_image": "Leopard_367447",
    "count_view": 0
  },
  {
    "link_thumb": "https://live.staticflickr.com/65535/50022166297_427473041a_n.jpg",
    "id_album": "1392348450",
    "description": "Leopard_367449",
    "title": "Leopard_367449",
    "link_img": "https://live.staticflickr.com/65535/50022166297_de69eaf3c5_o.jpg",
    "id_image": "Leopard_367449",
    "count_view": 0
  },
  {
    "link_thumb": "https://live.staticflickr.com/65535/50021367108_1e75937041_n.jpg",
    "id_album": "1392348450",
    "description": "Leopard_367499",
    "title": "Leopard_367499",
    "link_img": "https://live.staticflickr.com/65535/50021367108_7afa492e9a_o.jpg",
    "id_image": "Leopard_367499",
    "count_view": 0
  },
  {
    "link_thumb": "https://live.staticflickr.com/65535/50021367198_0a83695975_n.jpg",
    "id_album": "1392348450",
    "description": "Leopard_368440",
    "title": "Leopard_368440",
    "link_img": "https://live.staticflickr.com/65535/50021367198_472137a057_o.jpg",
    "id_image": "Leopard_368440",
    "count_view": 0
  },
  {
    "link_thumb": "https://live.staticflickr.com/65535/50022166587_49b984a30b_n.jpg",
    "id_album": "1392348450",
    "description": "Leopard_368951",
    "title": "Leopard_368951",
    "link_img": "https://live.staticflickr.com/65535/50022166587_005f933227_o.jpg",
    "id_image": "Leopard_368951",
    "count_view": 0
  },
  {
    "link_thumb": "https://live.staticflickr.com/65535/50021367388_c752ae946b_n.jpg",
    "id_album": "1392348450",
    "description": "Leopard_369377",
    "title": "Leopard_369377",
    "link_img": "https://live.staticflickr.com/65535/50021367388_dc4e222eb0_o.jpg",
    "id_image": "Leopard_369377",
    "count_view": 0
  },
  {
    "link_thumb": "https://live.staticflickr.com/65535/50022166832_e7ac562c5a_n.jpg",
    "id_album": "1392348450",
    "description": "Leopard_369598",
    "title": "Leopard_369598",
    "link_img": "https://live.staticflickr.com/65535/50022166832_2615d6d0f4_o.jpg",
    "id_image": "Leopard_369598",
    "count_view": 0
  },
  {
    "link_thumb": "https://live.staticflickr.com/65535/50022166907_ffa3dd5755_n.jpg",
    "id_album": "1392348450",
    "description": "Leopard_369804",
    "title": "Leopard_369804",
    "link_img": "https://live.staticflickr.com/65535/50022166907_bd5e8ec508_o.jpg",
    "id_image": "Leopard_369804",
    "count_view": 0
  },
  {
    "link_thumb": "https://live.staticflickr.com/65535/50021367853_e61a03191b_n.jpg",
    "id_album": "1392348450",
    "description": "Leopard_370150",
    "title": "Leopard_370150",
    "link_img": "https://live.staticflickr.com/65535/50021367853_ac8fe488ef_o.jpg",
    "id_image": "Leopard_370150",
    "count_view": 0
  },
  {
    "link_thumb": "https://live.staticflickr.com/65535/50021910381_1e0f529a8e_n.jpg",
    "id_album": "1392348450",
    "description": "Leopard_370683",
    "title": "Leopard_370683",
    "link_img": "https://live.staticflickr.com/65535/50021910381_6563dc0e70_o.jpg",
    "id_image": "Leopard_370683",
    "count_view": 0
  },
  {
    "link_thumb": "https://live.staticflickr.com/65535/50021910491_27eea3c158_n.jpg",
    "id_album": "1392348450",
    "description": "Leopard_370741",
    "title": "Leopard_370741",
    "link_img": "https://live.staticflickr.com/65535/50021910491_068f633c77_o.jpg",
    "id_image": "Leopard_370741",
    "count_view": 0
  },
  {
    "link_thumb": "https://live.staticflickr.com/65535/50021910626_24a616b70d_n.jpg",
    "id_album": "1392348450",
    "description": "Leopard_371339",
    "title": "Leopard_371339",
    "link_img": "https://live.staticflickr.com/65535/50021910626_19aeecd061_o.jpg",
    "id_image": "Leopard_371339",
    "count_view": 0
  },
  {
    "link_thumb": "https://live.staticflickr.com/65535/50021368238_e94da53172_n.jpg",
    "id_album": "1392348450",
    "description": "Leopard_372208",
    "title": "Leopard_372208",
    "link_img": "https://live.staticflickr.com/65535/50021368238_d06fa78c9b_o.jpg",
    "id_image": "Leopard_372208",
    "count_view": 0
  },
  {
    "link_thumb": "https://live.staticflickr.com/65535/50022167637_9a328563f5_n.jpg",
    "id_album": "1392348450",
    "description": "Leopard_372756",
    "title": "Leopard_372756",
    "link_img": "https://live.staticflickr.com/65535/50022167637_7fa2d6805b_o.jpg",
    "id_image": "Leopard_372756",
    "count_view": 0
  },
  {
    "link_thumb": "https://live.staticflickr.com/65535/50021910991_78bddbc470_n.jpg",
    "id_album": "1392348450",
    "description": "Leopard_372789",
    "title": "Leopard_372789",
    "link_img": "https://live.staticflickr.com/65535/50021910991_43196570f7_o.jpg",
    "id_image": "Leopard_372789",
    "count_view": 0
  },
  {
    "link_thumb": "https://live.staticflickr.com/65535/50022167777_b7a8a9cae5_n.jpg",
    "id_album": "1392348450",
    "description": "Leopard_372790",
    "title": "Leopard_372790",
    "link_img": "https://live.staticflickr.com/65535/50022167777_674bf4ae51_o.jpg",
    "id_image": "Leopard_372790",
    "count_view": 0
  },
  {
    "link_thumb": "https://live.staticflickr.com/65535/50021911106_b48ec4ff8e_n.jpg",
    "id_album": "1392348450",
    "description": "Leopard_373185",
    "title": "Leopard_373185",
    "link_img": "https://live.staticflickr.com/65535/50021911106_fdcc425259_o.jpg",
    "id_image": "Leopard_373185",
    "count_view": 0
  },
  {
    "link_thumb": "https://live.staticflickr.com/65535/50021368733_618f5ae02f_n.jpg",
    "id_album": "1392348450",
    "description": "Leopard_373192",
    "title": "Leopard_373192",
    "link_img": "https://live.staticflickr.com/65535/50021368733_88bbf87078_o.jpg",
    "id_image": "Leopard_373192",
    "count_view": 0
  },
  {
    "link_thumb": "https://live.staticflickr.com/65535/50021368838_f1760c3ace_n.jpg",
    "id_album": "1392348450",
    "description": "Leopard_373221",
    "title": "Leopard_373221",
    "link_img": "https://live.staticflickr.com/65535/50021368838_9fde49ce42_o.jpg",
    "id_image": "Leopard_373221",
    "count_view": 0
  },
  {
    "link_thumb": "https://live.staticflickr.com/65535/50021368893_67388dbaf7_n.jpg",
    "id_album": "1392348450",
    "description": "Leopard_373232",
    "title": "Leopard_373232",
    "link_img": "https://live.staticflickr.com/65535/50021368893_05e0ae7238_o.jpg",
    "id_image": "Leopard_373232",
    "count_view": 0
  },
  {
    "link_thumb": "https://live.staticflickr.com/65535/50021911466_6fcc47115f_n.jpg",
    "id_album": "1392348450",
    "description": "Leopard_373565",
    "title": "Leopard_373565",
    "link_img": "https://live.staticflickr.com/65535/50021911466_41dcdbf8d1_o.jpg",
    "id_image": "Leopard_373565",
    "count_view": 0
  },
  {
    "link_thumb": "https://live.staticflickr.com/65535/50021911716_2c5809a89f_n.jpg",
    "id_album": "1392348450",
    "description": "Leopard_373574",
    "title": "Leopard_373574",
    "link_img": "https://live.staticflickr.com/65535/50021911716_a696253b17_o.jpg",
    "id_image": "Leopard_373574",
    "count_view": 0
  },
  {
    "link_thumb": "https://live.staticflickr.com/65535/50021369353_a057f6bbd3_n.jpg",
    "id_album": "1392348450",
    "description": "Leopard_374118",
    "title": "Leopard_374118",
    "link_img": "https://live.staticflickr.com/65535/50021369353_790bd3375d_o.jpg",
    "id_image": "Leopard_374118",
    "count_view": 0
  },
  {
    "link_thumb": "https://live.staticflickr.com/65535/50021911976_f2dc29f97d_n.jpg",
    "id_album": "1392348450",
    "description": "Leopard_374209",
    "title": "Leopard_374209",
    "link_img": "https://live.staticflickr.com/65535/50021911976_e06edee478_o.jpg",
    "id_image": "Leopard_374209",
    "count_view": 0
  },
  {
    "link_thumb": "https://live.staticflickr.com/65535/50022169162_28c3fd9da5_n.jpg",
    "id_album": "1392348450",
    "description": "Leopard_374236",
    "title": "Leopard_374236",
    "link_img": "https://live.staticflickr.com/65535/50022169162_b086b31b5d_o.jpg",
    "id_image": "Leopard_374236",
    "count_view": 0
  },
  {
    "link_thumb": "https://live.staticflickr.com/65535/50021370143_fdce59661a_n.jpg",
    "id_album": "1392348450",
    "description": "Leopard_375223",
    "title": "Leopard_375223",
    "link_img": "https://live.staticflickr.com/65535/50021370143_84e6f1810a_o.jpg",
    "id_image": "Leopard_375223",
    "count_view": 0
  },
  {
    "link_thumb": "https://live.staticflickr.com/65535/50021370253_1736175251_n.jpg",
    "id_album": "1392348450",
    "description": "Leopard_375225",
    "title": "Leopard_375225",
    "link_img": "https://live.staticflickr.com/65535/50021370253_ccee1dc9ba_o.jpg",
    "id_image": "Leopard_375225",
    "count_view": 0
  },
  {
    "link_thumb": "https://live.staticflickr.com/65535/50022169862_1821175968_n.jpg",
    "id_album": "1392348450",
    "description": "Leopard_375227",
    "title": "Leopard_375227",
    "link_img": "https://live.staticflickr.com/65535/50022169862_29345b750c_o.jpg",
    "id_image": "Leopard_375227",
    "count_view": 0
  },
  {
    "link_thumb": "https://live.staticflickr.com/65535/50022169977_ecd0db4246_n.jpg",
    "id_album": "1392348450",
    "description": "Leopard_375333",
    "title": "Leopard_375333",
    "link_img": "https://live.staticflickr.com/65535/50022169977_b454ea0d1d_o.jpg",
    "id_image": "Leopard_375333",
    "count_view": 0
  },
  {
    "link_thumb": "https://live.staticflickr.com/65535/50021370668_0efb18963d_n.jpg",
    "id_album": "1392348450",
    "description": "Leopard_375472",
    "title": "Leopard_375472",
    "link_img": "https://live.staticflickr.com/65535/50021370668_0dfe32d69f_o.jpg",
    "id_image": "Leopard_375472",
    "count_view": 0
  },
  {
    "link_thumb": "https://live.staticflickr.com/65535/50022170352_66bc0a1f9a_n.jpg",
    "id_album": "1392348450",
    "description": "Leopard_375927",
    "title": "Leopard_375927",
    "link_img": "https://live.staticflickr.com/65535/50022170352_89a366f96f_o.jpg",
    "id_image": "Leopard_375927",
    "count_view": 0
  },
  {
    "link_thumb": "https://live.staticflickr.com/65535/50021707383_4d2b0b9c5f_n.jpg",
    "id_album": "1392348450",
    "description": "Leopard_376020",
    "title": "Leopard_376020",
    "link_img": "https://live.staticflickr.com/65535/50021707383_86e85bef7f_o.jpg",
    "id_image": "Leopard_376020",
    "count_view": 0
  },
  {
    "link_thumb": "https://live.staticflickr.com/65535/50021913511_761cf34ab2_n.jpg",
    "id_album": "1392348450",
    "description": "Leopard_376093",
    "title": "Leopard_376093",
    "link_img": "https://live.staticflickr.com/65535/50021913511_ab125caed6_o.jpg",
    "id_image": "Leopard_376093",
    "count_view": 0
  },
  {
    "link_thumb": "https://live.staticflickr.com/65535/50021913726_a7d7b999ba_n.jpg",
    "id_album": "1392348450",
    "description": "Leopard_376127",
    "title": "Leopard_376127",
    "link_img": "https://live.staticflickr.com/65535/50021913726_0243e526f4_o.jpg",
    "id_image": "Leopard_376127",
    "count_view": 0
  },
  {
    "link_thumb": "https://live.staticflickr.com/65535/50022170807_715c836ce1_n.jpg",
    "id_album": "1392348450",
    "description": "Leopard_376397",
    "title": "Leopard_376397",
    "link_img": "https://live.staticflickr.com/65535/50022170807_672147823e_o.jpg",
    "id_image": "Leopard_376397",
    "count_view": 0
  },
  {
    "link_thumb": "https://live.staticflickr.com/65535/50021914071_16b3a82c6a_n.jpg",
    "id_album": "1392348450",
    "description": "Leopard_376854",
    "title": "Leopard_376854",
    "link_img": "https://live.staticflickr.com/65535/50021914071_9a14040c44_o.jpg",
    "id_image": "Leopard_376854",
    "count_view": 0
  },
  {
    "link_thumb": "https://live.staticflickr.com/65535/50021914191_bd80a52658_n.jpg",
    "id_album": "1392348450",
    "description": "Leopard_377021",
    "title": "Leopard_377021",
    "link_img": "https://live.staticflickr.com/65535/50021914191_b6834604fa_o.jpg",
    "id_image": "Leopard_377021",
    "count_view": 0
  },
  {
    "link_thumb": "https://live.staticflickr.com/65535/50021914421_4fb5106deb_n.jpg",
    "id_album": "1392348450",
    "description": "Leopard_377324",
    "title": "Leopard_377324",
    "link_img": "https://live.staticflickr.com/65535/50021914421_77d6537b8b_o.jpg",
    "id_image": "Leopard_377324",
    "count_view": 0
  },
  {
    "link_thumb": "https://live.staticflickr.com/65535/50021914501_177c1cf657_n.jpg",
    "id_album": "1392348450",
    "description": "Leopard_379233",
    "title": "Leopard_379233",
    "link_img": "https://live.staticflickr.com/65535/50021914501_b95cfcb571_o.jpg",
    "id_image": "Leopard_379233",
    "count_view": 0
  },
  {
    "link_thumb": "https://live.staticflickr.com/65535/50021914586_378375da96_n.jpg",
    "id_album": "1392348450",
    "description": "Leopard_379249",
    "title": "Leopard_379249",
    "link_img": "https://live.staticflickr.com/65535/50021914586_ce0418d2dd_o.jpg",
    "id_image": "Leopard_379249",
    "count_view": 0
  },
  {
    "link_thumb": "https://live.staticflickr.com/65535/50021914716_063e0381c5_n.jpg",
    "id_album": "1392348450",
    "description": "Leopard_379730",
    "title": "Leopard_379730",
    "link_img": "https://live.staticflickr.com/65535/50021914716_00d54e9072_o.jpg",
    "id_image": "Leopard_379730",
    "count_view": 0
  },
  {
    "link_thumb": "https://live.staticflickr.com/65535/50022172042_8fb5e2574e_n.jpg",
    "id_album": "1392348450",
    "description": "Leopard_379771",
    "title": "Leopard_379771",
    "link_img": "https://live.staticflickr.com/65535/50022172042_5ae83ba110_o.jpg",
    "id_image": "Leopard_379771",
    "count_view": 0
  },
  {
    "link_thumb": "https://live.staticflickr.com/65535/50021372533_d733766107_n.jpg",
    "id_album": "1392348450",
    "description": "Leopard_380955",
    "title": "Leopard_380955",
    "link_img": "https://live.staticflickr.com/65535/50021372533_9f07430256_o.jpg",
    "id_image": "Leopard_380955",
    "count_view": 0
  },
  {
    "link_thumb": "https://live.staticflickr.com/65535/50021915156_900642c302_n.jpg",
    "id_album": "1392348450",
    "description": "Leopard_380961",
    "title": "Leopard_380961",
    "link_img": "https://live.staticflickr.com/65535/50021915156_d2d160c6c9_o.jpg",
    "id_image": "Leopard_380961",
    "count_view": 0
  },
  {
    "link_thumb": "https://live.staticflickr.com/65535/50022172442_d9b382655a_n.jpg",
    "id_album": "1392348450",
    "description": "Leopard_380962",
    "title": "Leopard_380962",
    "link_img": "https://live.staticflickr.com/65535/50022172442_464de851e4_o.jpg",
    "id_image": "Leopard_380962",
    "count_view": 0
  },
  {
    "link_thumb": "https://live.staticflickr.com/65535/50021373043_4840de375a_n.jpg",
    "id_album": "1392348450",
    "description": "Leopard_382744",
    "title": "Leopard_382744",
    "link_img": "https://live.staticflickr.com/65535/50021373043_11eea56c03_o.jpg",
    "id_image": "Leopard_382744",
    "count_view": 0
  },
  {
    "link_thumb": "https://live.staticflickr.com/65535/50021915676_71baced32b_n.jpg",
    "id_album": "1392348450",
    "description": "Leopard_382758",
    "title": "Leopard_382758",
    "link_img": "https://live.staticflickr.com/65535/50021915676_11c9d767f5_o.jpg",
    "id_image": "Leopard_382758",
    "count_view": 0
  },
  {
    "link_thumb": "https://live.staticflickr.com/65535/50021373268_eb8803ce39_n.jpg",
    "id_album": "1392348450",
    "description": "Leopard_382759",
    "title": "Leopard_382759",
    "link_img": "https://live.staticflickr.com/65535/50021373268_31cc3451aa_o.jpg",
    "id_image": "Leopard_382759",
    "count_view": 0
  },
  {
    "link_thumb": "https://live.staticflickr.com/65535/50021373493_79db60bc91_n.jpg",
    "id_album": "1392348450",
    "description": "Leopard_383809",
    "title": "Leopard_383809",
    "link_img": "https://live.staticflickr.com/65535/50021373493_6ebcce44c4_o.jpg",
    "id_image": "Leopard_383809",
    "count_view": 0
  },
  {
    "link_thumb": "https://live.staticflickr.com/65535/50022173212_1b5005b598_n.jpg",
    "id_album": "1392348450",
    "description": "Leopard_383982",
    "title": "Leopard_383982",
    "link_img": "https://live.staticflickr.com/65535/50022173212_0ce6fed77e_o.jpg",
    "id_image": "Leopard_383982",
    "count_view": 0
  },
  {
    "link_thumb": "https://live.staticflickr.com/65535/50022173402_86ebc23e76_n.jpg",
    "id_album": "1392348450",
    "description": "Leopard_384383",
    "title": "Leopard_384383",
    "link_img": "https://live.staticflickr.com/65535/50022173402_f7d048811c_o.jpg",
    "id_image": "Leopard_384383",
    "count_view": 0
  },
  {
    "link_thumb": "https://live.staticflickr.com/65535/50022173497_c78aeff5c6_n.jpg",
    "id_album": "1392348450",
    "description": "Leopard_385056",
    "title": "Leopard_385056",
    "link_img": "https://live.staticflickr.com/65535/50022173497_ccec70f2df_o.jpg",
    "id_image": "Leopard_385056",
    "count_view": 0
  },
  {
    "link_thumb": "https://live.staticflickr.com/65535/50022173667_83374de3f9_n.jpg",
    "id_album": "1392348450",
    "description": "Leopard_385063",
    "title": "Leopard_385063",
    "link_img": "https://live.staticflickr.com/65535/50022173667_a568f5cddb_o.jpg",
    "id_image": "Leopard_385063",
    "count_view": 0
  },
  {
    "link_thumb": "https://live.staticflickr.com/65535/50022173787_fc33f7a979_n.jpg",
    "id_album": "1392348450",
    "description": "Leopard_386727",
    "title": "Leopard_386727",
    "link_img": "https://live.staticflickr.com/65535/50022173787_c8ce89c2cc_o.jpg",
    "id_image": "Leopard_386727",
    "count_view": 0
  },
  {
    "link_thumb": "https://live.staticflickr.com/65535/50022173882_2e2fc27ca6_n.jpg",
    "id_album": "1392348450",
    "description": "Leopard_386763",
    "title": "Leopard_386763",
    "link_img": "https://live.staticflickr.com/65535/50022173882_cc7d0c6d0e_o.jpg",
    "id_image": "Leopard_386763",
    "count_view": 0
  },
  {
    "link_thumb": "https://live.staticflickr.com/65535/50021374443_3b30bfca37_n.jpg",
    "id_album": "1392348450",
    "description": "Leopard_387882",
    "title": "Leopard_387882",
    "link_img": "https://live.staticflickr.com/65535/50021374443_2d2a0a1e93_o.jpg",
    "id_image": "Leopard_387882",
    "count_view": 0
  },
  {
    "link_thumb": "https://live.staticflickr.com/65535/50022174167_780c3e3860_n.jpg",
    "id_album": "1392348450",
    "description": "Leopard_387934",
    "title": "Leopard_387934",
    "link_img": "https://live.staticflickr.com/65535/50022174167_3a97e6f7c1_o.jpg",
    "id_image": "Leopard_387934",
    "count_view": 0
  },
  {
    "link_thumb": "https://live.staticflickr.com/65535/50021374613_6a68792f02_n.jpg",
    "id_album": "1392348450",
    "description": "Leopard_388125",
    "title": "Leopard_388125",
    "link_img": "https://live.staticflickr.com/65535/50021374613_38f3d6a4ef_o.jpg",
    "id_image": "Leopard_388125",
    "count_view": 0
  },
  {
    "link_thumb": "https://live.staticflickr.com/65535/50021917321_6849076465_n.jpg",
    "id_album": "1392348450",
    "description": "Leopard_388938",
    "title": "Leopard_388938",
    "link_img": "https://live.staticflickr.com/65535/50021917321_6e579f6b10_o.jpg",
    "id_image": "Leopard_388938",
    "count_view": 0
  },
  {
    "link_thumb": "https://live.staticflickr.com/65535/50021374868_364b7c048b_n.jpg",
    "id_album": "1392348450",
    "description": "Leopard_389384",
    "title": "Leopard_389384",
    "link_img": "https://live.staticflickr.com/65535/50021374868_e369214c31_o.jpg",
    "id_image": "Leopard_389384",
    "count_view": 0
  },
  {
    "link_thumb": "https://live.staticflickr.com/65535/50021917526_7a9d5c95d5_n.jpg",
    "id_album": "1392348450",
    "description": "Leopard_389848",
    "title": "Leopard_389848",
    "link_img": "https://live.staticflickr.com/65535/50021917526_2bdb720b04_o.jpg",
    "id_image": "Leopard_389848",
    "count_view": 0
  },
  {
    "link_thumb": "https://live.staticflickr.com/65535/50021375248_4f91ee1d0f_n.jpg",
    "id_album": "1392348450",
    "description": "Leopard_390137",
    "title": "Leopard_390137",
    "link_img": "https://live.staticflickr.com/65535/50021375248_cf598e76b8_o.jpg",
    "id_image": "Leopard_390137",
    "count_view": 0
  },
  {
    "link_thumb": "https://live.staticflickr.com/65535/50022174847_3c8399fb0d_n.jpg",
    "id_album": "1392348450",
    "description": "Leopard_390162",
    "title": "Leopard_390162",
    "link_img": "https://live.staticflickr.com/65535/50022174847_09a51bd6f4_o.jpg",
    "id_image": "Leopard_390162",
    "count_view": 0
  },
  {
    "link_thumb": "https://live.staticflickr.com/65535/50022174937_b946463780_n.jpg",
    "id_album": "1392348450",
    "description": "Leopard_390306",
    "title": "Leopard_390306",
    "link_img": "https://live.staticflickr.com/65535/50022174937_510c699b53_o.jpg",
    "id_image": "Leopard_390306",
    "count_view": 0
  },
  {
    "link_thumb": "https://live.staticflickr.com/65535/50021917971_df5e23347b_n.jpg",
    "id_album": "1392348450",
    "description": "Leopard_390323",
    "title": "Leopard_390323",
    "link_img": "https://live.staticflickr.com/65535/50021917971_828a7cfcf4_o.jpg",
    "id_image": "Leopard_390323",
    "count_view": 0
  },
  {
    "link_thumb": "https://live.staticflickr.com/65535/50022175077_9b10824fbb_n.jpg",
    "id_album": "1392348450",
    "description": "Leopard_390785",
    "title": "Leopard_390785",
    "link_img": "https://live.staticflickr.com/65535/50022175077_b44dd4ce4a_o.jpg",
    "id_image": "Leopard_390785",
    "count_view": 0
  },
  {
    "link_thumb": "https://live.staticflickr.com/65535/50022175167_7f6df751d5_n.jpg",
    "id_album": "1392348450",
    "description": "Leopard_394089",
    "title": "Leopard_394089",
    "link_img": "https://live.staticflickr.com/65535/50022175167_b970bbaeaf_o.jpg",
    "id_image": "Leopard_394089",
    "count_view": 0
  },
  {
    "link_thumb": "https://live.staticflickr.com/65535/50021918201_990cbb3206_n.jpg",
    "id_album": "1392348450",
    "description": "Leopard_394098",
    "title": "Leopard_394098",
    "link_img": "https://live.staticflickr.com/65535/50021918201_ab1e878207_o.jpg",
    "id_image": "Leopard_394098",
    "count_view": 0
  },
  {
    "link_thumb": "https://live.staticflickr.com/65535/50021375773_36ba69e1ac_n.jpg",
    "id_album": "1392348450",
    "description": "Leopard_394950",
    "title": "Leopard_394950",
    "link_img": "https://live.staticflickr.com/65535/50021375773_185053cffc_o.jpg",
    "id_image": "Leopard_394950",
    "count_view": 0
  },
  {
    "link_thumb": "https://live.staticflickr.com/65535/50021918416_9fcb418741_n.jpg",
    "id_album": "1392348450",
    "description": "Leopard_396306",
    "title": "Leopard_396306",
    "link_img": "https://live.staticflickr.com/65535/50021918416_d0599af3b6_o.jpg",
    "id_image": "Leopard_396306",
    "count_view": 0
  },
  {
    "link_thumb": "https://live.staticflickr.com/65535/50021376038_74d56acf7b_n.jpg",
    "id_album": "1392348450",
    "description": "Leopard_397149",
    "title": "Leopard_397149",
    "link_img": "https://live.staticflickr.com/65535/50021376038_a1fa38aab0_o.jpg",
    "id_image": "Leopard_397149",
    "count_view": 0
  },
  {
    "link_thumb": "https://live.staticflickr.com/65535/50022175687_a143d92642_n.jpg",
    "id_album": "1392348450",
    "description": "Leopard_397256",
    "title": "Leopard_397256",
    "link_img": "https://live.staticflickr.com/65535/50022175687_3ea123cff7_o.jpg",
    "id_image": "Leopard_397256",
    "count_view": 0
  },
  {
    "link_thumb": "https://live.staticflickr.com/65535/50021376373_a0218e551e_n.jpg",
    "id_album": "1392348450",
    "description": "Leopard_397627",
    "title": "Leopard_397627",
    "link_img": "https://live.staticflickr.com/65535/50021376373_eba8d40466_o.jpg",
    "id_image": "Leopard_397627",
    "count_view": 0
  },
  {
    "link_thumb": "https://live.staticflickr.com/65535/50022247871_aa19249880_n.jpg",
    "id_album": "1392348450",
    "description": "Leopard_397649",
    "title": "Leopard_397649",
    "link_img": "https://live.staticflickr.com/65535/50022247871_e78e1a4fe1_o.jpg",
    "id_image": "Leopard_397649",
    "count_view": 0
  },
  {
    "link_thumb": "https://live.staticflickr.com/65535/50022176067_f4e0c58cfa_n.jpg",
    "id_album": "1392348450",
    "description": "Leopard_398257",
    "title": "Leopard_398257",
    "link_img": "https://live.staticflickr.com/65535/50022176067_9097b26590_o.jpg",
    "id_image": "Leopard_398257",
    "count_view": 0
  },
  {
    "link_thumb": "https://live.staticflickr.com/65535/50022176172_194b680349_n.jpg",
    "id_album": "1392348450",
    "description": "Leopard_398261",
    "title": "Leopard_398261",
    "link_img": "https://live.staticflickr.com/65535/50022176172_cefb46653c_o.jpg",
    "id_image": "Leopard_398261",
    "count_view": 0
  },
  {
    "link_thumb": "https://live.staticflickr.com/65535/50021376738_f2c23b1267_n.jpg",
    "id_album": "1392348450",
    "description": "Leopard_398751",
    "title": "Leopard_398751",
    "link_img": "https://live.staticflickr.com/65535/50021376738_fde0807e6d_o.jpg",
    "id_image": "Leopard_398751",
    "count_view": 0
  },
  {
    "link_thumb": "https://live.staticflickr.com/65535/50022176387_f545cff2e7_n.jpg",
    "id_album": "1392348450",
    "description": "Leopard_400083",
    "title": "Leopard_400083",
    "link_img": "https://live.staticflickr.com/65535/50022176387_241c0075b1_o.jpg",
    "id_image": "Leopard_400083",
    "count_view": 0
  },
  {
    "link_thumb": "https://live.staticflickr.com/65535/50021377063_7012f7453f_n.jpg",
    "id_album": "1392348450",
    "description": "Leopard_400085",
    "title": "Leopard_400085",
    "link_img": "https://live.staticflickr.com/65535/50021377063_408aa888d4_o.jpg",
    "id_image": "Leopard_400085",
    "count_view": 0
  },
  {
    "link_thumb": "https://live.staticflickr.com/65535/50022176832_7cfebc4d1a_n.jpg",
    "id_album": "1392348450",
    "description": "Leopard_400630",
    "title": "Leopard_400630",
    "link_img": "https://live.staticflickr.com/65535/50022176832_55d1c22f2c_o.jpg",
    "id_image": "Leopard_400630",
    "count_view": 0
  },
  {
    "link_thumb": "https://live.staticflickr.com/65535/50021919766_b4a76e067e_n.jpg",
    "id_album": "1392348450",
    "description": "Leopard_404993",
    "title": "Leopard_404993",
    "link_img": "https://live.staticflickr.com/65535/50021919766_d315d328be_o.jpg",
    "id_image": "Leopard_404993",
    "count_view": 0
  },
  {
    "link_thumb": "https://live.staticflickr.com/65535/50021919891_ac46a10ffd_n.jpg",
    "id_album": "1392348450",
    "description": "Leopard_405124",
    "title": "Leopard_405124",
    "link_img": "https://live.staticflickr.com/65535/50021919891_29c67c03ba_o.jpg",
    "id_image": "Leopard_405124",
    "count_view": 0
  },
  {
    "link_thumb": "https://live.staticflickr.com/65535/50021377533_eb4b9644ec_n.jpg",
    "id_album": "1392348450",
    "description": "Leopard_406084",
    "title": "Leopard_406084",
    "link_img": "https://live.staticflickr.com/65535/50021377533_365fabc43a_o.jpg",
    "id_image": "Leopard_406084",
    "count_view": 0
  },
  {
    "link_thumb": "https://live.staticflickr.com/65535/50021377668_c2526afe79_n.jpg",
    "id_album": "1392348450",
    "description": "Leopard_406297",
    "title": "Leopard_406297",
    "link_img": "https://live.staticflickr.com/65535/50021377668_1d0d761058_o.jpg",
    "id_image": "Leopard_406297",
    "count_view": 0
  },
  {
    "link_thumb": "https://live.staticflickr.com/65535/50021920226_c66b8391ab_n.jpg",
    "id_album": "1392348450",
    "description": "Leopard_406303",
    "title": "Leopard_406303",
    "link_img": "https://live.staticflickr.com/65535/50021920226_7307e4a737_o.jpg",
    "id_image": "Leopard_406303",
    "count_view": 0
  },
  {
    "link_thumb": "https://live.staticflickr.com/65535/50021920351_86ef87cbc0_n.jpg",
    "id_album": "1392348450",
    "description": "Leopard_406503",
    "title": "Leopard_406503",
    "link_img": "https://live.staticflickr.com/65535/50021920351_42683d4165_o.jpg",
    "id_image": "Leopard_406503",
    "count_view": 0
  },
  {
    "link_thumb": "https://live.staticflickr.com/65535/50021377968_d296491ea2_n.jpg",
    "id_album": "1392348450",
    "description": "Leopard_406541",
    "title": "Leopard_406541",
    "link_img": "https://live.staticflickr.com/65535/50021377968_df020fd3c9_o.jpg",
    "id_image": "Leopard_406541",
    "count_view": 0
  },
  {
    "link_thumb": "https://live.staticflickr.com/65535/50021920621_fe31236887_n.jpg",
    "id_album": "1392348450",
    "description": "Leopard_407484",
    "title": "Leopard_407484",
    "link_img": "https://live.staticflickr.com/65535/50021920621_0320b36f46_o.jpg",
    "id_image": "Leopard_407484",
    "count_view": 0
  },
  {
    "link_thumb": "https://live.staticflickr.com/65535/50022177902_15425e3972_n.jpg",
    "id_album": "1392348450",
    "description": "Leopard_407867",
    "title": "Leopard_407867",
    "link_img": "https://live.staticflickr.com/65535/50022177902_dc522471b0_o.jpg",
    "id_image": "Leopard_407867",
    "count_view": 0
  },
  {
    "link_thumb": "https://live.staticflickr.com/65535/50021920926_7110fc1b81_n.jpg",
    "id_album": "1392348450",
    "description": "Leopard_407868",
    "title": "Leopard_407868",
    "link_img": "https://live.staticflickr.com/65535/50021920926_26a8d9fd6b_o.jpg",
    "id_image": "Leopard_407868",
    "count_view": 0
  },
  {
    "link_thumb": "https://live.staticflickr.com/65535/50021378668_df2a4fae9d_n.jpg",
    "id_album": "1392348450",
    "description": "Leopard_407876",
    "title": "Leopard_407876",
    "link_img": "https://live.staticflickr.com/65535/50021378668_ec0359476f_o.jpg",
    "id_image": "Leopard_407876",
    "count_view": 0
  },
  {
    "link_thumb": "https://live.staticflickr.com/65535/50022178292_f94e47e50a_n.jpg",
    "id_album": "1392348450",
    "description": "Leopard_407889",
    "title": "Leopard_407889",
    "link_img": "https://live.staticflickr.com/65535/50022178292_8cdde4aeba_o.jpg",
    "id_image": "Leopard_407889",
    "count_view": 0
  },
  {
    "link_thumb": "https://live.staticflickr.com/65535/50021378858_35ed5d85b4_n.jpg",
    "id_album": "1392348450",
    "description": "Leopard_408987",
    "title": "Leopard_408987",
    "link_img": "https://live.staticflickr.com/65535/50021378858_e62dedcffb_o.jpg",
    "id_image": "Leopard_408987",
    "count_view": 0
  },
  {
    "link_thumb": "https://live.staticflickr.com/65535/50022178567_5108cffa12_n.jpg",
    "id_album": "1392348450",
    "description": "Leopard_409421",
    "title": "Leopard_409421",
    "link_img": "https://live.staticflickr.com/65535/50022178567_11b5b6be4a_o.jpg",
    "id_image": "Leopard_409421",
    "count_view": 0
  },
  {
    "link_thumb": "https://live.staticflickr.com/65535/50021921561_f24406718c_n.jpg",
    "id_album": "1392348450",
    "description": "Leopard_409611",
    "title": "Leopard_409611",
    "link_img": "https://live.staticflickr.com/65535/50021921561_3e9d9c5327_o.jpg",
    "id_image": "Leopard_409611",
    "count_view": 0
  },
  {
    "link_thumb": "https://live.staticflickr.com/65535/50021921671_0a697a83f2_n.jpg",
    "id_album": "1392348450",
    "description": "Leopard_410045",
    "title": "Leopard_410045",
    "link_img": "https://live.staticflickr.com/65535/50021921671_73a042c323_o.jpg",
    "id_image": "Leopard_410045",
    "count_view": 0
  },
  {
    "link_thumb": "https://live.staticflickr.com/65535/50021921776_b72bab1598_n.jpg",
    "id_album": "1392348450",
    "description": "Leopard_410342",
    "title": "Leopard_410342",
    "link_img": "https://live.staticflickr.com/65535/50021921776_9fbfb7b6c3_o.jpg",
    "id_image": "Leopard_410342",
    "count_view": 0
  },
  {
    "link_thumb": "https://live.staticflickr.com/65535/50021921911_ddf4063baa_n.jpg",
    "id_album": "1392348450",
    "description": "Leopard_411122",
    "title": "Leopard_411122",
    "link_img": "https://live.staticflickr.com/65535/50021921911_92a8036d30_o.jpg",
    "id_image": "Leopard_411122",
    "count_view": 0
  },
  {
    "link_thumb": "https://live.staticflickr.com/65535/50021922031_ac76607fa2_n.jpg",
    "id_album": "1392348450",
    "description": "Leopard_413688",
    "title": "Leopard_413688",
    "link_img": "https://live.staticflickr.com/65535/50021922031_231fda1974_o.jpg",
    "id_image": "Leopard_413688",
    "count_view": 0
  },
  {
    "link_thumb": "https://live.staticflickr.com/65535/50022179322_1bce5c142e_n.jpg",
    "id_album": "1392348450",
    "description": "Leopard_414941",
    "title": "Leopard_414941",
    "link_img": "https://live.staticflickr.com/65535/50022179322_fb6b27b931_o.jpg",
    "id_image": "Leopard_414941",
    "count_view": 0
  },
  {
    "link_thumb": "https://live.staticflickr.com/65535/50022179452_e6e3017faf_n.jpg",
    "id_album": "1392348450",
    "description": "Leopard_414952",
    "title": "Leopard_414952",
    "link_img": "https://live.staticflickr.com/65535/50022179452_0ee2b06c1e_o.jpg",
    "id_image": "Leopard_414952",
    "count_view": 0
  },
  {
    "link_thumb": "https://live.staticflickr.com/65535/50021922521_76699b6f68_n.jpg",
    "id_album": "1392348450",
    "description": "Leopard_416388",
    "title": "Leopard_416388",
    "link_img": "https://live.staticflickr.com/65535/50021922521_a78d0e9fd9_o.jpg",
    "id_image": "Leopard_416388",
    "count_view": 0
  },
  {
    "link_thumb": "https://live.staticflickr.com/65535/50021380263_e42b91dfe0_n.jpg",
    "id_album": "1392348450",
    "description": "Leopard_421132",
    "title": "Leopard_421132",
    "link_img": "https://live.staticflickr.com/65535/50021380263_9784d6613b_o.jpg",
    "id_image": "Leopard_421132",
    "count_view": 0
  },
  {
    "link_thumb": "https://live.staticflickr.com/65535/50022180152_b25f2fe37e_n.jpg",
    "id_album": "1392348450",
    "description": "Leopard_421411",
    "title": "Leopard_421411",
    "link_img": "https://live.staticflickr.com/65535/50022180152_a7bc9c96ae_o.jpg",
    "id_image": "Leopard_421411",
    "count_view": 0
  },
  {
    "link_thumb": "https://live.staticflickr.com/65535/50022180337_4d237029be_n.jpg",
    "id_album": "1392348450",
    "description": "Leopard_421573",
    "title": "Leopard_421573",
    "link_img": "https://live.staticflickr.com/65535/50022180337_eb348ffcf9_o.jpg",
    "id_image": "Leopard_421573",
    "count_view": 0
  },
  {
    "link_thumb": "https://live.staticflickr.com/65535/50021923286_8b16510f0a_n.jpg",
    "id_album": "1392348450",
    "description": "Leopard_421998",
    "title": "Leopard_421998",
    "link_img": "https://live.staticflickr.com/65535/50021923286_7c5bfa129f_o.jpg",
    "id_image": "Leopard_421998",
    "count_view": 0
  },
  {
    "link_thumb": "https://live.staticflickr.com/65535/50022180542_847e2bf978_n.jpg",
    "id_album": "1392348450",
    "description": "Leopard_422915",
    "title": "Leopard_422915",
    "link_img": "https://live.staticflickr.com/65535/50022180542_a11a4f3d7c_o.jpg",
    "id_image": "Leopard_422915",
    "count_view": 0
  },
  {
    "link_thumb": "https://live.staticflickr.com/65535/50021923506_7cb73d4140_n.jpg",
    "id_album": "1392348450",
    "description": "Leopard_423240",
    "title": "Leopard_423240",
    "link_img": "https://live.staticflickr.com/65535/50021923506_7aaa6416c2_o.jpg",
    "id_image": "Leopard_423240",
    "count_view": 0
  },
  {
    "link_thumb": "https://live.staticflickr.com/65535/50021923581_ab6854c33c_n.jpg",
    "id_album": "1392348450",
    "description": "Leopard_423558",
    "title": "Leopard_423558",
    "link_img": "https://live.staticflickr.com/65535/50021923581_4f495b5d8c_o.jpg",
    "id_image": "Leopard_423558",
    "count_view": 0
  },
  {
    "link_thumb": "https://live.staticflickr.com/65535/50021923651_e942ee84d0_n.jpg",
    "id_album": "1392348450",
    "description": "Leopard_424696",
    "title": "Leopard_424696",
    "link_img": "https://live.staticflickr.com/65535/50021923651_8b2b24776b_o.jpg",
    "id_image": "Leopard_424696",
    "count_view": 0
  },
  {
    "link_thumb": "https://live.staticflickr.com/65535/50021923731_08b7b35af5_n.jpg",
    "id_album": "1392348450",
    "description": "Leopard_424701",
    "title": "Leopard_424701",
    "link_img": "https://live.staticflickr.com/65535/50021923731_d713012120_o.jpg",
    "id_image": "Leopard_424701",
    "count_view": 0
  },
  {
    "link_thumb": "https://live.staticflickr.com/65535/50022181182_12033472c1_n.jpg",
    "id_album": "1392348450",
    "description": "Leopard_425433",
    "title": "Leopard_425433",
    "link_img": "https://live.staticflickr.com/65535/50022181182_39c6155618_o.jpg",
    "id_image": "Leopard_425433",
    "count_view": 0
  },
  {
    "link_thumb": "https://live.staticflickr.com/65535/50021381628_f03ce77355_n.jpg",
    "id_album": "1392348450",
    "description": "Leopard_425486",
    "title": "Leopard_425486",
    "link_img": "https://live.staticflickr.com/65535/50021381628_6e4d730650_o.jpg",
    "id_image": "Leopard_425486",
    "count_view": 0
  },
  {
    "link_thumb": "https://live.staticflickr.com/65535/50021924236_3151e10e1b_n.jpg",
    "id_album": "1392348450",
    "description": "Leopard_425612",
    "title": "Leopard_425612",
    "link_img": "https://live.staticflickr.com/65535/50021924236_39466ccfcd_o.jpg",
    "id_image": "Leopard_425612",
    "count_view": 0
  },
  {
    "link_thumb": "https://live.staticflickr.com/65535/50022181527_767195af09_n.jpg",
    "id_album": "1392348450",
    "description": "Leopard_425785",
    "title": "Leopard_425785",
    "link_img": "https://live.staticflickr.com/65535/50022181527_edea9c3416_o.jpg",
    "id_image": "Leopard_425785",
    "count_view": 0
  },
  {
    "link_thumb": "https://live.staticflickr.com/65535/50021924466_74019205f9_n.jpg",
    "id_album": "1392348450",
    "description": "Leopard_425899",
    "title": "Leopard_425899",
    "link_img": "https://live.staticflickr.com/65535/50021924466_63ffdbd791_o.jpg",
    "id_image": "Leopard_425899",
    "count_view": 0
  },
  {
    "link_thumb": "https://live.staticflickr.com/65535/50021382083_7a11e8eb38_n.jpg",
    "id_album": "1392348450",
    "description": "Leopard_426032",
    "title": "Leopard_426032",
    "link_img": "https://live.staticflickr.com/65535/50021382083_cd0d7c5e78_o.jpg",
    "id_image": "Leopard_426032",
    "count_view": 0
  },
  {
    "link_thumb": "https://live.staticflickr.com/65535/50021382218_857a280f2a_n.jpg",
    "id_album": "1392348450",
    "description": "Leopard_426072",
    "title": "Leopard_426072",
    "link_img": "https://live.staticflickr.com/65535/50021382218_45589e0d04_o.jpg",
    "id_image": "Leopard_426072",
    "count_view": 0
  },
  {
    "link_thumb": "https://live.staticflickr.com/65535/50021382363_8e3895f168_n.jpg",
    "id_album": "1392348450",
    "description": "Leopard_426223",
    "title": "Leopard_426223",
    "link_img": "https://live.staticflickr.com/65535/50021382363_9a4d74ff4d_o.jpg",
    "id_image": "Leopard_426223",
    "count_view": 0
  },
  {
    "link_thumb": "https://live.staticflickr.com/65535/50022182237_1f01c63b4b_n.jpg",
    "id_album": "1392348450",
    "description": "Leopard_426854",
    "title": "Leopard_426854",
    "link_img": "https://live.staticflickr.com/65535/50022182237_e1e2d3a9ca_o.jpg",
    "id_image": "Leopard_426854",
    "count_view": 0
  },
  {
    "link_thumb": "https://live.staticflickr.com/65535/50021382623_1c507166fa_n.jpg",
    "id_album": "1392348450",
    "description": "Leopard_427297",
    "title": "Leopard_427297",
    "link_img": "https://live.staticflickr.com/65535/50021382623_03e0a68146_o.jpg",
    "id_image": "Leopard_427297",
    "count_view": 0
  },
  {
    "link_thumb": "https://live.staticflickr.com/65535/50021925191_991972ba09_n.jpg",
    "id_album": "1392348450",
    "description": "Leopard_427331",
    "title": "Leopard_427331",
    "link_img": "https://live.staticflickr.com/65535/50021925191_873caf90e8_o.jpg",
    "id_image": "Leopard_427331",
    "count_view": 0
  },
  {
    "link_thumb": "https://live.staticflickr.com/65535/50022182497_2d79a17814_n.jpg",
    "id_album": "1392348450",
    "description": "Leopard_427337",
    "title": "Leopard_427337",
    "link_img": "https://live.staticflickr.com/65535/50022182497_9f3de0b7f6_o.jpg",
    "id_image": "Leopard_427337",
    "count_view": 0
  },
  {
    "link_thumb": "https://live.staticflickr.com/65535/50022182632_0566677948_n.jpg",
    "id_album": "1392348450",
    "description": "Leopard_427513",
    "title": "Leopard_427513",
    "link_img": "https://live.staticflickr.com/65535/50022182632_6c3af32644_o.jpg",
    "id_image": "Leopard_427513",
    "count_view": 0
  },
  {
    "link_thumb": "https://live.staticflickr.com/65535/50021925521_0712bb58c3_n.jpg",
    "id_album": "1392348450",
    "description": "Leopard_427523",
    "title": "Leopard_427523",
    "link_img": "https://live.staticflickr.com/65535/50021925521_533ed6392c_o.jpg",
    "id_image": "Leopard_427523",
    "count_view": 0
  },
  {
    "link_thumb": "https://live.staticflickr.com/65535/50022182942_4aeabfc93c_n.jpg",
    "id_album": "1392348450",
    "description": "Leopard_427667",
    "title": "Leopard_427667",
    "link_img": "https://live.staticflickr.com/65535/50022182942_912dfd250d_o.jpg",
    "id_image": "Leopard_427667",
    "count_view": 0
  },
  {
    "link_thumb": "https://live.staticflickr.com/65535/50021383308_ab88ef1f7d_n.jpg",
    "id_album": "1392348450",
    "description": "Leopard_427798",
    "title": "Leopard_427798",
    "link_img": "https://live.staticflickr.com/65535/50021383308_be7d1011e0_o.jpg",
    "id_image": "Leopard_427798",
    "count_view": 0
  },
  {
    "link_thumb": "https://live.staticflickr.com/65535/50021383383_3368879ff2_n.jpg",
    "id_album": "1392348450",
    "description": "Leopard_427799",
    "title": "Leopard_427799",
    "link_img": "https://live.staticflickr.com/65535/50021383383_2087332ef6_o.jpg",
    "id_image": "Leopard_427799",
    "count_view": 0
  },
  {
    "link_thumb": "https://live.staticflickr.com/65535/50022183262_3c6560c39f_n.jpg",
    "id_album": "1392348450",
    "description": "Leopard_427855",
    "title": "Leopard_427855",
    "link_img": "https://live.staticflickr.com/65535/50022183262_fb04a69b98_o.jpg",
    "id_image": "Leopard_427855",
    "count_view": 0
  },
  {
    "link_thumb": "https://live.staticflickr.com/65535/50021383603_566595407e_n.jpg",
    "id_album": "1392348450",
    "description": "Leopard_429125",
    "title": "Leopard_429125",
    "link_img": "https://live.staticflickr.com/65535/50021383603_d9bfcb9e4a_o.jpg",
    "id_image": "Leopard_429125",
    "count_view": 0
  },
  {
    "link_thumb": "https://live.staticflickr.com/65535/50021926026_f525569810_n.jpg",
    "id_album": "1392348450",
    "description": "Leopard_429130",
    "title": "Leopard_429130",
    "link_img": "https://live.staticflickr.com/65535/50021926026_c9a4199edb_o.jpg",
    "id_image": "Leopard_429130",
    "count_view": 0
  },
  {
    "link_thumb": "https://live.staticflickr.com/65535/50021383818_3355236d3a_n.jpg",
    "id_album": "1392348450",
    "description": "Leopard_429537",
    "title": "Leopard_429537",
    "link_img": "https://live.staticflickr.com/65535/50021383818_1da2499d7f_o.jpg",
    "id_image": "Leopard_429537",
    "count_view": 0
  },
  {
    "link_thumb": "https://live.staticflickr.com/65535/50021383923_eafd0731da_n.jpg",
    "id_album": "1392348450",
    "description": "Leopard_430106",
    "title": "Leopard_430106",
    "link_img": "https://live.staticflickr.com/65535/50021383923_b36798964c_o.jpg",
    "id_image": "Leopard_430106",
    "count_view": 0
  },
  {
    "link_thumb": "https://live.staticflickr.com/65535/50021926306_760a6bdcc4_n.jpg",
    "id_album": "1392348450",
    "description": "Leopard_430234",
    "title": "Leopard_430234",
    "link_img": "https://live.staticflickr.com/65535/50021926306_a9ae01b3bc_o.jpg",
    "id_image": "Leopard_430234",
    "count_view": 0
  },
  {
    "link_thumb": "https://live.staticflickr.com/65535/50021926391_90a2f714dc_n.jpg",
    "id_album": "1392348450",
    "description": "Leopard_430715",
    "title": "Leopard_430715",
    "link_img": "https://live.staticflickr.com/65535/50021926391_e70d6105d2_o.jpg",
    "id_image": "Leopard_430715",
    "count_view": 0
  },
  {
    "link_thumb": "https://live.staticflickr.com/65535/50021926476_b8fde01b98_n.jpg",
    "id_album": "1392348450",
    "description": "Leopard_430718",
    "title": "Leopard_430718",
    "link_img": "https://live.staticflickr.com/65535/50021926476_b83dd11a6c_o.jpg",
    "id_image": "Leopard_430718",
    "count_view": 0
  },
  {
    "link_thumb": "https://live.staticflickr.com/65535/50021926566_8285634367_n.jpg",
    "id_album": "1392348450",
    "description": "Leopard_430767",
    "title": "Leopard_430767",
    "link_img": "https://live.staticflickr.com/65535/50021926566_dd0a2792fc_o.jpg",
    "id_image": "Leopard_430767",
    "count_view": 0
  },
  {
    "link_thumb": "https://live.staticflickr.com/65535/50021926681_44e468ee05_n.jpg",
    "id_album": "1392348450",
    "description": "Leopard_431560",
    "title": "Leopard_431560",
    "link_img": "https://live.staticflickr.com/65535/50021926681_e74d7fff3e_o.jpg",
    "id_image": "Leopard_431560",
    "count_view": 0
  },
  {
    "link_thumb": "https://live.staticflickr.com/65535/50021926791_5bbec8daca_n.jpg",
    "id_album": "1392348450",
    "description": "Leopard_431795",
    "title": "Leopard_431795",
    "link_img": "https://live.staticflickr.com/65535/50021926791_942ec8df58_o.jpg",
    "id_image": "Leopard_431795",
    "count_view": 0
  },
  {
    "link_thumb": "https://live.staticflickr.com/65535/50021926871_a2962eeae9_n.jpg",
    "id_album": "1392348450",
    "description": "Leopard_433120",
    "title": "Leopard_433120",
    "link_img": "https://live.staticflickr.com/65535/50021926871_a4a5e1fc69_o.jpg",
    "id_image": "Leopard_433120",
    "count_view": 0
  },
  {
    "link_thumb": "https://live.staticflickr.com/65535/50022184632_794eb19b65_n.jpg",
    "id_album": "1392348450",
    "description": "Leopard_433562",
    "title": "Leopard_433562",
    "link_img": "https://live.staticflickr.com/65535/50022184632_0187e06c2c_o.jpg",
    "id_image": "Leopard_433562",
    "count_view": 0
  },
  {
    "link_thumb": "https://live.staticflickr.com/65535/50022184762_b5df1db46e_n.jpg",
    "id_album": "1392348450",
    "description": "Leopard_433898",
    "title": "Leopard_433898",
    "link_img": "https://live.staticflickr.com/65535/50022184762_e21641da3f_o.jpg",
    "id_image": "Leopard_433898",
    "count_view": 0
  },
  {
    "link_thumb": "https://live.staticflickr.com/65535/50022184942_1d09f2af8c_n.jpg",
    "id_album": "1392348450",
    "description": "Leopard_434231",
    "title": "Leopard_434231",
    "link_img": "https://live.staticflickr.com/65535/50022184942_c56bbd100f_o.jpg",
    "id_image": "Leopard_434231",
    "count_view": 0
  },
  {
    "link_thumb": "https://live.staticflickr.com/65535/50021927336_10f2c84cbf_n.jpg",
    "id_album": "1392348450",
    "description": "Leopard_436143",
    "title": "Leopard_436143",
    "link_img": "https://live.staticflickr.com/65535/50021927336_684369c3e5_o.jpg",
    "id_image": "Leopard_436143",
    "count_view": 0
  },
  {
    "link_thumb": "https://live.staticflickr.com/65535/50021927421_5aab47bd78_n.jpg",
    "id_album": "1392348450",
    "description": "Leopard_436357",
    "title": "Leopard_436357",
    "link_img": "https://live.staticflickr.com/65535/50021927421_2242b6dac4_o.jpg",
    "id_image": "Leopard_436357",
    "count_view": 0
  },
  {
    "link_thumb": "https://live.staticflickr.com/65535/50021927491_c595966bfd_n.jpg",
    "id_album": "1392348450",
    "description": "Leopard_436700",
    "title": "Leopard_436700",
    "link_img": "https://live.staticflickr.com/65535/50021927491_a0709aefd7_o.jpg",
    "id_image": "Leopard_436700",
    "count_view": 0
  },
  {
    "link_thumb": "https://live.staticflickr.com/65535/50021385343_97702781ce_n.jpg",
    "id_album": "1392348450",
    "description": "Leopard_436914",
    "title": "Leopard_436914",
    "link_img": "https://live.staticflickr.com/65535/50021385343_31c0150fd3_o.jpg",
    "id_image": "Leopard_436914",
    "count_view": 0
  },
  {
    "link_thumb": "https://live.staticflickr.com/65535/50021927666_60ba469f75_n.jpg",
    "id_album": "1392348450",
    "description": "Leopard_437429",
    "title": "Leopard_437429",
    "link_img": "https://live.staticflickr.com/65535/50021927666_313814070d_o.jpg",
    "id_image": "Leopard_437429",
    "count_view": 0
  },
  {
    "link_thumb": "https://live.staticflickr.com/65535/50021927921_807e2a3c28_n.jpg",
    "id_album": "1392348450",
    "description": "Leopard_439884",
    "title": "Leopard_439884",
    "link_img": "https://live.staticflickr.com/65535/50021927921_398ca831b8_o.jpg",
    "id_image": "Leopard_439884",
    "count_view": 0
  },
  {
    "link_thumb": "https://live.staticflickr.com/65535/50021928026_2b88078970_n.jpg",
    "id_album": "1392348450",
    "description": "Leopard_439950",
    "title": "Leopard_439950",
    "link_img": "https://live.staticflickr.com/65535/50021928026_c3f96452ab_o.jpg",
    "id_image": "Leopard_439950",
    "count_view": 0
  },
  {
    "link_thumb": "https://live.staticflickr.com/65535/50022185807_9e251b6006_n.jpg",
    "id_album": "1392348450",
    "description": "Leopard_439989",
    "title": "Leopard_439989",
    "link_img": "https://live.staticflickr.com/65535/50022185807_bd4ef6b4e3_o.jpg",
    "id_image": "Leopard_439989",
    "count_view": 0
  },
  {
    "link_thumb": "https://live.staticflickr.com/65535/50022185922_a1d47238cb_n.jpg",
    "id_album": "1392348450",
    "description": "Leopard_441609",
    "title": "Leopard_441609",
    "link_img": "https://live.staticflickr.com/65535/50022185922_8a677a7797_o.jpg",
    "id_image": "Leopard_441609",
    "count_view": 0
  },
  {
    "link_thumb": "https://live.staticflickr.com/65535/50021386108_699a4fb5d6_n.jpg",
    "id_album": "1392348450",
    "description": "Leopard_447043",
    "title": "Leopard_447043",
    "link_img": "https://live.staticflickr.com/65535/50021386108_26083a9f1b_o.jpg",
    "id_image": "Leopard_447043",
    "count_view": 0
  },
  {
    "link_thumb": "https://live.staticflickr.com/65535/50021386248_4ef2b965ab_n.jpg",
    "id_album": "1392348450",
    "description": "Leopard_447223",
    "title": "Leopard_447223",
    "link_img": "https://live.staticflickr.com/65535/50021386248_9bb2534488_o.jpg",
    "id_image": "Leopard_447223",
    "count_view": 0
  },
  {
    "link_thumb": "https://live.staticflickr.com/65535/50022186187_385280fe8a_n.jpg",
    "id_album": "1392348450",
    "description": "Leopard_452066",
    "title": "Leopard_452066",
    "link_img": "https://live.staticflickr.com/65535/50022186187_baa2a2a3a8_o.jpg",
    "id_image": "Leopard_452066",
    "count_view": 0
  },
  {
    "link_thumb": "https://live.staticflickr.com/65535/50021928616_4681ca8d30_n.jpg",
    "id_album": "1392348450",
    "description": "Leopard_453852",
    "title": "Leopard_453852",
    "link_img": "https://live.staticflickr.com/65535/50021928616_eb44172099_o.jpg",
    "id_image": "Leopard_453852",
    "count_view": 0
  },
  {
    "link_thumb": "https://live.staticflickr.com/65535/50022186362_a28e38f012_n.jpg",
    "id_album": "1392348450",
    "description": "Leopard_454228",
    "title": "Leopard_454228",
    "link_img": "https://live.staticflickr.com/65535/50022186362_446c5625e7_o.jpg",
    "id_image": "Leopard_454228",
    "count_view": 0
  },
  {
    "link_thumb": "https://live.staticflickr.com/65535/50021928796_e1dbbeb373_n.jpg",
    "id_album": "1392348450",
    "description": "Leopard_454426",
    "title": "Leopard_454426",
    "link_img": "https://live.staticflickr.com/65535/50021928796_ecd24ffd32_o.jpg",
    "id_image": "Leopard_454426",
    "count_view": 0
  },
  {
    "link_thumb": "https://live.staticflickr.com/65535/50021386673_c1e912d0a8_n.jpg",
    "id_album": "1392348450",
    "description": "Leopard_454447",
    "title": "Leopard_454447",
    "link_img": "https://live.staticflickr.com/65535/50021386673_d959ddf14e_o.jpg",
    "id_image": "Leopard_454447",
    "count_view": 0
  },
  {
    "link_thumb": "https://live.staticflickr.com/65535/50022186617_1f986a3f5d_n.jpg",
    "id_album": "1392348450",
    "description": "Leopard_456936",
    "title": "Leopard_456936",
    "link_img": "https://live.staticflickr.com/65535/50022186617_e623187a19_o.jpg",
    "id_image": "Leopard_456936",
    "count_view": 0
  },
  {
    "link_thumb": "https://live.staticflickr.com/65535/50022186697_5eb1cf2f6f_n.jpg",
    "id_album": "1392348450",
    "description": "Leopard_458430",
    "title": "Leopard_458430",
    "link_img": "https://live.staticflickr.com/65535/50022186697_6071113907_o.jpg",
    "id_image": "Leopard_458430",
    "count_view": 0
  },
  {
    "link_thumb": "https://live.staticflickr.com/65535/50022186867_cc81c5c816_n.jpg",
    "id_album": "1392348450",
    "description": "Leopard_459386",
    "title": "Leopard_459386",
    "link_img": "https://live.staticflickr.com/65535/50022186867_97ed55dcf5_o.jpg",
    "id_image": "Leopard_459386",
    "count_view": 0
  },
  {
    "link_thumb": "https://live.staticflickr.com/65535/50022187022_4c9f2f8869_n.jpg",
    "id_album": "1392348450",
    "description": "Leopard_464656",
    "title": "Leopard_464656",
    "link_img": "https://live.staticflickr.com/65535/50022187022_e8c1286e6b_o.jpg",
    "id_image": "Leopard_464656",
    "count_view": 0
  },
  {
    "link_thumb": "https://live.staticflickr.com/65535/50022187152_6fab71b9fd_n.jpg",
    "id_album": "1392348450",
    "description": "Leopard_469161",
    "title": "Leopard_469161",
    "link_img": "https://live.staticflickr.com/65535/50022187152_b664152f9d_o.jpg",
    "id_image": "Leopard_469161",
    "count_view": 0
  },
  {
    "link_thumb": "https://live.staticflickr.com/65535/50022187272_603f179f30_n.jpg",
    "id_album": "1392348450",
    "description": "Leopard_476023",
    "title": "Leopard_476023",
    "link_img": "https://live.staticflickr.com/65535/50022187272_e3d1d520b3_o.jpg",
    "id_image": "Leopard_476023",
    "count_view": 0
  },
  {
    "link_thumb": "https://live.staticflickr.com/65535/50021930646_47abc7fd8f_n.jpg",
    "id_album": "1392348450",
    "description": "Leopard_514556",
    "title": "Leopard_514556",
    "link_img": "https://live.staticflickr.com/65535/50021930646_8043cd32cc_o.jpg",
    "id_image": "Leopard_514556",
    "count_view": 0
  },
  {
    "link_thumb": "https://live.staticflickr.com/65535/50021388568_b77a2e6851_n.jpg",
    "id_album": "1392348450",
    "description": "Leopard_522529",
    "title": "Leopard_522529",
    "link_img": "https://live.staticflickr.com/65535/50021388568_f24014487d_o.jpg",
    "id_image": "Leopard_522529",
    "count_view": 0
  },
  {
    "link_thumb": "https://live.staticflickr.com/65535/50022188672_bcc86043be_n.jpg",
    "id_album": "1392348450",
    "description": "Leopard_523265",
    "title": "Leopard_523265",
    "link_img": "https://live.staticflickr.com/65535/50022188672_0cf5e9b31f_o.jpg",
    "id_image": "Leopard_523265",
    "count_view": 0
  },
  {
    "link_thumb": "https://live.staticflickr.com/65535/50021388818_92db00ccde_n.jpg",
    "id_album": "1392348450",
    "description": "Leopard_523349",
    "title": "Leopard_523349",
    "link_img": "https://live.staticflickr.com/65535/50021388818_5f82b40299_o.jpg",
    "id_image": "Leopard_523349",
    "count_view": 0
  },
  {
    "link_thumb": "https://live.staticflickr.com/65535/50021931196_f9a68c54ec_n.jpg",
    "id_album": "1392348450",
    "description": "Leopard_523562",
    "title": "Leopard_523562",
    "link_img": "https://live.staticflickr.com/65535/50021931196_6124c06b55_o.jpg",
    "id_image": "Leopard_523562",
    "count_view": 0
  },
  {
    "link_thumb": "https://live.staticflickr.com/65535/50021931306_886e090f6e_n.jpg",
    "id_album": "1392348450",
    "description": "Leopard_523578",
    "title": "Leopard_523578",
    "link_img": "https://live.staticflickr.com/65535/50021931306_0b8dbb1196_o.jpg",
    "id_image": "Leopard_523578",
    "count_view": 0
  },
  {
    "link_thumb": "https://live.staticflickr.com/65535/50022189137_63054c2795_n.jpg",
    "id_album": "1392348450",
    "description": "Leopard_523612",
    "title": "Leopard_523612",
    "link_img": "https://live.staticflickr.com/65535/50022189137_6c67a898a1_o.jpg",
    "id_image": "Leopard_523612",
    "count_view": 0
  },
  {
    "link_thumb": "https://live.staticflickr.com/65535/50021389163_5f9439546e_n.jpg",
    "id_album": "1392348450",
    "description": "Leopard_523735",
    "title": "Leopard_523735",
    "link_img": "https://live.staticflickr.com/65535/50021389163_6a4bdc3e3a_o.jpg",
    "id_image": "Leopard_523735",
    "count_view": 0
  },
  {
    "link_thumb": "https://live.staticflickr.com/65535/50021389273_a399865967_n.jpg",
    "id_album": "1392348450",
    "description": "Leopard_523834",
    "title": "Leopard_523834",
    "link_img": "https://live.staticflickr.com/65535/50021389273_114ed4ed25_o.jpg",
    "id_image": "Leopard_523834",
    "count_view": 0
  },
  {
    "link_thumb": "https://live.staticflickr.com/65535/50021389368_12f0daf9ed_n.jpg",
    "id_album": "1392348450",
    "description": "Leopard_524498",
    "title": "Leopard_524498",
    "link_img": "https://live.staticflickr.com/65535/50021389368_bd53f76dc2_o.jpg",
    "id_image": "Leopard_524498",
    "count_view": 0
  },
  {
    "link_thumb": "https://live.staticflickr.com/65535/50021389543_175a0bfe64_n.jpg",
    "id_album": "1392348450",
    "description": "Leopard_526064",
    "title": "Leopard_526064",
    "link_img": "https://live.staticflickr.com/65535/50021389543_8e51c364dc_o.jpg",
    "id_image": "Leopard_526064",
    "count_view": 0
  },
  {
    "link_thumb": "https://live.staticflickr.com/65535/50021932036_dd42f237b2_n.jpg",
    "id_album": "1392348450",
    "description": "Leopard_526376",
    "title": "Leopard_526376",
    "link_img": "https://live.staticflickr.com/65535/50021932036_a2d93c54dc_o.jpg",
    "id_image": "Leopard_526376",
    "count_view": 0
  },
  {
    "link_thumb": "https://live.staticflickr.com/65535/50021932191_efb0a3af4f_n.jpg",
    "id_album": "1392348450",
    "description": "Leopard_526893",
    "title": "Leopard_526893",
    "link_img": "https://live.staticflickr.com/65535/50021932191_8fd749b829_o.jpg",
    "id_image": "Leopard_526893",
    "count_view": 0
  },
  {
    "link_thumb": "https://live.staticflickr.com/65535/50021389908_1c4bf56253_n.jpg",
    "id_album": "1392348450",
    "description": "Leopard_526894",
    "title": "Leopard_526894",
    "link_img": "https://live.staticflickr.com/65535/50021389908_9f4c5d6277_o.jpg",
    "id_image": "Leopard_526894",
    "count_view": 0
  },
  {
    "link_thumb": "https://live.staticflickr.com/65535/50022190412_6030df760c_n.jpg",
    "id_album": "1392348450",
    "description": "Leopard_529707",
    "title": "Leopard_529707",
    "link_img": "https://live.staticflickr.com/65535/50022190412_b46d39016c_o.jpg",
    "id_image": "Leopard_529707",
    "count_view": 0
  },
  {
    "link_thumb": "https://live.staticflickr.com/65535/50021932726_9faae3f3f1_n.jpg",
    "id_album": "1392348450",
    "description": "Leopard_529762",
    "title": "Leopard_529762",
    "link_img": "https://live.staticflickr.com/65535/50021932726_cd62231186_o.jpg",
    "id_image": "Leopard_529762",
    "count_view": 0
  },
  {
    "link_thumb": "https://live.staticflickr.com/65535/50021390428_bd06314e3c_n.jpg",
    "id_album": "1392348450",
    "description": "Leopard_529819",
    "title": "Leopard_529819",
    "link_img": "https://live.staticflickr.com/65535/50021390428_3e2936b3f9_o.jpg",
    "id_image": "Leopard_529819",
    "count_view": 0
  },
  {
    "link_thumb": "https://live.staticflickr.com/65535/50022190692_361b0d6683_n.jpg",
    "id_album": "1392348450",
    "description": "Leopard_529856",
    "title": "Leopard_529856",
    "link_img": "https://live.staticflickr.com/65535/50022190692_ae77bd54f3_o.jpg",
    "id_image": "Leopard_529856",
    "count_view": 0
  },
  {
    "link_thumb": "https://live.staticflickr.com/65535/50021390603_e29857aa58_n.jpg",
    "id_album": "1392348450",
    "description": "Leopard_529991",
    "title": "Leopard_529991",
    "link_img": "https://live.staticflickr.com/65535/50021390603_6bde150c87_o.jpg",
    "id_image": "Leopard_529991",
    "count_view": 0
  },
  {
    "link_thumb": "https://live.staticflickr.com/65535/50021390688_4e17b03430_n.jpg",
    "id_album": "1392348450",
    "description": "Leopard_530709",
    "title": "Leopard_530709",
    "link_img": "https://live.staticflickr.com/65535/50021390688_5a2bba4976_o.jpg",
    "id_image": "Leopard_530709",
    "count_view": 0
  },
  {
    "link_thumb": "https://live.staticflickr.com/65535/50022190992_b36820b41a_n.jpg",
    "id_album": "1392348450",
    "description": "Leopard_533726",
    "title": "Leopard_533726",
    "link_img": "https://live.staticflickr.com/65535/50022190992_d5fdb01c2a_o.jpg",
    "id_image": "Leopard_533726",
    "count_view": 0
  },
  {
    "link_thumb": "https://live.staticflickr.com/65535/50021933296_fe6695b76a_n.jpg",
    "id_album": "1392348450",
    "description": "Leopard_534586",
    "title": "Leopard_534586",
    "link_img": "https://live.staticflickr.com/65535/50021933296_f4ae5f560b_o.jpg",
    "id_image": "Leopard_534586",
    "count_view": 0
  },
  {
    "link_thumb": "https://live.staticflickr.com/65535/50022191522_26b735e594_n.jpg",
    "id_album": "1392348450",
    "description": "Leopard_541936",
    "title": "Leopard_541936",
    "link_img": "https://live.staticflickr.com/65535/50022191522_b486f8b757_o.jpg",
    "id_image": "Leopard_541936",
    "count_view": 0
  }
]