[
  {
    "link_thumb": "https://live.staticflickr.com/65535/50021441438_b8d3d9fb93_n.jpg",
    "id_album": "416744915",
    "description": "Lion_270874",
    "title": "Lion_270874",
    "link_img": "https://live.staticflickr.com/65535/50021441438_ca2f72a721_o.jpg",
    "id_image": "Lion_270874",
    "count_view": 0
  },
  {
    "link_thumb": "https://live.staticflickr.com/65535/50020364266_0fd11ff41c_n.jpg",
    "id_album": "-149330231",
    "description": "Dog_386684",
    "title": "Dog_386684",
    "link_img": "https://live.staticflickr.com/65535/50020364266_8af09d15c8_o.jpg",
    "id_image": "Dog_386684",
    "count_view": 0
  },
  {
    "link_thumb": "https://live.staticflickr.com/65535/50023888982_dcd393a32d_n.jpg",
    "id_album": "-1131363127",
    "description": "SnowLeopard_335275",
    "title": "SnowLeopard_335275",
    "link_img": "https://live.staticflickr.com/65535/50023888982_7bd8c5aff8_o.jpg",
    "id_image": "SnowLeopard_335275",
    "count_view": 0
  },
  {
    "link_thumb": "https://live.staticflickr.com/65535/50023647903_db00287ec8_n.jpg",
    "id_album": "405170427",
    "description": "Tiger_693062",
    "title": "Tiger_693062",
    "link_img": "https://live.staticflickr.com/65535/50023647903_9b6879d0f1_o.jpg",
    "id_image": "Tiger_693062",
    "count_view": 0
  },
  {
    "link_thumb": "https://live.staticflickr.com/65535/50020230182_11d27d20a8_n.jpg",
    "id_album": "-1783645069",
    "description": "Dalmatian_921464",
    "title": "Dalmatian_921464",
    "link_img": "https://live.staticflickr.com/65535/50020230182_fcc267566f_o.jpg",
    "id_image": "Dalmatian_921464",
    "count_view": 0
  },
  {
    "link_thumb": "https://live.staticflickr.com/65535/50019217056_68ec6be330_n.jpg",
    "id_album": "-462831704",
    "description": "Cat_448521",
    "title": "Cat_448521",
    "link_img": "https://live.staticflickr.com/65535/50019217056_ba96449125_o.jpg",
    "id_image": "Cat_448521",
    "count_view": 0
  },
  {
    "link_thumb": "https://live.staticflickr.com/65535/50021271453_283d1de19d_n.jpg",
    "id_album": "770105808",
    "description": "Kingfisher_927585",
    "title": "Kingfisher_927585",
    "link_img": "https://live.staticflickr.com/65535/50021271453_c0f706377c_o.jpg",
    "id_image": "Kingfisher_927585",
    "count_view": 0
  },
  {
    "link_thumb": "https://live.staticflickr.com/65535/50352415216_e48f74781e_n.jpg",
    "id_album": "-462831703",
    "description": "Cat_190967",
    "title": "Cat_190967",
    "link_img": "https://live.staticflickr.com/65535/50352415216_193ce5b279_o.jpg",
    "id_image": "Cat_190967",
    "count_view": 0
  },
  {
    "link_thumb": "https://live.staticflickr.com/65535/50017961012_eb136dec23_n.jpg",
    "id_album": "-401151552",
    "description": "Butterfly_926528",
    "title": "Butterfly_926528",
    "link_img": "https://live.staticflickr.com/65535/50017961012_f8115a1c17_o.jpg",
    "id_image": "Butterfly_926528",
    "count_view": 0
  },
  {
    "link_thumb": "https://live.staticflickr.com/65535/50021372147_9a5073d494_n.jpg",
    "id_album": "-462831704",
    "description": "Cat_569907",
    "title": "Cat_569907",
    "link_img": "https://live.staticflickr.com/65535/50021372147_34de9f8274_o.jpg",
    "id_image": "Cat_569907",
    "count_view": 0
  },
  {
    "link_thumb": "https://live.staticflickr.com/65535/50020480292_05e64f08db_n.jpg",
    "id_album": "-149330232",
    "description": "Dog_284787",
    "title": "Dog_284787",
    "link_img": "https://live.staticflickr.com/65535/50020480292_3e6d52f6ea_o.jpg",
    "id_image": "Dog_284787",
    "count_view": 0
  },
  {
    "link_thumb": "https://live.staticflickr.com/65535/50021939292_b287abe286_n.jpg",
    "id_album": "1658866795",
    "description": "Insect_404362",
    "title": "Insect_404362",
    "link_img": "https://live.staticflickr.com/65535/50021939292_01521a8991_o.jpg",
    "id_image": "Insect_404362",
    "count_view": 0
  },
  {
    "link_thumb": "https://live.staticflickr.com/65535/50020017788_a5520673e3_n.jpg",
    "id_album": "-149330231",
    "description": "Dog_956204",
    "title": "Dog_956204",
    "link_img": "https://live.staticflickr.com/65535/50020017788_a9ecb77d60_o.jpg",
    "id_image": "Dog_956204",
    "count_view": 0
  },
  {
    "link_thumb": "https://live.staticflickr.com/65535/50020614131_8a763c16d3_n.jpg",
    "id_album": "-405058657",
    "description": "Dragonfly_364575",
    "title": "Dragonfly_364575",
    "link_img": "https://live.staticflickr.com/65535/50020614131_b75278e229_o.jpg",
    "id_image": "Dragonfly_364575",
    "count_view": 0
  },
  {
    "link_thumb": "https://live.staticflickr.com/65535/50023094551_059ec87f05_n.jpg",
    "id_album": "-1940643173",
    "description": "Rabbit_284079",
    "title": "Rabbit_284079",
    "link_img": "https://live.staticflickr.com/65535/50023094551_fc5937f06f_o.jpg",
    "id_image": "Rabbit_284079",
    "count_view": 0
  },
  {
    "link_thumb": "https://live.staticflickr.com/65535/50022610378_2fc73c4109_n.jpg",
    "id_album": "248289288",
    "description": "Raccoon_571678",
    "title": "Raccoon_571678",
    "link_img": "https://live.staticflickr.com/65535/50022610378_34777dd48f_o.jpg",
    "id_image": "Raccoon_571678",
    "count_view": 0
  },
  {
    "link_thumb": "https://live.staticflickr.com/65535/50022528482_8ca158e7cd_n.jpg",
    "id_album": "-817970387",
    "description": "Moose_366780",
    "title": "Moose_366780",
    "link_img": "https://live.staticflickr.com/65535/50022528482_6f99415406_o.jpg",
    "id_image": "Moose_366780",
    "count_view": 0
  },
  {
    "link_thumb": "https://live.staticflickr.com/65535/50019962613_eb5867a30a_n.jpg",
    "id_album": "-149330231",
    "description": "Dog_724552",
    "title": "Dog_724552",
    "link_img": "https://live.staticflickr.com/65535/50019962613_4a6f2da06b_o.jpg",
    "id_image": "Dog_724552",
    "count_view": 0
  },
  {
    "link_thumb": "https://live.staticflickr.com/65535/50020199311_3761c1f0b9_n.jpg",
    "id_album": "-149330232",
    "description": "Dog_268516",
    "title": "Dog_268516",
    "link_img": "https://live.staticflickr.com/65535/50020199311_55ab81c9e0_o.jpg",
    "id_image": "Dog_268516",
    "count_view": 0
  },
  {
    "link_thumb": "https://live.staticflickr.com/65535/50019403146_f5a8f7e6b9_n.jpg",
    "id_album": "-462831703",
    "description": "Cat_893721",
    "title": "Cat_893721",
    "link_img": "https://live.staticflickr.com/65535/50019403146_498de2b1fe_o.jpg",
    "id_image": "Cat_893721",
    "count_view": 0
  },
  {
    "link_thumb": "https://live.staticflickr.com/65535/50017135782_71dd69250a_n.jpg",
    "id_album": "523598895",
    "description": "Artistic_176808",
    "title": "Artistic_176808",
    "link_img": "https://live.staticflickr.com/65535/50017135782_3787b5f73b_o.jpg",
    "id_image": "Artistic_176808",
    "count_view": 0
  },
  {
    "link_thumb": "https://live.staticflickr.com/65535/50016986956_b9a25d10bb_n.jpg",
    "id_album": "809937717",
    "description": "Beagle_416129",
    "title": "Beagle_416129",
    "link_img": "https://live.staticflickr.com/65535/50016986956_666eefa4de_o.jpg",
    "id_image": "Beagle_416129",
    "count_view": 0
  },
  {
    "link_thumb": "https://live.staticflickr.com/65535/50020193402_bc233fb545_n.jpg",
    "id_album": "1273365283",
    "description": "Cute_366757",
    "title": "Cute_366757",
    "link_img": "https://live.staticflickr.com/65535/50020193402_08ed49e925_o.jpg",
    "id_image": "Cute_366757",
    "count_view": 0
  },
  {
    "link_thumb": "https://live.staticflickr.com/65535/50351841768_8c9315d629_n.jpg",
    "id_album": "-462831703",
    "description": "Cat_459268",
    "title": "Cat_459268",
    "link_img": "https://live.staticflickr.com/65535/50351841768_f2ec83a9cd_o.jpg",
    "id_image": "Cat_459268",
    "count_view": 0
  },
  {
    "link_thumb": "https://live.staticflickr.com/65535/50016603773_9dfb26cb44_n.jpg",
    "id_album": "1699594607",
    "description": "Bee_364921",
    "title": "Bee_364921",
    "link_img": "https://live.staticflickr.com/65535/50016603773_7c46d13d82_o.jpg",
    "id_image": "Bee_364921",
    "count_view": 0
  },
  {
    "link_thumb": "https://live.staticflickr.com/65535/50021913817_95f6c1957f_n.jpg",
    "id_album": "1658866795",
    "description": "Insect_266783",
    "title": "Insect_266783",
    "link_img": "https://live.staticflickr.com/65535/50021913817_2ee4e98b86_o.jpg",
    "id_image": "Insect_266783",
    "count_view": 0
  },
  {
    "link_thumb": "https://live.staticflickr.com/65535/50020609896_955dcc7cd2_n.jpg",
    "id_album": "-405058657",
    "description": "Dragonfly_336445",
    "title": "Dragonfly_336445",
    "link_img": "https://live.staticflickr.com/65535/50020609896_5c0f427eae_o.jpg",
    "id_image": "Dragonfly_336445",
    "count_view": 0
  },
  {
    "link_thumb": "https://live.staticflickr.com/65535/50020407148_66d8a0fc35_n.jpg",
    "id_album": "-128218148",
    "description": "Fox_346621",
    "title": "Fox_346621",
    "link_img": "https://live.staticflickr.com/65535/50020407148_206ce758c4_o.jpg",
    "id_image": "Fox_346621",
    "count_view": 0
  },
  {
    "link_thumb": "https://live.staticflickr.com/65535/50016993161_b98ffa0b28_n.jpg",
    "id_album": "809937717",
    "description": "Beagle_715635",
    "title": "Beagle_715635",
    "link_img": "https://live.staticflickr.com/65535/50016993161_9ce30ecc04_o.jpg",
    "id_image": "Beagle_715635",
    "count_view": 0
  },
  {
    "link_thumb": "https://live.staticflickr.com/65535/50019355203_26fc732ea4_n.jpg",
    "id_album": "1475096665",
    "description": "Crocodile_208669",
    "title": "Crocodile_208669",
    "link_img": "https://live.staticflickr.com/65535/50019355203_f5e3d90638_o.jpg",
    "id_image": "Crocodile_208669",
    "count_view": 0
  },
  {
    "link_thumb": "https://live.staticflickr.com/65535/50023650178_7d6633d559_n.jpg",
    "id_album": "405170427",
    "description": "Tiger_705114",
    "title": "Tiger_705114",
    "link_img": "https://live.staticflickr.com/65535/50023650178_122fd92de8_o.jpg",
    "id_image": "Tiger_705114",
    "count_view": 0
  },
  {
    "link_thumb": "https://live.staticflickr.com/65535/50018363457_54482b31c5_n.jpg",
    "id_album": "-462831702",
    "description": "Cat_377010",
    "title": "Cat_377010",
    "link_img": "https://live.staticflickr.com/65535/50018363457_4935c369fb_o.jpg",
    "id_image": "Cat_377010",
    "count_view": 0
  },
  {
    "link_thumb": "https://live.staticflickr.com/65535/50016926958_178baceb16_n.jpg",
    "id_album": "-1561645279",
    "description": "BlackPanther_414961",
    "title": "BlackPanther_414961",
    "link_img": "https://live.staticflickr.com/65535/50016926958_56babc68a7_o.jpg",
    "id_image": "BlackPanther_414961",
    "count_view": 0
  },
  {
    "link_thumb": "https://live.staticflickr.com/65535/50017076036_bec7cee40a_n.jpg",
    "id_album": "-422187261",
    "description": "Bear_745263",
    "title": "Bear_745263",
    "link_img": "https://live.staticflickr.com/65535/50017076036_68b7d66c17_o.jpg",
    "id_image": "Bear_745263",
    "count_view": 0
  },
  {
    "link_thumb": "https://live.staticflickr.com/65535/50024507127_ff6dd82f61_n.jpg",
    "id_album": "405170427",
    "description": "Tiger_942846",
    "title": "Tiger_942846",
    "link_img": "https://live.staticflickr.com/65535/50024507127_c882267eea_o.jpg",
    "id_image": "Tiger_942846",
    "count_view": 0
  },
  {
    "link_thumb": "https://live.staticflickr.com/65535/50018034392_8c23f96f61_n.jpg",
    "id_album": "-462831705",
    "description": "Cat_117595",
    "title": "Cat_117595",
    "link_img": "https://live.staticflickr.com/65535/50018034392_61d1a7e3e0_o.jpg",
    "id_image": "Cat_117595",
    "count_view": 0
  },
  {
    "link_thumb": "https://live.staticflickr.com/65535/50020328417_0ffbc349b6_n.jpg",
    "id_album": "1903411565",
    "description": "Deer_990162",
    "title": "Deer_990162",
    "link_img": "https://live.staticflickr.com/65535/50020328417_a3a2d85a2e_o.jpg",
    "id_image": "Deer_990162",
    "count_view": 0
  },
  {
    "link_thumb": "https://live.staticflickr.com/65535/50021168996_68147b5b96_n.jpg",
    "id_album": "-462831704",
    "description": "Cat_686793",
    "title": "Cat_686793",
    "link_img": "https://live.staticflickr.com/65535/50021168996_4b20b8bfb4_o.jpg",
    "id_image": "Cat_686793",
    "count_view": 0
  },
  {
    "link_thumb": "https://live.staticflickr.com/65535/50021821643_ff4b9b9a32_n.jpg",
    "id_album": "106807275",
    "description": "Otter_271688",
    "title": "Otter_271688",
    "link_img": "https://live.staticflickr.com/65535/50021821643_017f02a52c_o.jpg",
    "id_image": "Otter_271688",
    "count_view": 0
  },
  {
    "link_thumb": "https://live.staticflickr.com/65535/50352659431_c51c4da3c6_n.jpg",
    "id_album": "-462831703",
    "description": "Cat_724218",
    "title": "Cat_724218",
    "link_img": "https://live.staticflickr.com/65535/50352659431_84ee6099e6_o.jpg",
    "id_image": "Cat_724218",
    "count_view": 0
  },
  {
    "link_thumb": "https://live.staticflickr.com/65535/50020967428_f3ea02cb68_n.jpg",
    "id_album": "-1933715543",
    "description": "Horse_389588",
    "title": "Horse_389588",
    "link_img": "https://live.staticflickr.com/65535/50020967428_16f3e74041_o.jpg",
    "id_image": "Horse_389588",
    "count_view": 0
  },
  {
    "link_thumb": "https://live.staticflickr.com/65535/50017524371_7e3f3a985a_n.jpg",
    "id_album": "368532157",
    "description": "Bulldog_365107",
    "title": "Bulldog_365107",
    "link_img": "https://live.staticflickr.com/65535/50017524371_07068c9e52_o.jpg",
    "id_image": "Bulldog_365107",
    "count_view": 0
  },
  {
    "link_thumb": "https://live.staticflickr.com/65535/50017536198_9fd84a8db7_n.jpg",
    "id_album": "-462831702",
    "description": "Cat_363621",
    "title": "Cat_363621",
    "link_img": "https://live.staticflickr.com/65535/50017536198_df3de8d845_o.jpg",
    "id_image": "Cat_363621",
    "count_view": 0
  },
  {
    "link_thumb": "https://live.staticflickr.com/65535/50017876162_b16de1f2a8_n.jpg",
    "id_album": "-401151552",
    "description": "Butterfly_504762",
    "title": "Butterfly_504762",
    "link_img": "https://live.staticflickr.com/65535/50017876162_b9818ffb3b_o.jpg",
    "id_image": "Butterfly_504762",
    "count_view": 0
  },
  {
    "link_thumb": "https://live.staticflickr.com/65535/50021406481_a630870433_n.jpg",
    "id_album": "-1168906494",
    "description": "Grasshopper_985875",
    "title": "Grasshopper_985875",
    "link_img": "https://live.staticflickr.com/65535/50021406481_a0fa037e7d_o.jpg",
    "id_image": "Grasshopper_985875",
    "count_view": 0
  },
  {
    "link_thumb": "https://live.staticflickr.com/65535/50017353467_ff2bd2fd66_n.jpg",
    "id_album": "-422187261",
    "description": "Bear_867725",
    "title": "Bear_867725",
    "link_img": "https://live.staticflickr.com/65535/50017353467_6fd6ca7df1_o.jpg",
    "id_image": "Bear_867725",
    "count_view": 0
  },
  {
    "link_thumb": "https://live.staticflickr.com/65535/50020799287_c8e1b20485_n.jpg",
    "id_album": "-149330231",
    "description": "Dog_912452",
    "title": "Dog_912452",
    "link_img": "https://live.staticflickr.com/65535/50020799287_db68b4815a_o.jpg",
    "id_image": "Dog_912452",
    "count_view": 0
  },
  {
    "link_thumb": "https://live.staticflickr.com/65535/50022342903_65468c85a6_n.jpg",
    "id_album": "191452764",
    "description": "PrayingMantis_397404",
    "title": "PrayingMantis_397404",
    "link_img": "https://live.staticflickr.com/65535/50022342903_89b519986e_o.jpg",
    "id_image": "PrayingMantis_397404",
    "count_view": 0
  },
  {
    "link_thumb": "https://live.staticflickr.com/65535/50019927542_e265d065ec_n.jpg",
    "id_album": "-766919393",
    "description": "Chameleon_865309",
    "title": "Chameleon_865309",
    "link_img": "https://live.staticflickr.com/65535/50019927542_528c20d18f_o.jpg",
    "id_image": "Chameleon_865309",
    "count_view": 0
  },
  {
    "link_thumb": "https://live.staticflickr.com/65535/50021236491_aed3b3c2e9_n.jpg",
    "id_album": "-462831703",
    "description": "Cat_774208",
    "title": "Cat_774208",
    "link_img": "https://live.staticflickr.com/65535/50021236491_5c32389efd_o.jpg",
    "id_image": "Cat_774208",
    "count_view": 0
  },
  {
    "link_thumb": "https://live.staticflickr.com/65535/50019576208_b4f40bd433_n.jpg",
    "id_album": "297232732",
    "description": "Dinosaur_875436",
    "title": "Dinosaur_875436",
    "link_img": "https://live.staticflickr.com/65535/50019576208_8362523994_o.jpg",
    "id_image": "Dinosaur_875436",
    "count_view": 0
  },
  {
    "link_thumb": "https://live.staticflickr.com/65535/50019979903_744ed955bd_n.jpg",
    "id_album": "-149330231",
    "description": "Dog_778710",
    "title": "Dog_778710",
    "link_img": "https://live.staticflickr.com/65535/50019979903_729fff8b06_o.jpg",
    "id_image": "Dog_778710",
    "count_view": 0
  },
  {
    "link_thumb": "https://live.staticflickr.com/65535/50022365602_b54e7bb8a5_n.jpg",
    "id_album": "-656526748",
    "description": "Lizard_326402",
    "title": "Lizard_326402",
    "link_img": "https://live.staticflickr.com/65535/50022365602_02ccbea028_o.jpg",
    "id_image": "Lizard_326402",
    "count_view": 0
  },
  {
    "link_thumb": "https://live.staticflickr.com/65535/50021433332_9e65223048_n.jpg",
    "id_album": "-462831704",
    "description": "Cat_698443",
    "title": "Cat_698443",
    "link_img": "https://live.staticflickr.com/65535/50021433332_666ce14855_o.jpg",
    "id_image": "Cat_698443",
    "count_view": 0
  },
  {
    "link_thumb": "https://live.staticflickr.com/65535/50019514866_ec1f67fcd1_n.jpg",
    "id_album": "-462831703",
    "description": "Cat_951666",
    "title": "Cat_951666",
    "link_img": "https://live.staticflickr.com/65535/50019514866_c3c345f20b_o.jpg",
    "id_image": "Cat_951666",
    "count_view": 0
  },
  {
    "link_thumb": "https://live.staticflickr.com/65535/50018940278_3a6b656441_n.jpg",
    "id_album": "-462831703",
    "description": "Cat_920957",
    "title": "Cat_920957",
    "link_img": "https://live.staticflickr.com/65535/50018940278_59d19772f2_o.jpg",
    "id_image": "Cat_920957",
    "count_view": 0
  },
  {
    "link_thumb": "https://live.staticflickr.com/65535/50022382517_6744330419_n.jpg",
    "id_album": "-656526748",
    "description": "Lizard_649413",
    "title": "Lizard_649413",
    "link_img": "https://live.staticflickr.com/65535/50022382517_a90aecbf6b_o.jpg",
    "id_image": "Lizard_649413",
    "count_view": 0
  },
  {
    "link_thumb": "https://live.staticflickr.com/65535/50023360197_26312aebc3_n.jpg",
    "id_album": "-1940643173",
    "description": "Rabbit_396349",
    "title": "Rabbit_396349",
    "link_img": "https://live.staticflickr.com/65535/50023360197_e7ecfd28b0_o.jpg",
    "id_image": "Rabbit_396349",
    "count_view": 0
  },
  {
    "link_thumb": "https://live.staticflickr.com/65535/50017993222_086e3aaf6b_n.jpg",
    "id_album": "189994021",
    "description": "Cardinal_371063",
    "title": "Cardinal_371063",
    "link_img": "https://live.staticflickr.com/65535/50017993222_031bb5c261_o.jpg",
    "id_image": "Cardinal_371063",
    "count_view": 0
  },
  {
    "link_thumb": "https://live.staticflickr.com/65535/50022644742_3923101bfa_n.jpg",
    "id_album": "-1384601601",
    "description": "Owl_285714",
    "title": "Owl_285714",
    "link_img": "https://live.staticflickr.com/65535/50022644742_bbf0af0541_o.jpg",
    "id_image": "Owl_285714",
    "count_view": 0
  },
  {
    "link_thumb": "https://live.staticflickr.com/65535/50018080302_6ee137a2fb_n.jpg",
    "id_album": "-462831705",
    "description": "Cat_181032",
    "title": "Cat_181032",
    "link_img": "https://live.staticflickr.com/65535/50018080302_dc711edd43_o.jpg",
    "id_image": "Cat_181032",
    "count_view": 0
  },
  {
    "link_thumb": "https://live.staticflickr.com/65535/50019626383_d56f8f923f_n.jpg",
    "id_album": "-149330232",
    "description": "Dog_217172",
    "title": "Dog_217172",
    "link_img": "https://live.staticflickr.com/65535/50019626383_a4167a0321_o.jpg",
    "id_image": "Dog_217172",
    "count_view": 0
  },
  {
    "link_thumb": "https://live.staticflickr.com/65535/50020132277_424a42481d_n.jpg",
    "id_album": "815329026",
    "description": "Crab_271553",
    "title": "Crab_271553",
    "link_img": "https://live.staticflickr.com/65535/50020132277_489b52c60d_o.jpg",
    "id_image": "Crab_271553",
    "count_view": 0
  },
  {
    "link_thumb": "https://live.staticflickr.com/65535/50018649253_45ed51cf2b_n.jpg",
    "id_album": "-462831702",
    "description": "Cat_428303",
    "title": "Cat_428303",
    "link_img": "https://live.staticflickr.com/65535/50018649253_1263cf34d5_o.jpg",
    "id_image": "Cat_428303",
    "count_view": 0
  },
  {
    "link_thumb": "https://live.staticflickr.com/65535/50021849032_e58e216b10_n.jpg",
    "id_album": "773713550",
    "description": "Hoverfly_348337",
    "title": "Hoverfly_348337",
    "link_img": "https://live.staticflickr.com/65535/50021849032_c72cb23555_o.jpg",
    "id_image": "Hoverfly_348337",
    "count_view": 0
  },
  {
    "link_thumb": "https://live.staticflickr.com/65535/50017052891_be52d966ff_n.jpg",
    "id_album": "-422187261",
    "description": "Bear_526382",
    "title": "Bear_526382",
    "link_img": "https://live.staticflickr.com/65535/50017052891_d861d94e1c_o.jpg",
    "id_image": "Bear_526382",
    "count_view": 0
  },
  {
    "link_thumb": "https://live.staticflickr.com/65535/50017499922_8d6b49fa72_n.jpg",
    "id_album": "-1846011410",
    "description": "Bird_326578",
    "title": "Bird_326578",
    "link_img": "https://live.staticflickr.com/65535/50017499922_84833b48b3_o.jpg",
    "id_image": "Bird_326578",
    "count_view": 0
  },
  {
    "link_thumb": "https://live.staticflickr.com/65535/50019767393_9c663c8cf9_n.jpg",
    "id_album": "-149330232",
    "description": "Dog_351097",
    "title": "Dog_351097",
    "link_img": "https://live.staticflickr.com/65535/50019767393_8dd436bfb4_o.jpg",
    "id_image": "Dog_351097",
    "count_view": 0
  },
  {
    "link_thumb": "https://live.staticflickr.com/65535/50022953336_c32a4cc575_n.jpg",
    "id_album": "-1431524681",
    "description": "Pug_536188",
    "title": "Pug_536188",
    "link_img": "https://live.staticflickr.com/65535/50022953336_fd21e94aaa_o.jpg",
    "id_image": "Pug_536188",
    "count_view": 0
  },
  {
    "link_thumb": "https://live.staticflickr.com/65535/50022969252_6a567e6fba_n.jpg",
    "id_album": "392248205",
    "description": "Penguin_660795",
    "title": "Penguin_660795",
    "link_img": "https://live.staticflickr.com/65535/50022969252_ae8ba3774f_o.jpg",
    "id_image": "Penguin_660795",
    "count_view": 0
  },
  {
    "link_thumb": "https://live.staticflickr.com/65535/50023965271_89ca205fa5_n.jpg",
    "id_album": "702283289",
    "description": "Squirrel_908717",
    "title": "Squirrel_908717",
    "link_img": "https://live.staticflickr.com/65535/50023965271_6cc4a0e021_o.jpg",
    "id_image": "Squirrel_908717",
    "count_view": 0
  },
  {
    "link_thumb": "https://live.staticflickr.com/65535/50024218426_a0c47e6d33_n.jpg",
    "id_album": "405170427",
    "description": "Tiger_819578",
    "title": "Tiger_819578",
    "link_img": "https://live.staticflickr.com/65535/50024218426_d6e64a9d1c_o.jpg",
    "id_image": "Tiger_819578",
    "count_view": 0
  },
  {
    "link_thumb": "https://live.staticflickr.com/65535/50352683207_f9b9f85caa_n.jpg",
    "id_album": "-462831703",
    "description": "Cat_439367",
    "title": "Cat_439367",
    "link_img": "https://live.staticflickr.com/65535/50352683207_1946b5a9b9_o.jpg",
    "id_image": "Cat_439367",
    "count_view": 0
  },
  {
    "link_thumb": "https://live.staticflickr.com/65535/50019078683_e3f4ccf1b8_n.jpg",
    "id_album": "-420782796",
    "description": "Caterpillar_462867",
    "title": "Caterpillar_462867",
    "link_img": "https://live.staticflickr.com/65535/50019078683_638f7cefc6_o.jpg",
    "id_image": "Caterpillar_462867",
    "count_view": 0
  },
  {
    "link_thumb": "https://live.staticflickr.com/65535/50022679627_16c69b50af_n.jpg",
    "id_album": "-1384601601",
    "description": "Owl_415262",
    "title": "Owl_415262",
    "link_img": "https://live.staticflickr.com/65535/50022679627_4e417974a4_o.jpg",
    "id_image": "Owl_415262",
    "count_view": 0
  },
  {
    "link_thumb": "https://live.staticflickr.com/65535/50016956676_7b5149bacb_n.jpg",
    "id_album": "231236068",
    "description": "BaldEagle_416273",
    "title": "BaldEagle_416273",
    "link_img": "https://live.staticflickr.com/65535/50016956676_cacedd544f_o.jpg",
    "id_image": "BaldEagle_416273",
    "count_view": 0
  },
  {
    "link_thumb": "https://live.staticflickr.com/65535/50017209482_80584c3076_n.jpg",
    "id_album": "390697200",
    "description": "AustralianShepherd_938189",
    "title": "AustralianShepherd_938189",
    "link_img": "https://live.staticflickr.com/65535/50017209482_61bc4f4d56_o.jpg",
    "id_image": "AustralianShepherd_938189",
    "count_view": 0
  },
  {
    "link_thumb": "https://live.staticflickr.com/65535/50021373101_a954d3d372_n.jpg",
    "id_album": "2060159334",
    "description": "GoldenRetriever_978393",
    "title": "GoldenRetriever_978393",
    "link_img": "https://live.staticflickr.com/65535/50021373101_9cbcd06f4b_o.jpg",
    "id_image": "GoldenRetriever_978393",
    "count_view": 0
  },
  {
    "link_thumb": "https://live.staticflickr.com/65535/50351767928_9d57fd566f_n.jpg",
    "id_album": "-462831703",
    "description": "Cat_361661",
    "title": "Cat_361661",
    "link_img": "https://live.staticflickr.com/65535/50351767928_a4cdcffdeb_o.jpg",
    "id_image": "Cat_361661",
    "count_view": 0
  },
  {
    "link_thumb": "https://live.staticflickr.com/65535/50020469188_d983b800dc_n.jpg",
    "id_album": "-128218148",
    "description": "Fox_837126",
    "title": "Fox_837126",
    "link_img": "https://live.staticflickr.com/65535/50020469188_41e20423dc_o.jpg",
    "id_image": "Fox_837126",
    "count_view": 0
  },
  {
    "link_thumb": "https://live.staticflickr.com/65535/50018341922_dd3718c0f3_n.jpg",
    "id_album": "-462831702",
    "description": "Cat_368700",
    "title": "Cat_368700",
    "link_img": "https://live.staticflickr.com/65535/50018341922_9517b6d5e2_o.jpg",
    "id_image": "Cat_368700",
    "count_view": 0
  },
  {
    "link_thumb": "https://live.staticflickr.com/65535/50017887076_441ba7fa82_n.jpg",
    "id_album": "-462831705",
    "description": "Cat_236414",
    "title": "Cat_236414",
    "link_img": "https://live.staticflickr.com/65535/50017887076_88426a613e_o.jpg",
    "id_image": "Cat_236414",
    "count_view": 0
  },
  {
    "link_thumb": "https://live.staticflickr.com/65535/50016353768_1d5f238dec_n.jpg",
    "id_album": "523598895",
    "description": "Artistic_214857",
    "title": "Artistic_214857",
    "link_img": "https://live.staticflickr.com/65535/50016353768_fed3100815_o.jpg",
    "id_image": "Artistic_214857",
    "count_view": 0
  },
  {
    "link_thumb": "https://live.staticflickr.com/65535/50022115121_a33d987004_n.jpg",
    "id_album": "-656526748",
    "description": "Lizard_397652",
    "title": "Lizard_397652",
    "link_img": "https://live.staticflickr.com/65535/50022115121_4022046cba_o.jpg",
    "id_image": "Lizard_397652",
    "count_view": 0
  },
  {
    "link_thumb": "https://live.staticflickr.com/65535/50017397416_ea07dd636a_n.jpg",
    "id_album": "-1846011410",
    "description": "Bird_652295",
    "title": "Bird_652295",
    "link_img": "https://live.staticflickr.com/65535/50017397416_7a38cee396_o.jpg",
    "id_image": "Bird_652295",
    "count_view": 0
  },
  {
    "link_thumb": "https://live.staticflickr.com/65535/50018094761_b2c4135171_n.jpg",
    "id_album": "-462831702",
    "description": "Cat_372143",
    "title": "Cat_372143",
    "link_img": "https://live.staticflickr.com/65535/50018094761_46b9ab7203_o.jpg",
    "id_image": "Cat_372143",
    "count_view": 0
  },
  {
    "link_thumb": "https://live.staticflickr.com/65535/50020066578_b2c92bf8a6_n.jpg",
    "id_album": "-1859457960",
    "description": "Dove_516998",
    "title": "Dove_516998",
    "link_img": "https://live.staticflickr.com/65535/50020066578_803059cd63_o.jpg",
    "id_image": "Dove_516998",
    "count_view": 0
  },
  {
    "link_thumb": "https://live.staticflickr.com/65535/50352618342_6e74ab6ef9_n.jpg",
    "id_album": "-462831703",
    "description": "Cat_352592",
    "title": "Cat_352592",
    "link_img": "https://live.staticflickr.com/65535/50352618342_10e6b07dcc_o.jpg",
    "id_image": "Cat_352592",
    "count_view": 0
  },
  {
    "link_thumb": "https://live.staticflickr.com/65535/50021040191_468e11c0ac_n.jpg",
    "id_album": "704811092",
    "description": "FrenchBulldog_421965",
    "title": "FrenchBulldog_421965",
    "link_img": "https://live.staticflickr.com/65535/50021040191_2c44f482ff_o.jpg",
    "id_image": "FrenchBulldog_421965",
    "count_view": 0
  },
  {
    "link_thumb": "https://live.staticflickr.com/65535/50022061388_b50fae4471_n.jpg",
    "id_album": "-801414987",
    "description": "Peacock_740063",
    "title": "Peacock_740063",
    "link_img": "https://live.staticflickr.com/65535/50022061388_74c31b819c_o.jpg",
    "id_image": "Peacock_740063",
    "count_view": 0
  },
  {
    "link_thumb": "https://live.staticflickr.com/65535/50017514756_163cdeb493_n.jpg",
    "id_album": "782930701",
    "description": "BorderCollie_983980",
    "title": "BorderCollie_983980",
    "link_img": "https://live.staticflickr.com/65535/50017514756_8d8cdfcbdc_o.jpg",
    "id_image": "BorderCollie_983980",
    "count_view": 0
  },
  {
    "link_thumb": "https://live.staticflickr.com/65535/50019398187_ee2624e49b_n.jpg",
    "id_album": "-462831702",
    "description": "Cat_411440",
    "title": "Cat_411440",
    "link_img": "https://live.staticflickr.com/65535/50019398187_e8d337337a_o.jpg",
    "id_image": "Cat_411440",
    "count_view": 0
  },
  {
    "link_thumb": "https://live.staticflickr.com/65535/50016944408_4e9dea810e_n.jpg",
    "id_album": "-530283314",
    "description": "BlueandyellowMacaw_663002",
    "title": "BlueandyellowMacaw_663002",
    "link_img": "https://live.staticflickr.com/65535/50016944408_feb27837e9_o.jpg",
    "id_image": "BlueandyellowMacaw_663002",
    "count_view": 0
  },
  {
    "link_thumb": "https://live.staticflickr.com/65535/50022051577_9e523f77d4_n.jpg",
    "id_album": "770105808",
    "description": "Kingfisher_233599",
    "title": "Kingfisher_233599",
    "link_img": "https://live.staticflickr.com/65535/50022051577_1eb7affd6f_o.jpg",
    "id_image": "Kingfisher_233599",
    "count_view": 0
  },
  {
    "link_thumb": "https://live.staticflickr.com/65535/50020739833_535f56e4b5_n.jpg",
    "id_album": "-405626519",
    "description": "GermanShepherd_101928",
    "title": "GermanShepherd_101928",
    "link_img": "https://live.staticflickr.com/65535/50020739833_0e031566d6_o.jpg",
    "id_image": "GermanShepherd_101928",
    "count_view": 0
  },
  {
    "link_thumb": "https://live.staticflickr.com/65535/50021525422_21d018f69c_n.jpg",
    "id_album": "-462831703",
    "description": "Cat_833763",
    "title": "Cat_833763",
    "link_img": "https://live.staticflickr.com/65535/50021525422_7932a75621_o.jpg",
    "id_image": "Cat_833763",
    "count_view": 0
  },
  {
    "link_thumb": "https://live.staticflickr.com/65535/50020154233_a1c43bd075_n.jpg",
    "id_album": "-39098563",
    "description": "Eagle_275221",
    "title": "Eagle_275221",
    "link_img": "https://live.staticflickr.com/65535/50020154233_f3458c8ab4_o.jpg",
    "id_image": "Eagle_275221",
    "count_view": 0
  },
  {
    "link_thumb": "https://live.staticflickr.com/65535/50022674183_ea1e62c866_n.jpg",
    "id_album": "332874268",
    "description": "RedPanda_595240",
    "title": "RedPanda_595240",
    "link_img": "https://live.staticflickr.com/65535/50022674183_535bf4f5a5_o.jpg",
    "id_image": "RedPanda_595240",
    "count_view": 0
  },
  {
    "link_thumb": "https://live.staticflickr.com/65535/50020207586_43ec589127_n.jpg",
    "id_album": "-149330232",
    "description": "Dog_275580",
    "title": "Dog_275580",
    "link_img": "https://live.staticflickr.com/65535/50020207586_c7e13d625b_o.jpg",
    "id_image": "Dog_275580",
    "count_view": 0
  },
  {
    "link_thumb": "https://live.staticflickr.com/65535/50022140638_e1212d392f_n.jpg",
    "id_album": "392248205",
    "description": "Penguin_247656",
    "title": "Penguin_247656",
    "link_img": "https://live.staticflickr.com/65535/50022140638_d9aaff0e2e_o.jpg",
    "id_image": "Penguin_247656",
    "count_view": 0
  },
  {
    "link_thumb": "https://live.staticflickr.com/65535/50020334777_9f9f068d27_n.jpg",
    "id_album": "297232732",
    "description": "Dinosaur_168579",
    "title": "Dinosaur_168579",
    "link_img": "https://live.staticflickr.com/65535/50020334777_d64c89ea4a_o.jpg",
    "id_image": "Dinosaur_168579",
    "count_view": 0
  },
  {
    "link_thumb": "https://live.staticflickr.com/65535/50016565283_4ec18ccabc_n.jpg",
    "id_album": "-422187261",
    "description": "Bear_867509",
    "title": "Bear_867509",
    "link_img": "https://live.staticflickr.com/65535/50016565283_86024b937f_o.jpg",
    "id_image": "Bear_867509",
    "count_view": 0
  },
  {
    "link_thumb": "https://live.staticflickr.com/65535/50023997573_fdf6e17e37_n.jpg",
    "id_album": "-709711865",
    "description": "Wolf_719946",
    "title": "Wolf_719946",
    "link_img": "https://live.staticflickr.com/65535/50023997573_a7d1a88a96_o.jpg",
    "id_image": "Wolf_719946",
    "count_view": 0
  },
  {
    "link_thumb": "https://live.staticflickr.com/65535/50023297556_89621549fb_n.jpg",
    "id_album": "48367914",
    "description": "Rhino_647324",
    "title": "Rhino_647324",
    "link_img": "https://live.staticflickr.com/65535/50023297556_7a08d195c0_o.jpg",
    "id_image": "Rhino_647324",
    "count_view": 0
  },
  {
    "link_thumb": "https://live.staticflickr.com/65535/50020142517_f37b545a83_n.jpg",
    "id_album": "815329026",
    "description": "Crab_986787",
    "title": "Crab_986787",
    "link_img": "https://live.staticflickr.com/65535/50020142517_0aeb562f75_o.jpg",
    "id_image": "Crab_986787",
    "count_view": 0
  },
  {
    "link_thumb": "https://live.staticflickr.com/65535/50021844316_5f04d10407_n.jpg",
    "id_album": "-1882491687",
    "description": "Ladybug_353514",
    "title": "Ladybug_353514",
    "link_img": "https://live.staticflickr.com/65535/50021844316_67075b2c80_o.jpg",
    "id_image": "Ladybug_353514",
    "count_view": 0
  },
  {
    "link_thumb": "https://live.staticflickr.com/65535/50020862198_6c57b937cb_n.jpg",
    "id_album": "-1168906494",
    "description": "Grasshopper_75225",
    "title": "Grasshopper_75225",
    "link_img": "https://live.staticflickr.com/65535/50020862198_9fb7056449_o.jpg",
    "id_image": "Grasshopper_75225",
    "count_view": 0
  },
  {
    "link_thumb": "https://live.staticflickr.com/65535/50019204821_d1478ef122_n.jpg",
    "id_album": "-462831704",
    "description": "Cat_439379",
    "title": "Cat_439379",
    "link_img": "https://live.staticflickr.com/65535/50019204821_4ae6aa4d68_o.jpg",
    "id_image": "Cat_439379",
    "count_view": 0
  },
  {
    "link_thumb": "https://live.staticflickr.com/65535/50019772657_082d6e8dc9_n.jpg",
    "id_album": "-462831703",
    "description": "Cat_953092",
    "title": "Cat_953092",
    "link_img": "https://live.staticflickr.com/65535/50019772657_3126ffc3a1_o.jpg",
    "id_image": "Cat_953092",
    "count_view": 0
  },
  {
    "link_thumb": "https://live.staticflickr.com/65535/50024756242_71694fd3d1_n.jpg",
    "id_album": "-709711865",
    "description": "Wolf_405997",
    "title": "Wolf_405997",
    "link_img": "https://live.staticflickr.com/65535/50024756242_0de41acd0b_o.jpg",
    "id_image": "Wolf_405997",
    "count_view": 0
  },
  {
    "link_thumb": "https://live.staticflickr.com/65535/50021304291_61ffd15f23_n.jpg",
    "id_album": "-405626519",
    "description": "GermanShepherd_854682",
    "title": "GermanShepherd_854682",
    "link_img": "https://live.staticflickr.com/65535/50021304291_bf31d91472_o.jpg",
    "id_image": "GermanShepherd_854682",
    "count_view": 0
  },
  {
    "link_thumb": "https://live.staticflickr.com/65535/50017582303_b18c06c410_n.jpg",
    "id_album": "-462831702",
    "description": "Cat_382768",
    "title": "Cat_382768",
    "link_img": "https://live.staticflickr.com/65535/50017582303_b92268cd9d_o.jpg",
    "id_image": "Cat_382768",
    "count_view": 0
  },
  {
    "link_thumb": "https://live.staticflickr.com/65535/50020480066_a94d7f0e78_n.jpg",
    "id_album": "-149330231",
    "description": "Dog_683817",
    "title": "Dog_683817",
    "link_img": "https://live.staticflickr.com/65535/50020480066_66df0bd322_o.jpg",
    "id_image": "Dog_683817",
    "count_view": 0
  },
  {
    "link_thumb": "https://live.staticflickr.com/65535/50022018752_4f56925a9b_n.jpg",
    "id_album": "1562047127",
    "description": "Jellyfish_394231",
    "title": "Jellyfish_394231",
    "link_img": "https://live.staticflickr.com/65535/50022018752_d5bc7ef1d7_o.jpg",
    "id_image": "Jellyfish_394231",
    "count_view": 0
  },
  {
    "link_thumb": "https://live.staticflickr.com/65535/50017222091_99f91c960e_n.jpg",
    "id_album": "-1846011410",
    "description": "Bird_263974",
    "title": "Bird_263974",
    "link_img": "https://live.staticflickr.com/65535/50017222091_d4faf0bdc5_o.jpg",
    "id_image": "Bird_263974",
    "count_view": 0
  },
  {
    "link_thumb": "https://live.staticflickr.com/65535/50020116172_48cbd025f6_n.jpg",
    "id_album": "-2144640780",
    "description": "Cow_744372",
    "title": "Cow_744372",
    "link_img": "https://live.staticflickr.com/65535/50020116172_ab738155d1_o.jpg",
    "id_image": "Cow_744372",
    "count_view": 0
  },
  {
    "link_thumb": "https://live.staticflickr.com/65535/50022224497_9cda3410d5_n.jpg",
    "id_album": "416744915",
    "description": "Lion_114842",
    "title": "Lion_114842",
    "link_img": "https://live.staticflickr.com/65535/50022224497_04e9d9d8cd_o.jpg",
    "id_image": "Lion_114842",
    "count_view": 0
  },
  {
    "link_thumb": "https://live.staticflickr.com/65535/50021614501_9f0fdfa5b9_n.jpg",
    "id_album": "2144294979",
    "description": "Hummingbird_543074",
    "title": "Hummingbird_543074",
    "link_img": "https://live.staticflickr.com/65535/50021614501_b45d9aff24_o.jpg",
    "id_image": "Hummingbird_543074",
    "count_view": 0
  },
  {
    "link_thumb": "https://live.staticflickr.com/65535/50017366768_7fe430c147_n.jpg",
    "id_album": "-462831705",
    "description": "Cat_240495",
    "title": "Cat_240495",
    "link_img": "https://live.staticflickr.com/65535/50017366768_4f4b343eb7_o.jpg",
    "id_image": "Cat_240495",
    "count_view": 0
  },
  {
    "link_thumb": "https://live.staticflickr.com/65535/50020123296_2ff01870ca_n.jpg",
    "id_album": "-149330232",
    "description": "Dog_118031",
    "title": "Dog_118031",
    "link_img": "https://live.staticflickr.com/65535/50020123296_16b6c01e00_o.jpg",
    "id_image": "Dog_118031",
    "count_view": 0
  },
  {
    "link_thumb": "https://live.staticflickr.com/65535/50020008281_b4aa43916c_n.jpg",
    "id_album": "1903411565",
    "description": "Deer_428219",
    "title": "Deer_428219",
    "link_img": "https://live.staticflickr.com/65535/50020008281_9ed6436a41_o.jpg",
    "id_image": "Deer_428219",
    "count_view": 0
  },
  {
    "link_thumb": "https://live.staticflickr.com/65535/50020227388_df14c42c5f_n.jpg",
    "id_album": "1270947998",
    "description": "Elephant_464210",
    "title": "Elephant_464210",
    "link_img": "https://live.staticflickr.com/65535/50020227388_ba98c1c1aa_o.jpg",
    "id_image": "Elephant_464210",
    "count_view": 0
  },
  {
    "link_thumb": "https://live.staticflickr.com/65535/50020954373_4027ba15cc_n.jpg",
    "id_album": "-1933715543",
    "description": "Horse_347516",
    "title": "Horse_347516",
    "link_img": "https://live.staticflickr.com/65535/50020954373_c773d8363e_o.jpg",
    "id_image": "Horse_347516",
    "count_view": 0
  },
  {
    "link_thumb": "https://live.staticflickr.com/65535/50017708541_3834897005_n.jpg",
    "id_album": "-401151552",
    "description": "Butterfly_926945",
    "title": "Butterfly_926945",
    "link_img": "https://live.staticflickr.com/65535/50017708541_37576b7934_o.jpg",
    "id_image": "Butterfly_926945",
    "count_view": 0
  },
  {
    "link_thumb": "https://live.staticflickr.com/65535/50021837321_1a4c04f456_n.jpg",
    "id_album": "1307335982",
    "description": "LabradorRetriever_921966",
    "title": "LabradorRetriever_921966",
    "link_img": "https://live.staticflickr.com/65535/50021837321_fe785110b4_o.jpg",
    "id_image": "LabradorRetriever_921966",
    "count_view": 0
  },
  {
    "link_thumb": "https://live.staticflickr.com/65535/50351960813_d9e62a324e_n.jpg",
    "id_album": "-462831703",
    "description": "Cat_724210",
    "title": "Cat_724210",
    "link_img": "https://live.staticflickr.com/65535/50351960813_ae407682af_o.jpg",
    "id_image": "Cat_724210",
    "count_view": 0
  },
  {
    "link_thumb": "https://live.staticflickr.com/65535/50017564137_e1b129e672_n.jpg",
    "id_album": "-1846011410",
    "description": "Bird_398132",
    "title": "Bird_398132",
    "link_img": "https://live.staticflickr.com/65535/50017564137_337462ef0b_o.jpg",
    "id_image": "Bird_398132",
    "count_view": 0
  },
  {
    "link_thumb": "https://live.staticflickr.com/65535/50023259077_1cf91e2e06_n.jpg",
    "id_album": "-353898617",
    "description": "Puppy_459418",
    "title": "Puppy_459418",
    "link_img": "https://live.staticflickr.com/65535/50023259077_18f060d8f9_o.jpg",
    "id_image": "Puppy_459418",
    "count_view": 0
  },
  {
    "link_thumb": "https://live.staticflickr.com/65535/50021897397_21721e51fe_n.jpg",
    "id_album": "-712553376",
    "description": "Husky_982511",
    "title": "Husky_982511",
    "link_img": "https://live.staticflickr.com/65535/50021897397_2a68e2271e_o.jpg",
    "id_image": "Husky_982511",
    "count_view": 0
  },
  {
    "link_thumb": "https://live.staticflickr.com/65535/50019728967_465fb04c70_n.jpg",
    "id_album": "-462831703",
    "description": "Cat_922507",
    "title": "Cat_922507",
    "link_img": "https://live.staticflickr.com/65535/50019728967_4aab718935_o.jpg",
    "id_image": "Cat_922507",
    "count_view": 0
  },
  {
    "link_thumb": "https://live.staticflickr.com/65535/50019482746_ed06fc0d21_n.jpg",
    "id_album": "-462831703",
    "description": "Cat_930461",
    "title": "Cat_930461",
    "link_img": "https://live.staticflickr.com/65535/50019482746_ee8934566a_o.jpg",
    "id_image": "Cat_930461",
    "count_view": 0
  },
  {
    "link_thumb": "https://live.staticflickr.com/65535/50017812701_b4bd237443_n.jpg",
    "id_album": "-462831705",
    "description": "Cat_174955",
    "title": "Cat_174955",
    "link_img": "https://live.staticflickr.com/65535/50017812701_46d521d99a_o.jpg",
    "id_image": "Cat_174955",
    "count_view": 0
  },
  {
    "link_thumb": "https://live.staticflickr.com/65535/50020061157_f13f38acb0_n.jpg",
    "id_album": "-1868680171",
    "description": "Cougar_241722",
    "title": "Cougar_241722",
    "link_img": "https://live.staticflickr.com/65535/50020061157_16ed833ec6_o.jpg",
    "id_image": "Cougar_241722",
    "count_view": 0
  },
  {
    "link_thumb": "https://live.staticflickr.com/65535/50021393547_0acd445abd_n.jpg",
    "id_album": "-462831704",
    "description": "Cat_598379",
    "title": "Cat_598379",
    "link_img": "https://live.staticflickr.com/65535/50021393547_3f5bdca523_o.jpg",
    "id_image": "Cat_598379",
    "count_view": 0
  },
  {
    "link_thumb": "https://live.staticflickr.com/65535/50017611757_2d1c1ef2a2_n.jpg",
    "id_album": "-1846011410",
    "description": "Bird_488591",
    "title": "Bird_488591",
    "link_img": "https://live.staticflickr.com/65535/50017611757_6f92742a68_o.jpg",
    "id_image": "Bird_488591",
    "count_view": 0
  },
  {
    "link_thumb": "https://live.staticflickr.com/65535/50018242707_1bef3c55a2_n.jpg",
    "id_album": "-462831702",
    "description": "Cat_328164",
    "title": "Cat_328164",
    "link_img": "https://live.staticflickr.com/65535/50018242707_fbbab13fa0_o.jpg",
    "id_image": "Cat_328164",
    "count_view": 0
  },
  {
    "link_thumb": "https://live.staticflickr.com/65535/50020663831_8a4388360c_n.jpg",
    "id_album": "1168627767",
    "description": "Duck_549519",
    "title": "Duck_549519",
    "link_img": "https://live.staticflickr.com/65535/50020663831_bccb03929c_o.jpg",
    "id_image": "Duck_549519",
    "count_view": 0
  },
  {
    "link_thumb": "https://live.staticflickr.com/65535/50021392842_b9370d883a_n.jpg",
    "id_album": "-462831704",
    "description": "Cat_597283",
    "title": "Cat_597283",
    "link_img": "https://live.staticflickr.com/65535/50021392842_fd89cf37c8_o.jpg",
    "id_image": "Cat_597283",
    "count_view": 0
  },
  {
    "link_thumb": "https://live.staticflickr.com/65535/50017679241_2cd6f9b3dd_n.jpg",
    "id_album": "-401151552",
    "description": "Butterfly_855051",
    "title": "Butterfly_855051",
    "link_img": "https://live.staticflickr.com/65535/50017679241_e0c342103f_o.jpg",
    "id_image": "Butterfly_855051",
    "count_view": 0
  },
  {
    "link_thumb": "https://live.staticflickr.com/65535/50021490762_7c0945d4fa_n.jpg",
    "id_album": "-462831703",
    "description": "Cat_775104",
    "title": "Cat_775104",
    "link_img": "https://live.staticflickr.com/65535/50021490762_3c24150baf_o.jpg",
    "id_image": "Cat_775104",
    "count_view": 0
  },
  {
    "link_thumb": "https://live.staticflickr.com/65535/50017625163_85af422028_n.jpg",
    "id_album": "-462831702",
    "description": "Cat_408041",
    "title": "Cat_408041",
    "link_img": "https://live.staticflickr.com/65535/50017625163_39e9f82e3c_o.jpg",
    "id_image": "Cat_408041",
    "count_view": 0
  },
  {
    "link_thumb": "https://live.staticflickr.com/65535/50022213692_d2a1a92f27_n.jpg",
    "id_album": "1392348450",
    "description": "Leopard_899539",
    "title": "Leopard_899539",
    "link_img": "https://live.staticflickr.com/65535/50022213692_b321385ebf_o.jpg",
    "id_image": "Leopard_899539",
    "count_view": 0
  },
  {
    "link_thumb": "https://live.staticflickr.com/65535/50018394012_9b150937a0_n.jpg",
    "id_album": "-462831702",
    "description": "Cat_396501",
    "title": "Cat_396501",
    "link_img": "https://live.staticflickr.com/65535/50018394012_b9166a2a20_o.jpg",
    "id_image": "Cat_396501",
    "count_view": 0
  },
  {
    "link_thumb": "https://live.staticflickr.com/65535/50021012096_f731d7eb0b_n.jpg",
    "id_album": "-128218148",
    "description": "Fox_838637",
    "title": "Fox_838637",
    "link_img": "https://live.staticflickr.com/65535/50021012096_cd79726d04_o.jpg",
    "id_image": "Fox_838637",
    "count_view": 0
  },
  {
    "link_thumb": "https://live.staticflickr.com/65535/50020437831_02bef9b4d0_n.jpg",
    "id_album": "-149330231",
    "description": "Dog_490920",
    "title": "Dog_490920",
    "link_img": "https://live.staticflickr.com/65535/50020437831_978a0bb591_o.jpg",
    "id_image": "Dog_490920",
    "count_view": 0
  },
  {
    "link_thumb": "https://live.staticflickr.com/65535/50021263057_80b7ef8706_n.jpg",
    "id_album": "-128218148",
    "description": "Fox_819581",
    "title": "Fox_819581",
    "link_img": "https://live.staticflickr.com/65535/50021263057_6003b4e54b_o.jpg",
    "id_image": "Fox_819581",
    "count_view": 0
  },
  {
    "link_thumb": "https://live.staticflickr.com/65535/50019717127_6b7c76962e_n.jpg",
    "id_album": "-462831705",
    "description": "Cat_91501",
    "title": "Cat_91501",
    "link_img": "https://live.staticflickr.com/65535/50019717127_f4e1e069e6_o.jpg",
    "id_image": "Cat_91501",
    "count_view": 0
  },
  {
    "link_thumb": "https://live.staticflickr.com/65535/50017123706_4658aa6602_n.jpg",
    "id_album": "1699594607",
    "description": "Bee_327696",
    "title": "Bee_327696",
    "link_img": "https://live.staticflickr.com/65535/50017123706_867c53cde9_o.jpg",
    "id_image": "Bee_327696",
    "count_view": 0
  },
  {
    "link_thumb": "https://live.staticflickr.com/65535/50019221276_f744eb1551_n.jpg",
    "id_album": "-462831704",
    "description": "Cat_453866",
    "title": "Cat_453866",
    "link_img": "https://live.staticflickr.com/65535/50019221276_906c1dd5b8_o.jpg",
    "id_image": "Cat_453866",
    "count_view": 0
  },
  {
    "link_thumb": "https://live.staticflickr.com/65535/50020241333_03b452438c_n.jpg",
    "id_album": "1270947998",
    "description": "Elephant_637149",
    "title": "Elephant_637149",
    "link_img": "https://live.staticflickr.com/65535/50020241333_6095317ba1_o.jpg",
    "id_image": "Elephant_637149",
    "count_view": 0
  },
  {
    "link_thumb": "https://live.staticflickr.com/65535/50021961646_10c295b54f_n.jpg",
    "id_album": "1392348450",
    "description": "Leopard_952978",
    "title": "Leopard_952978",
    "link_img": "https://live.staticflickr.com/65535/50021961646_38b0492927_o.jpg",
    "id_image": "Leopard_952978",
    "count_view": 0
  },
  {
    "link_thumb": "https://live.staticflickr.com/65535/50020811472_4440159642_n.jpg",
    "id_album": "-149330231",
    "description": "Dog_983464",
    "title": "Dog_983464",
    "link_img": "https://live.staticflickr.com/65535/50020811472_d157f58849_o.jpg",
    "id_image": "Dog_983464",
    "count_view": 0
  },
  {
    "link_thumb": "https://live.staticflickr.com/65535/50019645077_2db3d3b047_n.jpg",
    "id_album": "-462831703",
    "description": "Cat_880040",
    "title": "Cat_880040",
    "link_img": "https://live.staticflickr.com/65535/50019645077_4c28df388b_o.jpg",
    "id_image": "Cat_880040",
    "count_view": 0
  },
  {
    "link_thumb": "https://live.staticflickr.com/65535/50020136122_25ba427ee9_n.jpg",
    "id_album": "815329026",
    "description": "Crab_391775",
    "title": "Crab_391775",
    "link_img": "https://live.staticflickr.com/65535/50020136122_3e1051e440_o.jpg",
    "id_image": "Crab_391775",
    "count_view": 0
  },
  {
    "link_thumb": "https://live.staticflickr.com/65535/50017778756_77edd26eda_n.jpg",
    "id_album": "-462831705",
    "description": "Cat_129215",
    "title": "Cat_129215",
    "link_img": "https://live.staticflickr.com/65535/50017778756_5b22be5689_o.jpg",
    "id_image": "Cat_129215",
    "count_view": 0
  },
  {
    "link_thumb": "https://live.staticflickr.com/65535/50020414742_ae464c7117_n.jpg",
    "id_album": "-149330232",
    "description": "Dog_216628",
    "title": "Dog_216628",
    "link_img": "https://live.staticflickr.com/65535/50020414742_1d4e4df7b6_o.jpg",
    "id_image": "Dog_216628",
    "count_view": 0
  },
  {
    "link_thumb": "https://live.staticflickr.com/65535/50021170673_d755fffee1_n.jpg",
    "id_album": "1658866795",
    "description": "Insect_715730",
    "title": "Insect_715730",
    "link_img": "https://live.staticflickr.com/65535/50021170673_709bdbbdc4_o.jpg",
    "id_image": "Insect_715730",
    "count_view": 0
  },
  {
    "link_thumb": "https://live.staticflickr.com/65535/50017433297_4ee640dd6a_n.jpg",
    "id_album": "172748811",
    "description": "Beeeater_419495",
    "title": "Beeeater_419495",
    "link_img": "https://live.staticflickr.com/65535/50017433297_7c9dae8e4b_o.jpg",
    "id_image": "Beeeater_419495",
    "count_view": 0
  },
  {
    "link_thumb": "https://live.staticflickr.com/65535/50021178511_2303629462_n.jpg",
    "id_album": "-462831704",
    "description": "Cat_698015",
    "title": "Cat_698015",
    "link_img": "https://live.staticflickr.com/65535/50021178511_c06bd601f9_o.jpg",
    "id_image": "Cat_698015",
    "count_view": 0
  },
  {
    "link_thumb": "https://live.staticflickr.com/65535/50019688448_b0f447e5ca_n.jpg",
    "id_album": "-149330232",
    "description": "Dog_282113",
    "title": "Dog_282113",
    "link_img": "https://live.staticflickr.com/65535/50019688448_19a0ee58cf_o.jpg",
    "id_image": "Dog_282113",
    "count_view": 0
  },
  {
    "link_thumb": "https://live.staticflickr.com/65535/50017306028_c5e93d1132_n.jpg",
    "id_album": "-462831705",
    "description": "Cat_190580",
    "title": "Cat_190580",
    "link_img": "https://live.staticflickr.com/65535/50017306028_31daa0e94c_o.jpg",
    "id_image": "Cat_190580",
    "count_view": 0
  },
  {
    "link_thumb": "https://live.staticflickr.com/65535/50019924811_31feda082a_n.jpg",
    "id_album": "1273365283",
    "description": "Cute_277106",
    "title": "Cute_277106",
    "link_img": "https://live.staticflickr.com/65535/50019924811_5bcb84602c_o.jpg",
    "id_image": "Cute_277106",
    "count_view": 0
  },
  {
    "link_thumb": "https://live.staticflickr.com/65535/50020349256_99c7084e34_n.jpg",
    "id_album": "-149330232",
    "description": "Dog_373744",
    "title": "Dog_373744",
    "link_img": "https://live.staticflickr.com/65535/50020349256_3ccc0d483b_o.jpg",
    "id_image": "Dog_373744",
    "count_view": 0
  },
  {
    "link_thumb": "https://live.staticflickr.com/65535/50022404223_c1661bff4b_n.jpg",
    "id_album": "-1431524681",
    "description": "Pug_379474",
    "title": "Pug_379474",
    "link_img": "https://live.staticflickr.com/65535/50022404223_d19c488318_o.jpg",
    "id_image": "Pug_379474",
    "count_view": 0
  },
  {
    "link_thumb": "https://live.staticflickr.com/65535/50017188688_a022fd3e9d_n.jpg",
    "id_album": "-401151552",
    "description": "Butterfly_948272",
    "title": "Butterfly_948272",
    "link_img": "https://live.staticflickr.com/65535/50017188688_dd8cd71c0a_o.jpg",
    "id_image": "Butterfly_948272",
    "count_view": 0
  },
  {
    "link_thumb": "https://live.staticflickr.com/65535/50023385192_305bbe3be9_n.jpg",
    "id_album": "-1940643173",
    "description": "Rabbit_827566",
    "title": "Rabbit_827566",
    "link_img": "https://live.staticflickr.com/65535/50023385192_8d40e8bd7a_o.jpg",
    "id_image": "Rabbit_827566",
    "count_view": 0
  },
  {
    "link_thumb": "https://live.staticflickr.com/65535/50023116127_83399240aa_n.jpg",
    "id_album": "1008910300",
    "description": "PolarBear_778562",
    "title": "PolarBear_778562",
    "link_img": "https://live.staticflickr.com/65535/50023116127_c9ec288594_o.jpg",
    "id_image": "PolarBear_778562",
    "count_view": 0
  },
  {
    "link_thumb": "https://live.staticflickr.com/65535/50021519457_7468a89282_n.jpg",
    "id_album": "-462831703",
    "description": "Cat_822954",
    "title": "Cat_822954",
    "link_img": "https://live.staticflickr.com/65535/50021519457_b3f92b0cb2_o.jpg",
    "id_image": "Cat_822954",
    "count_view": 0
  },
  {
    "link_thumb": "https://live.staticflickr.com/65535/50019575876_9365c7c089_n.jpg",
    "id_album": "-462831703",
    "description": "Cat_998377",
    "title": "Cat_998377",
    "link_img": "https://live.staticflickr.com/65535/50019575876_031a363fc5_o.jpg",
    "id_image": "Cat_998377",
    "count_view": 0
  },
  {
    "link_thumb": "https://live.staticflickr.com/65535/50023966853_5d8ed9125c_n.jpg",
    "id_album": "-709711865",
    "description": "Wolf_520902",
    "title": "Wolf_520902",
    "link_img": "https://live.staticflickr.com/65535/50023966853_14506f4cf0_o.jpg",
    "id_image": "Wolf_520902",
    "count_view": 0
  },
  {
    "link_thumb": "https://live.staticflickr.com/65535/50018861768_4dd9f7fb17_n.jpg",
    "id_album": "-462831703",
    "description": "Cat_881935",
    "title": "Cat_881935",
    "link_img": "https://live.staticflickr.com/65535/50018861768_ec4ef66d90_o.jpg",
    "id_image": "Cat_881935",
    "count_view": 0
  },
  {
    "link_thumb": "https://live.staticflickr.com/65535/50020020521_c8bbd5b020_n.jpg",
    "id_album": "1903411565",
    "description": "Deer_530003",
    "title": "Deer_530003",
    "link_img": "https://live.staticflickr.com/65535/50020020521_9b37b282fb_o.jpg",
    "id_image": "Deer_530003",
    "count_view": 0
  },
  {
    "link_thumb": "https://live.staticflickr.com/65535/50024123406_65b80a39a3_n.jpg",
    "id_album": "405170427",
    "description": "Tiger_414545",
    "title": "Tiger_414545",
    "link_img": "https://live.staticflickr.com/65535/50024123406_2c5e775c48_o.jpg",
    "id_image": "Tiger_414545",
    "count_view": 0
  },
  {
    "link_thumb": "https://live.staticflickr.com/65535/50017154696_7899df3a73_n.jpg",
    "id_album": "1699594607",
    "description": "Bee_692508",
    "title": "Bee_692508",
    "link_img": "https://live.staticflickr.com/65535/50017154696_21e34caeb1_o.jpg",
    "id_image": "Bee_692508",
    "count_view": 0
  },
  {
    "link_thumb": "https://live.staticflickr.com/65535/50019757392_fac3ca346b_n.jpg",
    "id_album": "-462831703",
    "description": "Cat_941508",
    "title": "Cat_941508",
    "link_img": "https://live.staticflickr.com/65535/50019757392_9b9345ee1b_o.jpg",
    "id_image": "Cat_941508",
    "count_view": 0
  },
  {
    "link_thumb": "https://live.staticflickr.com/65535/50351772748_b77c4833e3_n.jpg",
    "id_album": "-462831703",
    "description": "Cat_365187",
    "title": "Cat_365187",
    "link_img": "https://live.staticflickr.com/65535/50351772748_74574e9885_o.jpg",
    "id_image": "Cat_365187",
    "count_view": 0
  },
  {
    "link_thumb": "https://live.staticflickr.com/65535/50021654087_523a0cd063_n.jpg",
    "id_album": "-1168906494",
    "description": "Grasshopper_405275",
    "title": "Grasshopper_405275",
    "link_img": "https://live.staticflickr.com/65535/50021654087_ea0487eb73_o.jpg",
    "id_image": "Grasshopper_405275",
    "count_view": 0
  },
  {
    "link_thumb": "https://live.staticflickr.com/65535/50022197387_8ed9ff892d_n.jpg",
    "id_album": "1392348450",
    "description": "Leopard_596626",
    "title": "Leopard_596626",
    "link_img": "https://live.staticflickr.com/65535/50022197387_3f1716df86_o.jpg",
    "id_image": "Leopard_596626",
    "count_view": 0
  },
  {
    "link_thumb": "https://live.staticflickr.com/65535/50018114467_5156c26e6b_n.jpg",
    "id_album": "-462831705",
    "description": "Cat_20938",
    "title": "Cat_20938",
    "link_img": "https://live.staticflickr.com/65535/50018114467_4d3a451d38_o.jpg",
    "id_image": "Cat_20938",
    "count_view": 0
  },
  {
    "link_thumb": "https://live.staticflickr.com/65535/50017160687_6fbaf3561e_n.jpg",
    "id_album": "523598895",
    "description": "Artistic_361258",
    "title": "Artistic_361258",
    "link_img": "https://live.staticflickr.com/65535/50017160687_8f29555809_o.jpg",
    "id_image": "Artistic_361258",
    "count_view": 0
  },
  {
    "link_thumb": "https://live.staticflickr.com/65535/50023901273_8aabc71ef6_n.jpg",
    "id_album": "766572659",
    "description": "WhiteTiger_676866",
    "title": "WhiteTiger_676866",
    "link_img": "https://live.staticflickr.com/65535/50023901273_0d822453eb_o.jpg",
    "id_image": "WhiteTiger_676866",
    "count_view": 0
  },
  {
    "link_thumb": "https://live.staticflickr.com/65535/50017010831_9a6e105f73_n.jpg",
    "id_album": "-422187261",
    "description": "Bear_236986",
    "title": "Bear_236986",
    "link_img": "https://live.staticflickr.com/65535/50017010831_44cf6095b4_o.jpg",
    "id_image": "Bear_236986",
    "count_view": 0
  },
  {
    "link_thumb": "https://live.staticflickr.com/65535/50021440596_659073ed74_n.jpg",
    "id_album": "1469520430",
    "description": "Hedgehog_969710",
    "title": "Hedgehog_969710",
    "link_img": "https://live.staticflickr.com/65535/50021440596_cf6bcaa714_o.jpg",
    "id_image": "Hedgehog_969710",
    "count_view": 0
  },
  {
    "link_thumb": "https://live.staticflickr.com/65535/50021518642_1351d3864b_n.jpg",
    "id_album": "-462831703",
    "description": "Cat_820850",
    "title": "Cat_820850",
    "link_img": "https://live.staticflickr.com/65535/50021518642_6def98b23b_o.jpg",
    "id_image": "Cat_820850",
    "count_view": 0
  },
  {
    "link_thumb": "https://live.staticflickr.com/65535/50022318142_e45a49d00e_n.jpg",
    "id_album": "416744915",
    "description": "Lion_787145",
    "title": "Lion_787145",
    "link_img": "https://live.staticflickr.com/65535/50022318142_83539e6de5_o.jpg",
    "id_image": "Lion_787145",
    "count_view": 0
  },
  {
    "link_thumb": "https://live.staticflickr.com/65535/50021220186_c7a4a6175a_n.jpg",
    "id_album": "-462831703",
    "description": "Cat_740883",
    "title": "Cat_740883",
    "link_img": "https://live.staticflickr.com/65535/50021220186_de9628ba36_o.jpg",
    "id_image": "Cat_740883",
    "count_view": 0
  },
  {
    "link_thumb": "https://live.staticflickr.com/65535/50016993398_5ddd1bdbd3_n.jpg",
    "id_album": "1696155652",
    "description": "Boxer_764045",
    "title": "Boxer_764045",
    "link_img": "https://live.staticflickr.com/65535/50016993398_3e5a99b731_o.jpg",
    "id_image": "Boxer_764045",
    "count_view": 0
  },
  {
    "link_thumb": "https://live.staticflickr.com/65535/50019718492_ef585cd8ae_n.jpg",
    "id_album": "-462831705",
    "description": "Cat_91515",
    "title": "Cat_91515",
    "link_img": "https://live.staticflickr.com/65535/50019718492_6276d3d2f0_o.jpg",
    "id_image": "Cat_91515",
    "count_view": 0
  },
  {
    "link_thumb": "https://live.staticflickr.com/65535/50020684918_300cc9be82_n.jpg",
    "id_album": "-462831703",
    "description": "Cat_748614",
    "title": "Cat_748614",
    "link_img": "https://live.staticflickr.com/65535/50020684918_c7b087b9df_o.jpg",
    "id_image": "Cat_748614",
    "count_view": 0
  },
  {
    "link_thumb": "https://live.staticflickr.com/65535/50019684062_00fbbb27e8_n.jpg",
    "id_album": "-462831703",
    "description": "Cat_905048",
    "title": "Cat_905048",
    "link_img": "https://live.staticflickr.com/65535/50019684062_4881e0a69b_o.jpg",
    "id_image": "Cat_905048",
    "count_view": 0
  },
  {
    "link_thumb": "https://live.staticflickr.com/65535/50017552396_abd26c7be9_n.jpg",
    "id_album": "-401151552",
    "description": "Butterfly_248436",
    "title": "Butterfly_248436",
    "link_img": "https://live.staticflickr.com/65535/50017552396_436c7ae978_o.jpg",
    "id_image": "Butterfly_248436",
    "count_view": 0
  },
  {
    "link_thumb": "https://live.staticflickr.com/65535/50016952456_cf6078c8ce_n.jpg",
    "id_album": "231236068",
    "description": "BaldEagle_244478",
    "title": "BaldEagle_244478",
    "link_img": "https://live.staticflickr.com/65535/50016952456_a169f01da8_o.jpg",
    "id_image": "BaldEagle_244478",
    "count_view": 0
  },
  {
    "link_thumb": "https://live.staticflickr.com/65535/50022977063_c3154efa28_n.jpg",
    "id_album": "-800019164",
    "description": "Snail_397851",
    "title": "Snail_397851",
    "link_img": "https://live.staticflickr.com/65535/50022977063_961bc17918_o.jpg",
    "id_image": "Snail_397851",
    "count_view": 0
  },
  {
    "link_thumb": "https://live.staticflickr.com/65535/50351957648_70a151e333_n.jpg",
    "id_album": "-462831703",
    "description": "Cat_704486",
    "title": "Cat_704486",
    "link_img": "https://live.staticflickr.com/65535/50351957648_77c03629ee_o.jpg",
    "id_image": "Cat_704486",
    "count_view": 0
  },
  {
    "link_thumb": "https://live.staticflickr.com/65535/50021344591_25f34bbdc6_n.jpg",
    "id_album": "-804131074",
    "description": "Goat_810917",
    "title": "Goat_810917",
    "link_img": "https://live.staticflickr.com/65535/50021344591_23d9fe906c_o.jpg",
    "id_image": "Goat_810917",
    "count_view": 0
  },
  {
    "link_thumb": "https://live.staticflickr.com/65535/50019707121_9ab5f97f07_n.jpg",
    "id_album": "-1481843714",
    "description": "Cheetah_433141",
    "title": "Cheetah_433141",
    "link_img": "https://live.staticflickr.com/65535/50019707121_bfc42d0095_o.jpg",
    "id_image": "Cheetah_433141",
    "count_view": 0
  },
  {
    "link_thumb": "https://live.staticflickr.com/65535/50020654688_069d28d8c1_n.jpg",
    "id_album": "-462831704",
    "description": "Cat_715185",
    "title": "Cat_715185",
    "link_img": "https://live.staticflickr.com/65535/50020654688_5293440f87_o.jpg",
    "id_image": "Cat_715185",
    "count_view": 0
  },
  {
    "link_thumb": "https://live.staticflickr.com/65535/50018963513_bcbc4bc5c5_n.jpg",
    "id_album": "-462831703",
    "description": "Cat_937219",
    "title": "Cat_937219",
    "link_img": "https://live.staticflickr.com/65535/50018963513_1985a86b09_o.jpg",
    "id_image": "Cat_937219",
    "count_view": 0
  },
  {
    "link_thumb": "https://live.staticflickr.com/65535/50352666306_9a788c8487_n.jpg",
    "id_album": "-462831703",
    "description": "Cat_819359",
    "title": "Cat_819359",
    "link_img": "https://live.staticflickr.com/65535/50352666306_675d3ce44d_o.jpg",
    "id_image": "Cat_819359",
    "count_view": 0
  },
  {
    "link_thumb": "https://live.staticflickr.com/65535/50019228623_eddce01f67_n.jpg",
    "id_album": "791455625",
    "description": "Chipmunk_352269",
    "title": "Chipmunk_352269",
    "link_img": "https://live.staticflickr.com/65535/50019228623_e28f531253_o.jpg",
    "id_image": "Chipmunk_352269",
    "count_view": 0
  },
  {
    "link_thumb": "https://live.staticflickr.com/65535/50019683818_8da3ea3607_n.jpg",
    "id_album": "-149330232",
    "description": "Dog_275634",
    "title": "Dog_275634",
    "link_img": "https://live.staticflickr.com/65535/50019683818_dfdceb398c_o.jpg",
    "id_image": "Dog_275634",
    "count_view": 0
  },
  {
    "link_thumb": "https://live.staticflickr.com/65535/50017748272_95fce1b03b_n.jpg",
    "id_album": "782930701",
    "description": "BorderCollie_705487",
    "title": "BorderCollie_705487",
    "link_img": "https://live.staticflickr.com/65535/50017748272_426fb186e5_o.jpg",
    "id_image": "BorderCollie_705487",
    "count_view": 0
  },
  {
    "link_thumb": "https://live.staticflickr.com/65535/50020908188_4a1e56c869_n.jpg",
    "id_album": "-362549635",
    "description": "Hippo_247626",
    "title": "Hippo_247626",
    "link_img": "https://live.staticflickr.com/65535/50020908188_f045f557de_o.jpg",
    "id_image": "Hippo_247626",
    "count_view": 0
  },
  {
    "link_thumb": "https://live.staticflickr.com/65535/50017659126_0c9a2c1db6_n.jpg",
    "id_album": "-401151552",
    "description": "Butterfly_741641",
    "title": "Butterfly_741641",
    "link_img": "https://live.staticflickr.com/65535/50017659126_85941025c1_o.jpg",
    "id_image": "Butterfly_741641",
    "count_view": 0
  },
  {
    "link_thumb": "https://live.staticflickr.com/65535/50023722443_281b3f8491_n.jpg",
    "id_album": "432140049",
    "description": "Toad_328251",
    "title": "Toad_328251",
    "link_img": "https://live.staticflickr.com/65535/50023722443_8369986165_o.jpg",
    "id_image": "Toad_328251",
    "count_view": 0
  },
  {
    "link_thumb": "https://live.staticflickr.com/65535/50020920311_ac4a345078_n.jpg",
    "id_album": "-1694105481",
    "description": "Fly_416343",
    "title": "Fly_416343",
    "link_img": "https://live.staticflickr.com/65535/50020920311_0c1b0d4d67_o.jpg",
    "id_image": "Fly_416343",
    "count_view": 0
  },
  {
    "link_thumb": "https://live.staticflickr.com/65535/50017517866_65cb5a5ec8_n.jpg",
    "id_album": "1696155652",
    "description": "Boxer_371081",
    "title": "Boxer_371081",
    "link_img": "https://live.staticflickr.com/65535/50017517866_1d37e81b60_o.jpg",
    "id_image": "Boxer_371081",
    "count_view": 0
  },
  {
    "link_thumb": "https://live.staticflickr.com/65535/50019415516_3aa56dfe01_n.jpg",
    "id_album": "-462831703",
    "description": "Cat_900804",
    "title": "Cat_900804",
    "link_img": "https://live.staticflickr.com/65535/50019415516_4ec35148ec_o.jpg",
    "id_image": "Cat_900804",
    "count_view": 0
  },
  {
    "link_thumb": "https://live.staticflickr.com/65535/50021409973_bd6b7c8e5d_n.jpg",
    "id_album": "1392348450",
    "description": "Leopard_828840",
    "title": "Leopard_828840",
    "link_img": "https://live.staticflickr.com/65535/50021409973_0ae6484b20_o.jpg",
    "id_image": "Leopard_828840",
    "count_view": 0
  },
  {
    "link_thumb": "https://live.staticflickr.com/65535/50019909532_4300cb5092_n.jpg",
    "id_album": "-766919393",
    "description": "Chameleon_463475",
    "title": "Chameleon_463475",
    "link_img": "https://live.staticflickr.com/65535/50019909532_c05cf26c88_o.jpg",
    "id_image": "Chameleon_463475",
    "count_view": 0
  },
  {
    "link_thumb": "https://live.staticflickr.com/65535/50020876557_909dde627d_n.jpg",
    "id_album": "-405058657",
    "description": "Dragonfly_403293",
    "title": "Dragonfly_403293",
    "link_img": "https://live.staticflickr.com/65535/50020876557_4052154b6b_o.jpg",
    "id_image": "Dragonfly_403293",
    "count_view": 0
  },
  {
    "link_thumb": "https://live.staticflickr.com/65535/50022201756_ee5a393a39_n.jpg",
    "id_album": "-784970094",
    "description": "Monkey_349149",
    "title": "Monkey_349149",
    "link_img": "https://live.staticflickr.com/65535/50022201756_aca4afa8a4_o.jpg",
    "id_image": "Monkey_349149",
    "count_view": 0
  },
  {
    "link_thumb": "https://live.staticflickr.com/65535/50016958546_b15c82d1c2_n.jpg",
    "id_album": "231236068",
    "description": "BaldEagle_443229",
    "title": "BaldEagle_443229",
    "link_img": "https://live.staticflickr.com/65535/50016958546_2b2a888257_o.jpg",
    "id_image": "BaldEagle_443229",
    "count_view": 0
  },
  {
    "link_thumb": "https://live.staticflickr.com/65535/50017291946_d168cc1996_n.jpg",
    "id_album": "-1846011410",
    "description": "Bird_385352",
    "title": "Bird_385352",
    "link_img": "https://live.staticflickr.com/65535/50017291946_41ffe735ea_o.jpg",
    "id_image": "Bird_385352",
    "count_view": 0
  },
  {
    "link_thumb": "https://live.staticflickr.com/65535/50352672037_55c7b868a4_n.jpg",
    "id_album": "-462831703",
    "description": "Cat_427179",
    "title": "Cat_427179",
    "link_img": "https://live.staticflickr.com/65535/50352672037_e7e676e8cc_o.jpg",
    "id_image": "Cat_427179",
    "count_view": 0
  },
  {
    "link_thumb": "https://live.staticflickr.com/65535/50017524081_f762b07817_n.jpg",
    "id_album": "368532157",
    "description": "Bulldog_336442",
    "title": "Bulldog_336442",
    "link_img": "https://live.staticflickr.com/65535/50017524081_01a553fa2b_o.jpg",
    "id_image": "Bulldog_336442",
    "count_view": 0
  },
  {
    "link_thumb": "https://live.staticflickr.com/65535/50352783972_de3452cd91_n.jpg",
    "id_album": "-462831703",
    "description": "Cat_601434",
    "title": "Cat_601434",
    "link_img": "https://live.staticflickr.com/65535/50352783972_ba830c4660_o.jpg",
    "id_image": "Cat_601434",
    "count_view": 0
  },
  {
    "link_thumb": "https://live.staticflickr.com/65535/50017962742_5b247b9d1a_n.jpg",
    "id_album": "-401151552",
    "description": "Butterfly_926548",
    "title": "Butterfly_926548",
    "link_img": "https://live.staticflickr.com/65535/50017962742_5a5be73f93_o.jpg",
    "id_image": "Butterfly_926548",
    "count_view": 0
  },
  {
    "link_thumb": "https://live.staticflickr.com/65535/50020424937_c328cda1ab_n.jpg",
    "id_album": "-149330232",
    "description": "Dog_234082",
    "title": "Dog_234082",
    "link_img": "https://live.staticflickr.com/65535/50020424937_9559ccd426_o.jpg",
    "id_image": "Dog_234082",
    "count_view": 0
  },
  {
    "link_thumb": "https://live.staticflickr.com/65535/50020638566_b2e1ba5edd_n.jpg",
    "id_album": "-405058657",
    "description": "Dragonfly_742085",
    "title": "Dragonfly_742085",
    "link_img": "https://live.staticflickr.com/65535/50020638566_94c000ee3f_o.jpg",
    "id_image": "Dragonfly_742085",
    "count_view": 0
  },
  {
    "link_thumb": "https://live.staticflickr.com/65535/50018774093_9e498964cb_n.jpg",
    "id_album": "-462831704",
    "description": "Cat_534616",
    "title": "Cat_534616",
    "link_img": "https://live.staticflickr.com/65535/50018774093_e742541289_o.jpg",
    "id_image": "Cat_534616",
    "count_view": 0
  },
  {
    "link_thumb": "https://live.staticflickr.com/65535/50017143108_95f69fd6e2_n.jpg",
    "id_album": "-401151552",
    "description": "Butterfly_797235",
    "title": "Butterfly_797235",
    "link_img": "https://live.staticflickr.com/65535/50017143108_d3b5f05173_o.jpg",
    "id_image": "Butterfly_797235",
    "count_view": 0
  },
  {
    "link_thumb": "https://live.staticflickr.com/65535/50023131166_a9e2dfeee5_n.jpg",
    "id_album": "-1940643173",
    "description": "Rabbit_874631",
    "title": "Rabbit_874631",
    "link_img": "https://live.staticflickr.com/65535/50023131166_e8af900148_o.jpg",
    "id_image": "Rabbit_874631",
    "count_view": 0
  },
  {
    "link_thumb": "https://live.staticflickr.com/65535/50021494782_16efc0322b_n.jpg",
    "id_album": "-462831703",
    "description": "Cat_780062",
    "title": "Cat_780062",
    "link_img": "https://live.staticflickr.com/65535/50021494782_6a3abd5009_o.jpg",
    "id_image": "Cat_780062",
    "count_view": 0
  },
  {
    "link_thumb": "https://live.staticflickr.com/65535/50019561211_4bfc51edf6_n.jpg",
    "id_album": "-462831703",
    "description": "Cat_986817",
    "title": "Cat_986817",
    "link_img": "https://live.staticflickr.com/65535/50019561211_988c792df7_o.jpg",
    "id_image": "Cat_986817",
    "count_view": 0
  },
  {
    "link_thumb": "https://live.staticflickr.com/65535/50020240612_7b2233e979_n.jpg",
    "id_album": "1903411565",
    "description": "Deer_255622",
    "title": "Deer_255622",
    "link_img": "https://live.staticflickr.com/65535/50020240612_81d76e687d_o.jpg",
    "id_image": "Deer_255622",
    "count_view": 0
  },
  {
    "link_thumb": "https://live.staticflickr.com/65535/50020333517_75bd6fb88f_n.jpg",
    "id_album": "297232732",
    "description": "Dinosaur_14694",
    "title": "Dinosaur_14694",
    "link_img": "https://live.staticflickr.com/65535/50020333517_92ec5261c5_o.jpg",
    "id_image": "Dinosaur_14694",
    "count_view": 0
  },
  {
    "link_thumb": "https://live.staticflickr.com/65535/50021820578_48a4644d2b_n.jpg",
    "id_album": "106807275",
    "description": "Otter_150221",
    "title": "Otter_150221",
    "link_img": "https://live.staticflickr.com/65535/50021820578_ecfdbc77cb_o.jpg",
    "id_image": "Otter_150221",
    "count_view": 0
  },
  {
    "link_thumb": "https://live.staticflickr.com/65535/50021927421_5aab47bd78_n.jpg",
    "id_album": "1392348450",
    "description": "Leopard_436357",
    "title": "Leopard_436357",
    "link_img": "https://live.staticflickr.com/65535/50021927421_2242b6dac4_o.jpg",
    "id_image": "Leopard_436357",
    "count_view": 0
  },
  {
    "link_thumb": "https://live.staticflickr.com/65535/50021742806_223aa08733_n.jpg",
    "id_album": "-843028318",
    "description": "Jaguar_876788",
    "title": "Jaguar_876788",
    "link_img": "https://live.staticflickr.com/65535/50021742806_97c8845df3_o.jpg",
    "id_image": "Jaguar_876788",
    "count_view": 0
  },
  {
    "link_thumb": "https://live.staticflickr.com/65535/50021678562_7ec686944f_n.jpg",
    "id_album": "-1513987841",
    "description": "Hawk_703464",
    "title": "Hawk_703464",
    "link_img": "https://live.staticflickr.com/65535/50021678562_e45c017dc5_o.jpg",
    "id_image": "Hawk_703464",
    "count_view": 0
  },
  {
    "link_thumb": "https://live.staticflickr.com/65535/50021112511_a50a689272_n.jpg",
    "id_album": "-462831704",
    "description": "Cat_555317",
    "title": "Cat_555317",
    "link_img": "https://live.staticflickr.com/65535/50021112511_54926d5089_o.jpg",
    "id_image": "Cat_555317",
    "count_view": 0
  },
  {
    "link_thumb": "https://live.staticflickr.com/65535/50023769711_93971bc90b_n.jpg",
    "id_album": "-1082521515",
    "description": "Spider_493531",
    "title": "Spider_493531",
    "link_img": "https://live.staticflickr.com/65535/50023769711_220dd2055d_o.jpg",
    "id_image": "Spider_493531",
    "count_view": 0
  },
  {
    "link_thumb": "https://live.staticflickr.com/65535/50024549797_09745d0e46_n.jpg",
    "id_album": "901523298",
    "description": "TreeFrog_384725",
    "title": "TreeFrog_384725",
    "link_img": "https://live.staticflickr.com/65535/50024549797_0806747e14_o.jpg",
    "id_image": "TreeFrog_384725",
    "count_view": 0
  },
  {
    "link_thumb": "https://live.staticflickr.com/65535/50020184486_26ddc043ce_n.jpg",
    "id_album": "-149330232",
    "description": "Dog_255608",
    "title": "Dog_255608",
    "link_img": "https://live.staticflickr.com/65535/50020184486_785e1b0f56_o.jpg",
    "id_image": "Dog_255608",
    "count_view": 0
  },
  {
    "link_thumb": "https://live.staticflickr.com/65535/50021865636_49a6629551_n.jpg",
    "id_album": "-1882491687",
    "description": "Ladybug_808770",
    "title": "Ladybug_808770",
    "link_img": "https://live.staticflickr.com/65535/50021865636_1255e24016_o.jpg",
    "id_image": "Ladybug_808770",
    "count_view": 0
  },
  {
    "link_thumb": "https://live.staticflickr.com/65535/50019299596_9d874bfd25_n.jpg",
    "id_album": "-462831704",
    "description": "Cat_533000",
    "title": "Cat_533000",
    "link_img": "https://live.staticflickr.com/65535/50019299596_562933c1db_o.jpg",
    "id_image": "Cat_533000",
    "count_view": 0
  },
  {
    "link_thumb": "https://live.staticflickr.com/65535/50018163482_309e934a3b_n.jpg",
    "id_album": "-462831705",
    "description": "Cat_248888",
    "title": "Cat_248888",
    "link_img": "https://live.staticflickr.com/65535/50018163482_b37de0a781_o.jpg",
    "id_image": "Cat_248888",
    "count_view": 0
  },
  {
    "link_thumb": "https://live.staticflickr.com/65535/50020527891_d400774acd_n.jpg",
    "id_album": "-149330231",
    "description": "Dog_865590",
    "title": "Dog_865590",
    "link_img": "https://live.staticflickr.com/65535/50020527891_bb4be36a7e_o.jpg",
    "id_image": "Dog_865590",
    "count_view": 0
  },
  {
    "link_thumb": "https://live.staticflickr.com/65535/50017440748_7f2a462639_n.jpg",
    "id_album": "-462831702",
    "description": "Cat_323971",
    "title": "Cat_323971",
    "link_img": "https://live.staticflickr.com/65535/50017440748_7a5bdb1698_o.jpg",
    "id_image": "Cat_323971",
    "count_view": 0
  },
  {
    "link_thumb": "https://live.staticflickr.com/65535/50021499787_0fefce4116_n.jpg",
    "id_album": "-462831705",
    "description": "Cat_78691",
    "title": "Cat_78691",
    "link_img": "https://live.staticflickr.com/65535/50021499787_140ced37b2_o.jpg",
    "id_image": "Cat_78691",
    "count_view": 0
  },
  {
    "link_thumb": "https://live.staticflickr.com/65535/50021416918_df3cc84cbb_n.jpg",
    "id_album": "1392348450",
    "description": "Leopard_922813",
    "title": "Leopard_922813",
    "link_img": "https://live.staticflickr.com/65535/50021416918_635ca257bc_o.jpg",
    "id_image": "Leopard_922813",
    "count_view": 0
  },
  {
    "link_thumb": "https://live.staticflickr.com/65535/50018903108_a13583bf11_n.jpg",
    "id_album": "-462831703",
    "description": "Cat_909174",
    "title": "Cat_909174",
    "link_img": "https://live.staticflickr.com/65535/50018903108_6c2830cba4_o.jpg",
    "id_image": "Cat_909174",
    "count_view": 0
  },
  {
    "link_thumb": "https://live.staticflickr.com/65535/50016941658_3017cacb06_n.jpg",
    "id_album": "-530283314",
    "description": "BlueandyellowMacaw_556327",
    "title": "BlueandyellowMacaw_556327",
    "link_img": "https://live.staticflickr.com/65535/50016941658_9529ea45f8_o.jpg",
    "id_image": "BlueandyellowMacaw_556327",
    "count_view": 0
  },
  {
    "link_thumb": "https://live.staticflickr.com/65535/50018612808_5520635d19_n.jpg",
    "id_album": "-462831702",
    "description": "Cat_412560",
    "title": "Cat_412560",
    "link_img": "https://live.staticflickr.com/65535/50018612808_82587a9d14_o.jpg",
    "id_image": "Cat_412560",
    "count_view": 0
  },
  {
    "link_thumb": "https://live.staticflickr.com/65535/50020136782_8603885494_n.jpg",
    "id_album": "815329026",
    "description": "Crab_445321",
    "title": "Crab_445321",
    "link_img": "https://live.staticflickr.com/65535/50020136782_f5384b4e0c_o.jpg",
    "id_image": "Crab_445321",
    "count_view": 0
  },
  {
    "link_thumb": "https://live.staticflickr.com/65535/50020729332_938bcb64d6_n.jpg",
    "id_album": "-149330231",
    "description": "Dog_657423",
    "title": "Dog_657423",
    "link_img": "https://live.staticflickr.com/65535/50020729332_2af67e49c6_o.jpg",
    "id_image": "Dog_657423",
    "count_view": 0
  },
  {
    "link_thumb": "https://live.staticflickr.com/65535/50020793062_be9684938a_n.jpg",
    "id_album": "-149330231",
    "description": "Dog_890096",
    "title": "Dog_890096",
    "link_img": "https://live.staticflickr.com/65535/50020793062_a21de2b6a1_o.jpg",
    "id_image": "Dog_890096",
    "count_view": 0
  },
  {
    "link_thumb": "https://live.staticflickr.com/65535/50018158027_62ac7a4ce7_n.jpg",
    "id_album": "-462831705",
    "description": "Cat_243057",
    "title": "Cat_243057",
    "link_img": "https://live.staticflickr.com/65535/50018158027_00cec803bd_o.jpg",
    "id_image": "Cat_243057",
    "count_view": 0
  },
  {
    "link_thumb": "https://live.staticflickr.com/65535/50016288803_6382717014_n.jpg",
    "id_album": "-1473450542",
    "description": "Alpaca_548389",
    "title": "Alpaca_548389",
    "link_img": "https://live.staticflickr.com/65535/50016288803_f59056d968_o.jpg",
    "id_image": "Alpaca_548389",
    "count_view": 0
  }
]