[
  {
    "total_img": 0,
    "number_page": 0,
    "title": "Snow Leopard",
    "tag": "Snow Leopard,",
    "description": "Snow Leopard",
    "link_thumb": "https://live.staticflickr.com/65535/50023875512_e4ce13dd03_n.jpg",
    "id_album": "-1131363127",
    "total_view": 142
  }
]