[
  {
    "link_thumb": "https://live.staticflickr.com/65535/50021595731_05f32a864c_n.jpg",
    "id_album": "773713550",
    "description": "Hoverfly_203620",
    "title": "Hoverfly_203620",
    "link_img": "https://live.staticflickr.com/65535/50021595731_00d5081b74_o.jpg",
    "id_image": "Hoverfly_203620",
    "count_view": 0
  },
  {
    "link_thumb": "https://live.staticflickr.com/65535/50021295801_c7b1eb0c01_n.jpg",
    "id_album": "-405626519",
    "description": "GermanShepherd_693067",
    "title": "GermanShepherd_693067",
    "link_img": "https://live.staticflickr.com/65535/50021295801_35938d70e5_o.jpg",
    "id_image": "GermanShepherd_693067",
    "count_view": 0
  },
  {
    "link_thumb": "https://live.staticflickr.com/65535/50021689276_cb0e47d39a_n.jpg",
    "id_album": "1658866795",
    "description": "Insect_404564",
    "title": "Insect_404564",
    "link_img": "https://live.staticflickr.com/65535/50021689276_106b436c8c_o.jpg",
    "id_image": "Insect_404564",
    "count_view": 0
  },
  {
    "link_thumb": "https://live.staticflickr.com/65535/50019337643_9cb02b3beb_n.jpg",
    "id_album": "-2144640780",
    "description": "Cow_905004",
    "title": "Cow_905004",
    "link_img": "https://live.staticflickr.com/65535/50019337643_79684c4fa3_o.jpg",
    "id_image": "Cow_905004",
    "count_view": 0
  },
  {
    "link_thumb": "https://live.staticflickr.com/65535/50019607013_d696dc9831_n.jpg",
    "id_album": "-149330232",
    "description": "Dog_187200",
    "title": "Dog_187200",
    "link_img": "https://live.staticflickr.com/65535/50019607013_6b56de94f4_o.jpg",
    "id_image": "Dog_187200",
    "count_view": 0
  },
  {
    "link_thumb": "https://live.staticflickr.com/65535/50024060606_0c3f2ff509_n.jpg",
    "id_album": "405170427",
    "description": "Tiger_324170",
    "title": "Tiger_324170",
    "link_img": "https://live.staticflickr.com/65535/50024060606_f140eeb422_o.jpg",
    "id_image": "Tiger_324170",
    "count_view": 0
  },
  {
    "link_thumb": "https://live.staticflickr.com/65535/50019755807_73a3eb0dd3_n.jpg",
    "id_album": "-462831703",
    "description": "Cat_940640",
    "title": "Cat_940640",
    "link_img": "https://live.staticflickr.com/65535/50019755807_1373995f94_o.jpg",
    "id_image": "Cat_940640",
    "count_view": 0
  },
  {
    "link_thumb": "https://live.staticflickr.com/65535/50020458858_8a23ea3ac0_n.jpg",
    "id_album": "-128218148",
    "description": "Fox_767524",
    "title": "Fox_767524",
    "link_img": "https://live.staticflickr.com/65535/50020458858_81bae20ba1_o.jpg",
    "id_image": "Fox_767524",
    "count_view": 0
  },
  {
    "link_thumb": "https://live.staticflickr.com/65535/50021802601_b130e3efd5_n.jpg",
    "id_album": "770105808",
    "description": "Kingfisher_556285",
    "title": "Kingfisher_556285",
    "link_img": "https://live.staticflickr.com/65535/50021802601_1708ec8dec_o.jpg",
    "id_image": "Kingfisher_556285",
    "count_view": 0
  },
  {
    "link_thumb": "https://live.staticflickr.com/65535/50022434111_20efb48401_n.jpg",
    "id_album": "-1384601601",
    "description": "Owl_528009",
    "title": "Owl_528009",
    "link_img": "https://live.staticflickr.com/65535/50022434111_2eb74b60f6_o.jpg",
    "id_image": "Owl_528009",
    "count_view": 0
  },
  {
    "link_thumb": "https://live.staticflickr.com/65535/50021270851_4607ac166f_n.jpg",
    "id_album": "-462831703",
    "description": "Cat_831935",
    "title": "Cat_831935",
    "link_img": "https://live.staticflickr.com/65535/50021270851_365e50de45_o.jpg",
    "id_image": "Cat_831935",
    "count_view": 0
  },
  {
    "link_thumb": "https://live.staticflickr.com/65535/50352712521_e3d06fe13f_n.jpg",
    "id_album": "-462831702",
    "description": "Cat_9564",
    "title": "Cat_9564",
    "link_img": "https://live.staticflickr.com/65535/50352712521_d537eb85b2_o.jpg",
    "id_image": "Cat_9564",
    "count_view": 0
  },
  {
    "link_thumb": "https://live.staticflickr.com/65535/50017820052_abf2ffa138_n.jpg",
    "id_album": "-401151552",
    "description": "Butterfly_290301",
    "title": "Butterfly_290301",
    "link_img": "https://live.staticflickr.com/65535/50017820052_14a88c83bf_o.jpg",
    "id_image": "Butterfly_290301",
    "count_view": 0
  },
  {
    "link_thumb": "https://live.staticflickr.com/65535/50016367073_496f96c7e0_n.jpg",
    "id_album": "523598895",
    "description": "Artistic_309764",
    "title": "Artistic_309764",
    "link_img": "https://live.staticflickr.com/65535/50016367073_0a73fb543c_o.jpg",
    "id_image": "Artistic_309764",
    "count_view": 0
  },
  {
    "link_thumb": "https://live.staticflickr.com/65535/50017202423_f01f71b39e_n.jpg",
    "id_album": "189994021",
    "description": "Cardinal_211414",
    "title": "Cardinal_211414",
    "link_img": "https://live.staticflickr.com/65535/50017202423_c50a080853_o.jpg",
    "id_image": "Cardinal_211414",
    "count_view": 0
  },
  {
    "link_thumb": "https://live.staticflickr.com/65535/50022182497_2d79a17814_n.jpg",
    "id_album": "1392348450",
    "description": "Leopard_427337",
    "title": "Leopard_427337",
    "link_img": "https://live.staticflickr.com/65535/50022182497_9f3de0b7f6_o.jpg",
    "id_image": "Leopard_427337",
    "count_view": 0
  },
  {
    "link_thumb": "https://live.staticflickr.com/65535/50023919533_df3bc94939_n.jpg",
    "id_album": "-709711865",
    "description": "Wolf_2273",
    "title": "Wolf_2273",
    "link_img": "https://live.staticflickr.com/65535/50023919533_761e8d1d67_o.jpg",
    "id_image": "Wolf_2273",
    "count_view": 0
  },
  {
    "link_thumb": "https://live.staticflickr.com/65535/50022596222_e5d527dff1_n.jpg",
    "id_album": "1015034486",
    "description": "Muteswan_778642",
    "title": "Muteswan_778642",
    "link_img": "https://live.staticflickr.com/65535/50022596222_f5407a5016_o.jpg",
    "id_image": "Muteswan_778642",
    "count_view": 0
  },
  {
    "link_thumb": "https://live.staticflickr.com/65535/50017345766_dd7f621c05_n.jpg",
    "id_album": "-1846011410",
    "description": "Bird_462222",
    "title": "Bird_462222",
    "link_img": "https://live.staticflickr.com/65535/50017345766_057bdd5477_o.jpg",
    "id_image": "Bird_462222",
    "count_view": 0
  },
  {
    "link_thumb": "https://live.staticflickr.com/65535/50017736946_b84552305b_n.jpg",
    "id_album": "189994021",
    "description": "Cardinal_728172",
    "title": "Cardinal_728172",
    "link_img": "https://live.staticflickr.com/65535/50017736946_1e39ca555d_o.jpg",
    "id_image": "Cardinal_728172",
    "count_view": 0
  },
  {
    "link_thumb": "https://live.staticflickr.com/65535/50019860032_d3cd7e9480_n.jpg",
    "id_album": "-420782796",
    "description": "Caterpillar_391545",
    "title": "Caterpillar_391545",
    "link_img": "https://live.staticflickr.com/65535/50019860032_14f74955b2_o.jpg",
    "id_image": "Caterpillar_391545",
    "count_view": 0
  },
  {
    "link_thumb": "https://live.staticflickr.com/65535/50022951676_fe0fec95c6_n.jpg",
    "id_album": "-1431524681",
    "description": "Pug_501037",
    "title": "Pug_501037",
    "link_img": "https://live.staticflickr.com/65535/50022951676_537d703ae6_o.jpg",
    "id_image": "Pug_501037",
    "count_view": 0
  },
  {
    "link_thumb": "https://live.staticflickr.com/65535/50022448651_b11b2cf187_n.jpg",
    "id_album": "-1384601601",
    "description": "Owl_596683",
    "title": "Owl_596683",
    "link_img": "https://live.staticflickr.com/65535/50022448651_b900039a08_o.jpg",
    "id_image": "Owl_596683",
    "count_view": 0
  },
  {
    "link_thumb": "https://live.staticflickr.com/65535/50021791276_f37f8871bd_n.jpg",
    "id_album": "-649286029",
    "description": "Kangaroo_333486",
    "title": "Kangaroo_333486",
    "link_img": "https://live.staticflickr.com/65535/50021791276_00a79b30a5_o.jpg",
    "id_image": "Kangaroo_333486",
    "count_view": 0
  },
  {
    "link_thumb": "https://live.staticflickr.com/65535/50018627688_148e6238cc_n.jpg",
    "id_album": "-462831702",
    "description": "Cat_421974",
    "title": "Cat_421974",
    "link_img": "https://live.staticflickr.com/65535/50018627688_238008ea2a_o.jpg",
    "id_image": "Cat_421974",
    "count_view": 0
  },
  {
    "link_thumb": "https://live.staticflickr.com/65535/50021447497_fa2e17905a_n.jpg",
    "id_album": "-462831704",
    "description": "Cat_711855",
    "title": "Cat_711855",
    "link_img": "https://live.staticflickr.com/65535/50021447497_6d64cd88d2_o.jpg",
    "id_image": "Cat_711855",
    "count_view": 0
  },
  {
    "link_thumb": "https://live.staticflickr.com/65535/50017515248_e8d5c117c3_n.jpg",
    "id_album": "-462831702",
    "description": "Cat_355949",
    "title": "Cat_355949",
    "link_img": "https://live.staticflickr.com/65535/50017515248_8a4624a300_o.jpg",
    "id_image": "Cat_355949",
    "count_view": 0
  },
  {
    "link_thumb": "https://live.staticflickr.com/65535/50019226073_dc9e4b7743_n.jpg",
    "id_album": "791455625",
    "description": "Chipmunk_253221",
    "title": "Chipmunk_253221",
    "link_img": "https://live.staticflickr.com/65535/50019226073_65fd9aa87c_o.jpg",
    "id_image": "Chipmunk_253221",
    "count_view": 0
  },
  {
    "link_thumb": "https://live.staticflickr.com/65535/50017285322_3d4a9347d3_n.jpg",
    "id_album": "-422187261",
    "description": "Bear_341385",
    "title": "Bear_341385",
    "link_img": "https://live.staticflickr.com/65535/50017285322_077f7e6c9b_o.jpg",
    "id_image": "Bear_341385",
    "count_view": 0
  },
  {
    "link_thumb": "https://live.staticflickr.com/65535/50019931977_b33ddfa10a_n.jpg",
    "id_album": "-766919393",
    "description": "Chameleon_923976",
    "title": "Chameleon_923976",
    "link_img": "https://live.staticflickr.com/65535/50019931977_f4afcd9136_o.jpg",
    "id_image": "Chameleon_923976",
    "count_view": 0
  },
  {
    "link_thumb": "https://live.staticflickr.com/65535/50019585057_e336e16e16_n.jpg",
    "id_album": "-462831703",
    "description": "Cat_856789",
    "title": "Cat_856789",
    "link_img": "https://live.staticflickr.com/65535/50019585057_3ab8949282_o.jpg",
    "id_image": "Cat_856789",
    "count_view": 0
  },
  {
    "link_thumb": "https://live.staticflickr.com/65535/50024509337_73ea8e8196_n.jpg",
    "id_album": "405170427",
    "description": "Tiger_948037",
    "title": "Tiger_948037",
    "link_img": "https://live.staticflickr.com/65535/50024509337_fc75653b92_o.jpg",
    "id_image": "Tiger_948037",
    "count_view": 0
  },
  {
    "link_thumb": "https://live.staticflickr.com/65535/50020073293_36bc9a488d_n.jpg",
    "id_album": "-405058657",
    "description": "Dragonfly_26814",
    "title": "Dragonfly_26814",
    "link_img": "https://live.staticflickr.com/65535/50020073293_621b78cf82_o.jpg",
    "id_image": "Dragonfly_26814",
    "count_view": 0
  },
  {
    "link_thumb": "https://live.staticflickr.com/65535/50021641443_47a10312de_n.jpg",
    "id_album": "-1720012921",
    "description": "Meerkat_347251",
    "title": "Meerkat_347251",
    "link_img": "https://live.staticflickr.com/65535/50021641443_cf39fc285a_o.jpg",
    "id_image": "Meerkat_347251",
    "count_view": 0
  },
  {
    "link_thumb": "https://live.staticflickr.com/65535/50017838276_1dd849caf1_n.jpg",
    "id_album": "-462831705",
    "description": "Cat_198019",
    "title": "Cat_198019",
    "link_img": "https://live.staticflickr.com/65535/50017838276_965ee658f8_o.jpg",
    "id_image": "Cat_198019",
    "count_view": 0
  },
  {
    "link_thumb": "https://live.staticflickr.com/65535/50020879537_b0d0c754a3_n.jpg",
    "id_album": "-405058657",
    "description": "Dragonfly_441654",
    "title": "Dragonfly_441654",
    "link_img": "https://live.staticflickr.com/65535/50020879537_449d141289_o.jpg",
    "id_image": "Dragonfly_441654",
    "count_view": 0
  },
  {
    "link_thumb": "https://live.staticflickr.com/65535/50019500581_26066220bd_n.jpg",
    "id_album": "-462831703",
    "description": "Cat_940746",
    "title": "Cat_940746",
    "link_img": "https://live.staticflickr.com/65535/50019500581_4bc071537f_o.jpg",
    "id_image": "Cat_940746",
    "count_view": 0
  },
  {
    "link_thumb": "https://live.staticflickr.com/65535/50021064191_71e3288c0e_n.jpg",
    "id_album": "844170697",
    "description": "Frog_436712",
    "title": "Frog_436712",
    "link_img": "https://live.staticflickr.com/65535/50021064191_ceafd30e91_o.jpg",
    "id_image": "Frog_436712",
    "count_view": 0
  },
  {
    "link_thumb": "https://live.staticflickr.com/65535/50023751787_e4435ac980_n.jpg",
    "id_album": "-755466332",
    "description": "Sheep_887676",
    "title": "Sheep_887676",
    "link_img": "https://live.staticflickr.com/65535/50023751787_f0ba38aa64_o.jpg",
    "id_image": "Sheep_887676",
    "count_view": 0
  },
  {
    "link_thumb": "https://live.staticflickr.com/65535/50020947292_1db6c93db7_n.jpg",
    "id_album": "-39098563",
    "description": "Eagle_331984",
    "title": "Eagle_331984",
    "link_img": "https://live.staticflickr.com/65535/50020947292_42fc367ed6_o.jpg",
    "id_image": "Eagle_331984",
    "count_view": 0
  },
  {
    "link_thumb": "https://live.staticflickr.com/65535/50021438252_2a01f49726_n.jpg",
    "id_album": "-462831704",
    "description": "Cat_704516",
    "title": "Cat_704516",
    "link_img": "https://live.staticflickr.com/65535/50021438252_0c146dd505_o.jpg",
    "id_image": "Cat_704516",
    "count_view": 0
  },
  {
    "link_thumb": "https://live.staticflickr.com/65535/50023633052_3d13b81432_n.jpg",
    "id_album": "1656131695",
    "description": "Seagull_534073",
    "title": "Seagull_534073",
    "link_img": "https://live.staticflickr.com/65535/50023633052_0dc9585004_o.jpg",
    "id_image": "Seagull_534073",
    "count_view": 0
  },
  {
    "link_thumb": "https://live.staticflickr.com/65535/50020322222_bf915161d9_n.jpg",
    "id_album": "1903411565",
    "description": "Deer_935258",
    "title": "Deer_935258",
    "link_img": "https://live.staticflickr.com/65535/50020322222_123c3227a1_o.jpg",
    "id_image": "Deer_935258",
    "count_view": 0
  },
  {
    "link_thumb": "https://live.staticflickr.com/65535/50024835362_c1d79e66e4_n.jpg",
    "id_album": "1104421803",
    "description": "Zebra_499606",
    "title": "Zebra_499606",
    "link_img": "https://live.staticflickr.com/65535/50024835362_df9d2ba0ae_o.jpg",
    "id_image": "Zebra_499606",
    "count_view": 0
  },
  {
    "link_thumb": "https://live.staticflickr.com/65535/50352439251_33706c884e_n.jpg",
    "id_album": "-462831703",
    "description": "Cat_242728",
    "title": "Cat_242728",
    "link_img": "https://live.staticflickr.com/65535/50352439251_ce3f3bb73b_o.jpg",
    "id_image": "Cat_242728",
    "count_view": 0
  },
  {
    "link_thumb": "https://live.staticflickr.com/65535/50019382556_1ca1be9089_n.jpg",
    "id_album": "-462831703",
    "description": "Cat_878588",
    "title": "Cat_878588",
    "link_img": "https://live.staticflickr.com/65535/50019382556_a0d8316750_o.jpg",
    "id_image": "Cat_878588",
    "count_view": 0
  },
  {
    "link_thumb": "https://live.staticflickr.com/65535/50021123791_92cd592ce9_n.jpg",
    "id_album": "-462831704",
    "description": "Cat_572564",
    "title": "Cat_572564",
    "link_img": "https://live.staticflickr.com/65535/50021123791_c67d8f613b_o.jpg",
    "id_image": "Cat_572564",
    "count_view": 0
  },
  {
    "link_thumb": "https://live.staticflickr.com/65535/50017199962_a57fc79c26_n.jpg",
    "id_album": "390697200",
    "description": "AustralianShepherd_854469",
    "title": "AustralianShepherd_854469",
    "link_img": "https://live.staticflickr.com/65535/50017199962_847abe4f73_o.jpg",
    "id_image": "AustralianShepherd_854469",
    "count_view": 0
  },
  {
    "link_thumb": "https://live.staticflickr.com/65535/50351818538_703c9475f0_n.jpg",
    "id_album": "-462831703",
    "description": "Cat_428952",
    "title": "Cat_428952",
    "link_img": "https://live.staticflickr.com/65535/50351818538_656ecdf591_o.jpg",
    "id_image": "Cat_428952",
    "count_view": 0
  },
  {
    "link_thumb": "https://live.staticflickr.com/65535/50024369217_a0642f91a0_n.jpg",
    "id_album": "405170427",
    "description": "Tiger_388464",
    "title": "Tiger_388464",
    "link_img": "https://live.staticflickr.com/65535/50024369217_c7cb717c36_o.jpg",
    "id_image": "Tiger_388464",
    "count_view": 0
  },
  {
    "link_thumb": "https://live.staticflickr.com/65535/50021236821_3665f00708_n.jpg",
    "id_album": "-462831703",
    "description": "Cat_774214",
    "title": "Cat_774214",
    "link_img": "https://live.staticflickr.com/65535/50021236821_ddd515b5c1_o.jpg",
    "id_image": "Cat_774214",
    "count_view": 0
  },
  {
    "link_thumb": "https://live.staticflickr.com/65535/50020352098_52b41b2cee_n.jpg",
    "id_album": "-1758557371",
    "description": "Flamingo_368632",
    "title": "Flamingo_368632",
    "link_img": "https://live.staticflickr.com/65535/50020352098_c6d023fddf_o.jpg",
    "id_image": "Flamingo_368632",
    "count_view": 0
  },
  {
    "link_thumb": "https://live.staticflickr.com/65535/50023622857_a0da2a0260_n.jpg",
    "id_album": "1656131695",
    "description": "Seagull_433652",
    "title": "Seagull_433652",
    "link_img": "https://live.staticflickr.com/65535/50023622857_53ebe81ceb_o.jpg",
    "id_image": "Seagull_433652",
    "count_view": 0
  },
  {
    "link_thumb": "https://live.staticflickr.com/65535/50016328013_9b052dabfe_n.jpg",
    "id_album": "523598895",
    "description": "Artistic_103695",
    "title": "Artistic_103695",
    "link_img": "https://live.staticflickr.com/65535/50016328013_b69ba162e5_o.jpg",
    "id_image": "Artistic_103695",
    "count_view": 0
  },
  {
    "link_thumb": "https://live.staticflickr.com/65535/50016973703_2d34be626b_n.jpg",
    "id_album": "782930701",
    "description": "BorderCollie_859835",
    "title": "BorderCollie_859835",
    "link_img": "https://live.staticflickr.com/65535/50016973703_73095e0186_o.jpg",
    "id_image": "BorderCollie_859835",
    "count_view": 0
  },
  {
    "link_thumb": "https://live.staticflickr.com/65535/50019809677_d9aa71af1c_n.jpg",
    "id_album": "-462831703",
    "description": "Cat_983669",
    "title": "Cat_983669",
    "link_img": "https://live.staticflickr.com/65535/50019809677_0372a5242b_o.jpg",
    "id_image": "Cat_983669",
    "count_view": 0
  },
  {
    "link_thumb": "https://live.staticflickr.com/65535/50019774887_bc6f63ac61_n.jpg",
    "id_album": "-462831703",
    "description": "Cat_956664",
    "title": "Cat_956664",
    "link_img": "https://live.staticflickr.com/65535/50019774887_06cc7fa13d_o.jpg",
    "id_image": "Cat_956664",
    "count_view": 0
  },
  {
    "link_thumb": "https://live.staticflickr.com/65535/50020722281_779f981784_n.jpg",
    "id_album": "-39098563",
    "description": "Eagle_734787",
    "title": "Eagle_734787",
    "link_img": "https://live.staticflickr.com/65535/50020722281_2dbac0bcac_o.jpg",
    "id_image": "Eagle_734787",
    "count_view": 0
  },
  {
    "link_thumb": "https://live.staticflickr.com/65535/50017850591_ea406777b5_n.jpg",
    "id_album": "-462831705",
    "description": "Cat_207595",
    "title": "Cat_207595",
    "link_img": "https://live.staticflickr.com/65535/50017850591_5749e7d6f3_o.jpg",
    "id_image": "Cat_207595",
    "count_view": 0
  },
  {
    "link_thumb": "https://live.staticflickr.com/65535/50020803952_44e953c67a_n.jpg",
    "id_album": "-149330232",
    "description": "Dog_93684",
    "title": "Dog_93684",
    "link_img": "https://live.staticflickr.com/65535/50020803952_784c7b5bf2_o.jpg",
    "id_image": "Dog_93684",
    "count_view": 0
  },
  {
    "link_thumb": "https://live.staticflickr.com/65535/50022035676_f785467daf_n.jpg",
    "id_album": "416744915",
    "description": "Lion_594384",
    "title": "Lion_594384",
    "link_img": "https://live.staticflickr.com/65535/50022035676_d39c5df3df_o.jpg",
    "id_image": "Lion_594384",
    "count_view": 0
  },
  {
    "link_thumb": "https://live.staticflickr.com/65535/50022124926_1344ce99e0_n.jpg",
    "id_album": "-656526748",
    "description": "Lizard_661807",
    "title": "Lizard_661807",
    "link_img": "https://live.staticflickr.com/65535/50022124926_706fb32f68_o.jpg",
    "id_image": "Lizard_661807",
    "count_view": 0
  },
  {
    "link_thumb": "https://live.staticflickr.com/65535/50019455058_ed907b5bf9_n.jpg",
    "id_album": "1903411565",
    "description": "Deer_276118",
    "title": "Deer_276118",
    "link_img": "https://live.staticflickr.com/65535/50019455058_812073fe1e_o.jpg",
    "id_image": "Deer_276118",
    "count_view": 0
  },
  {
    "link_thumb": "https://live.staticflickr.com/65535/50016362063_3e33fa8fbe_n.jpg",
    "id_album": "523598895",
    "description": "Artistic_265833",
    "title": "Artistic_265833",
    "link_img": "https://live.staticflickr.com/65535/50016362063_3b90be2e4c_o.jpg",
    "id_image": "Artistic_265833",
    "count_view": 0
  },
  {
    "link_thumb": "https://live.staticflickr.com/65535/50023696781_4104305e63_n.jpg",
    "id_album": "1933547265",
    "description": "SnowyOwl_984019",
    "title": "SnowyOwl_984019",
    "link_img": "https://live.staticflickr.com/65535/50023696781_1cf04220ee_o.jpg",
    "id_image": "SnowyOwl_984019",
    "count_view": 0
  },
  {
    "link_thumb": "https://live.staticflickr.com/65535/50021557447_671c39ab82_n.jpg",
    "id_album": "-405626519",
    "description": "GermanShepherd_820830",
    "title": "GermanShepherd_820830",
    "link_img": "https://live.staticflickr.com/65535/50021557447_763365de27_o.jpg",
    "id_image": "GermanShepherd_820830",
    "count_view": 0
  },
  {
    "link_thumb": "https://live.staticflickr.com/65535/50017064676_b25d0f1e01_n.jpg",
    "id_album": "-422187261",
    "description": "Bear_678091",
    "title": "Bear_678091",
    "link_img": "https://live.staticflickr.com/65535/50017064676_6d74d69ac6_o.jpg",
    "id_image": "Bear_678091",
    "count_view": 0
  },
  {
    "link_thumb": "https://live.staticflickr.com/65535/50023470832_835dee4fb4_n.jpg",
    "id_album": "332874268",
    "description": "RedPanda_524540",
    "title": "RedPanda_524540",
    "link_img": "https://live.staticflickr.com/65535/50023470832_2c220cf628_o.jpg",
    "id_image": "RedPanda_524540",
    "count_view": 0
  },
  {
    "link_thumb": "https://live.staticflickr.com/65535/50024519302_0abf259713_n.jpg",
    "id_album": "-809392728",
    "description": "Titmouse_436215",
    "title": "Titmouse_436215",
    "link_img": "https://live.staticflickr.com/65535/50024519302_3dab0ae50e_o.jpg",
    "id_image": "Titmouse_436215",
    "count_view": 0
  },
  {
    "link_thumb": "https://live.staticflickr.com/65535/50022533198_44ce504eb4_n.jpg",
    "id_album": "-353898617",
    "description": "Puppy_990522",
    "title": "Puppy_990522",
    "link_img": "https://live.staticflickr.com/65535/50022533198_0521a6bf8d_o.jpg",
    "id_image": "Puppy_990522",
    "count_view": 0
  },
  {
    "link_thumb": "https://live.staticflickr.com/65535/50022963911_dc6c4318b5_n.jpg",
    "id_album": "-353898617",
    "description": "Puppy_356491",
    "title": "Puppy_356491",
    "link_img": "https://live.staticflickr.com/65535/50022963911_30269e7569_o.jpg",
    "id_image": "Puppy_356491",
    "count_view": 0
  },
  {
    "link_thumb": "https://live.staticflickr.com/65535/50023215933_22a052c8aa_n.jpg",
    "id_album": "-1082521515",
    "description": "Spider_422510",
    "title": "Spider_422510",
    "link_img": "https://live.staticflickr.com/65535/50023215933_aea88894c1_o.jpg",
    "id_image": "Spider_422510",
    "count_view": 0
  },
  {
    "link_thumb": "https://live.staticflickr.com/65535/50023070187_955b878480_n.jpg",
    "id_album": "1008910300",
    "description": "PolarBear_341041",
    "title": "PolarBear_341041",
    "link_img": "https://live.staticflickr.com/65535/50023070187_152897c70d_o.jpg",
    "id_image": "PolarBear_341041",
    "count_view": 0
  },
  {
    "link_thumb": "https://live.staticflickr.com/65535/50022000576_fd716d8b73_n.jpg",
    "id_album": "416744915",
    "description": "Lion_369242",
    "title": "Lion_369242",
    "link_img": "https://live.staticflickr.com/65535/50022000576_70d0806f9e_o.jpg",
    "id_image": "Lion_369242",
    "count_view": 0
  },
  {
    "link_thumb": "https://live.staticflickr.com/65535/50019880216_d49ab9fde6_n.jpg",
    "id_album": "815329026",
    "description": "Crab_511029",
    "title": "Crab_511029",
    "link_img": "https://live.staticflickr.com/65535/50019880216_ec3cae0579_o.jpg",
    "id_image": "Crab_511029",
    "count_view": 0
  },
  {
    "link_thumb": "https://live.staticflickr.com/65535/50020225251_0b2fbba2a1_n.jpg",
    "id_album": "-149330232",
    "description": "Dog_290201",
    "title": "Dog_290201",
    "link_img": "https://live.staticflickr.com/65535/50020225251_38856d4f06_o.jpg",
    "id_image": "Dog_290201",
    "count_view": 0
  },
  {
    "link_thumb": "https://live.staticflickr.com/65535/50022081477_56b4d4f84a_n.jpg",
    "id_album": "1307335982",
    "description": "LabradorRetriever_277655",
    "title": "LabradorRetriever_277655",
    "link_img": "https://live.staticflickr.com/65535/50022081477_6cf6825748_o.jpg",
    "id_image": "LabradorRetriever_277655",
    "count_view": 0
  },
  {
    "link_thumb": "https://live.staticflickr.com/65535/50017409927_54d2fc7631_n.jpg",
    "id_album": "1699594607",
    "description": "Bee_574383",
    "title": "Bee_574383",
    "link_img": "https://live.staticflickr.com/65535/50017409927_ee91294288_o.jpg",
    "id_image": "Bee_574383",
    "count_view": 0
  },
  {
    "link_thumb": "https://live.staticflickr.com/65535/50020677582_135f60773e_n.jpg",
    "id_album": "-149330231",
    "description": "Dog_450994",
    "title": "Dog_450994",
    "link_img": "https://live.staticflickr.com/65535/50020677582_52684300d9_o.jpg",
    "id_image": "Dog_450994",
    "count_view": 0
  },
  {
    "link_thumb": "https://live.staticflickr.com/65535/50019283026_b87988618a_n.jpg",
    "id_album": "-462831704",
    "description": "Cat_522639",
    "title": "Cat_522639",
    "link_img": "https://live.staticflickr.com/65535/50019283026_bdffc0f411_o.jpg",
    "id_image": "Cat_522639",
    "count_view": 0
  },
  {
    "link_thumb": "https://live.staticflickr.com/65535/50022470726_8928bf5f30_n.jpg",
    "id_album": "-1384601601",
    "description": "Owl_727486",
    "title": "Owl_727486",
    "link_img": "https://live.staticflickr.com/65535/50022470726_e0a27e5f5b_o.jpg",
    "id_image": "Owl_727486",
    "count_view": 0
  },
  {
    "link_thumb": "https://live.staticflickr.com/65535/50021026876_fb3635dbc6_n.jpg",
    "id_album": "-128218148",
    "description": "Fox_926478",
    "title": "Fox_926478",
    "link_img": "https://live.staticflickr.com/65535/50021026876_25021b7054_o.jpg",
    "id_image": "Fox_926478",
    "count_view": 0
  },
  {
    "link_thumb": "https://live.staticflickr.com/65535/50023320551_7a7f73e64b_n.jpg",
    "id_album": "1512228924",
    "description": "ScarletMacaw_214282",
    "title": "ScarletMacaw_214282",
    "link_img": "https://live.staticflickr.com/65535/50023320551_8b749ee259_o.jpg",
    "id_image": "ScarletMacaw_214282",
    "count_view": 0
  },
  {
    "link_thumb": "https://live.staticflickr.com/65535/50017616557_f22983ede4_n.jpg",
    "id_album": "-1846011410",
    "description": "Bird_519900",
    "title": "Bird_519900",
    "link_img": "https://live.staticflickr.com/65535/50017616557_9897fd014e_o.jpg",
    "id_image": "Bird_519900",
    "count_view": 0
  },
  {
    "link_thumb": "https://live.staticflickr.com/65535/50019650328_8c0dde257f_n.jpg",
    "id_album": "-149330232",
    "description": "Dog_251842",
    "title": "Dog_251842",
    "link_img": "https://live.staticflickr.com/65535/50019650328_d299642fba_o.jpg",
    "id_image": "Dog_251842",
    "count_view": 0
  },
  {
    "link_thumb": "https://live.staticflickr.com/65535/50016870246_0e8062aaf1_n.jpg",
    "id_album": "523598895",
    "description": "Artistic_150312",
    "title": "Artistic_150312",
    "link_img": "https://live.staticflickr.com/65535/50016870246_75f81a238f_o.jpg",
    "id_image": "Artistic_150312",
    "count_view": 0
  },
  {
    "link_thumb": "https://live.staticflickr.com/65535/50019743386_0dbb97cd2a_n.jpg",
    "id_album": "1949822052",
    "description": "Chimpanzee_378743",
    "title": "Chimpanzee_378743",
    "link_img": "https://live.staticflickr.com/65535/50019743386_a9b9cb6d3a_o.jpg",
    "id_image": "Chimpanzee_378743",
    "count_view": 0
  },
  {
    "link_thumb": "https://live.staticflickr.com/65535/50019963998_4a9da66014_n.jpg",
    "id_album": "-149330231",
    "description": "Dog_728278",
    "title": "Dog_728278",
    "link_img": "https://live.staticflickr.com/65535/50019963998_a30fce0b86_o.jpg",
    "id_image": "Dog_728278",
    "count_view": 0
  },
  {
    "link_thumb": "https://live.staticflickr.com/65535/50022706282_ae7b8b5d47_n.jpg",
    "id_album": "-1384601601",
    "description": "Owl_591670",
    "title": "Owl_591670",
    "link_img": "https://live.staticflickr.com/65535/50022706282_c54dc34b3a_o.jpg",
    "id_image": "Owl_591670",
    "count_view": 0
  },
  {
    "link_thumb": "https://live.staticflickr.com/65535/50020364126_06aa96017a_n.jpg",
    "id_album": "-149330231",
    "description": "Dog_386669",
    "title": "Dog_386669",
    "link_img": "https://live.staticflickr.com/65535/50020364126_233f977d62_o.jpg",
    "id_image": "Dog_386669",
    "count_view": 0
  },
  {
    "link_thumb": "https://live.staticflickr.com/65535/50017007191_cd08bb8efc_n.jpg",
    "id_album": "-422187261",
    "description": "Bear_201116",
    "title": "Bear_201116",
    "link_img": "https://live.staticflickr.com/65535/50017007191_f4e8ce37f9_o.jpg",
    "id_image": "Bear_201116",
    "count_view": 0
  },
  {
    "link_thumb": "https://live.staticflickr.com/65535/50021329182_964f0bcbcf_n.jpg",
    "id_album": "844170697",
    "description": "Frog_801800",
    "title": "Frog_801800",
    "link_img": "https://live.staticflickr.com/65535/50021329182_269ed48f51_o.jpg",
    "id_image": "Frog_801800",
    "count_view": 0
  },
  {
    "link_thumb": "https://live.staticflickr.com/65535/50020392056_6393dabe93_n.jpg",
    "id_album": "-149330231",
    "description": "Dog_411534",
    "title": "Dog_411534",
    "link_img": "https://live.staticflickr.com/65535/50020392056_b25db06f45_o.jpg",
    "id_image": "Dog_411534",
    "count_view": 0
  },
  {
    "link_thumb": "https://live.staticflickr.com/65535/50351821138_9a8fda86f0_n.jpg",
    "id_album": "-462831703",
    "description": "Cat_433177",
    "title": "Cat_433177",
    "link_img": "https://live.staticflickr.com/65535/50351821138_b4703235df_o.jpg",
    "id_image": "Cat_433177",
    "count_view": 0
  },
  {
    "link_thumb": "https://live.staticflickr.com/65535/50021006646_a347325df7_n.jpg",
    "id_album": "-128218148",
    "description": "Fox_793318",
    "title": "Fox_793318",
    "link_img": "https://live.staticflickr.com/65535/50021006646_6d88dafb69_o.jpg",
    "id_image": "Fox_793318",
    "count_view": 0
  },
  {
    "link_thumb": "https://live.staticflickr.com/65535/50021248233_504620c3a9_n.jpg",
    "id_album": "-649286029",
    "description": "Kangaroo_336111",
    "title": "Kangaroo_336111",
    "link_img": "https://live.staticflickr.com/65535/50021248233_c0849bb18b_o.jpg",
    "id_image": "Kangaroo_336111",
    "count_view": 0
  },
  {
    "link_thumb": "https://live.staticflickr.com/65535/50018996153_6b427075bf_n.jpg",
    "id_album": "-462831703",
    "description": "Cat_962542",
    "title": "Cat_962542",
    "link_img": "https://live.staticflickr.com/65535/50018996153_9fc98b81a9_o.jpg",
    "id_image": "Cat_962542",
    "count_view": 0
  },
  {
    "link_thumb": "https://live.staticflickr.com/65535/50020477071_40291218d0_n.jpg",
    "id_album": "-149330231",
    "description": "Dog_679524",
    "title": "Dog_679524",
    "link_img": "https://live.staticflickr.com/65535/50020477071_33f474e499_o.jpg",
    "id_image": "Dog_679524",
    "count_view": 0
  },
  {
    "link_thumb": "https://live.staticflickr.com/65535/50352563032_76d08773b2_n.jpg",
    "id_album": "-462831703",
    "description": "Cat_168415",
    "title": "Cat_168415",
    "link_img": "https://live.staticflickr.com/65535/50352563032_ec74e2075f_o.jpg",
    "id_image": "Cat_168415",
    "count_view": 0
  },
  {
    "link_thumb": "https://live.staticflickr.com/65535/50023101291_e24c194d2a_n.jpg",
    "id_album": "-1940643173",
    "description": "Rabbit_377943",
    "title": "Rabbit_377943",
    "link_img": "https://live.staticflickr.com/65535/50023101291_c3bc72fee9_o.jpg",
    "id_image": "Rabbit_377943",
    "count_view": 0
  },
  {
    "link_thumb": "https://live.staticflickr.com/65535/50019014983_36749e6dbb_n.jpg",
    "id_album": "-462831703",
    "description": "Cat_977997",
    "title": "Cat_977997",
    "link_img": "https://live.staticflickr.com/65535/50019014983_2be0392ff8_o.jpg",
    "id_image": "Cat_977997",
    "count_view": 0
  },
  {
    "link_thumb": "https://live.staticflickr.com/65535/50019592198_9d2ae36a12_n.jpg",
    "id_album": "-149330232",
    "description": "Dog_118518",
    "title": "Dog_118518",
    "link_img": "https://live.staticflickr.com/65535/50019592198_a132d9eb86_o.jpg",
    "id_image": "Dog_118518",
    "count_view": 0
  },
  {
    "link_thumb": "https://live.staticflickr.com/65535/50024272012_73d72d0af3_n.jpg",
    "id_album": "1579675410",
    "description": "Swan_680031",
    "title": "Swan_680031",
    "link_img": "https://live.staticflickr.com/65535/50024272012_aec80aef21_o.jpg",
    "id_image": "Swan_680031",
    "count_view": 0
  },
  {
    "link_thumb": "https://live.staticflickr.com/65535/50019918936_08f985a130_n.jpg",
    "id_album": "1273365283",
    "description": "Cute_251007",
    "title": "Cute_251007",
    "link_img": "https://live.staticflickr.com/65535/50019918936_0065c5462e_o.jpg",
    "id_image": "Cute_251007",
    "count_view": 0
  },
  {
    "link_thumb": "https://live.staticflickr.com/65535/50023302951_91b56fabb1_n.jpg",
    "id_album": "48367914",
    "description": "Rhino_893974",
    "title": "Rhino_893974",
    "link_img": "https://live.staticflickr.com/65535/50023302951_82f751e9a5_o.jpg",
    "id_image": "Rhino_893974",
    "count_view": 0
  },
  {
    "link_thumb": "https://live.staticflickr.com/65535/50019437878_e530ae1235_n.jpg",
    "id_album": "-1783645069",
    "description": "Dalmatian_748067",
    "title": "Dalmatian_748067",
    "link_img": "https://live.staticflickr.com/65535/50019437878_0ee27571cf_o.jpg",
    "id_image": "Dalmatian_748067",
    "count_view": 0
  },
  {
    "link_thumb": "https://live.staticflickr.com/65535/50022446303_2da0db7672_n.jpg",
    "id_album": "-353898617",
    "description": "Puppy_415004",
    "title": "Puppy_415004",
    "link_img": "https://live.staticflickr.com/65535/50022446303_d54225d10d_o.jpg",
    "id_image": "Puppy_415004",
    "count_view": 0
  },
  {
    "link_thumb": "https://live.staticflickr.com/65535/50016974636_b9a53578bc_n.jpg",
    "id_album": "231236068",
    "description": "BaldEagle_998526",
    "title": "BaldEagle_998526",
    "link_img": "https://live.staticflickr.com/65535/50016974636_2878612965_o.jpg",
    "id_image": "BaldEagle_998526",
    "count_view": 0
  },
  {
    "link_thumb": "https://live.staticflickr.com/65535/50019012098_472c81a803_n.jpg",
    "id_album": "-462831703",
    "description": "Cat_975039",
    "title": "Cat_975039",
    "link_img": "https://live.staticflickr.com/65535/50019012098_b4b2189f9f_o.jpg",
    "id_image": "Cat_975039",
    "count_view": 0
  },
  {
    "link_thumb": "https://live.staticflickr.com/65535/50018298642_87c2133868_n.jpg",
    "id_album": "-462831702",
    "description": "Cat_353492",
    "title": "Cat_353492",
    "link_img": "https://live.staticflickr.com/65535/50018298642_55808713fb_o.jpg",
    "id_image": "Cat_353492",
    "count_view": 0
  },
  {
    "link_thumb": "https://live.staticflickr.com/65535/50023932943_693735c5fd_n.jpg",
    "id_album": "-709711865",
    "description": "Wolf_333991",
    "title": "Wolf_333991",
    "link_img": "https://live.staticflickr.com/65535/50023932943_018f54faff_o.jpg",
    "id_image": "Wolf_333991",
    "count_view": 0
  },
  {
    "link_thumb": "https://live.staticflickr.com/65535/50020225811_a6e3cb49f5_n.jpg",
    "id_album": "-149330232",
    "description": "Dog_290860",
    "title": "Dog_290860",
    "link_img": "https://live.staticflickr.com/65535/50020225811_dbdb3c2669_o.jpg",
    "id_image": "Dog_290860",
    "count_view": 0
  },
  {
    "link_thumb": "https://live.staticflickr.com/65535/50016374508_93d8017341_n.jpg",
    "id_album": "523598895",
    "description": "Artistic_378245",
    "title": "Artistic_378245",
    "link_img": "https://live.staticflickr.com/65535/50016374508_646b8e8697_o.jpg",
    "id_image": "Artistic_378245",
    "count_view": 0
  },
  {
    "link_thumb": "https://live.staticflickr.com/65535/50022116642_c960c35db1_n.jpg",
    "id_album": "-1882491687",
    "description": "Ladybug_707156",
    "title": "Ladybug_707156",
    "link_img": "https://live.staticflickr.com/65535/50022116642_e7c97ba6c7_o.jpg",
    "id_image": "Ladybug_707156",
    "count_view": 0
  },
  {
    "link_thumb": "https://live.staticflickr.com/65535/50016503718_c47389afe5_n.jpg",
    "id_album": "-422187261",
    "description": "Bear_361457",
    "title": "Bear_361457",
    "link_img": "https://live.staticflickr.com/65535/50016503718_fdca753f2c_o.jpg",
    "id_image": "Bear_361457",
    "count_view": 0
  },
  {
    "link_thumb": "https://live.staticflickr.com/65535/50017491972_eb1698c3f6_n.jpg",
    "id_album": "-1846011410",
    "description": "Bird_286656",
    "title": "Bird_286656",
    "link_img": "https://live.staticflickr.com/65535/50017491972_9b178817c1_o.jpg",
    "id_image": "Bird_286656",
    "count_view": 0
  },
  {
    "link_thumb": "https://live.staticflickr.com/65535/50019426913_7cc3892de4_n.jpg",
    "id_album": "1831085598",
    "description": "Dachshund_820254",
    "title": "Dachshund_820254",
    "link_img": "https://live.staticflickr.com/65535/50019426913_5076b904f9_o.jpg",
    "id_image": "Dachshund_820254",
    "count_view": 0
  },
  {
    "link_thumb": "https://live.staticflickr.com/65535/50017360763_8414eedb72_n.jpg",
    "id_album": "-462831705",
    "description": "Cat_236501",
    "title": "Cat_236501",
    "link_img": "https://live.staticflickr.com/65535/50017360763_8110117a13_o.jpg",
    "id_image": "Cat_236501",
    "count_view": 0
  },
  {
    "link_thumb": "https://live.staticflickr.com/65535/50017729282_e6ee9138ee_n.jpg",
    "id_album": "-530283314",
    "description": "BlueandyellowMacaw_564788",
    "title": "BlueandyellowMacaw_564788",
    "link_img": "https://live.staticflickr.com/65535/50017729282_1bd33014b7_o.jpg",
    "id_image": "BlueandyellowMacaw_564788",
    "count_view": 0
  },
  {
    "link_thumb": "https://live.staticflickr.com/65535/50020808883_2bfff39ea2_n.jpg",
    "id_album": "2060159334",
    "description": "GoldenRetriever_650864",
    "title": "GoldenRetriever_650864",
    "link_img": "https://live.staticflickr.com/65535/50020808883_952f0b13e8_o.jpg",
    "id_image": "GoldenRetriever_650864",
    "count_view": 0
  },
  {
    "link_thumb": "https://live.staticflickr.com/65535/50022172421_5674db60da_n.jpg",
    "id_album": "1894617400",
    "description": "Lynx_984889",
    "title": "Lynx_984889",
    "link_img": "https://live.staticflickr.com/65535/50022172421_d71e434a80_o.jpg",
    "id_image": "Lynx_984889",
    "count_view": 0
  },
  {
    "link_thumb": "https://live.staticflickr.com/65535/50017479271_1439e97cfa_n.jpg",
    "id_album": "782930701",
    "description": "BorderCollie_314792",
    "title": "BorderCollie_314792",
    "link_img": "https://live.staticflickr.com/65535/50017479271_f1ed094329_o.jpg",
    "id_image": "BorderCollie_314792",
    "count_view": 0
  },
  {
    "link_thumb": "https://live.staticflickr.com/65535/50021862007_6a487974c4_n.jpg",
    "id_album": "2144294979",
    "description": "Hummingbird_415777",
    "title": "Hummingbird_415777",
    "link_img": "https://live.staticflickr.com/65535/50021862007_fd742c71d3_o.jpg",
    "id_image": "Hummingbird_415777",
    "count_view": 0
  },
  {
    "link_thumb": "https://live.staticflickr.com/65535/50017637282_da9e6f0e1f_n.jpg",
    "id_album": "-1846011410",
    "description": "Bird_577851",
    "title": "Bird_577851",
    "link_img": "https://live.staticflickr.com/65535/50017637282_d8cb7c3e78_o.jpg",
    "id_image": "Bird_577851",
    "count_view": 0
  },
  {
    "link_thumb": "https://live.staticflickr.com/65535/50020848533_044031539b_n.jpg",
    "id_album": "1950225324",
    "description": "Gorilla_353932",
    "title": "Gorilla_353932",
    "link_img": "https://live.staticflickr.com/65535/50020848533_1a1520678b_o.jpg",
    "id_image": "Gorilla_353932",
    "count_view": 0
  },
  {
    "link_thumb": "https://live.staticflickr.com/65535/50020701478_924803ca89_n.jpg",
    "id_album": "-462831703",
    "description": "Cat_782425",
    "title": "Cat_782425",
    "link_img": "https://live.staticflickr.com/65535/50020701478_dc39285d1e_o.jpg",
    "id_image": "Cat_782425",
    "count_view": 0
  },
  {
    "link_thumb": "https://live.staticflickr.com/65535/50023625376_3b28d87695_n.jpg",
    "id_album": "-1131363127",
    "description": "SnowLeopard_262048",
    "title": "SnowLeopard_262048",
    "link_img": "https://live.staticflickr.com/65535/50023625376_5ea7183e06_o.jpg",
    "id_image": "SnowLeopard_262048",
    "count_view": 0
  },
  {
    "link_thumb": "https://live.staticflickr.com/65535/50017236487_2bc71e70d3_n.jpg",
    "id_album": "-80092825",
    "description": "Barnowl_1000912",
    "title": "Barnowl_1000912",
    "link_img": "https://live.staticflickr.com/65535/50017236487_f48ac000c3_o.jpg",
    "id_image": "Barnowl_1000912",
    "count_view": 0
  },
  {
    "link_thumb": "https://live.staticflickr.com/65535/50021064022_0718c65677_n.jpg",
    "id_album": "822895535",
    "description": "Falcon_351540",
    "title": "Falcon_351540",
    "link_img": "https://live.staticflickr.com/65535/50021064022_12e2b1b11f_o.jpg",
    "id_image": "Falcon_351540",
    "count_view": 0
  },
  {
    "link_thumb": "https://live.staticflickr.com/65535/50020571917_f1e5e908bd_n.jpg",
    "id_album": "-149330232",
    "description": "Dog_357713",
    "title": "Dog_357713",
    "link_img": "https://live.staticflickr.com/65535/50020571917_8c2235305c_o.jpg",
    "id_image": "Dog_357713",
    "count_view": 0
  },
  {
    "link_thumb": "https://live.staticflickr.com/65535/50017348543_5c820c154f_n.jpg",
    "id_album": "-462831705",
    "description": "Cat_229366",
    "title": "Cat_229366",
    "link_img": "https://live.staticflickr.com/65535/50017348543_3ca6909020_o.jpg",
    "id_image": "Cat_229366",
    "count_view": 0
  },
  {
    "link_thumb": "https://live.staticflickr.com/65535/50022010916_9fd451f9f6_n.jpg",
    "id_album": "416744915",
    "description": "Lion_412298",
    "title": "Lion_412298",
    "link_img": "https://live.staticflickr.com/65535/50022010916_cba804e3eb_o.jpg",
    "id_image": "Lion_412298",
    "count_view": 0
  },
  {
    "link_thumb": "https://live.staticflickr.com/65535/50351831228_41d4ba04e3_n.jpg",
    "id_album": "-462831703",
    "description": "Cat_443259",
    "title": "Cat_443259",
    "link_img": "https://live.staticflickr.com/65535/50351831228_eece7201d8_o.jpg",
    "id_image": "Cat_443259",
    "count_view": 0
  },
  {
    "link_thumb": "https://live.staticflickr.com/65535/50018702133_271113fcfd_n.jpg",
    "id_album": "-462831704",
    "description": "Cat_460304",
    "title": "Cat_460304",
    "link_img": "https://live.staticflickr.com/65535/50018702133_dc451d8910_o.jpg",
    "id_image": "Cat_460304",
    "count_view": 0
  },
  {
    "link_thumb": "https://live.staticflickr.com/65535/50019410742_03118397d9_n.jpg",
    "id_album": "-462831702",
    "description": "Cat_417997",
    "title": "Cat_417997",
    "link_img": "https://live.staticflickr.com/65535/50019410742_82b0b14ed7_o.jpg",
    "id_image": "Cat_417997",
    "count_view": 0
  },
  {
    "link_thumb": "https://live.staticflickr.com/65535/50020011328_5abff17831_n.jpg",
    "id_album": "-149330231",
    "description": "Dog_919874",
    "title": "Dog_919874",
    "link_img": "https://live.staticflickr.com/65535/50020011328_40b695a6d3_o.jpg",
    "id_image": "Dog_919874",
    "count_view": 0
  },
  {
    "link_thumb": "https://live.staticflickr.com/65535/50019717127_6b7c76962e_n.jpg",
    "id_album": "-462831705",
    "description": "Cat_91501",
    "title": "Cat_91501",
    "link_img": "https://live.staticflickr.com/65535/50019717127_f4e1e069e6_o.jpg",
    "id_image": "Cat_91501",
    "count_view": 0
  },
  {
    "link_thumb": "https://live.staticflickr.com/65535/50022602623_f2d4d223c1_n.jpg",
    "id_album": "248289288",
    "description": "Raccoon_389346",
    "title": "Raccoon_389346",
    "link_img": "https://live.staticflickr.com/65535/50022602623_ee7e7828ca_o.jpg",
    "id_image": "Raccoon_389346",
    "count_view": 0
  },
  {
    "link_thumb": "https://live.staticflickr.com/65535/50016925733_3f1812e2dd_n.jpg",
    "id_album": "-1561645279",
    "description": "BlackPanther_394000",
    "title": "BlackPanther_394000",
    "link_img": "https://live.staticflickr.com/65535/50016925733_ac6db65db3_o.jpg",
    "id_image": "BlackPanther_394000",
    "count_view": 0
  },
  {
    "link_thumb": "https://live.staticflickr.com/65535/50017651566_628effcfe2_n.jpg",
    "id_album": "-401151552",
    "description": "Butterfly_709731",
    "title": "Butterfly_709731",
    "link_img": "https://live.staticflickr.com/65535/50017651566_9f714c22d9_o.jpg",
    "id_image": "Butterfly_709731",
    "count_view": 0
  },
  {
    "link_thumb": "https://live.staticflickr.com/65535/50020900397_6024533258_n.jpg",
    "id_album": "1168627767",
    "description": "Duck_118045",
    "title": "Duck_118045",
    "link_img": "https://live.staticflickr.com/65535/50020900397_f0ea410aed_o.jpg",
    "id_image": "Duck_118045",
    "count_view": 0
  },
  {
    "link_thumb": "https://live.staticflickr.com/65535/50020814543_dc2d94f592_n.jpg",
    "id_album": "2060159334",
    "description": "GoldenRetriever_737271",
    "title": "GoldenRetriever_737271",
    "link_img": "https://live.staticflickr.com/65535/50020814543_e7fd2c08bf_o.jpg",
    "id_image": "GoldenRetriever_737271",
    "count_view": 0
  },
  {
    "link_thumb": "https://live.staticflickr.com/65535/50017963776_bd7e67c981_n.jpg",
    "id_album": "-462831702",
    "description": "Cat_323254",
    "title": "Cat_323254",
    "link_img": "https://live.staticflickr.com/65535/50017963776_8d6eaf60ac_o.jpg",
    "id_image": "Cat_323254",
    "count_view": 0
  },
  {
    "link_thumb": "https://live.staticflickr.com/65535/50020710427_3a05f549dd_n.jpg",
    "id_album": "-149330231",
    "description": "Dog_534607",
    "title": "Dog_534607",
    "link_img": "https://live.staticflickr.com/65535/50020710427_0673ee3abc_o.jpg",
    "id_image": "Dog_534607",
    "count_view": 0
  },
  {
    "link_thumb": "https://live.staticflickr.com/65535/50017170227_58430b95c3_n.jpg",
    "id_album": "523598895",
    "description": "Artistic_547492",
    "title": "Artistic_547492",
    "link_img": "https://live.staticflickr.com/65535/50017170227_fa25651e8b_o.jpg",
    "id_image": "Artistic_547492",
    "count_view": 0
  },
  {
    "link_thumb": "https://live.staticflickr.com/65535/50017370582_5e49372ff1_n.jpg",
    "id_album": "-422187261",
    "description": "Bear_954012",
    "title": "Bear_954012",
    "link_img": "https://live.staticflickr.com/65535/50017370582_9acd3a2bdc_o.jpg",
    "id_image": "Bear_954012",
    "count_view": 0
  },
  {
    "link_thumb": "https://live.staticflickr.com/65535/50017090131_b0f84f2063_n.jpg",
    "id_album": "-422187261",
    "description": "Bear_861470",
    "title": "Bear_861470",
    "link_img": "https://live.staticflickr.com/65535/50017090131_99315c0710_o.jpg",
    "id_image": "Bear_861470",
    "count_view": 0
  },
  {
    "link_thumb": "https://live.staticflickr.com/65535/50017088812_4d3efc77cb_n.jpg",
    "id_album": "-229810103",
    "description": "AmericanBison_813981",
    "title": "AmericanBison_813981",
    "link_img": "https://live.staticflickr.com/65535/50017088812_cc7667590c_o.jpg",
    "id_image": "AmericanBison_813981",
    "count_view": 0
  },
  {
    "link_thumb": "https://live.staticflickr.com/65535/50023087381_9efb39f2cd_n.jpg",
    "id_album": "-1940643173",
    "description": "Rabbit_170097",
    "title": "Rabbit_170097",
    "link_img": "https://live.staticflickr.com/65535/50023087381_662f566a3e_o.jpg",
    "id_image": "Rabbit_170097",
    "count_view": 0
  },
  {
    "link_thumb": "https://live.staticflickr.com/65535/50021960871_24e9a61d5f_n.jpg",
    "id_album": "1392348450",
    "description": "Leopard_943794",
    "title": "Leopard_943794",
    "link_img": "https://live.staticflickr.com/65535/50021960871_46bcd22235_o.jpg",
    "id_image": "Leopard_943794",
    "count_view": 0
  },
  {
    "link_thumb": "https://live.staticflickr.com/65535/50019712478_50dc614f0f_n.jpg",
    "id_album": "-149330232",
    "description": "Dog_325471",
    "title": "Dog_325471",
    "link_img": "https://live.staticflickr.com/65535/50019712478_e21db99133_o.jpg",
    "id_image": "Dog_325471",
    "count_view": 0
  },
  {
    "link_thumb": "https://live.staticflickr.com/65535/50021002686_0b50b2e22b_n.jpg",
    "id_album": "-128218148",
    "description": "Fox_775110",
    "title": "Fox_775110",
    "link_img": "https://live.staticflickr.com/65535/50021002686_f73a05da40_o.jpg",
    "id_image": "Fox_775110",
    "count_view": 0
  },
  {
    "link_thumb": "https://live.staticflickr.com/65535/50017538013_faa462bbcf_n.jpg",
    "id_album": "-462831702",
    "description": "Cat_364162",
    "title": "Cat_364162",
    "link_img": "https://live.staticflickr.com/65535/50017538013_8af3af7bd6_o.jpg",
    "id_image": "Cat_364162",
    "count_view": 0
  },
  {
    "link_thumb": "https://live.staticflickr.com/65535/50022658548_e9531332f9_n.jpg",
    "id_album": "332874268",
    "description": "RedPanda_2272",
    "title": "RedPanda_2272",
    "link_img": "https://live.staticflickr.com/65535/50022658548_13ecfb4ab2_o.jpg",
    "id_image": "RedPanda_2272",
    "count_view": 0
  },
  {
    "link_thumb": "https://live.staticflickr.com/65535/50017619981_2ac909e10b_n.jpg",
    "id_album": "-401151552",
    "description": "Butterfly_527495",
    "title": "Butterfly_527495",
    "link_img": "https://live.staticflickr.com/65535/50017619981_866402e53d_o.jpg",
    "id_image": "Butterfly_527495",
    "count_view": 0
  },
  {
    "link_thumb": "https://live.staticflickr.com/65535/50020859352_c462449f9d_n.jpg",
    "id_album": "-1859457960",
    "description": "Dove_799631",
    "title": "Dove_799631",
    "link_img": "https://live.staticflickr.com/65535/50020859352_a5eed95728_o.jpg",
    "id_image": "Dove_799631",
    "count_view": 0
  },
  {
    "link_thumb": "https://live.staticflickr.com/65535/50018680673_8c66f70342_n.jpg",
    "id_album": "-462831704",
    "description": "Cat_442124",
    "title": "Cat_442124",
    "link_img": "https://live.staticflickr.com/65535/50018680673_51ff36b9bc_o.jpg",
    "id_image": "Cat_442124",
    "count_view": 0
  },
  {
    "link_thumb": "https://live.staticflickr.com/65535/50020827533_bbcb82ea39_n.jpg",
    "id_album": "2060159334",
    "description": "GoldenRetriever_916323",
    "title": "GoldenRetriever_916323",
    "link_img": "https://live.staticflickr.com/65535/50020827533_46c6f28515_o.jpg",
    "id_image": "GoldenRetriever_916323",
    "count_view": 0
  },
  {
    "link_thumb": "https://live.staticflickr.com/65535/50020859102_0f7612735d_n.jpg",
    "id_album": "-1859457960",
    "description": "Dove_741926",
    "title": "Dove_741926",
    "link_img": "https://live.staticflickr.com/65535/50020859102_b3d1939c2b_o.jpg",
    "id_image": "Dove_741926",
    "count_view": 0
  },
  {
    "link_thumb": "https://live.staticflickr.com/65535/50021253136_a7bfa96a7e_n.jpg",
    "id_album": "-462831703",
    "description": "Cat_792910",
    "title": "Cat_792910",
    "link_img": "https://live.staticflickr.com/65535/50021253136_f33e720558_o.jpg",
    "id_image": "Cat_792910",
    "count_view": 0
  },
  {
    "link_thumb": "https://live.staticflickr.com/65535/50019160761_6c0d504c15_n.jpg",
    "id_album": "-462831702",
    "description": "Cat_423083",
    "title": "Cat_423083",
    "link_img": "https://live.staticflickr.com/65535/50019160761_6570f1c096_o.jpg",
    "id_image": "Cat_423083",
    "count_view": 0
  },
  {
    "link_thumb": "https://live.staticflickr.com/65535/50021457318_af7fa9667e_n.jpg",
    "id_album": "416744915",
    "description": "Lion_358266",
    "title": "Lion_358266",
    "link_img": "https://live.staticflickr.com/65535/50021457318_20fbecc9bc_o.jpg",
    "id_image": "Lion_358266",
    "count_view": 0
  },
  {
    "link_thumb": "https://live.staticflickr.com/65535/50020560098_a7f72670fd_n.jpg",
    "id_album": "-462831704",
    "description": "Cat_544062",
    "title": "Cat_544062",
    "link_img": "https://live.staticflickr.com/65535/50020560098_6837bb6c66_o.jpg",
    "id_image": "Cat_544062",
    "count_view": 0
  },
  {
    "link_thumb": "https://live.staticflickr.com/65535/50020267087_b412c6b77a_n.jpg",
    "id_album": "1903411565",
    "description": "Deer_432376",
    "title": "Deer_432376",
    "link_img": "https://live.staticflickr.com/65535/50020267087_5231a33b7c_o.jpg",
    "id_image": "Deer_432376",
    "count_view": 0
  },
  {
    "link_thumb": "https://live.staticflickr.com/65535/50020602966_482d8918be_n.jpg",
    "id_album": "-1859457960",
    "description": "Dove_974128",
    "title": "Dove_974128",
    "link_img": "https://live.staticflickr.com/65535/50020602966_540ceab137_o.jpg",
    "id_image": "Dove_974128",
    "count_view": 0
  },
  {
    "link_thumb": "https://live.staticflickr.com/65535/50023249312_4e821359a8_n.jpg",
    "id_album": "-353898617",
    "description": "Puppy_421543",
    "title": "Puppy_421543",
    "link_img": "https://live.staticflickr.com/65535/50023249312_959ff613dd_o.jpg",
    "id_image": "Puppy_421543",
    "count_view": 0
  },
  {
    "link_thumb": "https://live.staticflickr.com/65535/50021639323_de9c687244_n.jpg",
    "id_album": "-1173056085",
    "description": "Macaw_984269",
    "title": "Macaw_984269",
    "link_img": "https://live.staticflickr.com/65535/50021639323_053da3eec4_o.jpg",
    "id_image": "Macaw_984269",
    "count_view": 0
  },
  {
    "link_thumb": "https://live.staticflickr.com/65535/50021055328_e588bef4c4_n.jpg",
    "id_album": "773713550",
    "description": "Hoverfly_545921",
    "title": "Hoverfly_545921",
    "link_img": "https://live.staticflickr.com/65535/50021055328_b0b889c491_o.jpg",
    "id_image": "Hoverfly_545921",
    "count_view": 0
  },
  {
    "link_thumb": "https://live.staticflickr.com/65535/50017169967_715d24e387_n.jpg",
    "id_album": "523598895",
    "description": "Artistic_529959",
    "title": "Artistic_529959",
    "link_img": "https://live.staticflickr.com/65535/50017169967_dc2c94cc41_o.jpg",
    "id_image": "Artistic_529959",
    "count_view": 0
  },
  {
    "link_thumb": "https://live.staticflickr.com/65535/50022991426_f8757d95dd_n.jpg",
    "id_album": "-353898617",
    "description": "Puppy_419584",
    "title": "Puppy_419584",
    "link_img": "https://live.staticflickr.com/65535/50022991426_fcdb8012f3_o.jpg",
    "id_image": "Puppy_419584",
    "count_view": 0
  },
  {
    "link_thumb": "https://live.staticflickr.com/65535/50021821142_5377531d76_n.jpg",
    "id_album": "-1933715543",
    "description": "Horse_803455",
    "title": "Horse_803455",
    "link_img": "https://live.staticflickr.com/65535/50021821142_77a00e8212_o.jpg",
    "id_image": "Horse_803455",
    "count_view": 0
  },
  {
    "link_thumb": "https://live.staticflickr.com/65535/50019642517_9cc7b4e3f2_n.jpg",
    "id_album": "-462831703",
    "description": "Cat_879332",
    "title": "Cat_879332",
    "link_img": "https://live.staticflickr.com/65535/50019642517_82aaa49f2b_o.jpg",
    "id_image": "Cat_879332",
    "count_view": 0
  },
  {
    "link_thumb": "https://live.staticflickr.com/65535/50020460911_04953a7ba0_n.jpg",
    "id_album": "-149330231",
    "description": "Dog_571685",
    "title": "Dog_571685",
    "link_img": "https://live.staticflickr.com/65535/50020460911_52ef3a9ff0_o.jpg",
    "id_image": "Dog_571685",
    "count_view": 0
  },
  {
    "link_thumb": "https://live.staticflickr.com/65535/50017517638_c00be40dc6_n.jpg",
    "id_album": "-462831702",
    "description": "Cat_357682",
    "title": "Cat_357682",
    "link_img": "https://live.staticflickr.com/65535/50017517638_6cdda8dc54_o.jpg",
    "id_image": "Cat_357682",
    "count_view": 0
  },
  {
    "link_thumb": "https://live.staticflickr.com/65535/50020729542_549a6d9748_n.jpg",
    "id_album": "-149330231",
    "description": "Dog_657427",
    "title": "Dog_657427",
    "link_img": "https://live.staticflickr.com/65535/50020729542_73e602c7a9_o.jpg",
    "id_image": "Dog_657427",
    "count_view": 0
  },
  {
    "link_thumb": "https://live.staticflickr.com/65535/50020927743_b3daa1d08a_n.jpg",
    "id_album": "-1933715543",
    "description": "Horse_220447",
    "title": "Horse_220447",
    "link_img": "https://live.staticflickr.com/65535/50020927743_10c99a635d_o.jpg",
    "id_image": "Horse_220447",
    "count_view": 0
  },
  {
    "link_thumb": "https://live.staticflickr.com/65535/50016861381_d175a052d3_n.jpg",
    "id_album": "523598895",
    "description": "Artistic_113551",
    "title": "Artistic_113551",
    "link_img": "https://live.staticflickr.com/65535/50016861381_5ec7b94481_o.jpg",
    "id_image": "Artistic_113551",
    "count_view": 0
  },
  {
    "link_thumb": "https://live.staticflickr.com/65535/50017826956_f4221b43ea_n.jpg",
    "id_album": "-462831705",
    "description": "Cat_184198",
    "title": "Cat_184198",
    "link_img": "https://live.staticflickr.com/65535/50017826956_31e5481936_o.jpg",
    "id_image": "Cat_184198",
    "count_view": 0
  },
  {
    "link_thumb": "https://live.staticflickr.com/65535/50020421708_e53e6cf622_n.jpg",
    "id_album": "-128218148",
    "description": "Fox_430438",
    "title": "Fox_430438",
    "link_img": "https://live.staticflickr.com/65535/50020421708_271d4feb10_o.jpg",
    "id_image": "Fox_430438",
    "count_view": 0
  },
  {
    "link_thumb": "https://live.staticflickr.com/65535/50019994397_6395673b7c_n.jpg",
    "id_album": "-1481843714",
    "description": "Cheetah_958177",
    "title": "Cheetah_958177",
    "link_img": "https://live.staticflickr.com/65535/50019994397_b4e5b9020e_o.jpg",
    "id_image": "Cheetah_958177",
    "count_view": 0
  },
  {
    "link_thumb": "https://live.staticflickr.com/65535/50021327093_a2fe33b2ea_n.jpg",
    "id_album": "-1882491687",
    "description": "Ladybug_922377",
    "title": "Ladybug_922377",
    "link_img": "https://live.staticflickr.com/65535/50021327093_269cbde841_o.jpg",
    "id_image": "Ladybug_922377",
    "count_view": 0
  },
  {
    "link_thumb": "https://live.staticflickr.com/65535/50021254653_483f110fbe_n.jpg",
    "id_album": "770105808",
    "description": "Kingfisher_340660",
    "title": "Kingfisher_340660",
    "link_img": "https://live.staticflickr.com/65535/50021254653_ae5ea1b6c3_o.jpg",
    "id_image": "Kingfisher_340660",
    "count_view": 0
  },
  {
    "link_thumb": "https://live.staticflickr.com/65535/50020505973_4d65830a47_n.jpg",
    "id_album": "844170697",
    "description": "Frog_112479",
    "title": "Frog_112479",
    "link_img": "https://live.staticflickr.com/65535/50020505973_af012f593e_o.jpg",
    "id_image": "Frog_112479",
    "count_view": 0
  },
  {
    "link_thumb": "https://live.staticflickr.com/65535/50023849848_3a116c7bea_n.jpg",
    "id_album": "786934945",
    "description": "Whale_213783",
    "title": "Whale_213783",
    "link_img": "https://live.staticflickr.com/65535/50023849848_65e98a4c2d_o.jpg",
    "id_image": "Whale_213783",
    "count_view": 0
  },
  {
    "link_thumb": "https://live.staticflickr.com/65535/50020535738_eb92e36c1a_n.jpg",
    "id_album": "844170697",
    "description": "Frog_835679",
    "title": "Frog_835679",
    "link_img": "https://live.staticflickr.com/65535/50020535738_d116b37f70_o.jpg",
    "id_image": "Frog_835679",
    "count_view": 0
  },
  {
    "link_thumb": "https://live.staticflickr.com/65535/50351970153_af8e2f7406_n.jpg",
    "id_album": "-462831703",
    "description": "Cat_854761",
    "title": "Cat_854761",
    "link_img": "https://live.staticflickr.com/65535/50351970153_347d645336_o.jpg",
    "id_image": "Cat_854761",
    "count_view": 0
  },
  {
    "link_thumb": "https://live.staticflickr.com/65535/50024547337_0ab682f9e5_n.jpg",
    "id_album": "-1103743486",
    "description": "Toucan_924882",
    "title": "Toucan_924882",
    "link_img": "https://live.staticflickr.com/65535/50024547337_846ec2cd6c_o.jpg",
    "id_image": "Toucan_924882",
    "count_view": 0
  },
  {
    "link_thumb": "https://live.staticflickr.com/65535/50019800363_8b8892860c_n.jpg",
    "id_album": "-149330232",
    "description": "Dog_366721",
    "title": "Dog_366721",
    "link_img": "https://live.staticflickr.com/65535/50019800363_47a2e8cc29_o.jpg",
    "id_image": "Dog_366721",
    "count_view": 0
  },
  {
    "link_thumb": "https://live.staticflickr.com/65535/50016965591_9b15331df9_n.jpg",
    "id_album": "231236068",
    "description": "BaldEagle_692796",
    "title": "BaldEagle_692796",
    "link_img": "https://live.staticflickr.com/65535/50016965591_a87f3ee496_o.jpg",
    "id_image": "BaldEagle_692796",
    "count_view": 0
  },
  {
    "link_thumb": "https://live.staticflickr.com/65535/50017860377_c4ca9d685e_n.jpg",
    "id_album": "-401151552",
    "description": "Butterfly_441675",
    "title": "Butterfly_441675",
    "link_img": "https://live.staticflickr.com/65535/50017860377_b5e7a62932_o.jpg",
    "id_image": "Butterfly_441675",
    "count_view": 0
  },
  {
    "link_thumb": "https://live.staticflickr.com/65535/50021181603_1c45ff42e6_n.jpg",
    "id_album": "-843028318",
    "description": "Jaguar_420922",
    "title": "Jaguar_420922",
    "link_img": "https://live.staticflickr.com/65535/50021181603_2f865e5235_o.jpg",
    "id_image": "Jaguar_420922",
    "count_view": 0
  },
  {
    "link_thumb": "https://live.staticflickr.com/65535/50020566727_381845e339_n.jpg",
    "id_album": "-149330232",
    "description": "Dog_355298",
    "title": "Dog_355298",
    "link_img": "https://live.staticflickr.com/65535/50020566727_df58bd0c49_o.jpg",
    "id_image": "Dog_355298",
    "count_view": 0
  },
  {
    "link_thumb": "https://live.staticflickr.com/65535/50019603983_686925f96b_n.jpg",
    "id_album": "-149330232",
    "description": "Dog_179263",
    "title": "Dog_179263",
    "link_img": "https://live.staticflickr.com/65535/50019603983_d4d36c58de_o.jpg",
    "id_image": "Dog_179263",
    "count_view": 0
  },
  {
    "link_thumb": "https://live.staticflickr.com/65535/50024254667_b7d94ce344_n.jpg",
    "id_album": "1244464375",
    "description": "Starfish_470092",
    "title": "Starfish_470092",
    "link_img": "https://live.staticflickr.com/65535/50024254667_4813df225b_o.jpg",
    "id_image": "Starfish_470092",
    "count_view": 0
  },
  {
    "link_thumb": "https://live.staticflickr.com/65535/50020557081_8fcd5c7d67_n.jpg",
    "id_album": "-149330231",
    "description": "Dog_995263",
    "title": "Dog_995263",
    "link_img": "https://live.staticflickr.com/65535/50020557081_f8f21e0a45_o.jpg",
    "id_image": "Dog_995263",
    "count_view": 0
  },
  {
    "link_thumb": "https://live.staticflickr.com/65535/50017197852_c2691868b0_n.jpg",
    "id_album": "390697200",
    "description": "AustralianShepherd_789660",
    "title": "AustralianShepherd_789660",
    "link_img": "https://live.staticflickr.com/65535/50017197852_2a5066ccae_o.jpg",
    "id_image": "AustralianShepherd_789660",
    "count_view": 0
  },
  {
    "link_thumb": "https://live.staticflickr.com/65535/50021256566_4f0bb02168_n.jpg",
    "id_album": "-462831703",
    "description": "Cat_799216",
    "title": "Cat_799216",
    "link_img": "https://live.staticflickr.com/65535/50021256566_ec6013a992_o.jpg",
    "id_image": "Cat_799216",
    "count_view": 0
  },
  {
    "link_thumb": "https://live.staticflickr.com/65535/50017095352_a0590ca9e9_n.jpg",
    "id_album": "-1741290715",
    "description": "Ant_431242",
    "title": "Ant_431242",
    "link_img": "https://live.staticflickr.com/65535/50017095352_152b76b215_o.jpg",
    "id_image": "Ant_431242",
    "count_view": 0
  },
  {
    "link_thumb": "https://live.staticflickr.com/65535/50022000097_abaf6ae90c_n.jpg",
    "id_album": "665694624",
    "description": "JapaneseMacaque_201130",
    "title": "JapaneseMacaque_201130",
    "link_img": "https://live.staticflickr.com/65535/50022000097_6e53e0a251_o.jpg",
    "id_image": "JapaneseMacaque_201130",
    "count_view": 0
  },
  {
    "link_thumb": "https://live.staticflickr.com/65535/50351701838_7c24c0189e_n.jpg",
    "id_album": "-462831703",
    "description": "Cat_116590",
    "title": "Cat_116590",
    "link_img": "https://live.staticflickr.com/65535/50351701838_2bb6429ff0_o.jpg",
    "id_image": "Cat_116590",
    "count_view": 0
  },
  {
    "link_thumb": "https://live.staticflickr.com/65535/50024176391_bb773decf3_n.jpg",
    "id_album": "405170427",
    "description": "Tiger_571676",
    "title": "Tiger_571676",
    "link_img": "https://live.staticflickr.com/65535/50024176391_d7ba8fa49e_o.jpg",
    "id_image": "Tiger_571676",
    "count_view": 0
  },
  {
    "link_thumb": "https://live.staticflickr.com/65535/50019496371_8237e6778f_n.jpg",
    "id_album": "-462831703",
    "description": "Cat_938162",
    "title": "Cat_938162",
    "link_img": "https://live.staticflickr.com/65535/50019496371_6546007c70_o.jpg",
    "id_image": "Cat_938162",
    "count_view": 0
  },
  {
    "link_thumb": "https://live.staticflickr.com/65535/50020630613_fe852a4c43_n.jpg",
    "id_album": "-462831704",
    "description": "Cat_693552",
    "title": "Cat_693552",
    "link_img": "https://live.staticflickr.com/65535/50020630613_ddc81b3137_o.jpg",
    "id_image": "Cat_693552",
    "count_view": 0
  },
  {
    "link_thumb": "https://live.staticflickr.com/65535/50020168503_83ab3ab5db_n.jpg",
    "id_album": "-39098563",
    "description": "Eagle_388516",
    "title": "Eagle_388516",
    "link_img": "https://live.staticflickr.com/65535/50020168503_e82f2feb79_o.jpg",
    "id_image": "Eagle_388516",
    "count_view": 0
  },
  {
    "link_thumb": "https://live.staticflickr.com/65535/50019085103_7fa4e99c15_n.jpg",
    "id_album": "-420782796",
    "description": "Caterpillar_927070",
    "title": "Caterpillar_927070",
    "link_img": "https://live.staticflickr.com/65535/50019085103_09bf2eabd5_o.jpg",
    "id_image": "Caterpillar_927070",
    "count_view": 0
  },
  {
    "link_thumb": "https://live.staticflickr.com/65535/50021798031_6a13b4666a_n.jpg",
    "id_album": "770105808",
    "description": "Kingfisher_367349",
    "title": "Kingfisher_367349",
    "link_img": "https://live.staticflickr.com/65535/50021798031_38425fc608_o.jpg",
    "id_image": "Kingfisher_367349",
    "count_view": 0
  },
  {
    "link_thumb": "https://live.staticflickr.com/65535/50020903093_c2b30c58b7_n.jpg",
    "id_album": "54253492",
    "description": "Heron_535240",
    "title": "Heron_535240",
    "link_img": "https://live.staticflickr.com/65535/50020903093_544e6cf3d2_o.jpg",
    "id_image": "Heron_535240",
    "count_view": 0
  },
  {
    "link_thumb": "https://live.staticflickr.com/65535/50020888242_5ddd121ed9_n.jpg",
    "id_album": "-405058657",
    "description": "Dragonfly_571965",
    "title": "Dragonfly_571965",
    "link_img": "https://live.staticflickr.com/65535/50020888242_9e8dfc6b89_o.jpg",
    "id_image": "Dragonfly_571965",
    "count_view": 0
  },
  {
    "link_thumb": "https://live.staticflickr.com/65535/50019647843_76edabf009_n.jpg",
    "id_album": "-149330232",
    "description": "Dog_248690",
    "title": "Dog_248690",
    "link_img": "https://live.staticflickr.com/65535/50019647843_97778b8dbf_o.jpg",
    "id_image": "Dog_248690",
    "count_view": 0
  },
  {
    "link_thumb": "https://live.staticflickr.com/65535/50019411652_96c70428e3_n.jpg",
    "id_album": "-462831702",
    "description": "Cat_419527",
    "title": "Cat_419527",
    "link_img": "https://live.staticflickr.com/65535/50019411652_4241c7f1b1_o.jpg",
    "id_image": "Cat_419527",
    "count_view": 0
  },
  {
    "link_thumb": "https://live.staticflickr.com/65535/50020029583_7f5e5df755_n.jpg",
    "id_album": "-54509188",
    "description": "Dolphin_210771",
    "title": "Dolphin_210771",
    "link_img": "https://live.staticflickr.com/65535/50020029583_ccfd30bfa6_o.jpg",
    "id_image": "Dolphin_210771",
    "count_view": 0
  },
  {
    "link_thumb": "https://live.staticflickr.com/65535/50021924236_3151e10e1b_n.jpg",
    "id_album": "1392348450",
    "description": "Leopard_425612",
    "title": "Leopard_425612",
    "link_img": "https://live.staticflickr.com/65535/50021924236_39466ccfcd_o.jpg",
    "id_image": "Leopard_425612",
    "count_view": 0
  },
  {
    "link_thumb": "https://live.staticflickr.com/65535/50024240391_4791ac969e_n.jpg",
    "id_album": "405170427",
    "description": "Tiger_918195",
    "title": "Tiger_918195",
    "link_img": "https://live.staticflickr.com/65535/50024240391_9164a8a62c_o.jpg",
    "id_image": "Tiger_918195",
    "count_view": 0
  },
  {
    "link_thumb": "https://live.staticflickr.com/65535/50021731027_f754398d97_n.jpg",
    "id_album": "-1933715543",
    "description": "Horse_274707",
    "title": "Horse_274707",
    "link_img": "https://live.staticflickr.com/65535/50021731027_831eb41dca_o.jpg",
    "id_image": "Horse_274707",
    "count_view": 0
  },
  {
    "link_thumb": "https://live.staticflickr.com/65535/50023101486_dee570ff24_n.jpg",
    "id_album": "-1940643173",
    "description": "Rabbit_378074",
    "title": "Rabbit_378074",
    "link_img": "https://live.staticflickr.com/65535/50023101486_93942ffb23_o.jpg",
    "id_image": "Rabbit_378074",
    "count_view": 0
  },
  {
    "link_thumb": "https://live.staticflickr.com/65535/50021021231_07525d2aa4_n.jpg",
    "id_album": "-128218148",
    "description": "Fox_904923",
    "title": "Fox_904923",
    "link_img": "https://live.staticflickr.com/65535/50021021231_065e370288_o.jpg",
    "id_image": "Fox_904923",
    "count_view": 0
  },
  {
    "link_thumb": "https://live.staticflickr.com/65535/50017222202_bd1931fec7_n.jpg",
    "id_album": "231236068",
    "description": "BaldEagle_561715",
    "title": "BaldEagle_561715",
    "link_img": "https://live.staticflickr.com/65535/50017222202_313968da0e_o.jpg",
    "id_image": "BaldEagle_561715",
    "count_view": 0
  },
  {
    "link_thumb": "https://live.staticflickr.com/65535/50017533951_594bd3a754_n.jpg",
    "id_album": "-401151552",
    "description": "Butterfly_121061",
    "title": "Butterfly_121061",
    "link_img": "https://live.staticflickr.com/65535/50017533951_78fa8c73eb_o.jpg",
    "id_image": "Butterfly_121061",
    "count_view": 0
  },
  {
    "link_thumb": "https://live.staticflickr.com/65535/50021069932_729c5b40c0_n.jpg",
    "id_album": "822895535",
    "description": "Falcon_448429",
    "title": "Falcon_448429",
    "link_img": "https://live.staticflickr.com/65535/50021069932_38bb104484_o.jpg",
    "id_image": "Falcon_448429",
    "count_view": 0
  },
  {
    "link_thumb": "https://live.staticflickr.com/65535/50019822571_de36ca529a_n.jpg",
    "id_album": "-1868680171",
    "description": "Cougar_570430",
    "title": "Cougar_570430",
    "link_img": "https://live.staticflickr.com/65535/50019822571_3c8d257da5_o.jpg",
    "id_image": "Cougar_570430",
    "count_view": 0
  },
  {
    "link_thumb": "https://live.staticflickr.com/65535/50017507908_1916d1df62_n.jpg",
    "id_album": "-462831702",
    "description": "Cat_352297",
    "title": "Cat_352297",
    "link_img": "https://live.staticflickr.com/65535/50017507908_8a8c3828fd_o.jpg",
    "id_image": "Cat_352297",
    "count_view": 0
  },
  {
    "link_thumb": "https://live.staticflickr.com/65535/50020327146_121b83172b_n.jpg",
    "id_album": "-149330232",
    "description": "Dog_365122",
    "title": "Dog_365122",
    "link_img": "https://live.staticflickr.com/65535/50020327146_6aecf952d1_o.jpg",
    "id_image": "Dog_365122",
    "count_view": 0
  },
  {
    "link_thumb": "https://live.staticflickr.com/65535/50019159001_498d21aefb_n.jpg",
    "id_album": "-462831702",
    "description": "Cat_422930",
    "title": "Cat_422930",
    "link_img": "https://live.staticflickr.com/65535/50019159001_f6750c2636_o.jpg",
    "id_image": "Cat_422930",
    "count_view": 0
  },
  {
    "link_thumb": "https://live.staticflickr.com/65535/50023958703_91f8853c28_n.jpg",
    "id_album": "-709711865",
    "description": "Wolf_428478",
    "title": "Wolf_428478",
    "link_img": "https://live.staticflickr.com/65535/50023958703_8f7cd5ba3a_o.jpg",
    "id_image": "Wolf_428478",
    "count_view": 0
  },
  {
    "link_thumb": "https://live.staticflickr.com/65535/50018226292_e56817f2d6_n.jpg",
    "id_album": "-462831702",
    "description": "Cat_323676",
    "title": "Cat_323676",
    "link_img": "https://live.staticflickr.com/65535/50018226292_a886faf283_o.jpg",
    "id_image": "Cat_323676",
    "count_view": 0
  },
  {
    "link_thumb": "https://live.staticflickr.com/65535/50017451666_49dd55ef56_n.jpg",
    "id_album": "-1561645279",
    "description": "BlackPanther_389478",
    "title": "BlackPanther_389478",
    "link_img": "https://live.staticflickr.com/65535/50017451666_7277713646_o.jpg",
    "id_image": "BlackPanther_389478",
    "count_view": 0
  },
  {
    "link_thumb": "https://live.staticflickr.com/65535/50021293133_a29513539a_n.jpg",
    "id_album": "1307335982",
    "description": "LabradorRetriever_876275",
    "title": "LabradorRetriever_876275",
    "link_img": "https://live.staticflickr.com/65535/50021293133_2080282f94_o.jpg",
    "id_image": "LabradorRetriever_876275",
    "count_view": 0
  },
  {
    "link_thumb": "https://live.staticflickr.com/65535/50017174717_95de7daf24_n.jpg",
    "id_album": "523598895",
    "description": "Artistic_707379",
    "title": "Artistic_707379",
    "link_img": "https://live.staticflickr.com/65535/50017174717_ffff2c3a1a_o.jpg",
    "id_image": "Artistic_707379",
    "count_view": 0
  },
  {
    "link_thumb": "https://live.staticflickr.com/65535/50018918118_b15f8d333d_n.jpg",
    "id_album": "-462831705",
    "description": "Cat_91385",
    "title": "Cat_91385",
    "link_img": "https://live.staticflickr.com/65535/50018918118_c1acbfc6e9_o.jpg",
    "id_image": "Cat_91385",
    "count_view": 0
  },
  {
    "link_thumb": "https://live.staticflickr.com/65535/50352486491_c8a9808ac2_n.jpg",
    "id_album": "-462831703",
    "description": "Cat_384866",
    "title": "Cat_384866",
    "link_img": "https://live.staticflickr.com/65535/50352486491_93697161a5_o.jpg",
    "id_image": "Cat_384866",
    "count_view": 0
  },
  {
    "link_thumb": "https://live.staticflickr.com/65535/50352839742_1e90de5940_n.jpg",
    "id_album": "-462831702",
    "description": "Cat_113492",
    "title": "Cat_113492",
    "link_img": "https://live.staticflickr.com/65535/50352839742_3dd9d61db5_o.jpg",
    "id_image": "Cat_113492",
    "count_view": 0
  },
  {
    "link_thumb": "https://live.staticflickr.com/65535/50023743038_0d8790d386_n.jpg",
    "id_album": "-1103743486",
    "description": "Toucan_924884",
    "title": "Toucan_924884",
    "link_img": "https://live.staticflickr.com/65535/50023743038_385aa09b03_o.jpg",
    "id_image": "Toucan_924884",
    "count_view": 0
  },
  {
    "link_thumb": "https://live.staticflickr.com/65535/50017086641_95406fd188_n.jpg",
    "id_album": "-422187261",
    "description": "Bear_829635",
    "title": "Bear_829635",
    "link_img": "https://live.staticflickr.com/65535/50017086641_ddd336d62b_o.jpg",
    "id_image": "Bear_829635",
    "count_view": 0
  },
  {
    "link_thumb": "https://live.staticflickr.com/65535/50024526317_2fc18780ec_n.jpg",
    "id_album": "-809392728",
    "description": "Titmouse_969367",
    "title": "Titmouse_969367",
    "link_img": "https://live.staticflickr.com/65535/50024526317_4b6bfd5cd4_o.jpg",
    "id_image": "Titmouse_969367",
    "count_view": 0
  },
  {
    "link_thumb": "https://live.staticflickr.com/65535/50019656923_c2ebb7e311_n.jpg",
    "id_album": "-149330232",
    "description": "Dog_260634",
    "title": "Dog_260634",
    "link_img": "https://live.staticflickr.com/65535/50019656923_ecdbcf39b2_o.jpg",
    "id_image": "Dog_260634",
    "count_view": 0
  },
  {
    "link_thumb": "https://live.staticflickr.com/65535/50023943378_056e997cfa_n.jpg",
    "id_album": "-709711865",
    "description": "Wolf_366794",
    "title": "Wolf_366794",
    "link_img": "https://live.staticflickr.com/65535/50023943378_ca5008cb70_o.jpg",
    "id_image": "Wolf_366794",
    "count_view": 0
  },
  {
    "link_thumb": "https://live.staticflickr.com/65535/50016942951_4e861ed569_n.jpg",
    "id_album": "390697200",
    "description": "AustralianShepherd_873633",
    "title": "AustralianShepherd_873633",
    "link_img": "https://live.staticflickr.com/65535/50016942951_621222c05d_o.jpg",
    "id_image": "AustralianShepherd_873633",
    "count_view": 0
  },
  {
    "link_thumb": "https://live.staticflickr.com/65535/50024288386_c896b7c773_n.jpg",
    "id_album": "-1103743486",
    "description": "Toucan_924980",
    "title": "Toucan_924980",
    "link_img": "https://live.staticflickr.com/65535/50024288386_b402b238bc_o.jpg",
    "id_image": "Toucan_924980",
    "count_view": 0
  },
  {
    "link_thumb": "https://live.staticflickr.com/65535/50017110656_a9427e9ea4_n.jpg",
    "id_album": "-422187261",
    "description": "Bear_968839",
    "title": "Bear_968839",
    "link_img": "https://live.staticflickr.com/65535/50017110656_bc7f5c8083_o.jpg",
    "id_image": "Bear_968839",
    "count_view": 0
  },
  {
    "link_thumb": "https://live.staticflickr.com/65535/50016406668_d57d26b486_n.jpg",
    "id_album": "390697200",
    "description": "AustralianShepherd_650992",
    "title": "AustralianShepherd_650992",
    "link_img": "https://live.staticflickr.com/65535/50016406668_8de0d6c793_o.jpg",
    "id_image": "AustralianShepherd_650992",
    "count_view": 0
  },
  {
    "link_thumb": "https://live.staticflickr.com/65535/50017173041_6f5cf91624_n.jpg",
    "id_album": "172748811",
    "description": "Beeeater_590432",
    "title": "Beeeater_590432",
    "link_img": "https://live.staticflickr.com/65535/50017173041_785dde1be7_o.jpg",
    "id_image": "Beeeater_590432",
    "count_view": 0
  },
  {
    "link_thumb": "https://live.staticflickr.com/65535/50020593393_123a16afa0_n.jpg",
    "id_album": "-462831704",
    "description": "Cat_595748",
    "title": "Cat_595748",
    "link_img": "https://live.staticflickr.com/65535/50020593393_9f6c1b9afe_o.jpg",
    "id_image": "Cat_595748",
    "count_view": 0
  },
  {
    "link_thumb": "https://live.staticflickr.com/65535/50022528026_691bcc14f1_n.jpg",
    "id_album": "-358592519",
    "description": "Panda_363044",
    "title": "Panda_363044",
    "link_img": "https://live.staticflickr.com/65535/50022528026_f6158183be_o.jpg",
    "id_image": "Panda_363044",
    "count_view": 0
  },
  {
    "link_thumb": "https://live.staticflickr.com/65535/50021158848_a753dc28cf_n.jpg",
    "id_album": "1658866795",
    "description": "Insect_499372",
    "title": "Insect_499372",
    "link_img": "https://live.staticflickr.com/65535/50021158848_32f9999890_o.jpg",
    "id_image": "Insect_499372",
    "count_view": 0
  },
  {
    "link_thumb": "https://live.staticflickr.com/65535/50021487022_6a786df052_n.jpg",
    "id_album": "-462831703",
    "description": "Cat_769371",
    "title": "Cat_769371",
    "link_img": "https://live.staticflickr.com/65535/50021487022_bd90760cc1_o.jpg",
    "id_image": "Cat_769371",
    "count_view": 0
  },
  {
    "link_thumb": "https://live.staticflickr.com/65535/50022270236_2b0cac1f21_n.jpg",
    "id_album": "-817970387",
    "description": "Moose_572060",
    "title": "Moose_572060",
    "link_img": "https://live.staticflickr.com/65535/50022270236_6694b7bbb0_o.jpg",
    "id_image": "Moose_572060",
    "count_view": 0
  },
  {
    "link_thumb": "https://live.staticflickr.com/65535/50020117753_449a25b503_n.jpg",
    "id_album": "1168627767",
    "description": "Duck_340177",
    "title": "Duck_340177",
    "link_img": "https://live.staticflickr.com/65535/50020117753_e031585081_o.jpg",
    "id_image": "Duck_340177",
    "count_view": 0
  },
  {
    "link_thumb": "https://live.staticflickr.com/65535/50017299851_88b01b4f0b_n.jpg",
    "id_album": "-1846011410",
    "description": "Bird_395831",
    "title": "Bird_395831",
    "link_img": "https://live.staticflickr.com/65535/50017299851_40187c2403_o.jpg",
    "id_image": "Bird_395831",
    "count_view": 0
  },
  {
    "link_thumb": "https://live.staticflickr.com/65535/50016693773_f2172fb318_n.jpg",
    "id_album": "-1846011410",
    "description": "Bird_243280",
    "title": "Bird_243280",
    "link_img": "https://live.staticflickr.com/65535/50016693773_93320c983d_o.jpg",
    "id_image": "Bird_243280",
    "count_view": 0
  },
  {
    "link_thumb": "https://live.staticflickr.com/65535/50020818933_136eaae75a_n.jpg",
    "id_album": "2060159334",
    "description": "GoldenRetriever_833785",
    "title": "GoldenRetriever_833785",
    "link_img": "https://live.staticflickr.com/65535/50020818933_1edc6c3684_o.jpg",
    "id_image": "GoldenRetriever_833785",
    "count_view": 0
  },
  {
    "link_thumb": "https://live.staticflickr.com/65535/50017611518_24a5835655_n.jpg",
    "id_album": "-462831702",
    "description": "Cat_400089",
    "title": "Cat_400089",
    "link_img": "https://live.staticflickr.com/65535/50017611518_6450a2d8a5_o.jpg",
    "id_image": "Cat_400089",
    "count_view": 0
  },
  {
    "link_thumb": "https://live.staticflickr.com/65535/50020021752_014e704560_n.jpg",
    "id_album": "791455625",
    "description": "Chipmunk_621870",
    "title": "Chipmunk_621870",
    "link_img": "https://live.staticflickr.com/65535/50020021752_0bf753aa74_o.jpg",
    "id_image": "Chipmunk_621870",
    "count_view": 0
  },
  {
    "link_thumb": "https://live.staticflickr.com/65535/50352839312_2b60614f9a_n.jpg",
    "id_album": "-462831702",
    "description": "Cat_112142",
    "title": "Cat_112142",
    "link_img": "https://live.staticflickr.com/65535/50352839312_50976274fe_o.jpg",
    "id_image": "Cat_112142",
    "count_view": 0
  },
  {
    "link_thumb": "https://live.staticflickr.com/65535/50018859948_070f74ee37_n.jpg",
    "id_album": "-462831703",
    "description": "Cat_881045",
    "title": "Cat_881045",
    "link_img": "https://live.staticflickr.com/65535/50018859948_ac07db598c_o.jpg",
    "id_image": "Cat_881045",
    "count_view": 0
  },
  {
    "link_thumb": "https://live.staticflickr.com/65535/50016854848_96264a13ca_n.jpg",
    "id_album": "-1846011410",
    "description": "Bird_593439",
    "title": "Bird_593439",
    "link_img": "https://live.staticflickr.com/65535/50016854848_0c5dbeddf6_o.jpg",
    "id_image": "Bird_593439",
    "count_view": 0
  },
  {
    "link_thumb": "https://live.staticflickr.com/65535/50351790828_b394b14de0_n.jpg",
    "id_album": "-462831703",
    "description": "Cat_385757",
    "title": "Cat_385757",
    "link_img": "https://live.staticflickr.com/65535/50351790828_43f6f75671_o.jpg",
    "id_image": "Cat_385757",
    "count_view": 0
  },
  {
    "link_thumb": "https://live.staticflickr.com/65535/50019628748_8fb8f18ddd_n.jpg",
    "id_album": "-149330232",
    "description": "Dog_221842",
    "title": "Dog_221842",
    "link_img": "https://live.staticflickr.com/65535/50019628748_7631a1cc06_o.jpg",
    "id_image": "Dog_221842",
    "count_view": 0
  },
  {
    "link_thumb": "https://live.staticflickr.com/65535/50017191946_5dcc052be2_n.jpg",
    "id_album": "-1846011410",
    "description": "Bird_108374",
    "title": "Bird_108374",
    "link_img": "https://live.staticflickr.com/65535/50017191946_ce5c7508a1_o.jpg",
    "id_image": "Bird_108374",
    "count_view": 0
  },
  {
    "link_thumb": "https://live.staticflickr.com/65535/50021188482_ab3d85dfae_n.jpg",
    "id_album": "-128218148",
    "description": "Fox_176276",
    "title": "Fox_176276",
    "link_img": "https://live.staticflickr.com/65535/50021188482_f5f9c8ae60_o.jpg",
    "id_image": "Fox_176276",
    "count_view": 0
  },
  {
    "link_thumb": "https://live.staticflickr.com/65535/50024571696_5470f830f0_n.jpg",
    "id_album": "1104421803",
    "description": "Zebra_384432",
    "title": "Zebra_384432",
    "link_img": "https://live.staticflickr.com/65535/50024571696_e1cc3c4fe8_o.jpg",
    "id_image": "Zebra_384432",
    "count_view": 0
  },
  {
    "link_thumb": "https://live.staticflickr.com/65535/50021352697_90c88f4c89_n.jpg",
    "id_album": "-462831704",
    "description": "Cat_542058",
    "title": "Cat_542058",
    "link_img": "https://live.staticflickr.com/65535/50021352697_55be4fbaa2_o.jpg",
    "id_image": "Cat_542058",
    "count_view": 0
  },
  {
    "link_thumb": "https://live.staticflickr.com/65535/50020119268_5b834932e8_n.jpg",
    "id_album": "1168627767",
    "description": "Duck_366895",
    "title": "Duck_366895",
    "link_img": "https://live.staticflickr.com/65535/50020119268_cfe266e388_o.jpg",
    "id_image": "Duck_366895",
    "count_view": 0
  },
  {
    "link_thumb": "https://live.staticflickr.com/65535/50017455593_7225f84d9c_n.jpg",
    "id_album": "-462831702",
    "description": "Cat_328697",
    "title": "Cat_328697",
    "link_img": "https://live.staticflickr.com/65535/50017455593_c2e51cc06f_o.jpg",
    "id_image": "Cat_328697",
    "count_view": 0
  },
  {
    "link_thumb": "https://live.staticflickr.com/65535/50019209638_7b121a69d6_n.jpg",
    "id_album": "-1481843714",
    "description": "Cheetah_960957",
    "title": "Cheetah_960957",
    "link_img": "https://live.staticflickr.com/65535/50019209638_f53a56567a_o.jpg",
    "id_image": "Cheetah_960957",
    "count_view": 0
  },
  {
    "link_thumb": "https://live.staticflickr.com/65535/50021442908_089affa876_n.jpg",
    "id_album": "416744915",
    "description": "Lion_275661",
    "title": "Lion_275661",
    "link_img": "https://live.staticflickr.com/65535/50021442908_bb27b7c205_o.jpg",
    "id_image": "Lion_275661",
    "count_view": 0
  },
  {
    "link_thumb": "https://live.staticflickr.com/65535/50020688386_d88bba4c53_n.jpg",
    "id_album": "-39098563",
    "description": "Eagle_275813",
    "title": "Eagle_275813",
    "link_img": "https://live.staticflickr.com/65535/50020688386_c96d435a5d_o.jpg",
    "id_image": "Eagle_275813",
    "count_view": 0
  },
  {
    "link_thumb": "https://live.staticflickr.com/65535/50017816161_b2e9d21653_n.jpg",
    "id_album": "-462831705",
    "description": "Cat_178477",
    "title": "Cat_178477",
    "link_img": "https://live.staticflickr.com/65535/50017816161_ea4c477aa8_o.jpg",
    "id_image": "Cat_178477",
    "count_view": 0
  },
  {
    "link_thumb": "https://live.staticflickr.com/65535/50017777242_c840d3e9e9_n.jpg",
    "id_album": "782930701",
    "description": "BorderCollie_992878",
    "title": "BorderCollie_992878",
    "link_img": "https://live.staticflickr.com/65535/50017777242_1b631262f7_o.jpg",
    "id_image": "BorderCollie_992878",
    "count_view": 0
  },
  {
    "link_thumb": "https://live.staticflickr.com/65535/50021923731_08b7b35af5_n.jpg",
    "id_album": "1392348450",
    "description": "Leopard_424701",
    "title": "Leopard_424701",
    "link_img": "https://live.staticflickr.com/65535/50021923731_d713012120_o.jpg",
    "id_image": "Leopard_424701",
    "count_view": 0
  },
  {
    "link_thumb": "https://live.staticflickr.com/65535/50021399606_cde91dabe1_n.jpg",
    "id_album": "-1168906494",
    "description": "Grasshopper_332445",
    "title": "Grasshopper_332445",
    "link_img": "https://live.staticflickr.com/65535/50021399606_957a22394b_o.jpg",
    "id_image": "Grasshopper_332445",
    "count_view": 0
  },
  {
    "link_thumb": "https://live.staticflickr.com/65535/50021631327_96a1822d36_n.jpg",
    "id_album": "-975314166",
    "description": "Goldfish_364856",
    "title": "Goldfish_364856",
    "link_img": "https://live.staticflickr.com/65535/50021631327_1f2bb55964_o.jpg",
    "id_image": "Goldfish_364856",
    "count_view": 0
  },
  {
    "link_thumb": "https://live.staticflickr.com/65535/50019428292_81559a1cf6_n.jpg",
    "id_album": "-462831702",
    "description": "Cat_425918",
    "title": "Cat_425918",
    "link_img": "https://live.staticflickr.com/65535/50019428292_7eab389dca_o.jpg",
    "id_image": "Cat_425918",
    "count_view": 0
  },
  {
    "link_thumb": "https://live.staticflickr.com/65535/50020745311_76d6bdfe26_n.jpg",
    "id_album": "1270947998",
    "description": "Elephant_343890",
    "title": "Elephant_343890",
    "link_img": "https://live.staticflickr.com/65535/50020745311_327e0a0b59_o.jpg",
    "id_image": "Elephant_343890",
    "count_view": 0
  },
  {
    "link_thumb": "https://live.staticflickr.com/65535/50020789632_5e83da3d06_n.jpg",
    "id_album": "-149330231",
    "description": "Dog_882185",
    "title": "Dog_882185",
    "link_img": "https://live.staticflickr.com/65535/50020789632_92ff0ec90a_o.jpg",
    "id_image": "Dog_882185",
    "count_view": 0
  },
  {
    "link_thumb": "https://live.staticflickr.com/65535/50021231681_97b155566d_n.jpg",
    "id_album": "-462831703",
    "description": "Cat_760877",
    "title": "Cat_760877",
    "link_img": "https://live.staticflickr.com/65535/50021231681_6703e6e335_o.jpg",
    "id_image": "Cat_760877",
    "count_view": 0
  },
  {
    "link_thumb": "https://live.staticflickr.com/65535/50021185258_bea44d1d1b_n.jpg",
    "id_album": "-843028318",
    "description": "Jaguar_451579",
    "title": "Jaguar_451579",
    "link_img": "https://live.staticflickr.com/65535/50021185258_76b48215a1_o.jpg",
    "id_image": "Jaguar_451579",
    "count_view": 0
  },
  {
    "link_thumb": "https://live.staticflickr.com/65535/50017242078_ba8e1e14a5_n.jpg",
    "id_album": "-462831705",
    "description": "Cat_117511",
    "title": "Cat_117511",
    "link_img": "https://live.staticflickr.com/65535/50017242078_cfa178da86_o.jpg",
    "id_image": "Cat_117511",
    "count_view": 0
  },
  {
    "link_thumb": "https://live.staticflickr.com/65535/50020297676_0f5a429893_n.jpg",
    "id_album": "-149330232",
    "description": "Dog_349737",
    "title": "Dog_349737",
    "link_img": "https://live.staticflickr.com/65535/50020297676_c3114f1ab6_o.jpg",
    "id_image": "Dog_349737",
    "count_view": 0
  },
  {
    "link_thumb": "https://live.staticflickr.com/65535/50022726366_c63215da1a_n.jpg",
    "id_album": "392248205",
    "description": "Penguin_86903",
    "title": "Penguin_86903",
    "link_img": "https://live.staticflickr.com/65535/50022726366_253ac6f1a0_o.jpg",
    "id_image": "Penguin_86903",
    "count_view": 0
  },
  {
    "link_thumb": "https://live.staticflickr.com/65535/50017583613_eeee7ac045_n.jpg",
    "id_album": "-462831702",
    "description": "Cat_383807",
    "title": "Cat_383807",
    "link_img": "https://live.staticflickr.com/65535/50017583613_e5a261f361_o.jpg",
    "id_image": "Cat_383807",
    "count_view": 0
  },
  {
    "link_thumb": "https://live.staticflickr.com/65535/50017539943_b3a4925a7e_n.jpg",
    "id_album": "-462831702",
    "description": "Cat_364276",
    "title": "Cat_364276",
    "link_img": "https://live.staticflickr.com/65535/50017539943_080ec0e811_o.jpg",
    "id_image": "Cat_364276",
    "count_view": 0
  },
  {
    "link_thumb": "https://live.staticflickr.com/65535/50021113536_6ab76010aa_n.jpg",
    "id_album": "-462831704",
    "description": "Cat_555855",
    "title": "Cat_555855",
    "link_img": "https://live.staticflickr.com/65535/50021113536_6f8e18c003_o.jpg",
    "id_image": "Cat_555855",
    "count_view": 0
  },
  {
    "link_thumb": "https://live.staticflickr.com/65535/50016641043_975493e013_n.jpg",
    "id_album": "1699594607",
    "description": "Bee_926233",
    "title": "Bee_926233",
    "link_img": "https://live.staticflickr.com/65535/50016641043_720500d013_o.jpg",
    "id_image": "Bee_926233",
    "count_view": 0
  },
  {
    "link_thumb": "https://live.staticflickr.com/65535/50023028676_c9b48fbacc_n.jpg",
    "id_album": "-353898617",
    "description": "Puppy_588508",
    "title": "Puppy_588508",
    "link_img": "https://live.staticflickr.com/65535/50023028676_23283d68a8_o.jpg",
    "id_image": "Puppy_588508",
    "count_view": 0
  },
  {
    "link_thumb": "https://live.staticflickr.com/65535/50019740468_1450ec79a0_n.jpg",
    "id_album": "-149330232",
    "description": "Dog_337802",
    "title": "Dog_337802",
    "link_img": "https://live.staticflickr.com/65535/50019740468_ca9bf79117_o.jpg",
    "id_image": "Dog_337802",
    "count_view": 0
  },
  {
    "link_thumb": "https://live.staticflickr.com/65535/50023933028_686837c21e_n.jpg",
    "id_album": "-709711865",
    "description": "Wolf_333992",
    "title": "Wolf_333992",
    "link_img": "https://live.staticflickr.com/65535/50023933028_f102a5f7ed_o.jpg",
    "id_image": "Wolf_333992",
    "count_view": 0
  },
  {
    "link_thumb": "https://live.staticflickr.com/65535/50024520442_b118069f0e_n.jpg",
    "id_album": "-809392728",
    "description": "Titmouse_565405",
    "title": "Titmouse_565405",
    "link_img": "https://live.staticflickr.com/65535/50024520442_38bf806ae9_o.jpg",
    "id_image": "Titmouse_565405",
    "count_view": 0
  },
  {
    "link_thumb": "https://live.staticflickr.com/65535/50021526892_c9f188eedd_n.jpg",
    "id_album": "-462831703",
    "description": "Cat_838630",
    "title": "Cat_838630",
    "link_img": "https://live.staticflickr.com/65535/50021526892_d439a8dfe6_o.jpg",
    "id_image": "Cat_838630",
    "count_view": 0
  },
  {
    "link_thumb": "https://live.staticflickr.com/65535/50021970251_c1420aeb86_n.jpg",
    "id_album": "416744915",
    "description": "Lion_190998",
    "title": "Lion_190998",
    "link_img": "https://live.staticflickr.com/65535/50021970251_7f348f45cf_o.jpg",
    "id_image": "Lion_190998",
    "count_view": 0
  },
  {
    "link_thumb": "https://live.staticflickr.com/65535/50019230688_20f330228c_n.jpg",
    "id_album": "791455625",
    "description": "Chipmunk_402717",
    "title": "Chipmunk_402717",
    "link_img": "https://live.staticflickr.com/65535/50019230688_42635e51c2_o.jpg",
    "id_image": "Chipmunk_402717",
    "count_view": 0
  },
  {
    "link_thumb": "https://live.staticflickr.com/65535/50019765073_a1fc72ee85_n.jpg",
    "id_album": "-149330232",
    "description": "Dog_349742",
    "title": "Dog_349742",
    "link_img": "https://live.staticflickr.com/65535/50019765073_4409d44a7e_o.jpg",
    "id_image": "Dog_349742",
    "count_view": 0
  },
  {
    "link_thumb": "https://live.staticflickr.com/65535/50016747053_10401a0ba7_n.jpg",
    "id_album": "-1846011410",
    "description": "Bird_362464",
    "title": "Bird_362464",
    "link_img": "https://live.staticflickr.com/65535/50016747053_b2f7ba6df0_o.jpg",
    "id_image": "Bird_362464",
    "count_view": 0
  },
  {
    "link_thumb": "https://live.staticflickr.com/65535/50017774797_39db5a78ec_n.jpg",
    "id_album": "782930701",
    "description": "BorderCollie_962144",
    "title": "BorderCollie_962144",
    "link_img": "https://live.staticflickr.com/65535/50017774797_3e663cd0f3_o.jpg",
    "id_image": "BorderCollie_962144",
    "count_view": 0
  },
  {
    "link_thumb": "https://live.staticflickr.com/65535/50021433136_b82742e102_n.jpg",
    "id_album": "1469520430",
    "description": "Hedgehog_534681",
    "title": "Hedgehog_534681",
    "link_img": "https://live.staticflickr.com/65535/50021433136_7b3cd69aa6_o.jpg",
    "id_image": "Hedgehog_534681",
    "count_view": 0
  },
  {
    "link_thumb": "https://live.staticflickr.com/65535/50020774971_28c85a4c2d_n.jpg",
    "id_album": "1270947998",
    "description": "Elephant_596652",
    "title": "Elephant_596652",
    "link_img": "https://live.staticflickr.com/65535/50020774971_064b397ac7_o.jpg",
    "id_image": "Elephant_596652",
    "count_view": 0
  },
  {
    "link_thumb": "https://live.staticflickr.com/65535/50021328263_701dab022b_n.jpg",
    "id_album": "-1882491687",
    "description": "Ladybug_995080",
    "title": "Ladybug_995080",
    "link_img": "https://live.staticflickr.com/65535/50021328263_9fb9d49837_o.jpg",
    "id_image": "Ladybug_995080",
    "count_view": 0
  },
  {
    "link_thumb": "https://live.staticflickr.com/65535/50019998686_b7c9ca030a_n.jpg",
    "id_album": "1903411565",
    "description": "Deer_364406",
    "title": "Deer_364406",
    "link_img": "https://live.staticflickr.com/65535/50019998686_d46721d18a_o.jpg",
    "id_image": "Deer_364406",
    "count_view": 0
  },
  {
    "link_thumb": "https://live.staticflickr.com/65535/50020089547_abdb181829_n.jpg",
    "id_album": "-1868680171",
    "description": "Cougar_921769",
    "title": "Cougar_921769",
    "link_img": "https://live.staticflickr.com/65535/50020089547_f00a44542a_o.jpg",
    "id_image": "Cougar_921769",
    "count_view": 0
  },
  {
    "link_thumb": "https://live.staticflickr.com/65535/50016999436_8c9b6b208f_n.jpg",
    "id_album": "809937717",
    "description": "Beagle_923481",
    "title": "Beagle_923481",
    "link_img": "https://live.staticflickr.com/65535/50016999436_8ce9bc89d1_o.jpg",
    "id_image": "Beagle_923481",
    "count_view": 0
  },
  {
    "link_thumb": "https://live.staticflickr.com/65535/50021903677_ce20499fd4_n.jpg",
    "id_album": "-737856092",
    "description": "Iguana_438012",
    "title": "Iguana_438012",
    "link_img": "https://live.staticflickr.com/65535/50021903677_848d6b017e_o.jpg",
    "id_image": "Iguana_438012",
    "count_view": 0
  }
]