[
  {
    "link_thumb": "https://live.staticflickr.com/65535/50021304291_61ffd15f23_n.jpg",
    "id_album": "-405626519",
    "description": "GermanShepherd_854682",
    "title": "GermanShepherd_854682",
    "link_img": "https://live.staticflickr.com/65535/50021304291_bf31d91472_o.jpg",
    "id_image": "GermanShepherd_854682",
    "count_view": 0
  },
  {
    "link_thumb": "https://live.staticflickr.com/65535/50021125533_3d861098c2_n.jpg",
    "id_album": "1658866795",
    "description": "Insect_391736",
    "title": "Insect_391736",
    "link_img": "https://live.staticflickr.com/65535/50021125533_32ab69fff0_o.jpg",
    "id_image": "Insect_391736",
    "count_view": 0
  },
  {
    "link_thumb": "https://live.staticflickr.com/65535/50021321653_183731f8d7_n.jpg",
    "id_album": "-1882491687",
    "description": "Ladybug_753404",
    "title": "Ladybug_753404",
    "link_img": "https://live.staticflickr.com/65535/50021321653_91d9598a40_o.jpg",
    "id_image": "Ladybug_753404",
    "count_view": 0
  },
  {
    "link_thumb": "https://live.staticflickr.com/65535/50352396531_ca08ba8938_n.jpg",
    "id_album": "-462831703",
    "description": "Cat_108207",
    "title": "Cat_108207",
    "link_img": "https://live.staticflickr.com/65535/50352396531_90898c0ffd_o.jpg",
    "id_image": "Cat_108207",
    "count_view": 0
  },
  {
    "link_thumb": "https://live.staticflickr.com/65535/50022402907_bd2d5d8589_n.jpg",
    "id_album": "1894617400",
    "description": "Lynx_407540",
    "title": "Lynx_407540",
    "link_img": "https://live.staticflickr.com/65535/50022402907_707e9bc509_o.jpg",
    "id_image": "Lynx_407540",
    "count_view": 0
  },
  {
    "link_thumb": "https://live.staticflickr.com/65535/50017731092_4c5e2d70a7_n.jpg",
    "id_album": "-530283314",
    "description": "BlueandyellowMacaw_606145",
    "title": "BlueandyellowMacaw_606145",
    "link_img": "https://live.staticflickr.com/65535/50017731092_1259c96fd3_o.jpg",
    "id_image": "BlueandyellowMacaw_606145",
    "count_view": 0
  },
  {
    "link_thumb": "https://live.staticflickr.com/65535/50023938877_cefc329024_n.jpg",
    "id_album": "1933547265",
    "description": "SnowyOwl_210786",
    "title": "SnowyOwl_210786",
    "link_img": "https://live.staticflickr.com/65535/50023938877_ed5b0c977f_o.jpg",
    "id_image": "SnowyOwl_210786",
    "count_view": 0
  },
  {
    "link_thumb": "https://live.staticflickr.com/65535/50019514286_40fa8f69cf_n.jpg",
    "id_album": "-462831703",
    "description": "Cat_951505",
    "title": "Cat_951505",
    "link_img": "https://live.staticflickr.com/65535/50019514286_3e1276e851_o.jpg",
    "id_image": "Cat_951505",
    "count_view": 0
  },
  {
    "link_thumb": "https://live.staticflickr.com/65535/50017132498_937dc847e1_n.jpg",
    "id_album": "-401151552",
    "description": "Butterfly_743208",
    "title": "Butterfly_743208",
    "link_img": "https://live.staticflickr.com/65535/50017132498_44125ef885_o.jpg",
    "id_image": "Butterfly_743208",
    "count_view": 0
  },
  {
    "link_thumb": "https://live.staticflickr.com/65535/50016373443_bea5180161_n.jpg",
    "id_album": "523598895",
    "description": "Artistic_360525",
    "title": "Artistic_360525",
    "link_img": "https://live.staticflickr.com/65535/50016373443_d40368282c_o.jpg",
    "id_image": "Artistic_360525",
    "count_view": 0
  },
  {
    "link_thumb": "https://live.staticflickr.com/65535/50017606013_ab6429669c_n.jpg",
    "id_album": "-462831702",
    "description": "Cat_398042",
    "title": "Cat_398042",
    "link_img": "https://live.staticflickr.com/65535/50017606013_6286bd96fd_o.jpg",
    "id_image": "Cat_398042",
    "count_view": 0
  },
  {
    "link_thumb": "https://live.staticflickr.com/65535/50017996511_90c409648c_n.jpg",
    "id_album": "-462831702",
    "description": "Cat_333651",
    "title": "Cat_333651",
    "link_img": "https://live.staticflickr.com/65535/50017996511_38167c226f_o.jpg",
    "id_image": "Cat_333651",
    "count_view": 0
  },
  {
    "link_thumb": "https://live.staticflickr.com/65535/50021675586_017b76cf21_n.jpg",
    "id_album": "1658866795",
    "description": "Insect_403297",
    "title": "Insect_403297",
    "link_img": "https://live.staticflickr.com/65535/50021675586_3e3949c34f_o.jpg",
    "id_image": "Insect_403297",
    "count_view": 0
  },
  {
    "link_thumb": "https://live.staticflickr.com/65535/50021911106_b48ec4ff8e_n.jpg",
    "id_album": "1392348450",
    "description": "Leopard_373185",
    "title": "Leopard_373185",
    "link_img": "https://live.staticflickr.com/65535/50021911106_fdcc425259_o.jpg",
    "id_image": "Leopard_373185",
    "count_view": 0
  },
  {
    "link_thumb": "https://live.staticflickr.com/65535/50021309698_d2b6113e5a_n.jpg",
    "id_album": "-1882491687",
    "description": "Ladybug_447497",
    "title": "Ladybug_447497",
    "link_img": "https://live.staticflickr.com/65535/50021309698_9965155326_o.jpg",
    "id_image": "Ladybug_447497",
    "count_view": 0
  },
  {
    "link_thumb": "https://live.staticflickr.com/65535/50017318022_fbe559e025_n.jpg",
    "id_album": "-422187261",
    "description": "Bear_544070",
    "title": "Bear_544070",
    "link_img": "https://live.staticflickr.com/65535/50017318022_663058c0e8_o.jpg",
    "id_image": "Bear_544070",
    "count_view": 0
  },
  {
    "link_thumb": "https://live.staticflickr.com/65535/50016685508_2c726eb7cc_n.jpg",
    "id_album": "-1846011410",
    "description": "Bird_208646",
    "title": "Bird_208646",
    "link_img": "https://live.staticflickr.com/65535/50016685508_c7e05e728e_o.jpg",
    "id_image": "Bird_208646",
    "count_view": 0
  },
  {
    "link_thumb": "https://live.staticflickr.com/65535/50023579463_778c495040_n.jpg",
    "id_album": "405170427",
    "description": "Tiger_418418",
    "title": "Tiger_418418",
    "link_img": "https://live.staticflickr.com/65535/50023579463_7cd07fbb8c_o.jpg",
    "id_image": "Tiger_418418",
    "count_view": 0
  },
  {
    "link_thumb": "https://live.staticflickr.com/65535/50020127053_c017700316_n.jpg",
    "id_album": "1168627767",
    "description": "Duck_444384",
    "title": "Duck_444384",
    "link_img": "https://live.staticflickr.com/65535/50020127053_2980a78b9c_o.jpg",
    "id_image": "Duck_444384",
    "count_view": 0
  },
  {
    "link_thumb": "https://live.staticflickr.com/65535/50020924978_c57f05ab63_n.jpg",
    "id_album": "-1933715543",
    "description": "Horse_204456",
    "title": "Horse_204456",
    "link_img": "https://live.staticflickr.com/65535/50020924978_1af6cf573a_o.jpg",
    "id_image": "Horse_204456",
    "count_view": 0
  },
  {
    "link_thumb": "https://live.staticflickr.com/65535/50023200616_2ca356ddf9_n.jpg",
    "id_album": "332874268",
    "description": "RedPanda_253394",
    "title": "RedPanda_253394",
    "link_img": "https://live.staticflickr.com/65535/50023200616_118d794035_o.jpg",
    "id_image": "RedPanda_253394",
    "count_view": 0
  },
  {
    "link_thumb": "https://live.staticflickr.com/65535/50016989813_b715fee42e_n.jpg",
    "id_album": "1696155652",
    "description": "Boxer_197482",
    "title": "Boxer_197482",
    "link_img": "https://live.staticflickr.com/65535/50016989813_1072b937b8_o.jpg",
    "id_image": "Boxer_197482",
    "count_view": 0
  },
  {
    "link_thumb": "https://live.staticflickr.com/65535/50017812307_fd379fe12b_n.jpg",
    "id_album": "-401151552",
    "description": "Butterfly_243873",
    "title": "Butterfly_243873",
    "link_img": "https://live.staticflickr.com/65535/50017812307_fa8f1805f7_o.jpg",
    "id_image": "Butterfly_243873",
    "count_view": 0
  },
  {
    "link_thumb": "https://live.staticflickr.com/65535/50023125631_6d21588f00_n.jpg",
    "id_album": "-1940643173",
    "description": "Rabbit_773358",
    "title": "Rabbit_773358",
    "link_img": "https://live.staticflickr.com/65535/50023125631_273e1cee88_o.jpg",
    "id_image": "Rabbit_773358",
    "count_view": 0
  },
  {
    "link_thumb": "https://live.staticflickr.com/65535/50020389183_f314d8e166_n.jpg",
    "id_album": "-1694105481",
    "description": "Fly_926190",
    "title": "Fly_926190",
    "link_img": "https://live.staticflickr.com/65535/50020389183_c92af671c5_o.jpg",
    "id_image": "Fly_926190",
    "count_view": 0
  },
  {
    "link_thumb": "https://live.staticflickr.com/65535/50017272686_d19fe90317_n.jpg",
    "id_album": "-1846011410",
    "description": "Bird_362463",
    "title": "Bird_362463",
    "link_img": "https://live.staticflickr.com/65535/50017272686_6872e45ccc_o.jpg",
    "id_image": "Bird_362463",
    "count_view": 0
  },
  {
    "link_thumb": "https://live.staticflickr.com/65535/50021757876_a1807b17a6_n.jpg",
    "id_album": "665694624",
    "description": "JapaneseMacaque_831521",
    "title": "JapaneseMacaque_831521",
    "link_img": "https://live.staticflickr.com/65535/50021757876_b69e320d0e_o.jpg",
    "id_image": "JapaneseMacaque_831521",
    "count_view": 0
  },
  {
    "link_thumb": "https://live.staticflickr.com/65535/50017030273_2e01592c32_n.jpg",
    "id_album": "-401151552",
    "description": "Butterfly_282695",
    "title": "Butterfly_282695",
    "link_img": "https://live.staticflickr.com/65535/50017030273_5dabd7a868_o.jpg",
    "id_image": "Butterfly_282695",
    "count_view": 0
  },
  {
    "link_thumb": "https://live.staticflickr.com/65535/50019187561_d6cf91b617_n.jpg",
    "id_album": "-462831702",
    "description": "Cat_432672",
    "title": "Cat_432672",
    "link_img": "https://live.staticflickr.com/65535/50019187561_81fb795c2e_o.jpg",
    "id_image": "Cat_432672",
    "count_view": 0
  },
  {
    "link_thumb": "https://live.staticflickr.com/65535/50022496913_dd9ee54ed5_n.jpg",
    "id_album": "-353898617",
    "description": "Puppy_597412",
    "title": "Puppy_597412",
    "link_img": "https://live.staticflickr.com/65535/50022496913_04f82b78ca_o.jpg",
    "id_image": "Puppy_597412",
    "count_view": 0
  },
  {
    "link_thumb": "https://live.staticflickr.com/65535/50017786572_5ccd809149_n.jpg",
    "id_album": "368532157",
    "description": "Bulldog_386303",
    "title": "Bulldog_386303",
    "link_img": "https://live.staticflickr.com/65535/50017786572_1176bca332_o.jpg",
    "id_image": "Bulldog_386303",
    "count_view": 0
  },
  {
    "link_thumb": "https://live.staticflickr.com/65535/50021403371_eae9a9913e_n.jpg",
    "id_album": "-1168906494",
    "description": "Grasshopper_682379",
    "title": "Grasshopper_682379",
    "link_img": "https://live.staticflickr.com/65535/50021403371_ec40bae474_o.jpg",
    "id_image": "Grasshopper_682379",
    "count_view": 0
  },
  {
    "link_thumb": "https://live.staticflickr.com/65535/50021720013_14f1cbe0c2_n.jpg",
    "id_album": "-784970094",
    "description": "Monkey_750033",
    "title": "Monkey_750033",
    "link_img": "https://live.staticflickr.com/65535/50021720013_3701e60ac4_o.jpg",
    "id_image": "Monkey_750033",
    "count_view": 0
  },
  {
    "link_thumb": "https://live.staticflickr.com/65535/50017628211_66171c3e47_n.jpg",
    "id_album": "-401151552",
    "description": "Butterfly_570109",
    "title": "Butterfly_570109",
    "link_img": "https://live.staticflickr.com/65535/50017628211_95ff6e18f1_o.jpg",
    "id_image": "Butterfly_570109",
    "count_view": 0
  },
  {
    "link_thumb": "https://live.staticflickr.com/65535/50017156977_8a25319c1c_n.jpg",
    "id_album": "523598895",
    "description": "Artistic_330598",
    "title": "Artistic_330598",
    "link_img": "https://live.staticflickr.com/65535/50017156977_25d83800fd_o.jpg",
    "id_image": "Artistic_330598",
    "count_view": 0
  },
  {
    "link_thumb": "https://live.staticflickr.com/65535/50023879207_d36a37e8cc_n.jpg",
    "id_album": "-1131363127",
    "description": "SnowLeopard_217720",
    "title": "SnowLeopard_217720",
    "link_img": "https://live.staticflickr.com/65535/50023879207_b8bc524011_o.jpg",
    "id_image": "SnowLeopard_217720",
    "count_view": 0
  },
  {
    "link_thumb": "https://live.staticflickr.com/65535/50019532561_8ff7be5b0d_n.jpg",
    "id_album": "-462831703",
    "description": "Cat_967122",
    "title": "Cat_967122",
    "link_img": "https://live.staticflickr.com/65535/50019532561_173a08857d_o.jpg",
    "id_image": "Cat_967122",
    "count_view": 0
  },
  {
    "link_thumb": "https://live.staticflickr.com/65535/50020056232_aa7cddc8bb_n.jpg",
    "id_album": "-1462118852",
    "description": "Corgi_893986",
    "title": "Corgi_893986",
    "link_img": "https://live.staticflickr.com/65535/50020056232_af00abb468_o.jpg",
    "id_image": "Corgi_893986",
    "count_view": 0
  },
  {
    "link_thumb": "https://live.staticflickr.com/65535/50020536033_ff13369201_n.jpg",
    "id_album": "844170697",
    "description": "Frog_845420",
    "title": "Frog_845420",
    "link_img": "https://live.staticflickr.com/65535/50020536033_03f4e08847_o.jpg",
    "id_image": "Frog_845420",
    "count_view": 0
  },
  {
    "link_thumb": "https://live.staticflickr.com/65535/50022441037_570596a366_n.jpg",
    "id_album": "-1173056085",
    "description": "Macaw_961361",
    "title": "Macaw_961361",
    "link_img": "https://live.staticflickr.com/65535/50022441037_49d66761ab_o.jpg",
    "id_image": "Macaw_961361",
    "count_view": 0
  },
  {
    "link_thumb": "https://live.staticflickr.com/65535/50024338076_82aaf70695_n.jpg",
    "id_album": "461588038",
    "description": "Vulture_597082",
    "title": "Vulture_597082",
    "link_img": "https://live.staticflickr.com/65535/50024338076_4f479820b3_o.jpg",
    "id_image": "Vulture_597082",
    "count_view": 0
  },
  {
    "link_thumb": "https://live.staticflickr.com/65535/50352647966_e1051a4454_n.jpg",
    "id_album": "-462831703",
    "description": "Cat_691490",
    "title": "Cat_691490",
    "link_img": "https://live.staticflickr.com/65535/50352647966_5e507c1094_o.jpg",
    "id_image": "Cat_691490",
    "count_view": 0
  },
  {
    "link_thumb": "https://live.staticflickr.com/65535/50017266926_9a76d1b68b_n.jpg",
    "id_album": "-1846011410",
    "description": "Bird_355094",
    "title": "Bird_355094",
    "link_img": "https://live.staticflickr.com/65535/50017266926_234c926845_o.jpg",
    "id_image": "Bird_355094",
    "count_view": 0
  },
  {
    "link_thumb": "https://live.staticflickr.com/65535/50019830177_28a7e99730_n.jpg",
    "id_album": "-462831703",
    "description": "Cat_997037",
    "title": "Cat_997037",
    "link_img": "https://live.staticflickr.com/65535/50019830177_872944c124_o.jpg",
    "id_image": "Cat_997037",
    "count_view": 0
  },
  {
    "link_thumb": "https://live.staticflickr.com/65535/50022910826_76ef0f96fe_n.jpg",
    "id_album": "-356780855",
    "description": "Puffin_338084",
    "title": "Puffin_338084",
    "link_img": "https://live.staticflickr.com/65535/50022910826_808b21c0f8_o.jpg",
    "id_image": "Puffin_338084",
    "count_view": 0
  },
  {
    "link_thumb": "https://live.staticflickr.com/65535/50024468147_b2e8ddb7c3_n.jpg",
    "id_album": "405170427",
    "description": "Tiger_760788",
    "title": "Tiger_760788",
    "link_img": "https://live.staticflickr.com/65535/50024468147_96184d3b51_o.jpg",
    "id_image": "Tiger_760788",
    "count_view": 0
  },
  {
    "link_thumb": "https://live.staticflickr.com/65535/50018220352_664fe216c6_n.jpg",
    "id_album": "-462831702",
    "description": "Cat_316458",
    "title": "Cat_316458",
    "link_img": "https://live.staticflickr.com/65535/50018220352_236cbc53eb_o.jpg",
    "id_image": "Cat_316458",
    "count_view": 0
  },
  {
    "link_thumb": "https://live.staticflickr.com/65535/50017512388_80eb9a3f79_n.jpg",
    "id_album": "-462831702",
    "description": "Cat_354430",
    "title": "Cat_354430",
    "link_img": "https://live.staticflickr.com/65535/50017512388_32a778a148_o.jpg",
    "id_image": "Cat_354430",
    "count_view": 0
  },
  {
    "link_thumb": "https://live.staticflickr.com/65535/50019077993_b98475a1e5_n.jpg",
    "id_album": "-420782796",
    "description": "Caterpillar_462859",
    "title": "Caterpillar_462859",
    "link_img": "https://live.staticflickr.com/65535/50019077993_9ce2d86a39_o.jpg",
    "id_image": "Caterpillar_462859",
    "count_view": 0
  },
  {
    "link_thumb": "https://live.staticflickr.com/65535/50351921918_70c3c85c85_n.jpg",
    "id_album": "-462831703",
    "description": "Cat_593749",
    "title": "Cat_593749",
    "link_img": "https://live.staticflickr.com/65535/50351921918_3fd774a51f_o.jpg",
    "id_image": "Cat_593749",
    "count_view": 0
  },
  {
    "link_thumb": "https://live.staticflickr.com/65535/50020163212_a9fc2f53f8_n.jpg",
    "id_album": "-392100404",
    "description": "Crow_439799",
    "title": "Crow_439799",
    "link_img": "https://live.staticflickr.com/65535/50020163212_7cc4e2bb78_o.jpg",
    "id_image": "Crow_439799",
    "count_view": 0
  },
  {
    "link_thumb": "https://live.staticflickr.com/65535/50017261686_326d226e8f_n.jpg",
    "id_album": "-1846011410",
    "description": "Bird_349735",
    "title": "Bird_349735",
    "link_img": "https://live.staticflickr.com/65535/50017261686_62a9ff41d3_o.jpg",
    "id_image": "Bird_349735",
    "count_view": 0
  },
  {
    "link_thumb": "https://live.staticflickr.com/65535/50021797776_fec6dafd42_n.jpg",
    "id_album": "770105808",
    "description": "Kingfisher_357162",
    "title": "Kingfisher_357162",
    "link_img": "https://live.staticflickr.com/65535/50021797776_d8c38154a9_o.jpg",
    "id_image": "Kingfisher_357162",
    "count_view": 0
  },
  {
    "link_thumb": "https://live.staticflickr.com/65535/50020752758_63c55da11c_n.jpg",
    "id_album": "-405626519",
    "description": "GermanShepherd_673439",
    "title": "GermanShepherd_673439",
    "link_img": "https://live.staticflickr.com/65535/50020752758_f38488cffc_o.jpg",
    "id_image": "GermanShepherd_673439",
    "count_view": 0
  },
  {
    "link_thumb": "https://live.staticflickr.com/65535/50019809677_d9aa71af1c_n.jpg",
    "id_album": "-462831703",
    "description": "Cat_983669",
    "title": "Cat_983669",
    "link_img": "https://live.staticflickr.com/65535/50019809677_0372a5242b_o.jpg",
    "id_image": "Cat_983669",
    "count_view": 0
  },
  {
    "link_thumb": "https://live.staticflickr.com/65535/50021286167_f2927c69dd_n.jpg",
    "id_album": "-128218148",
    "description": "Fox_978012",
    "title": "Fox_978012",
    "link_img": "https://live.staticflickr.com/65535/50021286167_b5bde97ff6_o.jpg",
    "id_image": "Fox_978012",
    "count_view": 0
  },
  {
    "link_thumb": "https://live.staticflickr.com/65535/50021016411_5f5b5b151b_n.jpg",
    "id_album": "-128218148",
    "description": "Fox_885052",
    "title": "Fox_885052",
    "link_img": "https://live.staticflickr.com/65535/50021016411_b5d53eb921_o.jpg",
    "id_image": "Fox_885052",
    "count_view": 0
  },
  {
    "link_thumb": "https://live.staticflickr.com/65535/50019161523_2ee1b99813_n.jpg",
    "id_album": "-1481843714",
    "description": "Cheetah_337488",
    "title": "Cheetah_337488",
    "link_img": "https://live.staticflickr.com/65535/50019161523_226d955f3a_o.jpg",
    "id_image": "Cheetah_337488",
    "count_view": 0
  },
  {
    "link_thumb": "https://live.staticflickr.com/65535/50024050687_bf3b3854df_n.jpg",
    "id_album": "-1082521515",
    "description": "Spider_803297",
    "title": "Spider_803297",
    "link_img": "https://live.staticflickr.com/65535/50024050687_7f97c50a43_o.jpg",
    "id_image": "Spider_803297",
    "count_view": 0
  },
  {
    "link_thumb": "https://live.staticflickr.com/65535/50020864648_6fe2af644c_n.jpg",
    "id_album": "82558972",
    "description": "GuineaPig_380963",
    "title": "GuineaPig_380963",
    "link_img": "https://live.staticflickr.com/65535/50020864648_f015052aa6_o.jpg",
    "id_image": "GuineaPig_380963",
    "count_view": 0
  },
  {
    "link_thumb": "https://live.staticflickr.com/65535/50023766967_dc3a89a83c_n.jpg",
    "id_album": "-800019164",
    "description": "Snail_306185",
    "title": "Snail_306185",
    "link_img": "https://live.staticflickr.com/65535/50023766967_ed21522532_o.jpg",
    "id_image": "Snail_306185",
    "count_view": 0
  },
  {
    "link_thumb": "https://live.staticflickr.com/65535/50019432298_6f4df9fbc4_n.jpg",
    "id_album": "-1783645069",
    "description": "Dalmatian_22642",
    "title": "Dalmatian_22642",
    "link_img": "https://live.staticflickr.com/65535/50019432298_995e9b97a8_o.jpg",
    "id_image": "Dalmatian_22642",
    "count_view": 0
  },
  {
    "link_thumb": "https://live.staticflickr.com/65535/50018126922_0b3204f06f_n.jpg",
    "id_album": "-462831705",
    "description": "Cat_217358",
    "title": "Cat_217358",
    "link_img": "https://live.staticflickr.com/65535/50018126922_431fb891ee_o.jpg",
    "id_image": "Cat_217358",
    "count_view": 0
  },
  {
    "link_thumb": "https://live.staticflickr.com/65535/50020505227_d79a152ddb_n.jpg",
    "id_album": "-149330232",
    "description": "Dog_328957",
    "title": "Dog_328957",
    "link_img": "https://live.staticflickr.com/65535/50020505227_a57bd7d40c_o.jpg",
    "id_image": "Dog_328957",
    "count_view": 0
  },
  {
    "link_thumb": "https://live.staticflickr.com/65535/50019395296_c4e31a5ef6_n.jpg",
    "id_album": "-462831703",
    "description": "Cat_885048",
    "title": "Cat_885048",
    "link_img": "https://live.staticflickr.com/65535/50019395296_ce2be2c857_o.jpg",
    "id_image": "Cat_885048",
    "count_view": 0
  },
  {
    "link_thumb": "https://live.staticflickr.com/65535/50020844028_d282bb3be5_n.jpg",
    "id_album": "-817970789",
    "description": "Goose_787921",
    "title": "Goose_787921",
    "link_img": "https://live.staticflickr.com/65535/50020844028_4001c90cac_o.jpg",
    "id_image": "Goose_787921",
    "count_view": 0
  },
  {
    "link_thumb": "https://live.staticflickr.com/65535/50020632093_d266a10bf8_n.jpg",
    "id_album": "-462831704",
    "description": "Cat_696146",
    "title": "Cat_696146",
    "link_img": "https://live.staticflickr.com/65535/50020632093_2fab64aea5_o.jpg",
    "id_image": "Cat_696146",
    "count_view": 0
  },
  {
    "link_thumb": "https://live.staticflickr.com/65535/50017559812_213988bd20_n.jpg",
    "id_album": "-1846011410",
    "description": "Bird_394864",
    "title": "Bird_394864",
    "link_img": "https://live.staticflickr.com/65535/50017559812_a52445a17b_o.jpg",
    "id_image": "Bird_394864",
    "count_view": 0
  },
  {
    "link_thumb": "https://live.staticflickr.com/65535/50020610211_c0c958326c_n.jpg",
    "id_album": "-405058657",
    "description": "Dragonfly_344077",
    "title": "Dragonfly_344077",
    "link_img": "https://live.staticflickr.com/65535/50020610211_c1a26f8ed5_o.jpg",
    "id_image": "Dragonfly_344077",
    "count_view": 0
  },
  {
    "link_thumb": "https://live.staticflickr.com/65535/50017670316_509d065eac_n.jpg",
    "id_album": "-401151552",
    "description": "Butterfly_796242",
    "title": "Butterfly_796242",
    "link_img": "https://live.staticflickr.com/65535/50017670316_4df502f879_o.jpg",
    "id_image": "Butterfly_796242",
    "count_view": 0
  },
  {
    "link_thumb": "https://live.staticflickr.com/65535/50021850501_703c83a080_n.jpg",
    "id_album": "-1882491687",
    "description": "Ladybug_429295",
    "title": "Ladybug_429295",
    "link_img": "https://live.staticflickr.com/65535/50021850501_93d68d07b7_o.jpg",
    "id_image": "Ladybug_429295",
    "count_view": 0
  },
  {
    "link_thumb": "https://live.staticflickr.com/65535/50017687126_99fd8bf76f_n.jpg",
    "id_album": "-401151552",
    "description": "Butterfly_877888",
    "title": "Butterfly_877888",
    "link_img": "https://live.staticflickr.com/65535/50017687126_fec74921f1_o.jpg",
    "id_image": "Butterfly_877888",
    "count_view": 0
  },
  {
    "link_thumb": "https://live.staticflickr.com/65535/50019904262_9305919a47_n.jpg",
    "id_album": "-766919393",
    "description": "Chameleon_398614",
    "title": "Chameleon_398614",
    "link_img": "https://live.staticflickr.com/65535/50019904262_b6929dd621_o.jpg",
    "id_image": "Chameleon_398614",
    "count_view": 0
  },
  {
    "link_thumb": "https://live.staticflickr.com/65535/50021071081_1f443da9dc_n.jpg",
    "id_album": "844170697",
    "description": "Frog_654581",
    "title": "Frog_654581",
    "link_img": "https://live.staticflickr.com/65535/50021071081_4598592916_o.jpg",
    "id_image": "Frog_654581",
    "count_view": 0
  },
  {
    "link_thumb": "https://live.staticflickr.com/65535/50023547266_fb708bfb18_n.jpg",
    "id_album": "-800019164",
    "description": "Snail_857159",
    "title": "Snail_857159",
    "link_img": "https://live.staticflickr.com/65535/50023547266_8727363641_o.jpg",
    "id_image": "Snail_857159",
    "count_view": 0
  },
  {
    "link_thumb": "https://live.staticflickr.com/65535/50021583176_130432dd63_n.jpg",
    "id_album": "-1933715543",
    "description": "Horse_903801",
    "title": "Horse_903801",
    "link_img": "https://live.staticflickr.com/65535/50021583176_8c29d92159_o.jpg",
    "id_image": "Horse_903801",
    "count_view": 0
  },
  {
    "link_thumb": "https://live.staticflickr.com/65535/50023885808_a9fde33437_n.jpg",
    "id_album": "766572659",
    "description": "WhiteTiger_277016",
    "title": "WhiteTiger_277016",
    "link_img": "https://live.staticflickr.com/65535/50023885808_28dfda4a71_o.jpg",
    "id_image": "WhiteTiger_277016",
    "count_view": 0
  },
  {
    "link_thumb": "https://live.staticflickr.com/65535/50017637282_da9e6f0e1f_n.jpg",
    "id_album": "-1846011410",
    "description": "Bird_577851",
    "title": "Bird_577851",
    "link_img": "https://live.staticflickr.com/65535/50017637282_d8cb7c3e78_o.jpg",
    "id_image": "Bird_577851",
    "count_view": 0
  },
  {
    "link_thumb": "https://live.staticflickr.com/65535/50020668817_f00f18ee03_n.jpg",
    "id_album": "-149330231",
    "description": "Dog_435049",
    "title": "Dog_435049",
    "link_img": "https://live.staticflickr.com/65535/50020668817_4883241e99_o.jpg",
    "id_image": "Dog_435049",
    "count_view": 0
  },
  {
    "link_thumb": "https://live.staticflickr.com/65535/50023191481_721d6e645e_n.jpg",
    "id_album": "-1862965835",
    "description": "RedEyedTreeFrog_667438",
    "title": "RedEyedTreeFrog_667438",
    "link_img": "https://live.staticflickr.com/65535/50023191481_af761dd7b8_o.jpg",
    "id_image": "RedEyedTreeFrog_667438",
    "count_view": 0
  },
  {
    "link_thumb": "https://live.staticflickr.com/65535/50019896373_e2a2d8e84b_n.jpg",
    "id_album": "-149330231",
    "description": "Dog_464679",
    "title": "Dog_464679",
    "link_img": "https://live.staticflickr.com/65535/50019896373_dacc06a2e0_o.jpg",
    "id_image": "Dog_464679",
    "count_view": 0
  },
  {
    "link_thumb": "https://live.staticflickr.com/65535/50021438381_963e00b8a2_n.jpg",
    "id_album": "1469520430",
    "description": "Hedgehog_772860",
    "title": "Hedgehog_772860",
    "link_img": "https://live.staticflickr.com/65535/50021438381_d2f3d3295b_o.jpg",
    "id_image": "Hedgehog_772860",
    "count_view": 0
  },
  {
    "link_thumb": "https://live.staticflickr.com/65535/50017566493_b1955e99ae_n.jpg",
    "id_album": "-462831702",
    "description": "Cat_371738",
    "title": "Cat_371738",
    "link_img": "https://live.staticflickr.com/65535/50017566493_cb17fa6489_o.jpg",
    "id_image": "Cat_371738",
    "count_view": 0
  },
  {
    "link_thumb": "https://live.staticflickr.com/65535/50022078377_0ce19210e0_n.jpg",
    "id_album": "771796001",
    "description": "Koala_731871",
    "title": "Koala_731871",
    "link_img": "https://live.staticflickr.com/65535/50022078377_b1a90b1af5_o.jpg",
    "id_image": "Koala_731871",
    "count_view": 0
  },
  {
    "link_thumb": "https://live.staticflickr.com/65535/50020614218_2755533b08_n.jpg",
    "id_album": "-462831704",
    "description": "Cat_667923",
    "title": "Cat_667923",
    "link_img": "https://live.staticflickr.com/65535/50020614218_a7e9b64196_o.jpg",
    "id_image": "Cat_667923",
    "count_view": 0
  },
  {
    "link_thumb": "https://live.staticflickr.com/65535/50021408662_b6821a2e76_n.jpg",
    "id_album": "-462831704",
    "description": "Cat_665713",
    "title": "Cat_665713",
    "link_img": "https://live.staticflickr.com/65535/50021408662_242653d791_o.jpg",
    "id_image": "Cat_665713",
    "count_view": 0
  },
  {
    "link_thumb": "https://live.staticflickr.com/65535/50021309222_f5b5193ed2_n.jpg",
    "id_album": "844170697",
    "description": "Frog_333451",
    "title": "Frog_333451",
    "link_img": "https://live.staticflickr.com/65535/50021309222_dd43d5724e_o.jpg",
    "id_image": "Frog_333451",
    "count_view": 0
  },
  {
    "link_thumb": "https://live.staticflickr.com/65535/50351873268_24d9394edd_n.jpg",
    "id_album": "-462831703",
    "description": "Cat_499076",
    "title": "Cat_499076",
    "link_img": "https://live.staticflickr.com/65535/50351873268_ef0bcb4dc1_o.jpg",
    "id_image": "Cat_499076",
    "count_view": 0
  },
  {
    "link_thumb": "https://live.staticflickr.com/65535/50022208497_62e2143803_n.jpg",
    "id_album": "1392348450",
    "description": "Leopard_78572",
    "title": "Leopard_78572",
    "link_img": "https://live.staticflickr.com/65535/50022208497_309279a5de_o.jpg",
    "id_image": "Leopard_78572",
    "count_view": 0
  },
  {
    "link_thumb": "https://live.staticflickr.com/65535/50023070187_955b878480_n.jpg",
    "id_album": "1008910300",
    "description": "PolarBear_341041",
    "title": "PolarBear_341041",
    "link_img": "https://live.staticflickr.com/65535/50023070187_152897c70d_o.jpg",
    "id_image": "PolarBear_341041",
    "count_view": 0
  },
  {
    "link_thumb": "https://live.staticflickr.com/65535/50016830448_bce9e26f16_n.jpg",
    "id_album": "-1846011410",
    "description": "Bird_524575",
    "title": "Bird_524575",
    "link_img": "https://live.staticflickr.com/65535/50016830448_b979ae576a_o.jpg",
    "id_image": "Bird_524575",
    "count_view": 0
  },
  {
    "link_thumb": "https://live.staticflickr.com/65535/50018052071_f5268fe270_n.jpg",
    "id_album": "-462831702",
    "description": "Cat_359993",
    "title": "Cat_359993",
    "link_img": "https://live.staticflickr.com/65535/50018052071_91110f74d7_o.jpg",
    "id_image": "Cat_359993",
    "count_view": 0
  },
  {
    "link_thumb": "https://live.staticflickr.com/65535/50017935556_8a93d04ab2_n.jpg",
    "id_album": "-462831702",
    "description": "Cat_280304",
    "title": "Cat_280304",
    "link_img": "https://live.staticflickr.com/65535/50017935556_6888ef6b35_o.jpg",
    "id_image": "Cat_280304",
    "count_view": 0
  },
  {
    "link_thumb": "https://live.staticflickr.com/65535/50024246426_3e8656ddc0_n.jpg",
    "id_album": "405170427",
    "description": "Tiger_931576",
    "title": "Tiger_931576",
    "link_img": "https://live.staticflickr.com/65535/50024246426_de6dba5e8b_o.jpg",
    "id_image": "Tiger_931576",
    "count_view": 0
  },
  {
    "link_thumb": "https://live.staticflickr.com/65535/50020960296_9434831717_n.jpg",
    "id_album": "-128218148",
    "description": "Fox_395475",
    "title": "Fox_395475",
    "link_img": "https://live.staticflickr.com/65535/50020960296_c5da640932_o.jpg",
    "id_image": "Fox_395475",
    "count_view": 0
  },
  {
    "link_thumb": "https://live.staticflickr.com/65535/50023706033_917669681e_n.jpg",
    "id_album": "405170427",
    "description": "Tiger_953990",
    "title": "Tiger_953990",
    "link_img": "https://live.staticflickr.com/65535/50023706033_33e5fd0ff3_o.jpg",
    "id_image": "Tiger_953990",
    "count_view": 0
  },
  {
    "link_thumb": "https://live.staticflickr.com/65535/50021258956_8b4e441ef4_n.jpg",
    "id_album": "-462831703",
    "description": "Cat_805658",
    "title": "Cat_805658",
    "link_img": "https://live.staticflickr.com/65535/50021258956_b5581891fa_o.jpg",
    "id_image": "Cat_805658",
    "count_view": 0
  },
  {
    "link_thumb": "https://live.staticflickr.com/65535/50020139666_82eb9e5491_n.jpg",
    "id_album": "-149330232",
    "description": "Dog_190918",
    "title": "Dog_190918",
    "link_img": "https://live.staticflickr.com/65535/50020139666_7852e2c244_o.jpg",
    "id_image": "Dog_190918",
    "count_view": 0
  },
  {
    "link_thumb": "https://live.staticflickr.com/65535/50017749196_ebfaa396bd_n.jpg",
    "id_album": "-462831705",
    "description": "Cat_107920",
    "title": "Cat_107920",
    "link_img": "https://live.staticflickr.com/65535/50017749196_1ce5968756_o.jpg",
    "id_image": "Cat_107920",
    "count_view": 0
  },
  {
    "link_thumb": "https://live.staticflickr.com/65535/50020459218_57ca121114_n.jpg",
    "id_album": "-128218148",
    "description": "Fox_771821",
    "title": "Fox_771821",
    "link_img": "https://live.staticflickr.com/65535/50020459218_ef76e1def3_o.jpg",
    "id_image": "Fox_771821",
    "count_view": 0
  },
  {
    "link_thumb": "https://live.staticflickr.com/65535/50018383802_dbb2a0eaa4_n.jpg",
    "id_album": "-462831702",
    "description": "Cat_390890",
    "title": "Cat_390890",
    "link_img": "https://live.staticflickr.com/65535/50018383802_096c8d552e_o.jpg",
    "id_image": "Cat_390890",
    "count_view": 0
  },
  {
    "link_thumb": "https://live.staticflickr.com/65535/50021928796_e1dbbeb373_n.jpg",
    "id_album": "1392348450",
    "description": "Leopard_454426",
    "title": "Leopard_454426",
    "link_img": "https://live.staticflickr.com/65535/50021928796_ecd24ffd32_o.jpg",
    "id_image": "Leopard_454426",
    "count_view": 0
  },
  {
    "link_thumb": "https://live.staticflickr.com/65535/50022141471_38a995c4d7_n.jpg",
    "id_album": "1894617400",
    "description": "Lynx_390447",
    "title": "Lynx_390447",
    "link_img": "https://live.staticflickr.com/65535/50022141471_acc02895bb_o.jpg",
    "id_image": "Lynx_390447",
    "count_view": 0
  },
  {
    "link_thumb": "https://live.staticflickr.com/65535/50021296351_cd7bf4e011_n.jpg",
    "id_album": "-405626519",
    "description": "GermanShepherd_709060",
    "title": "GermanShepherd_709060",
    "link_img": "https://live.staticflickr.com/65535/50021296351_008aeffeec_o.jpg",
    "id_image": "GermanShepherd_709060",
    "count_view": 0
  },
  {
    "link_thumb": "https://live.staticflickr.com/65535/50019305593_e7ae316ce5_n.jpg",
    "id_album": "-2144640780",
    "description": "Cow_288084",
    "title": "Cow_288084",
    "link_img": "https://live.staticflickr.com/65535/50019305593_91e2cd524c_o.jpg",
    "id_image": "Cow_288084",
    "count_view": 0
  },
  {
    "link_thumb": "https://live.staticflickr.com/65535/50017563303_3cfc3b5351_n.jpg",
    "id_album": "-462831702",
    "description": "Cat_370200",
    "title": "Cat_370200",
    "link_img": "https://live.staticflickr.com/65535/50017563303_1dab28d9c6_o.jpg",
    "id_image": "Cat_370200",
    "count_view": 0
  },
  {
    "link_thumb": "https://live.staticflickr.com/65535/50017479377_579e45c4d7_n.jpg",
    "id_album": "-1846011410",
    "description": "Bird_238862",
    "title": "Bird_238862",
    "link_img": "https://live.staticflickr.com/65535/50017479377_eed66214b2_o.jpg",
    "id_image": "Bird_238862",
    "count_view": 0
  },
  {
    "link_thumb": "https://live.staticflickr.com/65535/50021953976_9168678339_n.jpg",
    "id_album": "1392348450",
    "description": "Leopard_873947",
    "title": "Leopard_873947",
    "link_img": "https://live.staticflickr.com/65535/50021953976_23c8c63bee_o.jpg",
    "id_image": "Leopard_873947",
    "count_view": 0
  },
  {
    "link_thumb": "https://live.staticflickr.com/65535/50022145753_a805712845_n.jpg",
    "id_album": "392248205",
    "description": "Penguin_356525",
    "title": "Penguin_356525",
    "link_img": "https://live.staticflickr.com/65535/50022145753_b7c5b9b5d9_o.jpg",
    "id_image": "Penguin_356525",
    "count_view": 0
  },
  {
    "link_thumb": "https://live.staticflickr.com/65535/50021062898_4fb5ca3381_n.jpg",
    "id_album": "2144294979",
    "description": "Hummingbird_352113",
    "title": "Hummingbird_352113",
    "link_img": "https://live.staticflickr.com/65535/50021062898_66191ba3e3_o.jpg",
    "id_image": "Hummingbird_352113",
    "count_view": 0
  },
  {
    "link_thumb": "https://live.staticflickr.com/65535/50023658291_6d4752c72b_n.jpg",
    "id_album": "-1131363127",
    "description": "SnowLeopard_553078",
    "title": "SnowLeopard_553078",
    "link_img": "https://live.staticflickr.com/65535/50023658291_16f3bdacb8_o.jpg",
    "id_image": "SnowLeopard_553078",
    "count_view": 0
  },
  {
    "link_thumb": "https://live.staticflickr.com/65535/50020669156_1129b5a576_n.jpg",
    "id_album": "1168627767",
    "description": "Duck_711366",
    "title": "Duck_711366",
    "link_img": "https://live.staticflickr.com/65535/50020669156_3108bb76ff_o.jpg",
    "id_image": "Duck_711366",
    "count_view": 0
  },
  {
    "link_thumb": "https://live.staticflickr.com/65535/50021119491_34e9f7c1f8_n.jpg",
    "id_album": "-462831704",
    "description": "Cat_569908",
    "title": "Cat_569908",
    "link_img": "https://live.staticflickr.com/65535/50021119491_321afe698f_o.jpg",
    "id_image": "Cat_569908",
    "count_view": 0
  },
  {
    "link_thumb": "https://live.staticflickr.com/65535/50022431062_f8aefd9b6c_n.jpg",
    "id_album": "1894617400",
    "description": "Lynx_967763",
    "title": "Lynx_967763",
    "link_img": "https://live.staticflickr.com/65535/50022431062_7dcbe81042_o.jpg",
    "id_image": "Lynx_967763",
    "count_view": 0
  },
  {
    "link_thumb": "https://live.staticflickr.com/65535/50023397926_416247f589_n.jpg",
    "id_album": "1961094930",
    "description": "Seal_207696",
    "title": "Seal_207696",
    "link_img": "https://live.staticflickr.com/65535/50023397926_7fc18e421c_o.jpg",
    "id_image": "Seal_207696",
    "count_view": 0
  },
  {
    "link_thumb": "https://live.staticflickr.com/65535/50017191856_86c33558ef_n.jpg",
    "id_album": "-1846011410",
    "description": "Bird_108373",
    "title": "Bird_108373",
    "link_img": "https://live.staticflickr.com/65535/50017191856_8d056101d4_o.jpg",
    "id_image": "Bird_108373",
    "count_view": 0
  },
  {
    "link_thumb": "https://live.staticflickr.com/65535/50021400131_1601fc0837_n.jpg",
    "id_album": "-1168906494",
    "description": "Grasshopper_366818",
    "title": "Grasshopper_366818",
    "link_img": "https://live.staticflickr.com/65535/50021400131_5a403afa46_o.jpg",
    "id_image": "Grasshopper_366818",
    "count_view": 0
  },
  {
    "link_thumb": "https://live.staticflickr.com/65535/50020484093_2592ac7e55_n.jpg",
    "id_album": "-128218148",
    "description": "Fox_924977",
    "title": "Fox_924977",
    "link_img": "https://live.staticflickr.com/65535/50020484093_61cd78aab2_o.jpg",
    "id_image": "Fox_924977",
    "count_view": 0
  },
  {
    "link_thumb": "https://live.staticflickr.com/65535/50019344398_73d50909af_n.jpg",
    "id_album": "815329026",
    "description": "Crab_276157",
    "title": "Crab_276157",
    "link_img": "https://live.staticflickr.com/65535/50019344398_954d80b1e8_o.jpg",
    "id_image": "Crab_276157",
    "count_view": 0
  },
  {
    "link_thumb": "https://live.staticflickr.com/65535/50018010441_62d6d753fd_n.jpg",
    "id_album": "-462831702",
    "description": "Cat_339827",
    "title": "Cat_339827",
    "link_img": "https://live.staticflickr.com/65535/50018010441_df3fa2b017_o.jpg",
    "id_image": "Cat_339827",
    "count_view": 0
  },
  {
    "link_thumb": "https://live.staticflickr.com/65535/50018943578_210ab9075d_n.jpg",
    "id_album": "-462831703",
    "description": "Cat_923719",
    "title": "Cat_923719",
    "link_img": "https://live.staticflickr.com/65535/50018943578_d7ab58e9ab_o.jpg",
    "id_image": "Cat_923719",
    "count_view": 0
  },
  {
    "link_thumb": "https://live.staticflickr.com/65535/50021932117_b383209522_n.jpg",
    "id_album": "1658866795",
    "description": "Insect_403469",
    "title": "Insect_403469",
    "link_img": "https://live.staticflickr.com/65535/50021932117_1f9ecb22ea_o.jpg",
    "id_image": "Insect_403469",
    "count_view": 0
  },
  {
    "link_thumb": "https://live.staticflickr.com/65535/50021211783_2d8b6a17ae_n.jpg",
    "id_album": "665694624",
    "description": "JapaneseMacaque_714697",
    "title": "JapaneseMacaque_714697",
    "link_img": "https://live.staticflickr.com/65535/50021211783_f15a16757f_o.jpg",
    "id_image": "JapaneseMacaque_714697",
    "count_view": 0
  },
  {
    "link_thumb": "https://live.staticflickr.com/65535/50017023618_16499d0300_n.jpg",
    "id_album": "-401151552",
    "description": "Butterfly_240260",
    "title": "Butterfly_240260",
    "link_img": "https://live.staticflickr.com/65535/50017023618_06156cd2ef_o.jpg",
    "id_image": "Butterfly_240260",
    "count_view": 0
  },
  {
    "link_thumb": "https://live.staticflickr.com/65535/50023497458_d5d9811c39_n.jpg",
    "id_album": "405170427",
    "description": "Tiger_235901",
    "title": "Tiger_235901",
    "link_img": "https://live.staticflickr.com/65535/50023497458_94f5e6aaf2_o.jpg",
    "id_image": "Tiger_235901",
    "count_view": 0
  },
  {
    "link_thumb": "https://live.staticflickr.com/65535/50021863626_237490c426_n.jpg",
    "id_album": "-1882491687",
    "description": "Ladybug_774225",
    "title": "Ladybug_774225",
    "link_img": "https://live.staticflickr.com/65535/50021863626_abef9fc48e_o.jpg",
    "id_image": "Ladybug_774225",
    "count_view": 0
  },
  {
    "link_thumb": "https://live.staticflickr.com/65535/50022182711_b58bba8615_n.jpg",
    "id_album": "-1720012921",
    "description": "Meerkat_343457",
    "title": "Meerkat_343457",
    "link_img": "https://live.staticflickr.com/65535/50022182711_863e6119f3_o.jpg",
    "id_image": "Meerkat_343457",
    "count_view": 0
  },
  {
    "link_thumb": "https://live.staticflickr.com/65535/50016982173_f1578d2be9_n.jpg",
    "id_album": "782930701",
    "description": "BorderCollie_911931",
    "title": "BorderCollie_911931",
    "link_img": "https://live.staticflickr.com/65535/50016982173_7c996ed6d4_o.jpg",
    "id_image": "BorderCollie_911931",
    "count_view": 0
  },
  {
    "link_thumb": "https://live.staticflickr.com/65535/50018270762_2d490a8189_n.jpg",
    "id_album": "-462831702",
    "description": "Cat_341085",
    "title": "Cat_341085",
    "link_img": "https://live.staticflickr.com/65535/50018270762_b85623202c_o.jpg",
    "id_image": "Cat_341085",
    "count_view": 0
  },
  {
    "link_thumb": "https://live.staticflickr.com/65535/50017065568_fa80a29d6a_n.jpg",
    "id_album": "-401151552",
    "description": "Butterfly_423387",
    "title": "Butterfly_423387",
    "link_img": "https://live.staticflickr.com/65535/50017065568_14c9d83577_o.jpg",
    "id_image": "Butterfly_423387",
    "count_view": 0
  },
  {
    "link_thumb": "https://live.staticflickr.com/65535/50020410183_40ce301ee6_n.jpg",
    "id_album": "-128218148",
    "description": "Fox_362563",
    "title": "Fox_362563",
    "link_img": "https://live.staticflickr.com/65535/50020410183_f155aa01e5_o.jpg",
    "id_image": "Fox_362563",
    "count_view": 0
  },
  {
    "link_thumb": "https://live.staticflickr.com/65535/50023008996_fabf194f97_n.jpg",
    "id_album": "-353898617",
    "description": "Puppy_513137",
    "title": "Puppy_513137",
    "link_img": "https://live.staticflickr.com/65535/50023008996_db9e9e57b1_o.jpg",
    "id_image": "Puppy_513137",
    "count_view": 0
  },
  {
    "link_thumb": "https://live.staticflickr.com/65535/50022108832_e35de4906c_n.jpg",
    "id_album": "-1882491687",
    "description": "Ladybug_470085",
    "title": "Ladybug_470085",
    "link_img": "https://live.staticflickr.com/65535/50022108832_468fab3ed6_o.jpg",
    "id_image": "Ladybug_470085",
    "count_view": 0
  },
  {
    "link_thumb": "https://live.staticflickr.com/65535/50016423178_f346ed9c22_n.jpg",
    "id_album": "390697200",
    "description": "AustralianShepherd_957118",
    "title": "AustralianShepherd_957118",
    "link_img": "https://live.staticflickr.com/65535/50016423178_42d6c01943_o.jpg",
    "id_image": "AustralianShepherd_957118",
    "count_view": 0
  },
  {
    "link_thumb": "https://live.staticflickr.com/65535/50023994881_84e327d44e_n.jpg",
    "id_album": "1244464375",
    "description": "Starfish_468942",
    "title": "Starfish_468942",
    "link_img": "https://live.staticflickr.com/65535/50023994881_d0effdab64_o.jpg",
    "id_image": "Starfish_468942",
    "count_view": 0
  },
  {
    "link_thumb": "https://live.staticflickr.com/65535/50018712368_fec91ae959_n.jpg",
    "id_album": "-462831704",
    "description": "Cat_469870",
    "title": "Cat_469870",
    "link_img": "https://live.staticflickr.com/65535/50018712368_ff139e5dfa_o.jpg",
    "id_image": "Cat_469870",
    "count_view": 0
  },
  {
    "link_thumb": "https://live.staticflickr.com/65535/50021316208_bd3b67277e_n.jpg",
    "id_album": "-1882491687",
    "description": "Ladybug_603758",
    "title": "Ladybug_603758",
    "link_img": "https://live.staticflickr.com/65535/50021316208_d654d6a5a6_o.jpg",
    "id_image": "Ladybug_603758",
    "count_view": 0
  },
  {
    "link_thumb": "https://live.staticflickr.com/65535/50020437531_4fb905e484_n.jpg",
    "id_album": "-149330231",
    "description": "Dog_488827",
    "title": "Dog_488827",
    "link_img": "https://live.staticflickr.com/65535/50020437531_80fa7c54a4_o.jpg",
    "id_image": "Dog_488827",
    "count_view": 0
  },
  {
    "link_thumb": "https://live.staticflickr.com/65535/50020225158_b87a747b18_n.jpg",
    "id_album": "1270947998",
    "description": "Elephant_452261",
    "title": "Elephant_452261",
    "link_img": "https://live.staticflickr.com/65535/50020225158_2ee4e6dec4_o.jpg",
    "id_image": "Elephant_452261",
    "count_view": 0
  },
  {
    "link_thumb": "https://live.staticflickr.com/65535/50016878396_d771690ea3_n.jpg",
    "id_album": "523598895",
    "description": "Artistic_199841",
    "title": "Artistic_199841",
    "link_img": "https://live.staticflickr.com/65535/50016878396_15234b5dce_o.jpg",
    "id_image": "Artistic_199841",
    "count_view": 0
  },
  {
    "link_thumb": "https://live.staticflickr.com/65535/50020981921_e51c41cac5_n.jpg",
    "id_album": "-128218148",
    "description": "Fox_598373",
    "title": "Fox_598373",
    "link_img": "https://live.staticflickr.com/65535/50020981921_207c5080ff_o.jpg",
    "id_image": "Fox_598373",
    "count_view": 0
  },
  {
    "link_thumb": "https://live.staticflickr.com/65535/50020150952_41540a8f65_n.jpg",
    "id_album": "1475096665",
    "description": "Crocodile_431804",
    "title": "Crocodile_431804",
    "link_img": "https://live.staticflickr.com/65535/50020150952_c888b18b49_o.jpg",
    "id_image": "Crocodile_431804",
    "count_view": 0
  },
  {
    "link_thumb": "https://live.staticflickr.com/65535/50017244777_19b72cbfea_n.jpg",
    "id_album": "809937717",
    "description": "Beagle_167848",
    "title": "Beagle_167848",
    "link_img": "https://live.staticflickr.com/65535/50017244777_19499616af_o.jpg",
    "id_image": "Beagle_167848",
    "count_view": 0
  },
  {
    "link_thumb": "https://live.staticflickr.com/65535/50017751797_d1333928c8_n.jpg",
    "id_album": "782930701",
    "description": "BorderCollie_737465",
    "title": "BorderCollie_737465",
    "link_img": "https://live.staticflickr.com/65535/50017751797_1d42a594e2_o.jpg",
    "id_image": "BorderCollie_737465",
    "count_view": 0
  },
  {
    "link_thumb": "https://live.staticflickr.com/65535/50017973686_22911c496f_n.jpg",
    "id_album": "-462831702",
    "description": "Cat_325672",
    "title": "Cat_325672",
    "link_img": "https://live.staticflickr.com/65535/50017973686_507cea89a1_o.jpg",
    "id_image": "Cat_325672",
    "count_view": 0
  },
  {
    "link_thumb": "https://live.staticflickr.com/65535/50016870246_0e8062aaf1_n.jpg",
    "id_album": "523598895",
    "description": "Artistic_150312",
    "title": "Artistic_150312",
    "link_img": "https://live.staticflickr.com/65535/50016870246_75f81a238f_o.jpg",
    "id_image": "Artistic_150312",
    "count_view": 0
  },
  {
    "link_thumb": "https://live.staticflickr.com/65535/50021698422_ae151d7d6d_n.jpg",
    "id_album": "54253492",
    "description": "Heron_591194",
    "title": "Heron_591194",
    "link_img": "https://live.staticflickr.com/65535/50021698422_1c0e5a2ec4_o.jpg",
    "id_image": "Heron_591194",
    "count_view": 0
  },
  {
    "link_thumb": "https://live.staticflickr.com/65535/50020572223_2e9ed3a512_n.jpg",
    "id_album": "-462831704",
    "description": "Cat_559912",
    "title": "Cat_559912",
    "link_img": "https://live.staticflickr.com/65535/50020572223_aa899b0518_o.jpg",
    "id_image": "Cat_559912",
    "count_view": 0
  },
  {
    "link_thumb": "https://live.staticflickr.com/65535/50020074537_8a0173b179_n.jpg",
    "id_album": "-1868680171",
    "description": "Cougar_435580",
    "title": "Cougar_435580",
    "link_img": "https://live.staticflickr.com/65535/50020074537_fb4156a8e6_o.jpg",
    "id_image": "Cougar_435580",
    "count_view": 0
  },
  {
    "link_thumb": "https://live.staticflickr.com/65535/50016363073_f17d0d5a6e_n.jpg",
    "id_album": "523598895",
    "description": "Artistic_275708",
    "title": "Artistic_275708",
    "link_img": "https://live.staticflickr.com/65535/50016363073_087440a1a6_o.jpg",
    "id_image": "Artistic_275708",
    "count_view": 0
  },
  {
    "link_thumb": "https://live.staticflickr.com/65535/50023696026_50d5a1f7f0_n.jpg",
    "id_album": "1933547265",
    "description": "SnowyOwl_935582",
    "title": "SnowyOwl_935582",
    "link_img": "https://live.staticflickr.com/65535/50023696026_29151f2cf0_o.jpg",
    "id_image": "SnowyOwl_935582",
    "count_view": 0
  },
  {
    "link_thumb": "https://live.staticflickr.com/65535/50020616996_9dc7cd15d1_n.jpg",
    "id_album": "-405058657",
    "description": "Dragonfly_391783",
    "title": "Dragonfly_391783",
    "link_img": "https://live.staticflickr.com/65535/50020616996_5fe214511b_o.jpg",
    "id_image": "Dragonfly_391783",
    "count_view": 0
  },
  {
    "link_thumb": "https://live.staticflickr.com/65535/50021240406_b967b1d582_n.jpg",
    "id_album": "-462831703",
    "description": "Cat_778560",
    "title": "Cat_778560",
    "link_img": "https://live.staticflickr.com/65535/50021240406_d70b1354c9_o.jpg",
    "id_image": "Cat_778560",
    "count_view": 0
  },
  {
    "link_thumb": "https://live.staticflickr.com/65535/50018706248_c82550324f_n.jpg",
    "id_album": "-462831704",
    "description": "Cat_463933",
    "title": "Cat_463933",
    "link_img": "https://live.staticflickr.com/65535/50018706248_8788780e7b_o.jpg",
    "id_image": "Cat_463933",
    "count_view": 0
  },
  {
    "link_thumb": "https://live.staticflickr.com/65535/50352709427_8a0776e6fc_n.jpg",
    "id_album": "-462831703",
    "description": "Cat_467418",
    "title": "Cat_467418",
    "link_img": "https://live.staticflickr.com/65535/50352709427_c5268fe716_o.jpg",
    "id_image": "Cat_467418",
    "count_view": 0
  },
  {
    "link_thumb": "https://live.staticflickr.com/65535/50023138608_dd187367f0_n.jpg",
    "id_album": "1933547265",
    "description": "SnowyOwl_342895",
    "title": "SnowyOwl_342895",
    "link_img": "https://live.staticflickr.com/65535/50023138608_facf02bf48_o.jpg",
    "id_image": "SnowyOwl_342895",
    "count_view": 0
  },
  {
    "link_thumb": "https://live.staticflickr.com/65535/50020252102_64618c3249_n.jpg",
    "id_album": "1903411565",
    "description": "Deer_346082",
    "title": "Deer_346082",
    "link_img": "https://live.staticflickr.com/65535/50020252102_98a2502875_o.jpg",
    "id_image": "Deer_346082",
    "count_view": 0
  },
  {
    "link_thumb": "https://live.staticflickr.com/65535/50019865986_bd3039639d_n.jpg",
    "id_album": "-2144640780",
    "description": "Cow_881044",
    "title": "Cow_881044",
    "link_img": "https://live.staticflickr.com/65535/50019865986_96a6fed7bb_o.jpg",
    "id_image": "Cow_881044",
    "count_view": 0
  },
  {
    "link_thumb": "https://live.staticflickr.com/65535/50019929928_c9fc20cd69_n.jpg",
    "id_album": "-149330231",
    "description": "Dog_587612",
    "title": "Dog_587612",
    "link_img": "https://live.staticflickr.com/65535/50019929928_1187df3bfb_o.jpg",
    "id_image": "Dog_587612",
    "count_view": 0
  },
  {
    "link_thumb": "https://live.staticflickr.com/65535/50021717686_efb1abf6bd_n.jpg",
    "id_album": "-843028318",
    "description": "Jaguar_250407",
    "title": "Jaguar_250407",
    "link_img": "https://live.staticflickr.com/65535/50021717686_6aa3bda1c3_o.jpg",
    "id_image": "Jaguar_250407",
    "count_view": 0
  },
  {
    "link_thumb": "https://live.staticflickr.com/65535/50023134786_6cd8096234_n.jpg",
    "id_album": "-1940643173",
    "description": "Rabbit_930681",
    "title": "Rabbit_930681",
    "link_img": "https://live.staticflickr.com/65535/50023134786_05bf5e17dd_o.jpg",
    "id_image": "Rabbit_930681",
    "count_view": 0
  },
  {
    "link_thumb": "https://live.staticflickr.com/65535/50020723456_d503893438_n.jpg",
    "id_album": "-39098563",
    "description": "Eagle_785281",
    "title": "Eagle_785281",
    "link_img": "https://live.staticflickr.com/65535/50020723456_6b75604cdf_o.jpg",
    "id_image": "Eagle_785281",
    "count_view": 0
  },
  {
    "link_thumb": "https://live.staticflickr.com/65535/50020004207_3c7767b678_n.jpg",
    "id_album": "1949822052",
    "description": "Chimpanzee_668043",
    "title": "Chimpanzee_668043",
    "link_img": "https://live.staticflickr.com/65535/50020004207_98f81b0c74_o.jpg",
    "id_image": "Chimpanzee_668043",
    "count_view": 0
  },
  {
    "link_thumb": "https://live.staticflickr.com/65535/50020533808_d7dc2a31e0_n.jpg",
    "id_album": "844170697",
    "description": "Frog_81306",
    "title": "Frog_81306",
    "link_img": "https://live.staticflickr.com/65535/50020533808_99febccffb_o.jpg",
    "id_image": "Frog_81306",
    "count_view": 0
  },
  {
    "link_thumb": "https://live.staticflickr.com/65535/50021307722_b080a313dc_n.jpg",
    "id_album": "844170697",
    "description": "Frog_312361",
    "title": "Frog_312361",
    "link_img": "https://live.staticflickr.com/65535/50021307722_83b283e645_o.jpg",
    "id_image": "Frog_312361",
    "count_view": 0
  },
  {
    "link_thumb": "https://live.staticflickr.com/65535/50020340498_1597197310_n.jpg",
    "id_album": "-1118073211",
    "description": "Fish_851563",
    "title": "Fish_851563",
    "link_img": "https://live.staticflickr.com/65535/50020340498_f01df5a337_o.jpg",
    "id_image": "Fish_851563",
    "count_view": 0
  },
  {
    "link_thumb": "https://live.staticflickr.com/65535/50022925851_6be5b4e592_n.jpg",
    "id_album": "-356780855",
    "description": "Puffin_479462",
    "title": "Puffin_479462",
    "link_img": "https://live.staticflickr.com/65535/50022925851_532d92a7fd_o.jpg",
    "id_image": "Puffin_479462",
    "count_view": 0
  },
  {
    "link_thumb": "https://live.staticflickr.com/65535/50017743672_60be6538fc_n.jpg",
    "id_album": "782930701",
    "description": "BorderCollie_516972",
    "title": "BorderCollie_516972",
    "link_img": "https://live.staticflickr.com/65535/50017743672_17b79f442d_o.jpg",
    "id_image": "BorderCollie_516972",
    "count_view": 0
  },
  {
    "link_thumb": "https://live.staticflickr.com/65535/50017230183_7ba7db657b_n.jpg",
    "id_album": "-462831705",
    "description": "Cat_113357",
    "title": "Cat_113357",
    "link_img": "https://live.staticflickr.com/65535/50017230183_c1bcf78255_o.jpg",
    "id_image": "Cat_113357",
    "count_view": 0
  },
  {
    "link_thumb": "https://live.staticflickr.com/65535/50018937728_f08139bb6a_n.jpg",
    "id_album": "-462831703",
    "description": "Cat_918936",
    "title": "Cat_918936",
    "link_img": "https://live.staticflickr.com/65535/50018937728_e3c667d3a6_o.jpg",
    "id_image": "Cat_918936",
    "count_view": 0
  },
  {
    "link_thumb": "https://live.staticflickr.com/65535/50018321632_c075db1e3c_n.jpg",
    "id_album": "-462831702",
    "description": "Cat_362923",
    "title": "Cat_362923",
    "link_img": "https://live.staticflickr.com/65535/50018321632_0ef99ce2e7_o.jpg",
    "id_image": "Cat_362923",
    "count_view": 0
  },
  {
    "link_thumb": "https://live.staticflickr.com/65535/50019829722_563cd6429a_n.jpg",
    "id_album": "-462831703",
    "description": "Cat_996991",
    "title": "Cat_996991",
    "link_img": "https://live.staticflickr.com/65535/50019829722_ba773a4943_o.jpg",
    "id_image": "Cat_996991",
    "count_view": 0
  },
  {
    "link_thumb": "https://live.staticflickr.com/65535/50023286372_b604fbd197_n.jpg",
    "id_album": "-353898617",
    "description": "Puppy_589815",
    "title": "Puppy_589815",
    "link_img": "https://live.staticflickr.com/65535/50023286372_6f7f57e7e4_o.jpg",
    "id_image": "Puppy_589815",
    "count_view": 0
  },
  {
    "link_thumb": "https://live.staticflickr.com/65535/50019462761_4c6e4b327b_n.jpg",
    "id_album": "-462831703",
    "description": "Cat_915547",
    "title": "Cat_915547",
    "link_img": "https://live.staticflickr.com/65535/50019462761_047b9c6abb_o.jpg",
    "id_image": "Cat_915547",
    "count_view": 0
  },
  {
    "link_thumb": "https://live.staticflickr.com/65535/50352784667_539125e6d7_n.jpg",
    "id_album": "-462831703",
    "description": "Cat_602784",
    "title": "Cat_602784",
    "link_img": "https://live.staticflickr.com/65535/50352784667_e60f1f40aa_o.jpg",
    "id_image": "Cat_602784",
    "count_view": 0
  },
  {
    "link_thumb": "https://live.staticflickr.com/65535/50016606528_f9a2726cc8_n.jpg",
    "id_album": "1699594607",
    "description": "Bee_381821",
    "title": "Bee_381821",
    "link_img": "https://live.staticflickr.com/65535/50016606528_0cda7311f9_o.jpg",
    "id_image": "Bee_381821",
    "count_view": 0
  },
  {
    "link_thumb": "https://live.staticflickr.com/65535/50024234461_b29746c70b_n.jpg",
    "id_album": "405170427",
    "description": "Tiger_900330",
    "title": "Tiger_900330",
    "link_img": "https://live.staticflickr.com/65535/50024234461_42401338bc_o.jpg",
    "id_image": "Tiger_900330",
    "count_view": 0
  },
  {
    "link_thumb": "https://live.staticflickr.com/65535/50020805453_a4bb5aa893_n.jpg",
    "id_album": "2060159334",
    "description": "GoldenRetriever_415960",
    "title": "GoldenRetriever_415960",
    "link_img": "https://live.staticflickr.com/65535/50020805453_c3a5f194b3_o.jpg",
    "id_image": "GoldenRetriever_415960",
    "count_view": 0
  },
  {
    "link_thumb": "https://live.staticflickr.com/65535/50018136581_5986529cfc_n.jpg",
    "id_album": "-462831702",
    "description": "Cat_398743",
    "title": "Cat_398743",
    "link_img": "https://live.staticflickr.com/65535/50018136581_a21590b07f_o.jpg",
    "id_image": "Cat_398743",
    "count_view": 0
  },
  {
    "link_thumb": "https://live.staticflickr.com/65535/50017371008_8db5b955ca_n.jpg",
    "id_album": "-462831705",
    "description": "Cat_243283",
    "title": "Cat_243283",
    "link_img": "https://live.staticflickr.com/65535/50017371008_d1b80442cf_o.jpg",
    "id_image": "Cat_243283",
    "count_view": 0
  },
  {
    "link_thumb": "https://live.staticflickr.com/65535/50021870447_f0b7db4435_n.jpg",
    "id_album": "2144294979",
    "description": "Hummingbird_600552",
    "title": "Hummingbird_600552",
    "link_img": "https://live.staticflickr.com/65535/50021870447_99ff75b9a6_o.jpg",
    "id_image": "Hummingbird_600552",
    "count_view": 0
  },
  {
    "link_thumb": "https://live.staticflickr.com/65535/50021254451_182ed88250_n.jpg",
    "id_album": "-462831703",
    "description": "Cat_794572",
    "title": "Cat_794572",
    "link_img": "https://live.staticflickr.com/65535/50021254451_d2d2ac9dc4_o.jpg",
    "id_image": "Cat_794572",
    "count_view": 0
  },
  {
    "link_thumb": "https://live.staticflickr.com/65535/50024228371_3a05ff1a68_n.jpg",
    "id_album": "405170427",
    "description": "Tiger_876627",
    "title": "Tiger_876627",
    "link_img": "https://live.staticflickr.com/65535/50024228371_68babdd711_o.jpg",
    "id_image": "Tiger_876627",
    "count_view": 0
  },
  {
    "link_thumb": "https://live.staticflickr.com/65535/50023278582_1390efbf5f_n.jpg",
    "id_album": "-353898617",
    "description": "Puppy_555501",
    "title": "Puppy_555501",
    "link_img": "https://live.staticflickr.com/65535/50023278582_84f8d6175d_o.jpg",
    "id_image": "Puppy_555501",
    "count_view": 0
  },
  {
    "link_thumb": "https://live.staticflickr.com/65535/50352669937_bfbb7519c3_n.jpg",
    "id_album": "-462831703",
    "description": "Cat_425697",
    "title": "Cat_425697",
    "link_img": "https://live.staticflickr.com/65535/50352669937_d7d1007ab8_o.jpg",
    "id_image": "Cat_425697",
    "count_view": 0
  },
  {
    "link_thumb": "https://live.staticflickr.com/65535/50024303907_7e2a4c224b_n.jpg",
    "id_album": "405170427",
    "description": "Tiger_237719",
    "title": "Tiger_237719",
    "link_img": "https://live.staticflickr.com/65535/50024303907_238c3ae2fb_o.jpg",
    "id_image": "Tiger_237719",
    "count_view": 0
  },
  {
    "link_thumb": "https://live.staticflickr.com/65535/50020195791_4c665ecfa3_n.jpg",
    "id_album": "-149330232",
    "description": "Dog_265787",
    "title": "Dog_265787",
    "link_img": "https://live.staticflickr.com/65535/50020195791_6616e4a3ce_o.jpg",
    "id_image": "Dog_265787",
    "count_view": 0
  },
  {
    "link_thumb": "https://live.staticflickr.com/65535/50016768063_0cf638c224_n.jpg",
    "id_album": "-1846011410",
    "description": "Bird_389343",
    "title": "Bird_389343",
    "link_img": "https://live.staticflickr.com/65535/50016768063_3513ed0f3c_o.jpg",
    "id_image": "Bird_389343",
    "count_view": 0
  },
  {
    "link_thumb": "https://live.staticflickr.com/65535/50017642796_efe454e84e_n.jpg",
    "id_album": "-401151552",
    "description": "Butterfly_687580",
    "title": "Butterfly_687580",
    "link_img": "https://live.staticflickr.com/65535/50017642796_4743465e4e_o.jpg",
    "id_image": "Butterfly_687580",
    "count_view": 0
  },
  {
    "link_thumb": "https://live.staticflickr.com/65535/50021311982_90397d201a_n.jpg",
    "id_album": "844170697",
    "description": "Frog_385105",
    "title": "Frog_385105",
    "link_img": "https://live.staticflickr.com/65535/50021311982_7f60df50b6_o.jpg",
    "id_image": "Frog_385105",
    "count_view": 0
  },
  {
    "link_thumb": "https://live.staticflickr.com/65535/50017896101_b7be4b22d5_n.jpg",
    "id_album": "-462831705",
    "description": "Cat_241062",
    "title": "Cat_241062",
    "link_img": "https://live.staticflickr.com/65535/50017896101_4729bb4b53_o.jpg",
    "id_image": "Cat_241062",
    "count_view": 0
  },
  {
    "link_thumb": "https://live.staticflickr.com/65535/50021675856_dd0677168d_n.jpg",
    "id_album": "1658866795",
    "description": "Insect_403322",
    "title": "Insect_403322",
    "link_img": "https://live.staticflickr.com/65535/50021675856_ea6b2ebcce_o.jpg",
    "id_image": "Insect_403322",
    "count_view": 0
  },
  {
    "link_thumb": "https://live.staticflickr.com/65535/50020561101_c3e1917f30_n.jpg",
    "id_album": "-54509188",
    "description": "Dolphin_172389",
    "title": "Dolphin_172389",
    "link_img": "https://live.staticflickr.com/65535/50020561101_b63b717426_o.jpg",
    "id_image": "Dolphin_172389",
    "count_view": 0
  },
  {
    "link_thumb": "https://live.staticflickr.com/65535/50019926463_248fe4dec0_n.jpg",
    "id_album": "-149330231",
    "description": "Dog_555503",
    "title": "Dog_555503",
    "link_img": "https://live.staticflickr.com/65535/50019926463_d64f03a28b_o.jpg",
    "id_image": "Dog_555503",
    "count_view": 0
  },
  {
    "link_thumb": "https://live.staticflickr.com/65535/50017368096_f182fffe71_n.jpg",
    "id_album": "-1846011410",
    "description": "Bird_565195",
    "title": "Bird_565195",
    "link_img": "https://live.staticflickr.com/65535/50017368096_2a49ba1467_o.jpg",
    "id_image": "Bird_565195",
    "count_view": 0
  },
  {
    "link_thumb": "https://live.staticflickr.com/65535/50017023036_ac5ae9aa06_n.jpg",
    "id_album": "-422187261",
    "description": "Bear_339476",
    "title": "Bear_339476",
    "link_img": "https://live.staticflickr.com/65535/50017023036_c3752aa552_o.jpg",
    "id_image": "Bear_339476",
    "count_view": 0
  },
  {
    "link_thumb": "https://live.staticflickr.com/65535/50019656337_6ed7210ceb_n.jpg",
    "id_album": "-462831703",
    "description": "Cat_888950",
    "title": "Cat_888950",
    "link_img": "https://live.staticflickr.com/65535/50019656337_2859625431_o.jpg",
    "id_image": "Cat_888950",
    "count_view": 0
  },
  {
    "link_thumb": "https://live.staticflickr.com/65535/50351941898_8e2fb44c05_n.jpg",
    "id_album": "-462831703",
    "description": "Cat_672250",
    "title": "Cat_672250",
    "link_img": "https://live.staticflickr.com/65535/50351941898_df73d0bc50_o.jpg",
    "id_image": "Cat_672250",
    "count_view": 0
  },
  {
    "link_thumb": "https://live.staticflickr.com/65535/50019724792_b6567a5be5_n.jpg",
    "id_album": "-462831703",
    "description": "Cat_918971",
    "title": "Cat_918971",
    "link_img": "https://live.staticflickr.com/65535/50019724792_3ceb3ab30f_o.jpg",
    "id_image": "Cat_918971",
    "count_view": 0
  },
  {
    "link_thumb": "https://live.staticflickr.com/65535/50021125946_faeebab683_n.jpg",
    "id_album": "-462831704",
    "description": "Cat_585265",
    "title": "Cat_585265",
    "link_img": "https://live.staticflickr.com/65535/50021125946_f41983de25_o.jpg",
    "id_image": "Cat_585265",
    "count_view": 0
  },
  {
    "link_thumb": "https://live.staticflickr.com/65535/50020207586_43ec589127_n.jpg",
    "id_album": "-149330232",
    "description": "Dog_275580",
    "title": "Dog_275580",
    "link_img": "https://live.staticflickr.com/65535/50020207586_c7e13d625b_o.jpg",
    "id_image": "Dog_275580",
    "count_view": 0
  },
  {
    "link_thumb": "https://live.staticflickr.com/65535/50021695837_bc0cd62994_n.jpg",
    "id_album": "54253492",
    "description": "Heron_433436",
    "title": "Heron_433436",
    "link_img": "https://live.staticflickr.com/65535/50021695837_6020811d54_o.jpg",
    "id_image": "Heron_433436",
    "count_view": 0
  },
  {
    "link_thumb": "https://live.staticflickr.com/65535/50021327013_e5bfbe9138_n.jpg",
    "id_album": "-1882491687",
    "description": "Ladybug_921604",
    "title": "Ladybug_921604",
    "link_img": "https://live.staticflickr.com/65535/50021327013_f4d05c23d1_o.jpg",
    "id_image": "Ladybug_921604",
    "count_view": 0
  },
  {
    "link_thumb": "https://live.staticflickr.com/65535/50019948292_6afe040bf1_n.jpg",
    "id_album": "-1481843714",
    "description": "Cheetah_338072",
    "title": "Cheetah_338072",
    "link_img": "https://live.staticflickr.com/65535/50019948292_228deae080_o.jpg",
    "id_image": "Cheetah_338072",
    "count_view": 0
  },
  {
    "link_thumb": "https://live.staticflickr.com/65535/50021301833_df7c38dfc6_n.jpg",
    "id_album": "-1882491687",
    "description": "Ladybug_343157",
    "title": "Ladybug_343157",
    "link_img": "https://live.staticflickr.com/65535/50021301833_fb0a396504_o.jpg",
    "id_image": "Ladybug_343157",
    "count_view": 0
  },
  {
    "link_thumb": "https://live.staticflickr.com/65535/50020100718_a044df1f06_n.jpg",
    "id_album": "-405058657",
    "description": "Dragonfly_611313",
    "title": "Dragonfly_611313",
    "link_img": "https://live.staticflickr.com/65535/50020100718_e00c40f137_o.jpg",
    "id_image": "Dragonfly_611313",
    "count_view": 0
  },
  {
    "link_thumb": "https://live.staticflickr.com/65535/50020490086_4f25fc924d_n.jpg",
    "id_album": "-149330231",
    "description": "Dog_714298",
    "title": "Dog_714298",
    "link_img": "https://live.staticflickr.com/65535/50020490086_0fc1a45274_o.jpg",
    "id_image": "Dog_714298",
    "count_view": 0
  },
  {
    "link_thumb": "https://live.staticflickr.com/65535/50020464553_8bf4f9f8a2_n.jpg",
    "id_album": "-128218148",
    "description": "Fox_802544",
    "title": "Fox_802544",
    "link_img": "https://live.staticflickr.com/65535/50020464553_a24dff2d79_o.jpg",
    "id_image": "Fox_802544",
    "count_view": 0
  },
  {
    "link_thumb": "https://live.staticflickr.com/65535/50019454861_7fbd8c3023_n.jpg",
    "id_album": "-462831705",
    "description": "Cat_91433",
    "title": "Cat_91433",
    "link_img": "https://live.staticflickr.com/65535/50019454861_fc06f8e04a_o.jpg",
    "id_image": "Cat_91433",
    "count_view": 0
  },
  {
    "link_thumb": "https://live.staticflickr.com/65535/50021921911_ddf4063baa_n.jpg",
    "id_album": "1392348450",
    "description": "Leopard_411122",
    "title": "Leopard_411122",
    "link_img": "https://live.staticflickr.com/65535/50021921911_92a8036d30_o.jpg",
    "id_image": "Leopard_411122",
    "count_view": 0
  },
  {
    "link_thumb": "https://live.staticflickr.com/65535/50021330912_edd251714f_n.jpg",
    "id_album": "844170697",
    "description": "Frog_816134",
    "title": "Frog_816134",
    "link_img": "https://live.staticflickr.com/65535/50021330912_1eec7117be_o.jpg",
    "id_image": "Frog_816134",
    "count_view": 0
  },
  {
    "link_thumb": "https://live.staticflickr.com/65535/50017765681_a3583959bf_n.jpg",
    "id_album": "-462831705",
    "description": "Cat_117099",
    "title": "Cat_117099",
    "link_img": "https://live.staticflickr.com/65535/50017765681_6ed83a2713_o.jpg",
    "id_image": "Cat_117099",
    "count_view": 0
  },
  {
    "link_thumb": "https://live.staticflickr.com/65535/50351806683_7bdd6a4d2d_n.jpg",
    "id_album": "-462831703",
    "description": "Cat_414954",
    "title": "Cat_414954",
    "link_img": "https://live.staticflickr.com/65535/50351806683_cd05fd7caf_o.jpg",
    "id_image": "Cat_414954",
    "count_view": 0
  },
  {
    "link_thumb": "https://live.staticflickr.com/65535/50021617287_f86c6d7b27_n.jpg",
    "id_album": "2060159334",
    "description": "GoldenRetriever_868907",
    "title": "GoldenRetriever_868907",
    "link_img": "https://live.staticflickr.com/65535/50021617287_7e33e0fb14_o.jpg",
    "id_image": "GoldenRetriever_868907",
    "count_view": 0
  },
  {
    "link_thumb": "https://live.staticflickr.com/65535/50021383927_9f75666dea_n.jpg",
    "id_album": "-462831704",
    "description": "Cat_592870",
    "title": "Cat_592870",
    "link_img": "https://live.staticflickr.com/65535/50021383927_daf05a347c_o.jpg",
    "id_image": "Cat_592870",
    "count_view": 0
  },
  {
    "link_thumb": "https://live.staticflickr.com/65535/50024009121_678f86d04a_n.jpg",
    "id_album": "1579675410",
    "description": "Swan_442028",
    "title": "Swan_442028",
    "link_img": "https://live.staticflickr.com/65535/50024009121_0d73bd4d00_o.jpg",
    "id_image": "Swan_442028",
    "count_view": 0
  },
  {
    "link_thumb": "https://live.staticflickr.com/65535/50017957232_8b2ec00f98_n.jpg",
    "id_album": "-401151552",
    "description": "Butterfly_926322",
    "title": "Butterfly_926322",
    "link_img": "https://live.staticflickr.com/65535/50017957232_507956890a_o.jpg",
    "id_image": "Butterfly_926322",
    "count_view": 0
  },
  {
    "link_thumb": "https://live.staticflickr.com/65535/50024580106_89e6e86343_n.jpg",
    "id_album": "1104421803",
    "description": "Zebra_888418",
    "title": "Zebra_888418",
    "link_img": "https://live.staticflickr.com/65535/50024580106_8cd381339e_o.jpg",
    "id_image": "Zebra_888418",
    "count_view": 0
  },
  {
    "link_thumb": "https://live.staticflickr.com/65535/50016347133_d5676a9782_n.jpg",
    "id_album": "523598895",
    "description": "Artistic_172217",
    "title": "Artistic_172217",
    "link_img": "https://live.staticflickr.com/65535/50016347133_4375e874cf_o.jpg",
    "id_image": "Artistic_172217",
    "count_view": 0
  },
  {
    "link_thumb": "https://live.staticflickr.com/65535/50019954216_7f75220663_n.jpg",
    "id_album": "1831085598",
    "description": "Dachshund_715729",
    "title": "Dachshund_715729",
    "link_img": "https://live.staticflickr.com/65535/50019954216_990c195eda_o.jpg",
    "id_image": "Dachshund_715729",
    "count_view": 0
  },
  {
    "link_thumb": "https://live.staticflickr.com/65535/50022616703_ac6bb61a60_n.jpg",
    "id_album": "248289288",
    "description": "Raccoon_686499",
    "title": "Raccoon_686499",
    "link_img": "https://live.staticflickr.com/65535/50022616703_3c2c0d6b26_o.jpg",
    "id_image": "Raccoon_686499",
    "count_view": 0
  },
  {
    "link_thumb": "https://live.staticflickr.com/65535/50017229083_399f535844_n.jpg",
    "id_album": "-462831705",
    "description": "Cat_113194",
    "title": "Cat_113194",
    "link_img": "https://live.staticflickr.com/65535/50017229083_875b911d3f_o.jpg",
    "id_image": "Cat_113194",
    "count_view": 0
  },
  {
    "link_thumb": "https://live.staticflickr.com/65535/50018894593_53025626b0_n.jpg",
    "id_album": "-462831703",
    "description": "Cat_904362",
    "title": "Cat_904362",
    "link_img": "https://live.staticflickr.com/65535/50018894593_acbb61524b_o.jpg",
    "id_image": "Cat_904362",
    "count_view": 0
  },
  {
    "link_thumb": "https://live.staticflickr.com/65535/50017505066_61b0e615f3_n.jpg",
    "id_album": "782930701",
    "description": "BorderCollie_876001",
    "title": "BorderCollie_876001",
    "link_img": "https://live.staticflickr.com/65535/50017505066_5075a2c0db_o.jpg",
    "id_image": "BorderCollie_876001",
    "count_view": 0
  },
  {
    "link_thumb": "https://live.staticflickr.com/65535/50022088082_2404fa2d7b_n.jpg",
    "id_album": "1307335982",
    "description": "LabradorRetriever_75657",
    "title": "LabradorRetriever_75657",
    "link_img": "https://live.staticflickr.com/65535/50022088082_6bdec8c527_o.jpg",
    "id_image": "LabradorRetriever_75657",
    "count_view": 0
  },
  {
    "link_thumb": "https://live.staticflickr.com/65535/50020221827_0debd6b3df_n.jpg",
    "id_album": "-1783645069",
    "description": "Dalmatian_277629",
    "title": "Dalmatian_277629",
    "link_img": "https://live.staticflickr.com/65535/50020221827_a4bb1369d4_o.jpg",
    "id_image": "Dalmatian_277629",
    "count_view": 0
  },
  {
    "link_thumb": "https://live.staticflickr.com/65535/50352632726_6d840c683c_n.jpg",
    "id_album": "-462831703",
    "description": "Cat_650942",
    "title": "Cat_650942",
    "link_img": "https://live.staticflickr.com/65535/50352632726_e93c1dedfd_o.jpg",
    "id_image": "Cat_650942",
    "count_view": 0
  },
  {
    "link_thumb": "https://live.staticflickr.com/65535/50020939042_332e987399_n.jpg",
    "id_album": "-39098563",
    "description": "Eagle_179251",
    "title": "Eagle_179251",
    "link_img": "https://live.staticflickr.com/65535/50020939042_ec8a31bf6d_o.jpg",
    "id_image": "Eagle_179251",
    "count_view": 0
  },
  {
    "link_thumb": "https://live.staticflickr.com/65535/50017362217_16c97a5b7e_n.jpg",
    "id_album": "-422187261",
    "description": "Bear_921776",
    "title": "Bear_921776",
    "link_img": "https://live.staticflickr.com/65535/50017362217_f56e272f1d_o.jpg",
    "id_image": "Bear_921776",
    "count_view": 0
  },
  {
    "link_thumb": "https://live.staticflickr.com/65535/50019425056_000f9da0d2_n.jpg",
    "id_album": "-462831703",
    "description": "Cat_904781",
    "title": "Cat_904781",
    "link_img": "https://live.staticflickr.com/65535/50019425056_8c84f0d2b4_o.jpg",
    "id_image": "Cat_904781",
    "count_view": 0
  },
  {
    "link_thumb": "https://live.staticflickr.com/65535/50018949268_1699b6208e_n.jpg",
    "id_album": "-462831703",
    "description": "Cat_928539",
    "title": "Cat_928539",
    "link_img": "https://live.staticflickr.com/65535/50018949268_d01c714625_o.jpg",
    "id_image": "Cat_928539",
    "count_view": 0
  },
  {
    "link_thumb": "https://live.staticflickr.com/65535/50017911317_6cc7ccc224_n.jpg",
    "id_album": "-401151552",
    "description": "Butterfly_706526",
    "title": "Butterfly_706526",
    "link_img": "https://live.staticflickr.com/65535/50017911317_4b7c992d9e_o.jpg",
    "id_image": "Butterfly_706526",
    "count_view": 0
  },
  {
    "link_thumb": "https://live.staticflickr.com/65535/50019805353_4154397321_n.jpg",
    "id_album": "-149330232",
    "description": "Dog_368628",
    "title": "Dog_368628",
    "link_img": "https://live.staticflickr.com/65535/50019805353_441da38519_o.jpg",
    "id_image": "Dog_368628",
    "count_view": 0
  },
  {
    "link_thumb": "https://live.staticflickr.com/65535/50016800713_eea1dd1d48_n.jpg",
    "id_album": "-1846011410",
    "description": "Bird_428486",
    "title": "Bird_428486",
    "link_img": "https://live.staticflickr.com/65535/50016800713_313a38e539_o.jpg",
    "id_image": "Bird_428486",
    "count_view": 0
  },
  {
    "link_thumb": "https://live.staticflickr.com/65535/50352461686_d9da390bf1_n.jpg",
    "id_album": "-462831703",
    "description": "Cat_357896",
    "title": "Cat_357896",
    "link_img": "https://live.staticflickr.com/65535/50352461686_cd6c646478_o.jpg",
    "id_image": "Cat_357896",
    "count_view": 0
  },
  {
    "link_thumb": "https://live.staticflickr.com/65535/50021822483_4b639f2ed1_n.jpg",
    "id_album": "106807275",
    "description": "Otter_343720",
    "title": "Otter_343720",
    "link_img": "https://live.staticflickr.com/65535/50021822483_0b48e26353_o.jpg",
    "id_image": "Otter_343720",
    "count_view": 0
  },
  {
    "link_thumb": "https://live.staticflickr.com/65535/50018043916_b532451430_n.jpg",
    "id_album": "-462831702",
    "description": "Cat_356514",
    "title": "Cat_356514",
    "link_img": "https://live.staticflickr.com/65535/50018043916_948d04249c_o.jpg",
    "id_image": "Cat_356514",
    "count_view": 0
  },
  {
    "link_thumb": "https://live.staticflickr.com/65535/50019669951_50be65edd5_n.jpg",
    "id_album": "-766919393",
    "description": "Chameleon_848749",
    "title": "Chameleon_848749",
    "link_img": "https://live.staticflickr.com/65535/50019669951_78c8bc1c5e_o.jpg",
    "id_image": "Chameleon_848749",
    "count_view": 0
  },
  {
    "link_thumb": "https://live.staticflickr.com/65535/50352564671_a79996a803_n.jpg",
    "id_album": "-462831703",
    "description": "Cat_494058",
    "title": "Cat_494058",
    "link_img": "https://live.staticflickr.com/65535/50352564671_b3a883838f_o.jpg",
    "id_image": "Cat_494058",
    "count_view": 0
  },
  {
    "link_thumb": "https://live.staticflickr.com/65535/50020876508_b14ebd0ef4_n.jpg",
    "id_album": "-1513987841",
    "description": "Hawk_277987",
    "title": "Hawk_277987",
    "link_img": "https://live.staticflickr.com/65535/50020876508_a92a27ef70_o.jpg",
    "id_image": "Hawk_277987",
    "count_view": 0
  },
  {
    "link_thumb": "https://live.staticflickr.com/65535/50020142648_9ec09cd4cb_n.jpg",
    "id_album": "1168627767",
    "description": "Duck_877661",
    "title": "Duck_877661",
    "link_img": "https://live.staticflickr.com/65535/50020142648_d3252aa932_o.jpg",
    "id_image": "Duck_877661",
    "count_view": 0
  },
  {
    "link_thumb": "https://live.staticflickr.com/65535/50023452013_8f2e743288_n.jpg",
    "id_album": "1244464375",
    "description": "Starfish_514268",
    "title": "Starfish_514268",
    "link_img": "https://live.staticflickr.com/65535/50023452013_a851b6af02_o.jpg",
    "id_image": "Starfish_514268",
    "count_view": 0
  },
  {
    "link_thumb": "https://live.staticflickr.com/65535/50017614273_11c05499e2_n.jpg",
    "id_album": "-462831702",
    "description": "Cat_403906",
    "title": "Cat_403906",
    "link_img": "https://live.staticflickr.com/65535/50017614273_c2f00ce459_o.jpg",
    "id_image": "Cat_403906",
    "count_view": 0
  },
  {
    "link_thumb": "https://live.staticflickr.com/65535/50022080682_bd388d9567_n.jpg",
    "id_album": "1307335982",
    "description": "LabradorRetriever_177032",
    "title": "LabradorRetriever_177032",
    "link_img": "https://live.staticflickr.com/65535/50022080682_ffd13b1cca_o.jpg",
    "id_image": "LabradorRetriever_177032",
    "count_view": 0
  },
  {
    "link_thumb": "https://live.staticflickr.com/65535/50022726366_c63215da1a_n.jpg",
    "id_album": "392248205",
    "description": "Penguin_86903",
    "title": "Penguin_86903",
    "link_img": "https://live.staticflickr.com/65535/50022726366_253ac6f1a0_o.jpg",
    "id_image": "Penguin_86903",
    "count_view": 0
  },
  {
    "link_thumb": "https://live.staticflickr.com/65535/50021723281_3b2a6fff95_n.jpg",
    "id_album": "-843028318",
    "description": "Jaguar_388798",
    "title": "Jaguar_388798",
    "link_img": "https://live.staticflickr.com/65535/50021723281_6c5b102124_o.jpg",
    "id_image": "Jaguar_388798",
    "count_view": 0
  },
  {
    "link_thumb": "https://live.staticflickr.com/65535/50021632178_91783a7d82_n.jpg",
    "id_album": "1894617400",
    "description": "Lynx_994112",
    "title": "Lynx_994112",
    "link_img": "https://live.staticflickr.com/65535/50021632178_dd11ef9724_o.jpg",
    "id_image": "Lynx_994112",
    "count_view": 0
  },
  {
    "link_thumb": "https://live.staticflickr.com/65535/50024502397_9dcb190b2d_n.jpg",
    "id_album": "405170427",
    "description": "Tiger_922880",
    "title": "Tiger_922880",
    "link_img": "https://live.staticflickr.com/65535/50024502397_0ba63c266d_o.jpg",
    "id_image": "Tiger_922880",
    "count_view": 0
  },
  {
    "link_thumb": "https://live.staticflickr.com/65535/50020283431_237af89bf6_n.jpg",
    "id_album": "-149330232",
    "description": "Dog_342708",
    "title": "Dog_342708",
    "link_img": "https://live.staticflickr.com/65535/50020283431_5f44382664_o.jpg",
    "id_image": "Dog_342708",
    "count_view": 0
  },
  {
    "link_thumb": "https://live.staticflickr.com/65535/50017972192_3ac4798346_n.jpg",
    "id_album": "-401151552",
    "description": "Butterfly_927181",
    "title": "Butterfly_927181",
    "link_img": "https://live.staticflickr.com/65535/50017972192_3a8f9cac37_o.jpg",
    "id_image": "Butterfly_927181",
    "count_view": 0
  }
]