[
  {
    "link_thumb": "https://live.staticflickr.com/65535/50021154171_1d71652ced_n.jpg",
    "id_album": "-462831704",
    "description": "Cat_658811",
    "title": "Cat_658811",
    "link_img": "https://live.staticflickr.com/65535/50021154171_40a2c0362d_o.jpg",
    "id_image": "Cat_658811",
    "count_view": 0
  },
  {
    "link_thumb": "https://live.staticflickr.com/65535/50020373057_f0c6ba2ddb_n.jpg",
    "id_album": "-149330232",
    "description": "Dog_105400",
    "title": "Dog_105400",
    "link_img": "https://live.staticflickr.com/65535/50020373057_413c4c0bbc_o.jpg",
    "id_image": "Dog_105400",
    "count_view": 0
  },
  {
    "link_thumb": "https://live.staticflickr.com/65535/50020520986_b77e70d28f_n.jpg",
    "id_album": "-149330231",
    "description": "Dog_839863",
    "title": "Dog_839863",
    "link_img": "https://live.staticflickr.com/65535/50020520986_42a5d570fd_o.jpg",
    "id_image": "Dog_839863",
    "count_view": 0
  },
  {
    "link_thumb": "https://live.staticflickr.com/65535/50019250383_491257e9f4_n.jpg",
    "id_album": "643379324",
    "description": "Clownfish_300196",
    "title": "Clownfish_300196",
    "link_img": "https://live.staticflickr.com/65535/50019250383_55fc6709f6_o.jpg",
    "id_image": "Clownfish_300196",
    "count_view": 0
  },
  {
    "link_thumb": "https://live.staticflickr.com/65535/50024500707_ef81cb7ed7_n.jpg",
    "id_album": "405170427",
    "description": "Tiger_919880",
    "title": "Tiger_919880",
    "link_img": "https://live.staticflickr.com/65535/50024500707_23711c0318_o.jpg",
    "id_image": "Tiger_919880",
    "count_view": 0
  },
  {
    "link_thumb": "https://live.staticflickr.com/65535/50018124892_639d3b2e4d_n.jpg",
    "id_album": "-462831705",
    "description": "Cat_216378",
    "title": "Cat_216378",
    "link_img": "https://live.staticflickr.com/65535/50018124892_db7ff1b954_o.jpg",
    "id_image": "Cat_216378",
    "count_view": 0
  },
  {
    "link_thumb": "https://live.staticflickr.com/65535/50017538687_8d596f43a1_n.jpg",
    "id_album": "-1846011410",
    "description": "Bird_367252",
    "title": "Bird_367252",
    "link_img": "https://live.staticflickr.com/65535/50017538687_f87646e666_o.jpg",
    "id_image": "Bird_367252",
    "count_view": 0
  },
  {
    "link_thumb": "https://live.staticflickr.com/65535/50018684028_3fce306014_n.jpg",
    "id_album": "-462831704",
    "description": "Cat_443708",
    "title": "Cat_443708",
    "link_img": "https://live.staticflickr.com/65535/50018684028_8019f6f8a4_o.jpg",
    "id_image": "Cat_443708",
    "count_view": 0
  },
  {
    "link_thumb": "https://live.staticflickr.com/65535/50019673646_38e25c8085_n.jpg",
    "id_album": "-766919393",
    "description": "Chameleon_923974",
    "title": "Chameleon_923974",
    "link_img": "https://live.staticflickr.com/65535/50019673646_89d5f0927a_o.jpg",
    "id_image": "Chameleon_923974",
    "count_view": 0
  },
  {
    "link_thumb": "https://live.staticflickr.com/65535/50017840327_1c244e10e0_n.jpg",
    "id_album": "-401151552",
    "description": "Butterfly_385067",
    "title": "Butterfly_385067",
    "link_img": "https://live.staticflickr.com/65535/50017840327_c957123965_o.jpg",
    "id_image": "Butterfly_385067",
    "count_view": 0
  },
  {
    "link_thumb": "https://live.staticflickr.com/65535/50021834883_c6c7ac6601_n.jpg",
    "id_album": "-1384601601",
    "description": "Owl_190506",
    "title": "Owl_190506",
    "link_img": "https://live.staticflickr.com/65535/50021834883_0650b43f79_o.jpg",
    "id_image": "Owl_190506",
    "count_view": 0
  },
  {
    "link_thumb": "https://live.staticflickr.com/65535/50351948913_6dcc43fd71_n.jpg",
    "id_album": "-462831703",
    "description": "Cat_687361",
    "title": "Cat_687361",
    "link_img": "https://live.staticflickr.com/65535/50351948913_a5d872acd3_o.jpg",
    "id_image": "Cat_687361",
    "count_view": 0
  },
  {
    "link_thumb": "https://live.staticflickr.com/65535/50019911707_904c665e84_n.jpg",
    "id_album": "-766919393",
    "description": "Chameleon_560017",
    "title": "Chameleon_560017",
    "link_img": "https://live.staticflickr.com/65535/50019911707_9e1edb3f7e_o.jpg",
    "id_image": "Chameleon_560017",
    "count_view": 0
  },
  {
    "link_thumb": "https://live.staticflickr.com/65535/50021884383_79c4a4b07a_n.jpg",
    "id_album": "-1384601601",
    "description": "Owl_438183",
    "title": "Owl_438183",
    "link_img": "https://live.staticflickr.com/65535/50021884383_2162d70a79_o.jpg",
    "id_image": "Owl_438183",
    "count_view": 0
  },
  {
    "link_thumb": "https://live.staticflickr.com/65535/50023697413_fbae79cffe_n.jpg",
    "id_album": "405170427",
    "description": "Tiger_921956",
    "title": "Tiger_921956",
    "link_img": "https://live.staticflickr.com/65535/50023697413_373bae9cbb_o.jpg",
    "id_image": "Tiger_921956",
    "count_view": 0
  },
  {
    "link_thumb": "https://live.staticflickr.com/65535/50019585426_a50a64804d_n.jpg",
    "id_album": "-1930903528",
    "description": "CatDog_735590",
    "title": "CatDog_735590",
    "link_img": "https://live.staticflickr.com/65535/50019585426_94c451674f_o.jpg",
    "id_image": "CatDog_735590",
    "count_view": 0
  },
  {
    "link_thumb": "https://live.staticflickr.com/65535/50017121162_d03d6c452d_n.jpg",
    "id_album": "523598895",
    "description": "Artistic_112760",
    "title": "Artistic_112760",
    "link_img": "https://live.staticflickr.com/65535/50017121162_0042cd4938_o.jpg",
    "id_image": "Artistic_112760",
    "count_view": 0
  },
  {
    "link_thumb": "https://live.staticflickr.com/65535/50021164187_ee34eb53f6_n.jpg",
    "id_album": "-1758557371",
    "description": "Flamingo_752405",
    "title": "Flamingo_752405",
    "link_img": "https://live.staticflickr.com/65535/50021164187_bcb3732da5_o.jpg",
    "id_image": "Flamingo_752405",
    "count_view": 0
  },
  {
    "link_thumb": "https://live.staticflickr.com/65535/50022145366_d1cc1196f3_n.jpg",
    "id_album": "1894617400",
    "description": "Lynx_414944",
    "title": "Lynx_414944",
    "link_img": "https://live.staticflickr.com/65535/50022145366_b9c0e20554_o.jpg",
    "id_image": "Lynx_414944",
    "count_view": 0
  },
  {
    "link_thumb": "https://live.staticflickr.com/65535/50018020787_d7da920a91_n.jpg",
    "id_album": "-462831705",
    "description": "Cat_114626",
    "title": "Cat_114626",
    "link_img": "https://live.staticflickr.com/65535/50018020787_46fc7075e5_o.jpg",
    "id_image": "Cat_114626",
    "count_view": 0
  },
  {
    "link_thumb": "https://live.staticflickr.com/65535/50023432522_1f96a69d48_n.jpg",
    "id_album": "-434874555",
    "description": "RainbowLorikeet_550155",
    "title": "RainbowLorikeet_550155",
    "link_img": "https://live.staticflickr.com/65535/50023432522_4c4b09ccb7_o.jpg",
    "id_image": "RainbowLorikeet_550155",
    "count_view": 0
  },
  {
    "link_thumb": "https://live.staticflickr.com/65535/50022414363_4f6a958b44_n.jpg",
    "id_album": "-1431524681",
    "description": "Pug_997932",
    "title": "Pug_997932",
    "link_img": "https://live.staticflickr.com/65535/50022414363_2c979ea053_o.jpg",
    "id_image": "Pug_997932",
    "count_view": 0
  },
  {
    "link_thumb": "https://live.staticflickr.com/65535/50019946993_812ce31a04_n.jpg",
    "id_album": "-149330231",
    "description": "Dog_683721",
    "title": "Dog_683721",
    "link_img": "https://live.staticflickr.com/65535/50019946993_0486aa7581_o.jpg",
    "id_image": "Dog_683721",
    "count_view": 0
  },
  {
    "link_thumb": "https://live.staticflickr.com/65535/50017596422_249920460e_n.jpg",
    "id_album": "-1846011410",
    "description": "Bird_43936",
    "title": "Bird_43936",
    "link_img": "https://live.staticflickr.com/65535/50017596422_dd844aea1b_o.jpg",
    "id_image": "Bird_43936",
    "count_view": 0
  },
  {
    "link_thumb": "https://live.staticflickr.com/65535/50019427562_bbf2820d04_n.jpg",
    "id_album": "-462831702",
    "description": "Cat_425787",
    "title": "Cat_425787",
    "link_img": "https://live.staticflickr.com/65535/50019427562_bbe13765e6_o.jpg",
    "id_image": "Cat_425787",
    "count_view": 0
  },
  {
    "link_thumb": "https://live.staticflickr.com/65535/50017249872_54b6a167f3_n.jpg",
    "id_album": "809937717",
    "description": "Beagle_583167",
    "title": "Beagle_583167",
    "link_img": "https://live.staticflickr.com/65535/50017249872_0791d3f181_o.jpg",
    "id_image": "Beagle_583167",
    "count_view": 0
  },
  {
    "link_thumb": "https://live.staticflickr.com/65535/50020906662_dba775c290_n.jpg",
    "id_album": "1168627767",
    "description": "Duck_331072",
    "title": "Duck_331072",
    "link_img": "https://live.staticflickr.com/65535/50020906662_1a10b2a8c6_o.jpg",
    "id_image": "Duck_331072",
    "count_view": 0
  },
  {
    "link_thumb": "https://live.staticflickr.com/65535/50017344292_d04ede9120_n.jpg",
    "id_album": "-422187261",
    "description": "Bear_792834",
    "title": "Bear_792834",
    "link_img": "https://live.staticflickr.com/65535/50017344292_e73d9db1f7_o.jpg",
    "id_image": "Bear_792834",
    "count_view": 0
  },
  {
    "link_thumb": "https://live.staticflickr.com/65535/50023213997_717b40546c_n.jpg",
    "id_album": "-1431524681",
    "description": "Pug_776529",
    "title": "Pug_776529",
    "link_img": "https://live.staticflickr.com/65535/50023213997_950fbe36f9_o.jpg",
    "id_image": "Pug_776529",
    "count_view": 0
  },
  {
    "link_thumb": "https://live.staticflickr.com/65535/50024289547_824ebe7c80_n.jpg",
    "id_album": "405170427",
    "description": "Tiger_190231",
    "title": "Tiger_190231",
    "link_img": "https://live.staticflickr.com/65535/50024289547_88190e7bc5_o.jpg",
    "id_image": "Tiger_190231",
    "count_view": 0
  },
  {
    "link_thumb": "https://live.staticflickr.com/65535/50020142517_f37b545a83_n.jpg",
    "id_album": "815329026",
    "description": "Crab_986787",
    "title": "Crab_986787",
    "link_img": "https://live.staticflickr.com/65535/50020142517_0aeb562f75_o.jpg",
    "id_image": "Crab_986787",
    "count_view": 0
  },
  {
    "link_thumb": "https://live.staticflickr.com/65535/50022094747_bdabce5ebe_n.jpg",
    "id_album": "-1882491687",
    "description": "Ladybug_162087",
    "title": "Ladybug_162087",
    "link_img": "https://live.staticflickr.com/65535/50022094747_015ccdcd83_o.jpg",
    "id_image": "Ladybug_162087",
    "count_view": 0
  },
  {
    "link_thumb": "https://live.staticflickr.com/65535/50020803113_618b2e0cbb_n.jpg",
    "id_album": "2060159334",
    "description": "GoldenRetriever_113926",
    "title": "GoldenRetriever_113926",
    "link_img": "https://live.staticflickr.com/65535/50020803113_3b35079515_o.jpg",
    "id_image": "GoldenRetriever_113926",
    "count_view": 0
  },
  {
    "link_thumb": "https://live.staticflickr.com/65535/50021962802_f9ce22d977_n.jpg",
    "id_album": "1658866795",
    "description": "Insect_588129",
    "title": "Insect_588129",
    "link_img": "https://live.staticflickr.com/65535/50021962802_25a14e6ed0_o.jpg",
    "id_image": "Insect_588129",
    "count_view": 0
  },
  {
    "link_thumb": "https://live.staticflickr.com/65535/50021642306_9c6beabf3f_n.jpg",
    "id_album": "-712553376",
    "description": "Husky_875232",
    "title": "Husky_875232",
    "link_img": "https://live.staticflickr.com/65535/50021642306_766f4b6c9e_o.jpg",
    "id_image": "Husky_875232",
    "count_view": 0
  },
  {
    "link_thumb": "https://live.staticflickr.com/65535/50352643427_4180ab1c91_n.jpg",
    "id_album": "-462831703",
    "description": "Cat_379882",
    "title": "Cat_379882",
    "link_img": "https://live.staticflickr.com/65535/50352643427_4fffb24fac_o.jpg",
    "id_image": "Cat_379882",
    "count_view": 0
  },
  {
    "link_thumb": "https://live.staticflickr.com/65535/50020530451_b428991bf6_n.jpg",
    "id_album": "-149330231",
    "description": "Dog_875248",
    "title": "Dog_875248",
    "link_img": "https://live.staticflickr.com/65535/50020530451_9a206a3d11_o.jpg",
    "id_image": "Dog_875248",
    "count_view": 0
  },
  {
    "link_thumb": "https://live.staticflickr.com/65535/50017078956_78aac14351_n.jpg",
    "id_album": "-422187261",
    "description": "Bear_777941",
    "title": "Bear_777941",
    "link_img": "https://live.staticflickr.com/65535/50017078956_7fc91a808f_o.jpg",
    "id_image": "Bear_777941",
    "count_view": 0
  },
  {
    "link_thumb": "https://live.staticflickr.com/65535/50017244777_19b72cbfea_n.jpg",
    "id_album": "809937717",
    "description": "Beagle_167848",
    "title": "Beagle_167848",
    "link_img": "https://live.staticflickr.com/65535/50017244777_19499616af_o.jpg",
    "id_image": "Beagle_167848",
    "count_view": 0
  },
  {
    "link_thumb": "https://live.staticflickr.com/65535/50020842911_2692a515f6_n.jpg",
    "id_album": "-1118073211",
    "description": "Fish_357726",
    "title": "Fish_357726",
    "link_img": "https://live.staticflickr.com/65535/50020842911_8495c74c02_o.jpg",
    "id_image": "Fish_357726",
    "count_view": 0
  },
  {
    "link_thumb": "https://live.staticflickr.com/65535/50020113466_ab07207061_n.jpg",
    "id_album": "-149330232",
    "description": "Dog_102112",
    "title": "Dog_102112",
    "link_img": "https://live.staticflickr.com/65535/50020113466_3ff1f7423a_o.jpg",
    "id_image": "Dog_102112",
    "count_view": 0
  },
  {
    "link_thumb": "https://live.staticflickr.com/65535/50352702316_2f9c46be85_n.jpg",
    "id_album": "-462831702",
    "description": "Cat_39603",
    "title": "Cat_39603",
    "link_img": "https://live.staticflickr.com/65535/50352702316_bc1360c858_o.jpg",
    "id_image": "Cat_39603",
    "count_view": 0
  },
  {
    "link_thumb": "https://live.staticflickr.com/65535/50017543251_51833f861c_n.jpg",
    "id_album": "-401151552",
    "description": "Butterfly_202975",
    "title": "Butterfly_202975",
    "link_img": "https://live.staticflickr.com/65535/50017543251_6831a20532_o.jpg",
    "id_image": "Butterfly_202975",
    "count_view": 0
  },
  {
    "link_thumb": "https://live.staticflickr.com/65535/50024722197_7a78c4bc9f_n.jpg",
    "id_album": "-709711865",
    "description": "Wolf_204327",
    "title": "Wolf_204327",
    "link_img": "https://live.staticflickr.com/65535/50024722197_2b96d52638_o.jpg",
    "id_image": "Wolf_204327",
    "count_view": 0
  },
  {
    "link_thumb": "https://live.staticflickr.com/65535/50016512018_3c7d223d05_n.jpg",
    "id_album": "-422187261",
    "description": "Bear_390717",
    "title": "Bear_390717",
    "link_img": "https://live.staticflickr.com/65535/50016512018_f55d0a4b8f_o.jpg",
    "id_image": "Bear_390717",
    "count_view": 0
  },
  {
    "link_thumb": "https://live.staticflickr.com/65535/50019687063_2996a136c3_n.jpg",
    "id_album": "-149330232",
    "description": "Dog_278755",
    "title": "Dog_278755",
    "link_img": "https://live.staticflickr.com/65535/50019687063_32243982af_o.jpg",
    "id_image": "Dog_278755",
    "count_view": 0
  },
  {
    "link_thumb": "https://live.staticflickr.com/65535/50017856332_f81664d9a7_n.jpg",
    "id_album": "-401151552",
    "description": "Butterfly_431667",
    "title": "Butterfly_431667",
    "link_img": "https://live.staticflickr.com/65535/50017856332_e803026aab_o.jpg",
    "id_image": "Butterfly_431667",
    "count_view": 0
  },
  {
    "link_thumb": "https://live.staticflickr.com/65535/50020693613_a0fb19d013_n.jpg",
    "id_album": "-462831703",
    "description": "Cat_772595",
    "title": "Cat_772595",
    "link_img": "https://live.staticflickr.com/65535/50020693613_09866402a5_o.jpg",
    "id_image": "Cat_772595",
    "count_view": 0
  },
  {
    "link_thumb": "https://live.staticflickr.com/65535/50023272447_3cfbca33e7_n.jpg",
    "id_album": "-353898617",
    "description": "Puppy_534661",
    "title": "Puppy_534661",
    "link_img": "https://live.staticflickr.com/65535/50023272447_40b8b9201d_o.jpg",
    "id_image": "Puppy_534661",
    "count_view": 0
  },
  {
    "link_thumb": "https://live.staticflickr.com/65535/50023692901_d1321a959e_n.jpg",
    "id_album": "1933547265",
    "description": "SnowyOwl_803337",
    "title": "SnowyOwl_803337",
    "link_img": "https://live.staticflickr.com/65535/50023692901_db6dee7df1_o.jpg",
    "id_image": "SnowyOwl_803337",
    "count_view": 0
  },
  {
    "link_thumb": "https://live.staticflickr.com/65535/50021390621_b6f7b6bf50_n.jpg",
    "id_album": "1950225324",
    "description": "Gorilla_332002",
    "title": "Gorilla_332002",
    "link_img": "https://live.staticflickr.com/65535/50021390621_2524cf5740_o.jpg",
    "id_image": "Gorilla_332002",
    "count_view": 0
  },
  {
    "link_thumb": "https://live.staticflickr.com/65535/50024006123_52f0ddc3b4_n.jpg",
    "id_album": "-709711865",
    "description": "Wolf_83244",
    "title": "Wolf_83244",
    "link_img": "https://live.staticflickr.com/65535/50024006123_74f67b67c0_o.jpg",
    "id_image": "Wolf_83244",
    "count_view": 0
  },
  {
    "link_thumb": "https://live.staticflickr.com/65535/50352864917_2a72c79fbe_n.jpg",
    "id_album": "-462831702",
    "description": "Cat_82330",
    "title": "Cat_82330",
    "link_img": "https://live.staticflickr.com/65535/50352864917_4cce90202a_o.jpg",
    "id_image": "Cat_82330",
    "count_view": 0
  },
  {
    "link_thumb": "https://live.staticflickr.com/65535/50024465621_b23ebdaba0_n.jpg",
    "id_album": "-709711865",
    "description": "Wolf_241790",
    "title": "Wolf_241790",
    "link_img": "https://live.staticflickr.com/65535/50024465621_bd7c4234c0_o.jpg",
    "id_image": "Wolf_241790",
    "count_view": 0
  },
  {
    "link_thumb": "https://live.staticflickr.com/65535/50020615956_323665a836_n.jpg",
    "id_album": "-405058657",
    "description": "Dragonfly_389821",
    "title": "Dragonfly_389821",
    "link_img": "https://live.staticflickr.com/65535/50020615956_cb19aa3258_o.jpg",
    "id_image": "Dragonfly_389821",
    "count_view": 0
  },
  {
    "link_thumb": "https://live.staticflickr.com/65535/50022594192_1ce1d8be74_n.jpg",
    "id_album": "1015034486",
    "description": "Muteswan_748099",
    "title": "Muteswan_748099",
    "link_img": "https://live.staticflickr.com/65535/50022594192_24d981d4d1_o.jpg",
    "id_image": "Muteswan_748099",
    "count_view": 0
  },
  {
    "link_thumb": "https://live.staticflickr.com/65535/50018184177_b2ffc90a9f_n.jpg",
    "id_album": "-462831705",
    "description": "Cat_271802",
    "title": "Cat_271802",
    "link_img": "https://live.staticflickr.com/65535/50018184177_85019e5e07_o.jpg",
    "id_image": "Cat_271802",
    "count_view": 0
  },
  {
    "link_thumb": "https://live.staticflickr.com/65535/50019432773_941ff5b9cb_n.jpg",
    "id_album": "-1783645069",
    "description": "Dalmatian_277118",
    "title": "Dalmatian_277118",
    "link_img": "https://live.staticflickr.com/65535/50019432773_4c4100a285_o.jpg",
    "id_image": "Dalmatian_277118",
    "count_view": 0
  },
  {
    "link_thumb": "https://live.staticflickr.com/65535/50020968266_fca70b79ac_n.jpg",
    "id_album": "-128218148",
    "description": "Fox_452276",
    "title": "Fox_452276",
    "link_img": "https://live.staticflickr.com/65535/50020968266_a146bd4417_o.jpg",
    "id_image": "Fox_452276",
    "count_view": 0
  },
  {
    "link_thumb": "https://live.staticflickr.com/65535/50021327728_e1d1621978_n.jpg",
    "id_album": "-1882491687",
    "description": "Ladybug_984205",
    "title": "Ladybug_984205",
    "link_img": "https://live.staticflickr.com/65535/50021327728_55f91b7558_o.jpg",
    "id_image": "Ladybug_984205",
    "count_view": 0
  },
  {
    "link_thumb": "https://live.staticflickr.com/65535/50021388818_92db00ccde_n.jpg",
    "id_album": "1392348450",
    "description": "Leopard_523349",
    "title": "Leopard_523349",
    "link_img": "https://live.staticflickr.com/65535/50021388818_5f82b40299_o.jpg",
    "id_image": "Leopard_523349",
    "count_view": 0
  },
  {
    "link_thumb": "https://live.staticflickr.com/65535/50022156892_28b087c7bd_n.jpg",
    "id_album": "1392348450",
    "description": "Leopard_344746",
    "title": "Leopard_344746",
    "link_img": "https://live.staticflickr.com/65535/50022156892_9b72a00d95_o.jpg",
    "id_image": "Leopard_344746",
    "count_view": 0
  },
  {
    "link_thumb": "https://live.staticflickr.com/65535/50020187467_49915d896f_n.jpg",
    "id_album": "1273365283",
    "description": "Cute_277910",
    "title": "Cute_277910",
    "link_img": "https://live.staticflickr.com/65535/50020187467_85f5715ed3_o.jpg",
    "id_image": "Cute_277910",
    "count_view": 0
  },
  {
    "link_thumb": "https://live.staticflickr.com/65535/50019193401_d03e2c0526_n.jpg",
    "id_album": "-462831704",
    "description": "Cat_434173",
    "title": "Cat_434173",
    "link_img": "https://live.staticflickr.com/65535/50019193401_0c3043ceb8_o.jpg",
    "id_image": "Cat_434173",
    "count_view": 0
  },
  {
    "link_thumb": "https://live.staticflickr.com/65535/50021172946_f755a9e034_n.jpg",
    "id_album": "-462831704",
    "description": "Cat_693055",
    "title": "Cat_693055",
    "link_img": "https://live.staticflickr.com/65535/50021172946_4d715f7b60_o.jpg",
    "id_image": "Cat_693055",
    "count_view": 0
  },
  {
    "link_thumb": "https://live.staticflickr.com/65535/50021282221_0221b0b3a5_n.jpg",
    "id_album": "-405626519",
    "description": "GermanShepherd_273419",
    "title": "GermanShepherd_273419",
    "link_img": "https://live.staticflickr.com/65535/50021282221_84a2f5b34c_o.jpg",
    "id_image": "GermanShepherd_273419",
    "count_view": 0
  },
  {
    "link_thumb": "https://live.staticflickr.com/65535/50023360197_26312aebc3_n.jpg",
    "id_album": "-1940643173",
    "description": "Rabbit_396349",
    "title": "Rabbit_396349",
    "link_img": "https://live.staticflickr.com/65535/50023360197_e7ecfd28b0_o.jpg",
    "id_image": "Rabbit_396349",
    "count_view": 0
  },
  {
    "link_thumb": "https://live.staticflickr.com/65535/50018274747_f3a714de1d_n.jpg",
    "id_album": "-462831702",
    "description": "Cat_342717",
    "title": "Cat_342717",
    "link_img": "https://live.staticflickr.com/65535/50018274747_10bc8e5376_o.jpg",
    "id_image": "Cat_342717",
    "count_view": 0
  },
  {
    "link_thumb": "https://live.staticflickr.com/65535/50020244426_33e95efcf2_n.jpg",
    "id_album": "-149330232",
    "description": "Dog_325480",
    "title": "Dog_325480",
    "link_img": "https://live.staticflickr.com/65535/50020244426_e762e1013b_o.jpg",
    "id_image": "Dog_325480",
    "count_view": 0
  },
  {
    "link_thumb": "https://live.staticflickr.com/65535/50022864368_1034604327_n.jpg",
    "id_album": "1961094930",
    "description": "Seal_365082",
    "title": "Seal_365082",
    "link_img": "https://live.staticflickr.com/65535/50022864368_ebd24c1b30_o.jpg",
    "id_image": "Seal_365082",
    "count_view": 0
  },
  {
    "link_thumb": "https://live.staticflickr.com/65535/50019691141_7cd02602a5_n.jpg",
    "id_album": "-1481843714",
    "description": "Cheetah_343447",
    "title": "Cheetah_343447",
    "link_img": "https://live.staticflickr.com/65535/50019691141_f4cae811a6_o.jpg",
    "id_image": "Cheetah_343447",
    "count_view": 0
  },
  {
    "link_thumb": "https://live.staticflickr.com/65535/50019958098_6bde005ef3_n.jpg",
    "id_album": "-149330231",
    "description": "Dog_714949",
    "title": "Dog_714949",
    "link_img": "https://live.staticflickr.com/65535/50019958098_fb5966579a_o.jpg",
    "id_image": "Dog_714949",
    "count_view": 0
  },
  {
    "link_thumb": "https://live.staticflickr.com/65535/50352508031_071179751d_n.jpg",
    "id_album": "-462831703",
    "description": "Cat_422109",
    "title": "Cat_422109",
    "link_img": "https://live.staticflickr.com/65535/50352508031_f057d44cac_o.jpg",
    "id_image": "Cat_422109",
    "count_view": 0
  },
  {
    "link_thumb": "https://live.staticflickr.com/65535/50016864443_acc17a8984_n.jpg",
    "id_album": "-1846011410",
    "description": "Bird_615933",
    "title": "Bird_615933",
    "link_img": "https://live.staticflickr.com/65535/50016864443_56c502eed0_o.jpg",
    "id_image": "Bird_615933",
    "count_view": 0
  },
  {
    "link_thumb": "https://live.staticflickr.com/65535/50017583938_868538712a_n.jpg",
    "id_album": "-462831702",
    "description": "Cat_383862",
    "title": "Cat_383862",
    "link_img": "https://live.staticflickr.com/65535/50017583938_36bfa9f076_o.jpg",
    "id_image": "Cat_383862",
    "count_view": 0
  },
  {
    "link_thumb": "https://live.staticflickr.com/65535/50352709427_8a0776e6fc_n.jpg",
    "id_album": "-462831703",
    "description": "Cat_467418",
    "title": "Cat_467418",
    "link_img": "https://live.staticflickr.com/65535/50352709427_c5268fe716_o.jpg",
    "id_image": "Cat_467418",
    "count_view": 0
  },
  {
    "link_thumb": "https://live.staticflickr.com/65535/50017600946_e056d70ec3_n.jpg",
    "id_album": "-401151552",
    "description": "Butterfly_448565",
    "title": "Butterfly_448565",
    "link_img": "https://live.staticflickr.com/65535/50017600946_6755c0c7d1_o.jpg",
    "id_image": "Butterfly_448565",
    "count_view": 0
  },
  {
    "link_thumb": "https://live.staticflickr.com/65535/50016840566_994832ec05_n.jpg",
    "id_album": "-1741290715",
    "description": "Ant_905014",
    "title": "Ant_905014",
    "link_img": "https://live.staticflickr.com/65535/50016840566_7fc5761029_o.jpg",
    "id_image": "Ant_905014",
    "count_view": 0
  },
  {
    "link_thumb": "https://live.staticflickr.com/65535/50023949338_49f167fb04_n.jpg",
    "id_album": "-709711865",
    "description": "Wolf_390351",
    "title": "Wolf_390351",
    "link_img": "https://live.staticflickr.com/65535/50023949338_e4bb4780ed_o.jpg",
    "id_image": "Wolf_390351",
    "count_view": 0
  },
  {
    "link_thumb": "https://live.staticflickr.com/65535/50020558542_4df13eb018_n.jpg",
    "id_album": "-149330232",
    "description": "Dog_351467",
    "title": "Dog_351467",
    "link_img": "https://live.staticflickr.com/65535/50020558542_96d0b44235_o.jpg",
    "id_image": "Dog_351467",
    "count_view": 0
  },
  {
    "link_thumb": "https://live.staticflickr.com/65535/50017581188_3d874b3535_n.jpg",
    "id_album": "-462831702",
    "description": "Cat_381625",
    "title": "Cat_381625",
    "link_img": "https://live.staticflickr.com/65535/50017581188_281c8153e8_o.jpg",
    "id_image": "Cat_381625",
    "count_view": 0
  },
  {
    "link_thumb": "https://live.staticflickr.com/65535/50022160032_db48f84c5a_n.jpg",
    "id_album": "1392348450",
    "description": "Leopard_352818",
    "title": "Leopard_352818",
    "link_img": "https://live.staticflickr.com/65535/50022160032_e6ab3cd5ff_o.jpg",
    "id_image": "Leopard_352818",
    "count_view": 0
  },
  {
    "link_thumb": "https://live.staticflickr.com/65535/50023213956_c9cfef194b_n.jpg",
    "id_album": "332874268",
    "description": "RedPanda_529629",
    "title": "RedPanda_529629",
    "link_img": "https://live.staticflickr.com/65535/50023213956_51fb93a790_o.jpg",
    "id_image": "RedPanda_529629",
    "count_view": 0
  },
  {
    "link_thumb": "https://live.staticflickr.com/65535/50018119236_ee36d1b666_n.jpg",
    "id_album": "-462831702",
    "description": "Cat_387929",
    "title": "Cat_387929",
    "link_img": "https://live.staticflickr.com/65535/50018119236_09c7f80b89_o.jpg",
    "id_image": "Cat_387929",
    "count_view": 0
  },
  {
    "link_thumb": "https://live.staticflickr.com/65535/50023325722_1cb03f1535_n.jpg",
    "id_album": "-353898617",
    "description": "Puppy_890761",
    "title": "Puppy_890761",
    "link_img": "https://live.staticflickr.com/65535/50023325722_f08f4dc330_o.jpg",
    "id_image": "Puppy_890761",
    "count_view": 0
  },
  {
    "link_thumb": "https://live.staticflickr.com/65535/50017237198_0eb51b4ac2_n.jpg",
    "id_album": "-462831705",
    "description": "Cat_117019",
    "title": "Cat_117019",
    "link_img": "https://live.staticflickr.com/65535/50017237198_942e338e60_o.jpg",
    "id_image": "Cat_117019",
    "count_view": 0
  },
  {
    "link_thumb": "https://live.staticflickr.com/65535/50352586101_ac457a1868_n.jpg",
    "id_album": "-462831703",
    "description": "Cat_524442",
    "title": "Cat_524442",
    "link_img": "https://live.staticflickr.com/65535/50352586101_a9b495c665_o.jpg",
    "id_image": "Cat_524442",
    "count_view": 0
  },
  {
    "link_thumb": "https://live.staticflickr.com/65535/50019326046_a718a570f0_n.jpg",
    "id_album": "-462831703",
    "description": "Cat_856268",
    "title": "Cat_856268",
    "link_img": "https://live.staticflickr.com/65535/50019326046_22b541f89c_o.jpg",
    "id_image": "Cat_856268",
    "count_view": 0
  },
  {
    "link_thumb": "https://live.staticflickr.com/65535/50020181978_974fd6d1e7_n.jpg",
    "id_album": "-39098563",
    "description": "Eagle_572582",
    "title": "Eagle_572582",
    "link_img": "https://live.staticflickr.com/65535/50020181978_22d894e1b5_o.jpg",
    "id_image": "Eagle_572582",
    "count_view": 0
  },
  {
    "link_thumb": "https://live.staticflickr.com/65535/50352858247_e92933eed8_n.jpg",
    "id_album": "-462831702",
    "description": "Cat_20927",
    "title": "Cat_20927",
    "link_img": "https://live.staticflickr.com/65535/50352858247_b6eeccbf2e_o.jpg",
    "id_image": "Cat_20927",
    "count_view": 0
  },
  {
    "link_thumb": "https://live.staticflickr.com/65535/50017578928_8d9da51c12_n.jpg",
    "id_album": "-462831702",
    "description": "Cat_380938",
    "title": "Cat_380938",
    "link_img": "https://live.staticflickr.com/65535/50017578928_1769c60a0e_o.jpg",
    "id_image": "Cat_380938",
    "count_view": 0
  },
  {
    "link_thumb": "https://live.staticflickr.com/65535/50020828118_f5179b675b_n.jpg",
    "id_album": "2060159334",
    "description": "GoldenRetriever_923086",
    "title": "GoldenRetriever_923086",
    "link_img": "https://live.staticflickr.com/65535/50020828118_d482522d72_o.jpg",
    "id_image": "GoldenRetriever_923086",
    "count_view": 0
  },
  {
    "link_thumb": "https://live.staticflickr.com/65535/50021078568_51851591c9_n.jpg",
    "id_album": "2144294979",
    "description": "Hummingbird_777807",
    "title": "Hummingbird_777807",
    "link_img": "https://live.staticflickr.com/65535/50021078568_190b67d096_o.jpg",
    "id_image": "Hummingbird_777807",
    "count_view": 0
  },
  {
    "link_thumb": "https://live.staticflickr.com/65535/50020088492_d77dec5238_n.jpg",
    "id_album": "-1868680171",
    "description": "Cougar_885988",
    "title": "Cougar_885988",
    "link_img": "https://live.staticflickr.com/65535/50020088492_a86559bb85_o.jpg",
    "id_image": "Cougar_885988",
    "count_view": 0
  },
  {
    "link_thumb": "https://live.staticflickr.com/65535/50017310827_f16653f382_n.jpg",
    "id_album": "-422187261",
    "description": "Bear_454129",
    "title": "Bear_454129",
    "link_img": "https://live.staticflickr.com/65535/50017310827_1396d1035b_o.jpg",
    "id_image": "Bear_454129",
    "count_view": 0
  },
  {
    "link_thumb": "https://live.staticflickr.com/65535/50021426836_8915775ae1_n.jpg",
    "id_album": "-1513987841",
    "description": "Hawk_843819",
    "title": "Hawk_843819",
    "link_img": "https://live.staticflickr.com/65535/50021426836_c889faf6f2_o.jpg",
    "id_image": "Hawk_843819",
    "count_view": 0
  },
  {
    "link_thumb": "https://live.staticflickr.com/65535/50021666893_cf73e3ddd2_n.jpg",
    "id_album": "-784970094",
    "description": "Monkey_368304",
    "title": "Monkey_368304",
    "link_img": "https://live.staticflickr.com/65535/50021666893_8e17976996_o.jpg",
    "id_image": "Monkey_368304",
    "count_view": 0
  },
  {
    "link_thumb": "https://live.staticflickr.com/65535/50017376313_683ce29dbb_n.jpg",
    "id_album": "-462831705",
    "description": "Cat_249770",
    "title": "Cat_249770",
    "link_img": "https://live.staticflickr.com/65535/50017376313_dbf242526e_o.jpg",
    "id_image": "Cat_249770",
    "count_view": 0
  },
  {
    "link_thumb": "https://live.staticflickr.com/65535/50017921257_9bc88cf1ce_n.jpg",
    "id_album": "-401151552",
    "description": "Butterfly_753040",
    "title": "Butterfly_753040",
    "link_img": "https://live.staticflickr.com/65535/50017921257_147f30fe2e_o.jpg",
    "id_image": "Butterfly_753040",
    "count_view": 0
  },
  {
    "link_thumb": "https://live.staticflickr.com/65535/50021927336_10f2c84cbf_n.jpg",
    "id_album": "1392348450",
    "description": "Leopard_436143",
    "title": "Leopard_436143",
    "link_img": "https://live.staticflickr.com/65535/50021927336_684369c3e5_o.jpg",
    "id_image": "Leopard_436143",
    "count_view": 0
  },
  {
    "link_thumb": "https://live.staticflickr.com/65535/50017970081_fb42e569e2_n.jpg",
    "id_album": "-462831702",
    "description": "Cat_324555",
    "title": "Cat_324555",
    "link_img": "https://live.staticflickr.com/65535/50017970081_1aea2c535e_o.jpg",
    "id_image": "Cat_324555",
    "count_view": 0
  },
  {
    "link_thumb": "https://live.staticflickr.com/65535/50021465961_0365173f38_n.jpg",
    "id_album": "-1933715543",
    "description": "Horse_177561",
    "title": "Horse_177561",
    "link_img": "https://live.staticflickr.com/65535/50021465961_c0df534986_o.jpg",
    "id_image": "Horse_177561",
    "count_view": 0
  },
  {
    "link_thumb": "https://live.staticflickr.com/65535/50020224552_caf93bf472_n.jpg",
    "id_album": "-1783645069",
    "description": "Dalmatian_442917",
    "title": "Dalmatian_442917",
    "link_img": "https://live.staticflickr.com/65535/50020224552_1bf7b43484_o.jpg",
    "id_image": "Dalmatian_442917",
    "count_view": 0
  },
  {
    "link_thumb": "https://live.staticflickr.com/65535/50016903688_86f889faae_n.jpg",
    "id_album": "-1846011410",
    "description": "Bird_824775",
    "title": "Bird_824775",
    "link_img": "https://live.staticflickr.com/65535/50016903688_08186fd9cc_o.jpg",
    "id_image": "Bird_824775",
    "count_view": 0
  },
  {
    "link_thumb": "https://live.staticflickr.com/65535/50021238606_8e4ceb1728_n.jpg",
    "id_album": "-462831703",
    "description": "Cat_776462",
    "title": "Cat_776462",
    "link_img": "https://live.staticflickr.com/65535/50021238606_9b25cda7df_o.jpg",
    "id_image": "Cat_776462",
    "count_view": 0
  },
  {
    "link_thumb": "https://live.staticflickr.com/65535/50020146282_84f8322c33_n.jpg",
    "id_album": "1475096665",
    "description": "Crocodile_323717",
    "title": "Crocodile_323717",
    "link_img": "https://live.staticflickr.com/65535/50020146282_ae93ef5405_o.jpg",
    "id_image": "Crocodile_323717",
    "count_view": 0
  },
  {
    "link_thumb": "https://live.staticflickr.com/65535/50018030946_8cb4e59014_n.jpg",
    "id_album": "-462831702",
    "description": "Cat_349706",
    "title": "Cat_349706",
    "link_img": "https://live.staticflickr.com/65535/50018030946_c6fc197bf6_o.jpg",
    "id_image": "Cat_349706",
    "count_view": 0
  },
  {
    "link_thumb": "https://live.staticflickr.com/65535/50018879373_9e0b4d044a_n.jpg",
    "id_album": "-462831705",
    "description": "Cat_89845",
    "title": "Cat_89845",
    "link_img": "https://live.staticflickr.com/65535/50018879373_bf7a2968c7_o.jpg",
    "id_image": "Cat_89845",
    "count_view": 0
  },
  {
    "link_thumb": "https://live.staticflickr.com/65535/50019732123_d5728fcd9f_n.jpg",
    "id_album": "-149330232",
    "description": "Dog_334685",
    "title": "Dog_334685",
    "link_img": "https://live.staticflickr.com/65535/50019732123_e6e1c7e655_o.jpg",
    "id_image": "Dog_334685",
    "count_view": 0
  },
  {
    "link_thumb": "https://live.staticflickr.com/65535/50017007593_f6287498e9_n.jpg",
    "id_album": "-401151552",
    "description": "Butterfly_121557",
    "title": "Butterfly_121557",
    "link_img": "https://live.staticflickr.com/65535/50017007593_2f76ec978e_o.jpg",
    "id_image": "Butterfly_121557",
    "count_view": 0
  },
  {
    "link_thumb": "https://live.staticflickr.com/65535/50021630436_db2eed1477_n.jpg",
    "id_album": "-712553376",
    "description": "Husky_365130",
    "title": "Husky_365130",
    "link_img": "https://live.staticflickr.com/65535/50021630436_8b5553b86a_o.jpg",
    "id_image": "Husky_365130",
    "count_view": 0
  },
  {
    "link_thumb": "https://live.staticflickr.com/65535/50021900462_0be4f03908_n.jpg",
    "id_album": "-737856092",
    "description": "Iguana_351300",
    "title": "Iguana_351300",
    "link_img": "https://live.staticflickr.com/65535/50021900462_b1cb792b39_o.jpg",
    "id_image": "Iguana_351300",
    "count_view": 0
  },
  {
    "link_thumb": "https://live.staticflickr.com/65535/50017055918_f42c9df846_n.jpg",
    "id_album": "-401151552",
    "description": "Butterfly_395550",
    "title": "Butterfly_395550",
    "link_img": "https://live.staticflickr.com/65535/50017055918_c4d7412a9f_o.jpg",
    "id_image": "Butterfly_395550",
    "count_view": 0
  },
  {
    "link_thumb": "https://live.staticflickr.com/65535/50021318582_74680ed231_n.jpg",
    "id_album": "844170697",
    "description": "Frog_490671",
    "title": "Frog_490671",
    "link_img": "https://live.staticflickr.com/65535/50021318582_4a85d79bdd_o.jpg",
    "id_image": "Frog_490671",
    "count_view": 0
  },
  {
    "link_thumb": "https://live.staticflickr.com/65535/50021667397_e5078704b2_n.jpg",
    "id_album": "109779448",
    "description": "Hare_419732",
    "title": "Hare_419732",
    "link_img": "https://live.staticflickr.com/65535/50021667397_e911450216_o.jpg",
    "id_image": "Hare_419732",
    "count_view": 0
  },
  {
    "link_thumb": "https://live.staticflickr.com/65535/50024393906_bd82ec250f_n.jpg",
    "id_album": "786934945",
    "description": "Whale_177408",
    "title": "Whale_177408",
    "link_img": "https://live.staticflickr.com/65535/50024393906_9c4ed3a627_o.jpg",
    "id_image": "Whale_177408",
    "count_view": 0
  },
  {
    "link_thumb": "https://live.staticflickr.com/65535/50020841966_95cce3aff8_n.jpg",
    "id_album": "-1118073211",
    "description": "Fish_355212",
    "title": "Fish_355212",
    "link_img": "https://live.staticflickr.com/65535/50020841966_cdaf939bd3_o.jpg",
    "id_image": "Fish_355212",
    "count_view": 0
  },
  {
    "link_thumb": "https://live.staticflickr.com/65535/50020732021_f9e079193d_n.jpg",
    "id_album": "1270947998",
    "description": "Elephant_121106",
    "title": "Elephant_121106",
    "link_img": "https://live.staticflickr.com/65535/50020732021_bba67e417a_o.jpg",
    "id_image": "Elephant_121106",
    "count_view": 0
  },
  {
    "link_thumb": "https://live.staticflickr.com/65535/50017816161_b2e9d21653_n.jpg",
    "id_album": "-462831705",
    "description": "Cat_178477",
    "title": "Cat_178477",
    "link_img": "https://live.staticflickr.com/65535/50017816161_ea4c477aa8_o.jpg",
    "id_image": "Cat_178477",
    "count_view": 0
  },
  {
    "link_thumb": "https://live.staticflickr.com/65535/50021272468_3b78461702_n.jpg",
    "id_album": "770105808",
    "description": "Kingfisher_965752",
    "title": "Kingfisher_965752",
    "link_img": "https://live.staticflickr.com/65535/50021272468_1eed9f20d3_o.jpg",
    "id_image": "Kingfisher_965752",
    "count_view": 0
  },
  {
    "link_thumb": "https://live.staticflickr.com/65535/50018271312_e3e2202b2a_n.jpg",
    "id_album": "-462831702",
    "description": "Cat_341162",
    "title": "Cat_341162",
    "link_img": "https://live.staticflickr.com/65535/50018271312_82a1a62e3c_o.jpg",
    "id_image": "Cat_341162",
    "count_view": 0
  },
  {
    "link_thumb": "https://live.staticflickr.com/65535/50020871058_ea5b55df62_n.jpg",
    "id_album": "109779448",
    "description": "Hare_386680",
    "title": "Hare_386680",
    "link_img": "https://live.staticflickr.com/65535/50020871058_6b6ab2683b_o.jpg",
    "id_image": "Hare_386680",
    "count_view": 0
  },
  {
    "link_thumb": "https://live.staticflickr.com/65535/50020548341_69e73d3a59_n.jpg",
    "id_album": "-149330231",
    "description": "Dog_941361",
    "title": "Dog_941361",
    "link_img": "https://live.staticflickr.com/65535/50020548341_4f7ca843b6_o.jpg",
    "id_image": "Dog_941361",
    "count_view": 0
  },
  {
    "link_thumb": "https://live.staticflickr.com/65535/50021431848_fa1684de66_n.jpg",
    "id_album": "416744915",
    "description": "Lion_221902",
    "title": "Lion_221902",
    "link_img": "https://live.staticflickr.com/65535/50021431848_176f085557_o.jpg",
    "id_image": "Lion_221902",
    "count_view": 0
  },
  {
    "link_thumb": "https://live.staticflickr.com/65535/50019575876_9365c7c089_n.jpg",
    "id_album": "-462831703",
    "description": "Cat_998377",
    "title": "Cat_998377",
    "link_img": "https://live.staticflickr.com/65535/50019575876_031a363fc5_o.jpg",
    "id_image": "Cat_998377",
    "count_view": 0
  },
  {
    "link_thumb": "https://live.staticflickr.com/65535/50024701307_beaf31b39d_n.jpg",
    "id_album": "766572659",
    "description": "WhiteTiger_452266",
    "title": "WhiteTiger_452266",
    "link_img": "https://live.staticflickr.com/65535/50024701307_734c65be4a_o.jpg",
    "id_image": "WhiteTiger_452266",
    "count_view": 0
  },
  {
    "link_thumb": "https://live.staticflickr.com/65535/50017450966_120b5a18f4_n.jpg",
    "id_album": "-1561645279",
    "description": "BlackPanther_375274",
    "title": "BlackPanther_375274",
    "link_img": "https://live.staticflickr.com/65535/50017450966_a91a4ecbe1_o.jpg",
    "id_image": "BlackPanther_375274",
    "count_view": 0
  },
  {
    "link_thumb": "https://live.staticflickr.com/65535/50351842808_4ebfda2d81_n.jpg",
    "id_album": "-462831703",
    "description": "Cat_459843",
    "title": "Cat_459843",
    "link_img": "https://live.staticflickr.com/65535/50351842808_e725a9508f_o.jpg",
    "id_image": "Cat_459843",
    "count_view": 0
  },
  {
    "link_thumb": "https://live.staticflickr.com/65535/50019826223_1cfc47153a_n.jpg",
    "id_album": "-149330231",
    "description": "Dog_381276",
    "title": "Dog_381276",
    "link_img": "https://live.staticflickr.com/65535/50019826223_a46b964a20_o.jpg",
    "id_image": "Dog_381276",
    "count_view": 0
  },
  {
    "link_thumb": "https://live.staticflickr.com/65535/50020432193_0d50a9f103_n.jpg",
    "id_album": "-128218148",
    "description": "Fox_547466",
    "title": "Fox_547466",
    "link_img": "https://live.staticflickr.com/65535/50020432193_f209cdc4ac_o.jpg",
    "id_image": "Fox_547466",
    "count_view": 0
  },
  {
    "link_thumb": "https://live.staticflickr.com/65535/50021031193_a0ce631f4f_n.jpg",
    "id_album": "-1933715543",
    "description": "Horse_851637",
    "title": "Horse_851637",
    "link_img": "https://live.staticflickr.com/65535/50021031193_c56bb95f6b_o.jpg",
    "id_image": "Horse_851637",
    "count_view": 0
  },
  {
    "link_thumb": "https://live.staticflickr.com/65535/50021135682_7526dc9db7_n.jpg",
    "id_album": "-1758557371",
    "description": "Flamingo_113732",
    "title": "Flamingo_113732",
    "link_img": "https://live.staticflickr.com/65535/50021135682_e19a5bd7b5_o.jpg",
    "id_image": "Flamingo_113732",
    "count_view": 0
  },
  {
    "link_thumb": "https://live.staticflickr.com/65535/50016988623_dda1faa94b_n.jpg",
    "id_album": "782930701",
    "description": "BorderCollie_985455",
    "title": "BorderCollie_985455",
    "link_img": "https://live.staticflickr.com/65535/50016988623_c444e22172_o.jpg",
    "id_image": "BorderCollie_985455",
    "count_view": 0
  },
  {
    "link_thumb": "https://live.staticflickr.com/65535/50021082388_552883c77b_n.jpg",
    "id_album": "2144294979",
    "description": "Hummingbird_923413",
    "title": "Hummingbird_923413",
    "link_img": "https://live.staticflickr.com/65535/50021082388_573530de07_o.jpg",
    "id_image": "Hummingbird_923413",
    "count_view": 0
  },
  {
    "link_thumb": "https://live.staticflickr.com/65535/50017557668_4f35993c53_n.jpg",
    "id_album": "-462831702",
    "description": "Cat_368707",
    "title": "Cat_368707",
    "link_img": "https://live.staticflickr.com/65535/50017557668_385b5393c2_o.jpg",
    "id_image": "Cat_368707",
    "count_view": 0
  },
  {
    "link_thumb": "https://live.staticflickr.com/65535/50019967278_767d1a1c60_n.jpg",
    "id_album": "-149330231",
    "description": "Dog_734159",
    "title": "Dog_734159",
    "link_img": "https://live.staticflickr.com/65535/50019967278_a1153460fb_o.jpg",
    "id_image": "Dog_734159",
    "count_view": 0
  },
  {
    "link_thumb": "https://live.staticflickr.com/65535/50017817211_2805c2cfb2_n.jpg",
    "id_album": "-462831705",
    "description": "Cat_179275",
    "title": "Cat_179275",
    "link_img": "https://live.staticflickr.com/65535/50017817211_b055cfa62a_o.jpg",
    "id_image": "Cat_179275",
    "count_view": 0
  },
  {
    "link_thumb": "https://live.staticflickr.com/65535/50020928233_98b0c58ec4_n.jpg",
    "id_album": "-1933715543",
    "description": "Horse_225103",
    "title": "Horse_225103",
    "link_img": "https://live.staticflickr.com/65535/50020928233_e2ff3b6ce3_o.jpg",
    "id_image": "Horse_225103",
    "count_view": 0
  },
  {
    "link_thumb": "https://live.staticflickr.com/65535/50021630392_c91627fa2a_n.jpg",
    "id_album": "-975314166",
    "description": "Goldfish_347316",
    "title": "Goldfish_347316",
    "link_img": "https://live.staticflickr.com/65535/50021630392_d23ca4f7e9_o.jpg",
    "id_image": "Goldfish_347316",
    "count_view": 0
  },
  {
    "link_thumb": "https://live.staticflickr.com/65535/50020785032_dd8574c6b7_n.jpg",
    "id_album": "-149330231",
    "description": "Dog_867376",
    "title": "Dog_867376",
    "link_img": "https://live.staticflickr.com/65535/50020785032_95ea56fc35_o.jpg",
    "id_image": "Dog_867376",
    "count_view": 0
  },
  {
    "link_thumb": "https://live.staticflickr.com/65535/50352854227_a4e9fd2833_n.jpg",
    "id_album": "-462831702",
    "description": "Cat_162214",
    "title": "Cat_162214",
    "link_img": "https://live.staticflickr.com/65535/50352854227_d0f8b54c53_o.jpg",
    "id_image": "Cat_162214",
    "count_view": 0
  },
  {
    "link_thumb": "https://live.staticflickr.com/65535/50023357037_cbb7d1b7cc_n.jpg",
    "id_album": "-1940643173",
    "description": "Rabbit_367432",
    "title": "Rabbit_367432",
    "link_img": "https://live.staticflickr.com/65535/50023357037_13bc63e20f_o.jpg",
    "id_image": "Rabbit_367432",
    "count_view": 0
  },
  {
    "link_thumb": "https://live.staticflickr.com/65535/50351748048_7fd67eec26_n.jpg",
    "id_album": "-462831703",
    "description": "Cat_255400",
    "title": "Cat_255400",
    "link_img": "https://live.staticflickr.com/65535/50351748048_deb9e5286a_o.jpg",
    "id_image": "Cat_255400",
    "count_view": 0
  },
  {
    "link_thumb": "https://live.staticflickr.com/65535/50021330448_caa358558e_n.jpg",
    "id_album": "1918884325",
    "description": "Lemur_344050",
    "title": "Lemur_344050",
    "link_img": "https://live.staticflickr.com/65535/50021330448_4ab0d2d5c6_o.jpg",
    "id_image": "Lemur_344050",
    "count_view": 0
  },
  {
    "link_thumb": "https://live.staticflickr.com/65535/50019525061_1e362870c9_n.jpg",
    "id_album": "-462831703",
    "description": "Cat_960537",
    "title": "Cat_960537",
    "link_img": "https://live.staticflickr.com/65535/50019525061_6ba93b3191_o.jpg",
    "id_image": "Cat_960537",
    "count_view": 0
  },
  {
    "link_thumb": "https://live.staticflickr.com/65535/50022184756_b8e3abbeee_n.jpg",
    "id_album": "-1720012921",
    "description": "Meerkat_421373",
    "title": "Meerkat_421373",
    "link_img": "https://live.staticflickr.com/65535/50022184756_6a8ec4ba57_o.jpg",
    "id_image": "Meerkat_421373",
    "count_view": 0
  },
  {
    "link_thumb": "https://live.staticflickr.com/65535/50017623691_36a300e601_n.jpg",
    "id_album": "-401151552",
    "description": "Butterfly_544116",
    "title": "Butterfly_544116",
    "link_img": "https://live.staticflickr.com/65535/50017623691_6d752b4432_o.jpg",
    "id_image": "Butterfly_544116",
    "count_view": 0
  },
  {
    "link_thumb": "https://live.staticflickr.com/65535/50017778756_77edd26eda_n.jpg",
    "id_album": "-462831705",
    "description": "Cat_129215",
    "title": "Cat_129215",
    "link_img": "https://live.staticflickr.com/65535/50017778756_5b22be5689_o.jpg",
    "id_image": "Cat_129215",
    "count_view": 0
  },
  {
    "link_thumb": "https://live.staticflickr.com/65535/50021004097_8949578763_n.jpg",
    "id_album": "1270947998",
    "description": "Elephant_359537",
    "title": "Elephant_359537",
    "link_img": "https://live.staticflickr.com/65535/50021004097_02f6e486d4_o.jpg",
    "id_image": "Elephant_359537",
    "count_view": 0
  },
  {
    "link_thumb": "https://live.staticflickr.com/65535/50019337781_8ac7a1050a_n.jpg",
    "id_album": "-462831703",
    "description": "Cat_864335",
    "title": "Cat_864335",
    "link_img": "https://live.staticflickr.com/65535/50019337781_7aee861d3d_o.jpg",
    "id_image": "Cat_864335",
    "count_view": 0
  },
  {
    "link_thumb": "https://live.staticflickr.com/65535/50022994578_fca0971525_n.jpg",
    "id_album": "-800019164",
    "description": "Snail_718118",
    "title": "Snail_718118",
    "link_img": "https://live.staticflickr.com/65535/50022994578_f4a3b3b484_o.jpg",
    "id_image": "Snail_718118",
    "count_view": 0
  },
  {
    "link_thumb": "https://live.staticflickr.com/65535/50017981342_25bb313c4c_n.jpg",
    "id_album": "-401151552",
    "description": "Butterfly_967360",
    "title": "Butterfly_967360",
    "link_img": "https://live.staticflickr.com/65535/50017981342_443dd98186_o.jpg",
    "id_image": "Butterfly_967360",
    "count_view": 0
  },
  {
    "link_thumb": "https://live.staticflickr.com/65535/50018019507_90e2235488_n.jpg",
    "id_album": "-462831705",
    "description": "Cat_113538",
    "title": "Cat_113538",
    "link_img": "https://live.staticflickr.com/65535/50018019507_ae0bca78ce_o.jpg",
    "id_image": "Cat_113538",
    "count_view": 0
  },
  {
    "link_thumb": "https://live.staticflickr.com/65535/50019334778_5111484623_n.jpg",
    "id_album": "-2144640780",
    "description": "Cow_821814",
    "title": "Cow_821814",
    "link_img": "https://live.staticflickr.com/65535/50019334778_13a556ceb4_o.jpg",
    "id_image": "Cow_821814",
    "count_view": 0
  },
  {
    "link_thumb": "https://live.staticflickr.com/65535/50020648373_f3c2134f70_n.jpg",
    "id_album": "-462831704",
    "description": "Cat_708993",
    "title": "Cat_708993",
    "link_img": "https://live.staticflickr.com/65535/50020648373_5304e14145_o.jpg",
    "id_image": "Cat_708993",
    "count_view": 0
  },
  {
    "link_thumb": "https://live.staticflickr.com/65535/50017239741_2e30f8c859_n.jpg",
    "id_album": "-1846011410",
    "description": "Bird_326777",
    "title": "Bird_326777",
    "link_img": "https://live.staticflickr.com/65535/50017239741_e36b7fe980_o.jpg",
    "id_image": "Bird_326777",
    "count_view": 0
  },
  {
    "link_thumb": "https://live.staticflickr.com/65535/50023079081_2243fa874a_n.jpg",
    "id_album": "470794721",
    "description": "Python_522494",
    "title": "Python_522494",
    "link_img": "https://live.staticflickr.com/65535/50023079081_765173d82e_o.jpg",
    "id_image": "Python_522494",
    "count_view": 0
  },
  {
    "link_thumb": "https://live.staticflickr.com/65535/50020632121_f9decdfe61_n.jpg",
    "id_album": "-405058657",
    "description": "Dragonfly_588144",
    "title": "Dragonfly_588144",
    "link_img": "https://live.staticflickr.com/65535/50020632121_c62ecf664d_o.jpg",
    "id_image": "Dragonfly_588144",
    "count_view": 0
  },
  {
    "link_thumb": "https://live.staticflickr.com/65535/50022540478_8dcb76e149_n.jpg",
    "id_album": "470794721",
    "description": "Python_784952",
    "title": "Python_784952",
    "link_img": "https://live.staticflickr.com/65535/50022540478_6c188c1b22_o.jpg",
    "id_image": "Python_784952",
    "count_view": 0
  },
  {
    "link_thumb": "https://live.staticflickr.com/65535/50017114593_9a1612f0bf_n.jpg",
    "id_album": "-401151552",
    "description": "Butterfly_680665",
    "title": "Butterfly_680665",
    "link_img": "https://live.staticflickr.com/65535/50017114593_d019845b3f_o.jpg",
    "id_image": "Butterfly_680665",
    "count_view": 0
  },
  {
    "link_thumb": "https://live.staticflickr.com/65535/50021023381_54e004bd99_n.jpg",
    "id_album": "-128218148",
    "description": "Fox_912153",
    "title": "Fox_912153",
    "link_img": "https://live.staticflickr.com/65535/50021023381_69a267496d_o.jpg",
    "id_image": "Fox_912153",
    "count_view": 0
  },
  {
    "link_thumb": "https://live.staticflickr.com/65535/50024694472_34b6fe10d8_n.jpg",
    "id_album": "766572659",
    "description": "WhiteTiger_364904",
    "title": "WhiteTiger_364904",
    "link_img": "https://live.staticflickr.com/65535/50024694472_139b896f97_o.jpg",
    "id_image": "WhiteTiger_364904",
    "count_view": 0
  },
  {
    "link_thumb": "https://live.staticflickr.com/65535/50021749126_3e1e694269_n.jpg",
    "id_album": "665694624",
    "description": "JapaneseMacaque_365056",
    "title": "JapaneseMacaque_365056",
    "link_img": "https://live.staticflickr.com/65535/50021749126_225e99bbf2_o.jpg",
    "id_image": "JapaneseMacaque_365056",
    "count_view": 0
  },
  {
    "link_thumb": "https://live.staticflickr.com/65535/50023418547_74aac4594e_n.jpg",
    "id_album": "248289288",
    "description": "Raccoon_764238",
    "title": "Raccoon_764238",
    "link_img": "https://live.staticflickr.com/65535/50023418547_0bb5dc24a7_o.jpg",
    "id_image": "Raccoon_764238",
    "count_view": 0
  },
  {
    "link_thumb": "https://live.staticflickr.com/65535/50020259462_eef217824a_n.jpg",
    "id_album": "1903411565",
    "description": "Deer_387937",
    "title": "Deer_387937",
    "link_img": "https://live.staticflickr.com/65535/50020259462_6f04f97d70_o.jpg",
    "id_image": "Deer_387937",
    "count_view": 0
  },
  {
    "link_thumb": "https://live.staticflickr.com/65535/50352678572_b9eda31676_n.jpg",
    "id_album": "-462831703",
    "description": "Cat_435328",
    "title": "Cat_435328",
    "link_img": "https://live.staticflickr.com/65535/50352678572_baeb9933f0_o.jpg",
    "id_image": "Cat_435328",
    "count_view": 0
  },
  {
    "link_thumb": "https://live.staticflickr.com/65535/50021936956_fa7ba916c7_n.jpg",
    "id_album": "1392348450",
    "description": "Leopard_585143",
    "title": "Leopard_585143",
    "link_img": "https://live.staticflickr.com/65535/50021936956_f4fafd5f8d_o.jpg",
    "id_image": "Leopard_585143",
    "count_view": 0
  },
  {
    "link_thumb": "https://live.staticflickr.com/65535/50021525422_21d018f69c_n.jpg",
    "id_album": "-462831703",
    "description": "Cat_833763",
    "title": "Cat_833763",
    "link_img": "https://live.staticflickr.com/65535/50021525422_7932a75621_o.jpg",
    "id_image": "Cat_833763",
    "count_view": 0
  },
  {
    "link_thumb": "https://live.staticflickr.com/65535/50016797498_2b2105a1f8_n.jpg",
    "id_album": "-1846011410",
    "description": "Bird_423897",
    "title": "Bird_423897",
    "link_img": "https://live.staticflickr.com/65535/50016797498_6f55ee6d1b_o.jpg",
    "id_image": "Bird_423897",
    "count_view": 0
  },
  {
    "link_thumb": "https://live.staticflickr.com/65535/50017712187_4d2f510afc_n.jpg",
    "id_album": "-1561645279",
    "description": "BlackPanther_380150",
    "title": "BlackPanther_380150",
    "link_img": "https://live.staticflickr.com/65535/50017712187_090053f9f1_o.jpg",
    "id_image": "BlackPanther_380150",
    "count_view": 0
  },
  {
    "link_thumb": "https://live.staticflickr.com/65535/50020519027_69f3abf31b_n.jpg",
    "id_album": "-149330232",
    "description": "Dog_333648",
    "title": "Dog_333648",
    "link_img": "https://live.staticflickr.com/65535/50020519027_7d42ec53c6_o.jpg",
    "id_image": "Dog_333648",
    "count_view": 0
  },
  {
    "link_thumb": "https://live.staticflickr.com/65535/50020527541_89cf308a42_n.jpg",
    "id_album": "-149330231",
    "description": "Dog_865516",
    "title": "Dog_865516",
    "link_img": "https://live.staticflickr.com/65535/50020527541_0bba45d094_o.jpg",
    "id_image": "Dog_865516",
    "count_view": 0
  },
  {
    "link_thumb": "https://live.staticflickr.com/65535/50024352847_a73ca27c2e_n.jpg",
    "id_album": "405170427",
    "description": "Tiger_372123",
    "title": "Tiger_372123",
    "link_img": "https://live.staticflickr.com/65535/50024352847_dc5be6a930_o.jpg",
    "id_image": "Tiger_372123",
    "count_view": 0
  },
  {
    "link_thumb": "https://live.staticflickr.com/65535/50021961646_10c295b54f_n.jpg",
    "id_album": "1392348450",
    "description": "Leopard_952978",
    "title": "Leopard_952978",
    "link_img": "https://live.staticflickr.com/65535/50021961646_38b0492927_o.jpg",
    "id_image": "Leopard_952978",
    "count_view": 0
  },
  {
    "link_thumb": "https://live.staticflickr.com/65535/50016910038_0a2833b999_n.jpg",
    "id_album": "-1846011410",
    "description": "Bird_876487",
    "title": "Bird_876487",
    "link_img": "https://live.staticflickr.com/65535/50016910038_976a2536f2_o.jpg",
    "id_image": "Bird_876487",
    "count_view": 0
  },
  {
    "link_thumb": "https://live.staticflickr.com/65535/50023739778_41dc856cb4_n.jpg",
    "id_album": "-1103743486",
    "description": "Toucan_789218",
    "title": "Toucan_789218",
    "link_img": "https://live.staticflickr.com/65535/50023739778_a36c17d9d7_o.jpg",
    "id_image": "Toucan_789218",
    "count_view": 0
  },
  {
    "link_thumb": "https://live.staticflickr.com/65535/50016993793_70a68011e0_n.jpg",
    "id_album": "1696155652",
    "description": "Boxer_788531",
    "title": "Boxer_788531",
    "link_img": "https://live.staticflickr.com/65535/50016993793_29d40aea85_o.jpg",
    "id_image": "Boxer_788531",
    "count_view": 0
  },
  {
    "link_thumb": "https://live.staticflickr.com/65535/50017137477_62c788e33b_n.jpg",
    "id_album": "523598895",
    "description": "Artistic_191490",
    "title": "Artistic_191490",
    "link_img": "https://live.staticflickr.com/65535/50017137477_58807a4a98_o.jpg",
    "id_image": "Artistic_191490",
    "count_view": 0
  },
  {
    "link_thumb": "https://live.staticflickr.com/65535/50019725602_4540115c29_n.jpg",
    "id_album": "-462831703",
    "description": "Cat_920508",
    "title": "Cat_920508",
    "link_img": "https://live.staticflickr.com/65535/50019725602_4e50b276f1_o.jpg",
    "id_image": "Cat_920508",
    "count_view": 0
  },
  {
    "link_thumb": "https://live.staticflickr.com/65535/50022957058_0f3cd84cfb_n.jpg",
    "id_album": "692487763",
    "description": "SiberianHusky_658548",
    "title": "SiberianHusky_658548",
    "link_img": "https://live.staticflickr.com/65535/50022957058_fc5f086b41_o.jpg",
    "id_image": "SiberianHusky_658548",
    "count_view": 0
  },
  {
    "link_thumb": "https://live.staticflickr.com/65535/50021440786_f1dda43323_n.jpg",
    "id_album": "1469520430",
    "description": "Hedgehog_985945",
    "title": "Hedgehog_985945",
    "link_img": "https://live.staticflickr.com/65535/50021440786_e186d539e0_o.jpg",
    "id_image": "Hedgehog_985945",
    "count_view": 0
  },
  {
    "link_thumb": "https://live.staticflickr.com/65535/50020686623_6b4297d6d0_n.jpg",
    "id_album": "-462831703",
    "description": "Cat_752611",
    "title": "Cat_752611",
    "link_img": "https://live.staticflickr.com/65535/50020686623_79d7e732d4_o.jpg",
    "id_image": "Cat_752611",
    "count_view": 0
  },
  {
    "link_thumb": "https://live.staticflickr.com/65535/50017614612_7af9379e7f_n.jpg",
    "id_album": "-1846011410",
    "description": "Bird_508235",
    "title": "Bird_508235",
    "link_img": "https://live.staticflickr.com/65535/50017614612_71b50b5673_o.jpg",
    "id_image": "Bird_508235",
    "count_view": 0
  },
  {
    "link_thumb": "https://live.staticflickr.com/65535/50017957982_f4d8dc977f_n.jpg",
    "id_album": "-401151552",
    "description": "Butterfly_926362",
    "title": "Butterfly_926362",
    "link_img": "https://live.staticflickr.com/65535/50017957982_83b39a273e_o.jpg",
    "id_image": "Butterfly_926362",
    "count_view": 0
  },
  {
    "link_thumb": "https://live.staticflickr.com/65535/50021318852_0fa429c07b_n.jpg",
    "id_album": "844170697",
    "description": "Frog_499623",
    "title": "Frog_499623",
    "link_img": "https://live.staticflickr.com/65535/50021318852_0ec901efb3_o.jpg",
    "id_image": "Frog_499623",
    "count_view": 0
  },
  {
    "link_thumb": "https://live.staticflickr.com/65535/50017682132_7d0c459370_n.jpg",
    "id_album": "-1846011410",
    "description": "Bird_750126",
    "title": "Bird_750126",
    "link_img": "https://live.staticflickr.com/65535/50017682132_133ae1750a_o.jpg",
    "id_image": "Bird_750126",
    "count_view": 0
  },
  {
    "link_thumb": "https://live.staticflickr.com/65535/50021321141_7b0b2777c1_n.jpg",
    "id_album": "713572662",
    "description": "Giraffe_361525",
    "title": "Giraffe_361525",
    "link_img": "https://live.staticflickr.com/65535/50021321141_e0369f0f07_o.jpg",
    "id_image": "Giraffe_361525",
    "count_view": 0
  },
  {
    "link_thumb": "https://live.staticflickr.com/65535/50023463766_2e52fb7ba5_n.jpg",
    "id_album": "-1596347105",
    "description": "Shark_804111",
    "title": "Shark_804111",
    "link_img": "https://live.staticflickr.com/65535/50023463766_90c4da51ab_o.jpg",
    "id_image": "Shark_804111",
    "count_view": 0
  },
  {
    "link_thumb": "https://live.staticflickr.com/65535/50022905481_c8c76c7ff7_n.jpg",
    "id_album": "191452764",
    "description": "PrayingMantis_729561",
    "title": "PrayingMantis_729561",
    "link_img": "https://live.staticflickr.com/65535/50022905481_e5ff4cff78_o.jpg",
    "id_image": "PrayingMantis_729561",
    "count_view": 0
  },
  {
    "link_thumb": "https://live.staticflickr.com/65535/50016427278_b77637f2c6_n.jpg",
    "id_album": "231236068",
    "description": "BaldEagle_358076",
    "title": "BaldEagle_358076",
    "link_img": "https://live.staticflickr.com/65535/50016427278_1ee77e7336_o.jpg",
    "id_image": "BaldEagle_358076",
    "count_view": 0
  },
  {
    "link_thumb": "https://live.staticflickr.com/65535/50020256712_8d9b30c4c9_n.jpg",
    "id_album": "1903411565",
    "description": "Deer_367468",
    "title": "Deer_367468",
    "link_img": "https://live.staticflickr.com/65535/50020256712_f4089ec7ae_o.jpg",
    "id_image": "Deer_367468",
    "count_view": 0
  },
  {
    "link_thumb": "https://live.staticflickr.com/65535/50024087476_9640144143_n.jpg",
    "id_album": "405170427",
    "description": "Tiger_367344",
    "title": "Tiger_367344",
    "link_img": "https://live.staticflickr.com/65535/50024087476_0b65959f41_o.jpg",
    "id_image": "Tiger_367344",
    "count_view": 0
  },
  {
    "link_thumb": "https://live.staticflickr.com/65535/50022173212_1b5005b598_n.jpg",
    "id_album": "1392348450",
    "description": "Leopard_383982",
    "title": "Leopard_383982",
    "link_img": "https://live.staticflickr.com/65535/50022173212_0ce6fed77e_o.jpg",
    "id_image": "Leopard_383982",
    "count_view": 0
  },
  {
    "link_thumb": "https://live.staticflickr.com/65535/50022187152_6fab71b9fd_n.jpg",
    "id_album": "1392348450",
    "description": "Leopard_469161",
    "title": "Leopard_469161",
    "link_img": "https://live.staticflickr.com/65535/50022187152_b664152f9d_o.jpg",
    "id_image": "Leopard_469161",
    "count_view": 0
  },
  {
    "link_thumb": "https://live.staticflickr.com/65535/50022971396_5bee1fa008_n.jpg",
    "id_album": "-353898617",
    "description": "Puppy_364941",
    "title": "Puppy_364941",
    "link_img": "https://live.staticflickr.com/65535/50022971396_999f2dfce9_o.jpg",
    "id_image": "Puppy_364941",
    "count_view": 0
  },
  {
    "link_thumb": "https://live.staticflickr.com/65535/50022465483_45a609bca1_n.jpg",
    "id_album": "-353898617",
    "description": "Puppy_514087",
    "title": "Puppy_514087",
    "link_img": "https://live.staticflickr.com/65535/50022465483_f5d75d31ae_o.jpg",
    "id_image": "Puppy_514087",
    "count_view": 0
  },
  {
    "link_thumb": "https://live.staticflickr.com/65535/50019880522_628a8095e6_n.jpg",
    "id_album": "1889777354",
    "description": "CGI_258319",
    "title": "CGI_258319",
    "link_img": "https://live.staticflickr.com/65535/50019880522_95517bdbd4_o.jpg",
    "id_image": "CGI_258319",
    "count_view": 0
  },
  {
    "link_thumb": "https://live.staticflickr.com/65535/50018046306_ee838526a5_n.jpg",
    "id_album": "-462831702",
    "description": "Cat_357835",
    "title": "Cat_357835",
    "link_img": "https://live.staticflickr.com/65535/50018046306_46c8bf80ef_o.jpg",
    "id_image": "Cat_357835",
    "count_view": 0
  },
  {
    "link_thumb": "https://live.staticflickr.com/65535/50023338302_393269ed4d_n.jpg",
    "id_album": "470794721",
    "description": "Python_669417",
    "title": "Python_669417",
    "link_img": "https://live.staticflickr.com/65535/50023338302_a03afc3dc8_o.jpg",
    "id_image": "Python_669417",
    "count_view": 0
  },
  {
    "link_thumb": "https://live.staticflickr.com/65535/50017378828_68fd090bc4_n.jpg",
    "id_album": "-462831705",
    "description": "Cat_252730",
    "title": "Cat_252730",
    "link_img": "https://live.staticflickr.com/65535/50017378828_51905364ee_o.jpg",
    "id_image": "Cat_252730",
    "count_view": 0
  },
  {
    "link_thumb": "https://live.staticflickr.com/65535/50021087341_35c09454c6_n.jpg",
    "id_album": "844170697",
    "description": "Frog_940135",
    "title": "Frog_940135",
    "link_img": "https://live.staticflickr.com/65535/50021087341_1552e7d4d8_o.jpg",
    "id_image": "Frog_940135",
    "count_view": 0
  },
  {
    "link_thumb": "https://live.staticflickr.com/65535/50017747381_30d125bb4f_n.jpg",
    "id_album": "-462831705",
    "description": "Cat_103230",
    "title": "Cat_103230",
    "link_img": "https://live.staticflickr.com/65535/50017747381_0b10401960_o.jpg",
    "id_image": "Cat_103230",
    "count_view": 0
  },
  {
    "link_thumb": "https://live.staticflickr.com/65535/50022385032_984961a614_n.jpg",
    "id_album": "-656526748",
    "description": "Lizard_790128",
    "title": "Lizard_790128",
    "link_img": "https://live.staticflickr.com/65535/50022385032_6f7f8309ec_o.jpg",
    "id_image": "Lizard_790128",
    "count_view": 0
  },
  {
    "link_thumb": "https://live.staticflickr.com/65535/50019789506_2d8a6093bb_n.jpg",
    "id_album": "-1462118852",
    "description": "Corgi_1002456",
    "title": "Corgi_1002456",
    "link_img": "https://live.staticflickr.com/65535/50019789506_a40f5fc2f4_o.jpg",
    "id_image": "Corgi_1002456",
    "count_view": 0
  },
  {
    "link_thumb": "https://live.staticflickr.com/65535/50019391148_af822aacb5_n.jpg",
    "id_album": "1273365283",
    "description": "Cute_274727",
    "title": "Cute_274727",
    "link_img": "https://live.staticflickr.com/65535/50019391148_26a0464424_o.jpg",
    "id_image": "Cute_274727",
    "count_view": 0
  },
  {
    "link_thumb": "https://live.staticflickr.com/65535/50019023728_9d7711d1b2_n.jpg",
    "id_album": "-462831703",
    "description": "Cat_984187",
    "title": "Cat_984187",
    "link_img": "https://live.staticflickr.com/65535/50019023728_1def6328e2_o.jpg",
    "id_image": "Cat_984187",
    "count_view": 0
  },
  {
    "link_thumb": "https://live.staticflickr.com/65535/50021663111_7b5c3a91d1_n.jpg",
    "id_album": "1658866795",
    "description": "Insect_316345",
    "title": "Insect_316345",
    "link_img": "https://live.staticflickr.com/65535/50021663111_e0941cdfb9_o.jpg",
    "id_image": "Insect_316345",
    "count_view": 0
  },
  {
    "link_thumb": "https://live.staticflickr.com/65535/50021187578_3f82ce8462_n.jpg",
    "id_album": "-843028318",
    "description": "Jaguar_534610",
    "title": "Jaguar_534610",
    "link_img": "https://live.staticflickr.com/65535/50021187578_cb9d425135_o.jpg",
    "id_image": "Jaguar_534610",
    "count_view": 0
  },
  {
    "link_thumb": "https://live.staticflickr.com/65535/50017955047_17077b37c8_n.jpg",
    "id_album": "-401151552",
    "description": "Butterfly_924041",
    "title": "Butterfly_924041",
    "link_img": "https://live.staticflickr.com/65535/50017955047_5eaf4f7403_o.jpg",
    "id_image": "Butterfly_924041",
    "count_view": 0
  },
  {
    "link_thumb": "https://live.staticflickr.com/65535/50021054008_1b0d0de7e6_n.jpg",
    "id_album": "773713550",
    "description": "Hoverfly_369606",
    "title": "Hoverfly_369606",
    "link_img": "https://live.staticflickr.com/65535/50021054008_1d7072f758_o.jpg",
    "id_image": "Hoverfly_369606",
    "count_view": 0
  },
  {
    "link_thumb": "https://live.staticflickr.com/65535/50022918952_6fa9147a7c_n.jpg",
    "id_album": "1146438617",
    "description": "Pelican_705501",
    "title": "Pelican_705501",
    "link_img": "https://live.staticflickr.com/65535/50022918952_5015dcbbee_o.jpg",
    "id_image": "Pelican_705501",
    "count_view": 0
  },
  {
    "link_thumb": "https://live.staticflickr.com/65535/50022527866_deb10dba8a_n.jpg",
    "id_album": "-358592519",
    "description": "Panda_363033",
    "title": "Panda_363033",
    "link_img": "https://live.staticflickr.com/65535/50022527866_fee4c04a31_o.jpg",
    "id_image": "Panda_363033",
    "count_view": 0
  },
  {
    "link_thumb": "https://live.staticflickr.com/65535/50016419203_6d5dd80ac0_n.jpg",
    "id_album": "390697200",
    "description": "AustralianShepherd_903479",
    "title": "AustralianShepherd_903479",
    "link_img": "https://live.staticflickr.com/65535/50016419203_9c5f9a3403_o.jpg",
    "id_image": "AustralianShepherd_903479",
    "count_view": 0
  },
  {
    "link_thumb": "https://live.staticflickr.com/65535/50023767302_06344a8260_n.jpg",
    "id_album": "-800019164",
    "description": "Snail_311137",
    "title": "Snail_311137",
    "link_img": "https://live.staticflickr.com/65535/50023767302_38c9a0c49b_o.jpg",
    "id_image": "Snail_311137",
    "count_view": 0
  },
  {
    "link_thumb": "https://live.staticflickr.com/65535/50021266767_722a3cd94d_n.jpg",
    "id_album": "-128218148",
    "description": "Fox_853685",
    "title": "Fox_853685",
    "link_img": "https://live.staticflickr.com/65535/50021266767_d6a8bb6639_o.jpg",
    "id_image": "Fox_853685",
    "count_view": 0
  },
  {
    "link_thumb": "https://live.staticflickr.com/65535/50018886858_9f1c41b0c2_n.jpg",
    "id_album": "-462831703",
    "description": "Cat_901705",
    "title": "Cat_901705",
    "link_img": "https://live.staticflickr.com/65535/50018886858_e9060da7ca_o.jpg",
    "id_image": "Cat_901705",
    "count_view": 0
  },
  {
    "link_thumb": "https://live.staticflickr.com/65535/50017724986_1667d11a45_n.jpg",
    "id_album": "-1131161368",
    "description": "Camel_353354",
    "title": "Camel_353354",
    "link_img": "https://live.staticflickr.com/65535/50017724986_f85ddfccfc_o.jpg",
    "id_image": "Camel_353354",
    "count_view": 0
  },
  {
    "link_thumb": "https://live.staticflickr.com/65535/50021355217_642e17f1c6_n.jpg",
    "id_album": "-462831704",
    "description": "Cat_543748",
    "title": "Cat_543748",
    "link_img": "https://live.staticflickr.com/65535/50021355217_404828b286_o.jpg",
    "id_image": "Cat_543748",
    "count_view": 0
  },
  {
    "link_thumb": "https://live.staticflickr.com/65535/50023395863_226f0d44d2_n.jpg",
    "id_album": "702283289",
    "description": "Squirrel_773371",
    "title": "Squirrel_773371",
    "link_img": "https://live.staticflickr.com/65535/50023395863_9bf2055842_o.jpg",
    "id_image": "Squirrel_773371",
    "count_view": 0
  },
  {
    "link_thumb": "https://live.staticflickr.com/65535/50021449176_a85d961343_n.jpg",
    "id_album": "54253492",
    "description": "Heron_923998",
    "title": "Heron_923998",
    "link_img": "https://live.staticflickr.com/65535/50021449176_9289aeccd5_o.jpg",
    "id_image": "Heron_923998",
    "count_view": 0
  },
  {
    "link_thumb": "https://live.staticflickr.com/65535/50017013736_6f23510938_n.jpg",
    "id_album": "-422187261",
    "description": "Bear_262958",
    "title": "Bear_262958",
    "link_img": "https://live.staticflickr.com/65535/50017013736_9e89aef3e5_o.jpg",
    "id_image": "Bear_262958",
    "count_view": 0
  },
  {
    "link_thumb": "https://live.staticflickr.com/65535/50017512867_f3ca091fb7_n.jpg",
    "id_album": "-1846011410",
    "description": "Bird_342746",
    "title": "Bird_342746",
    "link_img": "https://live.staticflickr.com/65535/50017512867_2716b0e63f_o.jpg",
    "id_image": "Bird_342746",
    "count_view": 0
  },
  {
    "link_thumb": "https://live.staticflickr.com/65535/50017401998_c881e27017_n.jpg",
    "id_album": "-462831702",
    "description": "Cat_275321",
    "title": "Cat_275321",
    "link_img": "https://live.staticflickr.com/65535/50017401998_f6b8bdc498_o.jpg",
    "id_image": "Cat_275321",
    "count_view": 0
  },
  {
    "link_thumb": "https://live.staticflickr.com/65535/50023923112_e2ff316f29_n.jpg",
    "id_album": "-1131363127",
    "description": "SnowLeopard_672209",
    "title": "SnowLeopard_672209",
    "link_img": "https://live.staticflickr.com/65535/50023923112_40018c1b08_o.jpg",
    "id_image": "SnowLeopard_672209",
    "count_view": 0
  },
  {
    "link_thumb": "https://live.staticflickr.com/65535/50020464471_c866bf12d3_n.jpg",
    "id_album": "-149330231",
    "description": "Dog_591947",
    "title": "Dog_591947",
    "link_img": "https://live.staticflickr.com/65535/50020464471_ddea506296_o.jpg",
    "id_image": "Dog_591947",
    "count_view": 0
  },
  {
    "link_thumb": "https://live.staticflickr.com/65535/50020635246_6c09e958d5_n.jpg",
    "id_album": "-405058657",
    "description": "Dragonfly_680685",
    "title": "Dragonfly_680685",
    "link_img": "https://live.staticflickr.com/65535/50020635246_cdfeefffd4_o.jpg",
    "id_image": "Dragonfly_680685",
    "count_view": 0
  },
  {
    "link_thumb": "https://live.staticflickr.com/65535/50020397316_1fb3218e57_n.jpg",
    "id_album": "-149330231",
    "description": "Dog_420913",
    "title": "Dog_420913",
    "link_img": "https://live.staticflickr.com/65535/50020397316_814486bd95_o.jpg",
    "id_image": "Dog_420913",
    "count_view": 0
  },
  {
    "link_thumb": "https://live.staticflickr.com/65535/50352704027_3de906a655_n.jpg",
    "id_album": "-462831703",
    "description": "Cat_461905",
    "title": "Cat_461905",
    "link_img": "https://live.staticflickr.com/65535/50352704027_14e476ee6f_o.jpg",
    "id_image": "Cat_461905",
    "count_view": 0
  },
  {
    "link_thumb": "https://live.staticflickr.com/65535/50017842462_fe3da46a11_n.jpg",
    "id_album": "-401151552",
    "description": "Butterfly_390445",
    "title": "Butterfly_390445",
    "link_img": "https://live.staticflickr.com/65535/50017842462_e1e3f16388_o.jpg",
    "id_image": "Butterfly_390445",
    "count_view": 0
  },
  {
    "link_thumb": "https://live.staticflickr.com/65535/50019529936_aca37f5a8e_n.jpg",
    "id_album": "-462831703",
    "description": "Cat_964021",
    "title": "Cat_964021",
    "link_img": "https://live.staticflickr.com/65535/50019529936_14b17f511c_o.jpg",
    "id_image": "Cat_964021",
    "count_view": 0
  },
  {
    "link_thumb": "https://live.staticflickr.com/65535/50352865532_4577277c31_n.jpg",
    "id_album": "-462831702",
    "description": "Cat_86543",
    "title": "Cat_86543",
    "link_img": "https://live.staticflickr.com/65535/50352865532_c5db6e8b08_o.jpg",
    "id_image": "Cat_86543",
    "count_view": 0
  },
  {
    "link_thumb": "https://live.staticflickr.com/65535/50017069073_fd618588fd_n.jpg",
    "id_album": "-401151552",
    "description": "Butterfly_431143",
    "title": "Butterfly_431143",
    "link_img": "https://live.staticflickr.com/65535/50017069073_3605d50ea8_o.jpg",
    "id_image": "Butterfly_431143",
    "count_view": 0
  },
  {
    "link_thumb": "https://live.staticflickr.com/65535/50020697956_f87dc79edb_n.jpg",
    "id_album": "-39098563",
    "description": "Eagle_357227",
    "title": "Eagle_357227",
    "link_img": "https://live.staticflickr.com/65535/50020697956_e478cdd3d1_o.jpg",
    "id_image": "Eagle_357227",
    "count_view": 0
  },
  {
    "link_thumb": "https://live.staticflickr.com/65535/50021433136_b82742e102_n.jpg",
    "id_album": "1469520430",
    "description": "Hedgehog_534681",
    "title": "Hedgehog_534681",
    "link_img": "https://live.staticflickr.com/65535/50021433136_7b3cd69aa6_o.jpg",
    "id_image": "Hedgehog_534681",
    "count_view": 0
  },
  {
    "link_thumb": "https://live.staticflickr.com/65535/50021164936_87fcfb96ee_n.jpg",
    "id_album": "-462831704",
    "description": "Cat_682397",
    "title": "Cat_682397",
    "link_img": "https://live.staticflickr.com/65535/50021164936_b169f431d3_o.jpg",
    "id_image": "Cat_682397",
    "count_view": 0
  },
  {
    "link_thumb": "https://live.staticflickr.com/65535/50017203506_4207eff600_n.jpg",
    "id_album": "-1846011410",
    "description": "Bird_177377",
    "title": "Bird_177377",
    "link_img": "https://live.staticflickr.com/65535/50017203506_0f72483357_o.jpg",
    "id_image": "Bird_177377",
    "count_view": 0
  },
  {
    "link_thumb": "https://live.staticflickr.com/65535/50020018627_b234321cc8_n.jpg",
    "id_album": "791455625",
    "description": "Chipmunk_464567",
    "title": "Chipmunk_464567",
    "link_img": "https://live.staticflickr.com/65535/50020018627_a39380a660_o.jpg",
    "id_image": "Chipmunk_464567",
    "count_view": 0
  },
  {
    "link_thumb": "https://live.staticflickr.com/65535/50021606617_982b29d320_n.jpg",
    "id_album": "2060159334",
    "description": "GoldenRetriever_650888",
    "title": "GoldenRetriever_650888",
    "link_img": "https://live.staticflickr.com/65535/50021606617_d496f527ce_o.jpg",
    "id_image": "GoldenRetriever_650888",
    "count_view": 0
  },
  {
    "link_thumb": "https://live.staticflickr.com/65535/50019943298_fa69427390_n.jpg",
    "id_album": "-149330231",
    "description": "Dog_676742",
    "title": "Dog_676742",
    "link_img": "https://live.staticflickr.com/65535/50019943298_839f030bee_o.jpg",
    "id_image": "Dog_676742",
    "count_view": 0
  },
  {
    "link_thumb": "https://live.staticflickr.com/65535/50020249887_0becd8ce55_n.jpg",
    "id_album": "1903411565",
    "description": "Deer_330789",
    "title": "Deer_330789",
    "link_img": "https://live.staticflickr.com/65535/50020249887_44427d3e44_o.jpg",
    "id_image": "Deer_330789",
    "count_view": 0
  },
  {
    "link_thumb": "https://live.staticflickr.com/65535/50352784667_539125e6d7_n.jpg",
    "id_album": "-462831703",
    "description": "Cat_602784",
    "title": "Cat_602784",
    "link_img": "https://live.staticflickr.com/65535/50352784667_e60f1f40aa_o.jpg",
    "id_image": "Cat_602784",
    "count_view": 0
  },
  {
    "link_thumb": "https://live.staticflickr.com/65535/50021567472_f892508065_n.jpg",
    "id_album": "-405626519",
    "description": "GermanShepherd_963716",
    "title": "GermanShepherd_963716",
    "link_img": "https://live.staticflickr.com/65535/50021567472_53022185e2_o.jpg",
    "id_image": "GermanShepherd_963716",
    "count_view": 0
  },
  {
    "link_thumb": "https://live.staticflickr.com/65535/50020660258_7cb0a81361_n.jpg",
    "id_album": "-462831704",
    "description": "Cat_721351",
    "title": "Cat_721351",
    "link_img": "https://live.staticflickr.com/65535/50020660258_d251ae592b_o.jpg",
    "id_image": "Cat_721351",
    "count_view": 0
  },
  {
    "link_thumb": "https://live.staticflickr.com/65535/50017692071_1148720e55_n.jpg",
    "id_album": "-401151552",
    "description": "Butterfly_903502",
    "title": "Butterfly_903502",
    "link_img": "https://live.staticflickr.com/65535/50017692071_672143cbbb_o.jpg",
    "id_image": "Butterfly_903502",
    "count_view": 0
  },
  {
    "link_thumb": "https://live.staticflickr.com/65535/50019556807_ee3b142846_n.jpg",
    "id_album": "-462831704",
    "description": "Cat_532994",
    "title": "Cat_532994",
    "link_img": "https://live.staticflickr.com/65535/50019556807_c119f8f721_o.jpg",
    "id_image": "Cat_532994",
    "count_view": 0
  },
  {
    "link_thumb": "https://live.staticflickr.com/65535/50019496991_0df0f1eef9_n.jpg",
    "id_album": "-462831703",
    "description": "Cat_938184",
    "title": "Cat_938184",
    "link_img": "https://live.staticflickr.com/65535/50019496991_7d3c065787_o.jpg",
    "id_image": "Cat_938184",
    "count_view": 0
  },
  {
    "link_thumb": "https://live.staticflickr.com/65535/50022199332_f21eaf2efe_n.jpg",
    "id_album": "1392348450",
    "description": "Leopard_672378",
    "title": "Leopard_672378",
    "link_img": "https://live.staticflickr.com/65535/50022199332_30d53739a2_o.jpg",
    "id_image": "Leopard_672378",
    "count_view": 0
  },
  {
    "link_thumb": "https://live.staticflickr.com/65535/50024756242_71694fd3d1_n.jpg",
    "id_album": "-709711865",
    "description": "Wolf_405997",
    "title": "Wolf_405997",
    "link_img": "https://live.staticflickr.com/65535/50024756242_0de41acd0b_o.jpg",
    "id_image": "Wolf_405997",
    "count_view": 0
  },
  {
    "link_thumb": "https://live.staticflickr.com/65535/50018003861_82924cf33a_n.jpg",
    "id_album": "-462831702",
    "description": "Cat_336584",
    "title": "Cat_336584",
    "link_img": "https://live.staticflickr.com/65535/50018003861_a7a03c71a7_o.jpg",
    "id_image": "Cat_336584",
    "count_view": 0
  },
  {
    "link_thumb": "https://live.staticflickr.com/65535/50018297657_ab461aca7a_n.jpg",
    "id_album": "-462831702",
    "description": "Cat_353053",
    "title": "Cat_353053",
    "link_img": "https://live.staticflickr.com/65535/50018297657_296b2b6e14_o.jpg",
    "id_image": "Cat_353053",
    "count_view": 0
  },
  {
    "link_thumb": "https://live.staticflickr.com/65535/50020901317_ffe1cc1fdb_n.jpg",
    "id_album": "1168627767",
    "description": "Duck_166333",
    "title": "Duck_166333",
    "link_img": "https://live.staticflickr.com/65535/50020901317_1d4bf666f7_o.jpg",
    "id_image": "Duck_166333",
    "count_view": 0
  },
  {
    "link_thumb": "https://live.staticflickr.com/65535/50019598638_a3c96eefdd_n.jpg",
    "id_album": "-149330232",
    "description": "Dog_171974",
    "title": "Dog_171974",
    "link_img": "https://live.staticflickr.com/65535/50019598638_2ef57ed261_o.jpg",
    "id_image": "Dog_171974",
    "count_view": 0
  },
  {
    "link_thumb": "https://live.staticflickr.com/65535/50019681663_714c150b8b_n.jpg",
    "id_album": "-149330232",
    "description": "Dog_275618",
    "title": "Dog_275618",
    "link_img": "https://live.staticflickr.com/65535/50019681663_3ee3654b21_o.jpg",
    "id_image": "Dog_275618",
    "count_view": 0
  },
  {
    "link_thumb": "https://live.staticflickr.com/65535/50019155058_a4f0031980_n.jpg",
    "id_album": "-1481843714",
    "description": "Cheetah_249180",
    "title": "Cheetah_249180",
    "link_img": "https://live.staticflickr.com/65535/50019155058_1109f5ef6f_o.jpg",
    "id_image": "Cheetah_249180",
    "count_view": 0
  },
  {
    "link_thumb": "https://live.staticflickr.com/65535/50023047226_0c5969efe6_n.jpg",
    "id_album": "-353898617",
    "description": "Puppy_678243",
    "title": "Puppy_678243",
    "link_img": "https://live.staticflickr.com/65535/50023047226_6dc228839a_o.jpg",
    "id_image": "Puppy_678243",
    "count_view": 0
  },
  {
    "link_thumb": "https://live.staticflickr.com/65535/50351719898_daef98273a_n.jpg",
    "id_album": "-462831703",
    "description": "Cat_191600",
    "title": "Cat_191600",
    "link_img": "https://live.staticflickr.com/65535/50351719898_49534cc32e_o.jpg",
    "id_image": "Cat_191600",
    "count_view": 0
  },
  {
    "link_thumb": "https://live.staticflickr.com/65535/50018812668_e96377ee6a_n.jpg",
    "id_album": "-462831705",
    "description": "Cat_86537",
    "title": "Cat_86537",
    "link_img": "https://live.staticflickr.com/65535/50018812668_90d8f665a0_o.jpg",
    "id_image": "Cat_86537",
    "count_view": 0
  },
  {
    "link_thumb": "https://live.staticflickr.com/65535/50017021573_d10d6823c2_n.jpg",
    "id_album": "-401151552",
    "description": "Butterfly_234451",
    "title": "Butterfly_234451",
    "link_img": "https://live.staticflickr.com/65535/50017021573_46425b5e4d_o.jpg",
    "id_image": "Butterfly_234451",
    "count_view": 0
  },
  {
    "link_thumb": "https://live.staticflickr.com/65535/50021309563_29da7e1cde_n.jpg",
    "id_album": "-1882491687",
    "description": "Ladybug_443197",
    "title": "Ladybug_443197",
    "link_img": "https://live.staticflickr.com/65535/50021309563_e0e26ebbd9_o.jpg",
    "id_image": "Ladybug_443197",
    "count_view": 0
  },
  {
    "link_thumb": "https://live.staticflickr.com/65535/50019069498_9d4950146e_n.jpg",
    "id_album": "-1930903528",
    "description": "CatDog_991016",
    "title": "CatDog_991016",
    "link_img": "https://live.staticflickr.com/65535/50019069498_09ae97c743_o.jpg",
    "id_image": "CatDog_991016",
    "count_view": 0
  },
  {
    "link_thumb": "https://live.staticflickr.com/65535/50019925772_8681f046e5_n.jpg",
    "id_album": "-766919393",
    "description": "Chameleon_833784",
    "title": "Chameleon_833784",
    "link_img": "https://live.staticflickr.com/65535/50019925772_be4e4e71fb_o.jpg",
    "id_image": "Chameleon_833784",
    "count_view": 0
  },
  {
    "link_thumb": "https://live.staticflickr.com/65535/50018935953_62d38b0f5d_n.jpg",
    "id_album": "-462831703",
    "description": "Cat_917463",
    "title": "Cat_917463",
    "link_img": "https://live.staticflickr.com/65535/50018935953_755c2cef3f_o.jpg",
    "id_image": "Cat_917463",
    "count_view": 0
  },
  {
    "link_thumb": "https://live.staticflickr.com/65535/50019274408_cc88919e94_n.jpg",
    "id_album": "-1868680171",
    "description": "Cougar_253276",
    "title": "Cougar_253276",
    "link_img": "https://live.staticflickr.com/65535/50019274408_78a2bb41cb_o.jpg",
    "id_image": "Cougar_253276",
    "count_view": 0
  },
  {
    "link_thumb": "https://live.staticflickr.com/65535/50022954258_879b0cf58d_n.jpg",
    "id_album": "692487763",
    "description": "SiberianHusky_323417",
    "title": "SiberianHusky_323417",
    "link_img": "https://live.staticflickr.com/65535/50022954258_6cbbfa9017_o.jpg",
    "id_image": "SiberianHusky_323417",
    "count_view": 0
  },
  {
    "link_thumb": "https://live.staticflickr.com/65535/50019885418_bb702524c1_n.jpg",
    "id_album": "-149330231",
    "description": "Dog_443770",
    "title": "Dog_443770",
    "link_img": "https://live.staticflickr.com/65535/50019885418_24238224e8_o.jpg",
    "id_image": "Dog_443770",
    "count_view": 0
  },
  {
    "link_thumb": "https://live.staticflickr.com/65535/50021166456_a66de32935_n.jpg",
    "id_album": "-462831704",
    "description": "Cat_682975",
    "title": "Cat_682975",
    "link_img": "https://live.staticflickr.com/65535/50021166456_46cd545b86_o.jpg",
    "id_image": "Cat_682975",
    "count_view": 0
  },
  {
    "link_thumb": "https://live.staticflickr.com/65535/50017807391_0b94060f5a_n.jpg",
    "id_album": "-462831705",
    "description": "Cat_169802",
    "title": "Cat_169802",
    "link_img": "https://live.staticflickr.com/65535/50017807391_a8189553ba_o.jpg",
    "id_image": "Cat_169802",
    "count_view": 0
  },
  {
    "link_thumb": "https://live.staticflickr.com/65535/50017060573_5cb427556d_n.jpg",
    "id_album": "-401151552",
    "description": "Butterfly_409577",
    "title": "Butterfly_409577",
    "link_img": "https://live.staticflickr.com/65535/50017060573_d95db6a3ae_o.jpg",
    "id_image": "Butterfly_409577",
    "count_view": 0
  },
  {
    "link_thumb": "https://live.staticflickr.com/65535/50020768176_f8938e33c9_n.jpg",
    "id_album": "1270947998",
    "description": "Elephant_534686",
    "title": "Elephant_534686",
    "link_img": "https://live.staticflickr.com/65535/50020768176_cc6155cd52_o.jpg",
    "id_image": "Elephant_534686",
    "count_view": 0
  },
  {
    "link_thumb": "https://live.staticflickr.com/65535/50020860538_196496e9cf_n.jpg",
    "id_album": "-1168906494",
    "description": "Grasshopper_591508",
    "title": "Grasshopper_591508",
    "link_img": "https://live.staticflickr.com/65535/50020860538_ca7eff2c0d_o.jpg",
    "id_image": "Grasshopper_591508",
    "count_view": 0
  },
  {
    "link_thumb": "https://live.staticflickr.com/65535/50021456342_7051635edf_n.jpg",
    "id_album": "-462831704",
    "description": "Cat_721185",
    "title": "Cat_721185",
    "link_img": "https://live.staticflickr.com/65535/50021456342_6210d66c89_o.jpg",
    "id_image": "Cat_721185",
    "count_view": 0
  },
  {
    "link_thumb": "https://live.staticflickr.com/65535/50020649027_91e874af06_n.jpg",
    "id_album": "-149330231",
    "description": "Dog_411154",
    "title": "Dog_411154",
    "link_img": "https://live.staticflickr.com/65535/50020649027_db2d37ed12_o.jpg",
    "id_image": "Dog_411154",
    "count_view": 0
  },
  {
    "link_thumb": "https://live.staticflickr.com/65535/50351747853_b40f7ece45_n.jpg",
    "id_album": "-462831703",
    "description": "Cat_253257",
    "title": "Cat_253257",
    "link_img": "https://live.staticflickr.com/65535/50351747853_fb053ee0e6_o.jpg",
    "id_image": "Cat_253257",
    "count_view": 0
  },
  {
    "link_thumb": "https://live.staticflickr.com/65535/50021178511_2303629462_n.jpg",
    "id_album": "-462831704",
    "description": "Cat_698015",
    "title": "Cat_698015",
    "link_img": "https://live.staticflickr.com/65535/50021178511_c06bd601f9_o.jpg",
    "id_image": "Cat_698015",
    "count_view": 0
  },
  {
    "link_thumb": "https://live.staticflickr.com/65535/50023672667_d55f56dc54_n.jpg",
    "id_album": "1961094930",
    "description": "Seal_466635",
    "title": "Seal_466635",
    "link_img": "https://live.staticflickr.com/65535/50023672667_49d64b0f1a_o.jpg",
    "id_image": "Seal_466635",
    "count_view": 0
  },
  {
    "link_thumb": "https://live.staticflickr.com/65535/50018899403_2b0d7b0599_n.jpg",
    "id_album": "-462831703",
    "description": "Cat_905885",
    "title": "Cat_905885",
    "link_img": "https://live.staticflickr.com/65535/50018899403_3ff1c1df1f_o.jpg",
    "id_image": "Cat_905885",
    "count_view": 0
  },
  {
    "link_thumb": "https://live.staticflickr.com/65535/50019929427_2ff48fd361_n.jpg",
    "id_album": "-766919393",
    "description": "Chameleon_914583",
    "title": "Chameleon_914583",
    "link_img": "https://live.staticflickr.com/65535/50019929427_a6cee7db7d_o.jpg",
    "id_image": "Chameleon_914583",
    "count_view": 0
  },
  {
    "link_thumb": "https://live.staticflickr.com/65535/50020183623_14be81fc90_n.jpg",
    "id_album": "-39098563",
    "description": "Eagle_588540",
    "title": "Eagle_588540",
    "link_img": "https://live.staticflickr.com/65535/50020183623_475d9b3754_o.jpg",
    "id_image": "Eagle_588540",
    "count_view": 0
  },
  {
    "link_thumb": "https://live.staticflickr.com/65535/50017246183_be77c1b57a_n.jpg",
    "id_album": "-462831705",
    "description": "Cat_117592",
    "title": "Cat_117592",
    "link_img": "https://live.staticflickr.com/65535/50017246183_05ca5b84fb_o.jpg",
    "id_image": "Cat_117592",
    "count_view": 0
  },
  {
    "link_thumb": "https://live.staticflickr.com/65535/50017017548_a291057547_n.jpg",
    "id_album": "-401151552",
    "description": "Butterfly_216809",
    "title": "Butterfly_216809",
    "link_img": "https://live.staticflickr.com/65535/50017017548_543e79649f_o.jpg",
    "id_image": "Butterfly_216809",
    "count_view": 0
  },
  {
    "link_thumb": "https://live.staticflickr.com/65535/50018138462_3aae93dbed_n.jpg",
    "id_album": "-462831705",
    "description": "Cat_232518",
    "title": "Cat_232518",
    "link_img": "https://live.staticflickr.com/65535/50018138462_f11f9a06ef_o.jpg",
    "id_image": "Cat_232518",
    "count_view": 0
  },
  {
    "link_thumb": "https://live.staticflickr.com/65535/50019060173_71a801e8ee_n.jpg",
    "id_album": "-1930903528",
    "description": "CatDog_785196",
    "title": "CatDog_785196",
    "link_img": "https://live.staticflickr.com/65535/50019060173_f363f4e362_o.jpg",
    "id_image": "CatDog_785196",
    "count_view": 0
  },
  {
    "link_thumb": "https://live.staticflickr.com/65535/50020599018_7c009ed1bb_n.jpg",
    "id_album": "-462831704",
    "description": "Cat_599512",
    "title": "Cat_599512",
    "link_img": "https://live.staticflickr.com/65535/50020599018_b41bcbe824_o.jpg",
    "id_image": "Cat_599512",
    "count_view": 0
  },
  {
    "link_thumb": "https://live.staticflickr.com/65535/50020149771_d2bed03eff_n.jpg",
    "id_album": "-149330232",
    "description": "Dog_209103",
    "title": "Dog_209103",
    "link_img": "https://live.staticflickr.com/65535/50020149771_f228df0b5c_o.jpg",
    "id_image": "Dog_209103",
    "count_view": 0
  },
  {
    "link_thumb": "https://live.staticflickr.com/65535/50017266647_d1d73f215a_n.jpg",
    "id_album": "-422187261",
    "description": "Bear_190986",
    "title": "Bear_190986",
    "link_img": "https://live.staticflickr.com/65535/50017266647_2be34292e4_o.jpg",
    "id_image": "Bear_190986",
    "count_view": 0
  },
  {
    "link_thumb": "https://live.staticflickr.com/65535/50021255458_a2880b26d1_n.jpg",
    "id_album": "770105808",
    "description": "Kingfisher_367320",
    "title": "Kingfisher_367320",
    "link_img": "https://live.staticflickr.com/65535/50021255458_ce287507e5_o.jpg",
    "id_image": "Kingfisher_367320",
    "count_view": 0
  },
  {
    "link_thumb": "https://live.staticflickr.com/65535/50023931942_a2e55ec7d7_n.jpg",
    "id_album": "-1131363127",
    "description": "SnowLeopard_784070",
    "title": "SnowLeopard_784070",
    "link_img": "https://live.staticflickr.com/65535/50023931942_67800e59e5_o.jpg",
    "id_image": "SnowLeopard_784070",
    "count_view": 0
  },
  {
    "link_thumb": "https://live.staticflickr.com/65535/50019517046_b9064ff500_n.jpg",
    "id_album": "-462831703",
    "description": "Cat_955199",
    "title": "Cat_955199",
    "link_img": "https://live.staticflickr.com/65535/50019517046_b1ed1f0101_o.jpg",
    "id_image": "Cat_955199",
    "count_view": 0
  },
  {
    "link_thumb": "https://live.staticflickr.com/65535/50023731758_94e3a77908_n.jpg",
    "id_album": "-1103743486",
    "description": "Toucan_260623",
    "title": "Toucan_260623",
    "link_img": "https://live.staticflickr.com/65535/50023731758_bfc6e07a7e_o.jpg",
    "id_image": "Toucan_260623",
    "count_view": 0
  },
  {
    "link_thumb": "https://live.staticflickr.com/65535/50017807851_b21590b0c9_n.jpg",
    "id_album": "-462831705",
    "description": "Cat_170110",
    "title": "Cat_170110",
    "link_img": "https://live.staticflickr.com/65535/50017807851_eb7b675392_o.jpg",
    "id_image": "Cat_170110",
    "count_view": 0
  },
  {
    "link_thumb": "https://live.staticflickr.com/65535/50017281873_2b64319849_n.jpg",
    "id_album": "-462831705",
    "description": "Cat_171581",
    "title": "Cat_171581",
    "link_img": "https://live.staticflickr.com/65535/50017281873_7470e095bf_o.jpg",
    "id_image": "Cat_171581",
    "count_view": 0
  },
  {
    "link_thumb": "https://live.staticflickr.com/65535/50022567691_0cf02e3500_n.jpg",
    "id_album": "405592235",
    "description": "Parrot_414137",
    "title": "Parrot_414137",
    "link_img": "https://live.staticflickr.com/65535/50022567691_aa1f5c2c94_o.jpg",
    "id_image": "Parrot_414137",
    "count_view": 0
  },
  {
    "link_thumb": "https://live.staticflickr.com/65535/50020578047_6ebc499b64_n.jpg",
    "id_album": "-149330232",
    "description": "Dog_362282",
    "title": "Dog_362282",
    "link_img": "https://live.staticflickr.com/65535/50020578047_9c249dc768_o.jpg",
    "id_image": "Dog_362282",
    "count_view": 0
  },
  {
    "link_thumb": "https://live.staticflickr.com/65535/50020364991_b3df0d337b_n.jpg",
    "id_album": "-149330231",
    "description": "Dog_387151",
    "title": "Dog_387151",
    "link_img": "https://live.staticflickr.com/65535/50020364991_84da2ae7a2_o.jpg",
    "id_image": "Dog_387151",
    "count_view": 0
  },
  {
    "link_thumb": "https://live.staticflickr.com/65535/50017174402_25a3afa834_n.jpg",
    "id_album": "523598895",
    "description": "Artistic_698147",
    "title": "Artistic_698147",
    "link_img": "https://live.staticflickr.com/65535/50017174402_81ac6e99a8_o.jpg",
    "id_image": "Artistic_698147",
    "count_view": 0
  },
  {
    "link_thumb": "https://live.staticflickr.com/65535/50023454772_3ca10ec242_n.jpg",
    "id_album": "-1862965835",
    "description": "RedEyedTreeFrog_918968",
    "title": "RedEyedTreeFrog_918968",
    "link_img": "https://live.staticflickr.com/65535/50023454772_6223a7e7b5_o.jpg",
    "id_image": "RedEyedTreeFrog_918968",
    "count_view": 0
  },
  {
    "link_thumb": "https://live.staticflickr.com/65535/50017191038_356aedbaf9_n.jpg",
    "id_album": "-401151552",
    "description": "Butterfly_957936",
    "title": "Butterfly_957936",
    "link_img": "https://live.staticflickr.com/65535/50017191038_251a19a4d0_o.jpg",
    "id_image": "Butterfly_957936",
    "count_view": 0
  },
  {
    "link_thumb": "https://live.staticflickr.com/65535/50019580827_fe95e7b0c0_n.jpg",
    "id_album": "-462831703",
    "description": "Cat_853700",
    "title": "Cat_853700",
    "link_img": "https://live.staticflickr.com/65535/50019580827_7a4fac7c64_o.jpg",
    "id_image": "Cat_853700",
    "count_view": 0
  },
  {
    "link_thumb": "https://live.staticflickr.com/65535/50024559796_3f0eff437e_n.jpg",
    "id_album": "-709711865",
    "description": "Wolf_909698",
    "title": "Wolf_909698",
    "link_img": "https://live.staticflickr.com/65535/50024559796_ea3b90ec94_o.jpg",
    "id_image": "Wolf_909698",
    "count_view": 0
  },
  {
    "link_thumb": "https://live.staticflickr.com/65535/50023738067_58a08c5751_n.jpg",
    "id_album": "-755466332",
    "description": "Sheep_476018",
    "title": "Sheep_476018",
    "link_img": "https://live.staticflickr.com/65535/50023738067_3a9571d8ef_o.jpg",
    "id_image": "Sheep_476018",
    "count_view": 0
  }
]