[
  {
    "link_thumb": "https://live.staticflickr.com/65535/50022089207_6eecdf7728_n.jpg",
    "id_album": "1307335982",
    "description": "LabradorRetriever_828960",
    "title": "LabradorRetriever_828960",
    "link_img": "https://live.staticflickr.com/65535/50022089207_2b9d7a9231_o.jpg",
    "id_image": "LabradorRetriever_828960",
    "count_view": 0
  },
  {
    "link_thumb": "https://live.staticflickr.com/65535/50352620286_825bf77e25_n.jpg",
    "id_album": "-462831703",
    "description": "Cat_594907",
    "title": "Cat_594907",
    "link_img": "https://live.staticflickr.com/65535/50352620286_3e7b5e0648_o.jpg",
    "id_image": "Cat_594907",
    "count_view": 0
  },
  {
    "link_thumb": "https://live.staticflickr.com/65535/50016484518_f9f7d63c49_n.jpg",
    "id_album": "-422187261",
    "description": "Bear_239771",
    "title": "Bear_239771",
    "link_img": "https://live.staticflickr.com/65535/50016484518_db8a5a151b_o.jpg",
    "id_image": "Bear_239771",
    "count_view": 0
  },
  {
    "link_thumb": "https://live.staticflickr.com/65535/50018000722_f1cdbfd89b_n.jpg",
    "id_album": "189994021",
    "description": "Cardinal_943474",
    "title": "Cardinal_943474",
    "link_img": "https://live.staticflickr.com/65535/50018000722_65f83fd3b1_o.jpg",
    "id_image": "Cardinal_943474",
    "count_view": 0
  },
  {
    "link_thumb": "https://live.staticflickr.com/65535/50017399047_ed9a45ebe0_n.jpg",
    "id_album": "1699594607",
    "description": "Bee_439749",
    "title": "Bee_439749",
    "link_img": "https://live.staticflickr.com/65535/50017399047_6c5038ce63_o.jpg",
    "id_image": "Bee_439749",
    "count_view": 0
  },
  {
    "link_thumb": "https://live.staticflickr.com/65535/50020653526_6edd7617f6_n.jpg",
    "id_album": "1168627767",
    "description": "Duck_368186",
    "title": "Duck_368186",
    "link_img": "https://live.staticflickr.com/65535/50020653526_0d93ec9331_o.jpg",
    "id_image": "Duck_368186",
    "count_view": 0
  },
  {
    "link_thumb": "https://live.staticflickr.com/65535/50019995512_5a7688ce04_n.jpg",
    "id_album": "-1481843714",
    "description": "Cheetah_990724",
    "title": "Cheetah_990724",
    "link_img": "https://live.staticflickr.com/65535/50019995512_d9cf2001e0_o.jpg",
    "id_image": "Cheetah_990724",
    "count_view": 0
  },
  {
    "link_thumb": "https://live.staticflickr.com/65535/50017730217_8e26ac1ff0_n.jpg",
    "id_album": "-530283314",
    "description": "BlueandyellowMacaw_585150",
    "title": "BlueandyellowMacaw_585150",
    "link_img": "https://live.staticflickr.com/65535/50017730217_f418c5d27c_o.jpg",
    "id_image": "BlueandyellowMacaw_585150",
    "count_view": 0
  },
  {
    "link_thumb": "https://live.staticflickr.com/65535/50022016497_4714452a14_n.jpg",
    "id_album": "1562047127",
    "description": "Jellyfish_287854",
    "title": "Jellyfish_287854",
    "link_img": "https://live.staticflickr.com/65535/50022016497_38b0dbd572_o.jpg",
    "id_image": "Jellyfish_287854",
    "count_view": 0
  },
  {
    "link_thumb": "https://live.staticflickr.com/65535/50020680921_7806b03786_n.jpg",
    "id_album": "-39098563",
    "description": "Eagle_126855",
    "title": "Eagle_126855",
    "link_img": "https://live.staticflickr.com/65535/50020680921_cc92f9eaf2_o.jpg",
    "id_image": "Eagle_126855",
    "count_view": 0
  },
  {
    "link_thumb": "https://live.staticflickr.com/65535/50021417527_3623b1eb0e_n.jpg",
    "id_album": "-462831704",
    "description": "Cat_681285",
    "title": "Cat_681285",
    "link_img": "https://live.staticflickr.com/65535/50021417527_07653ed71e_o.jpg",
    "id_image": "Cat_681285",
    "count_view": 0
  },
  {
    "link_thumb": "https://live.staticflickr.com/65535/50020714016_15492ce10a_n.jpg",
    "id_album": "-39098563",
    "description": "Eagle_542459",
    "title": "Eagle_542459",
    "link_img": "https://live.staticflickr.com/65535/50020714016_914e070401_o.jpg",
    "id_image": "Eagle_542459",
    "count_view": 0
  },
  {
    "link_thumb": "https://live.staticflickr.com/65535/50020795263_d2c1a07018_n.jpg",
    "id_album": "713572662",
    "description": "Giraffe_993386",
    "title": "Giraffe_993386",
    "link_img": "https://live.staticflickr.com/65535/50020795263_e41ed0f3a1_o.jpg",
    "id_image": "Giraffe_993386",
    "count_view": 0
  },
  {
    "link_thumb": "https://live.staticflickr.com/65535/50017992446_2d9847a983_n.jpg",
    "id_album": "-462831702",
    "description": "Cat_332170",
    "title": "Cat_332170",
    "link_img": "https://live.staticflickr.com/65535/50017992446_db3c3733ee_o.jpg",
    "id_image": "Cat_332170",
    "count_view": 0
  },
  {
    "link_thumb": "https://live.staticflickr.com/65535/50021384116_5417c9a8b8_n.jpg",
    "id_album": "-817970789",
    "description": "Goose_49104",
    "title": "Goose_49104",
    "link_img": "https://live.staticflickr.com/65535/50021384116_9e2ed08b9f_o.jpg",
    "id_image": "Goose_49104",
    "count_view": 0
  },
  {
    "link_thumb": "https://live.staticflickr.com/65535/50021101201_9678fc981c_n.jpg",
    "id_album": "-462831704",
    "description": "Cat_543333",
    "title": "Cat_543333",
    "link_img": "https://live.staticflickr.com/65535/50021101201_6f7e018a5f_o.jpg",
    "id_image": "Cat_543333",
    "count_view": 0
  },
  {
    "link_thumb": "https://live.staticflickr.com/65535/50024027948_3789429ebc_n.jpg",
    "id_album": "1104421803",
    "description": "Zebra_366812",
    "title": "Zebra_366812",
    "link_img": "https://live.staticflickr.com/65535/50024027948_298618e8a5_o.jpg",
    "id_image": "Zebra_366812",
    "count_view": 0
  },
  {
    "link_thumb": "https://live.staticflickr.com/65535/50017163432_0d2c78c18e_n.jpg",
    "id_album": "523598895",
    "description": "Artistic_407138",
    "title": "Artistic_407138",
    "link_img": "https://live.staticflickr.com/65535/50017163432_33454dfbe9_o.jpg",
    "id_image": "Artistic_407138",
    "count_view": 0
  },
  {
    "link_thumb": "https://live.staticflickr.com/65535/50019667283_35f8f2e023_n.jpg",
    "id_album": "-149330232",
    "description": "Dog_266993",
    "title": "Dog_266993",
    "link_img": "https://live.staticflickr.com/65535/50019667283_e7db1a2ab9_o.jpg",
    "id_image": "Dog_266993",
    "count_view": 0
  },
  {
    "link_thumb": "https://live.staticflickr.com/65535/50023795862_ae97b9e022_n.jpg",
    "id_album": "-800019164",
    "description": "Snail_715016",
    "title": "Snail_715016",
    "link_img": "https://live.staticflickr.com/65535/50023795862_262ce57cbf_o.jpg",
    "id_image": "Snail_715016",
    "count_view": 0
  },
  {
    "link_thumb": "https://live.staticflickr.com/65535/50022302761_6e86bbe4bb_n.jpg",
    "id_album": "1015034486",
    "description": "Muteswan_108336",
    "title": "Muteswan_108336",
    "link_img": "https://live.staticflickr.com/65535/50022302761_1e2df235f1_o.jpg",
    "id_image": "Muteswan_108336",
    "count_view": 0
  },
  {
    "link_thumb": "https://live.staticflickr.com/65535/50023454111_11a3a2b0ac_n.jpg",
    "id_album": "-1596347105",
    "description": "Shark_561846",
    "title": "Shark_561846",
    "link_img": "https://live.staticflickr.com/65535/50023454111_b2aeb16ee8_o.jpg",
    "id_image": "Shark_561846",
    "count_view": 0
  },
  {
    "link_thumb": "https://live.staticflickr.com/65535/50017716331_e4609ed71a_n.jpg",
    "id_album": "-401151552",
    "description": "Butterfly_944527",
    "title": "Butterfly_944527",
    "link_img": "https://live.staticflickr.com/65535/50017716331_82b55a3ddf_o.jpg",
    "id_image": "Butterfly_944527",
    "count_view": 0
  },
  {
    "link_thumb": "https://live.staticflickr.com/65535/50352628426_3dfe13aa48_n.jpg",
    "id_album": "-462831703",
    "description": "Cat_621682",
    "title": "Cat_621682",
    "link_img": "https://live.staticflickr.com/65535/50352628426_a7750ec7ac_o.jpg",
    "id_image": "Cat_621682",
    "count_view": 0
  },
  {
    "link_thumb": "https://live.staticflickr.com/65535/50018054727_e02df14aed_n.jpg",
    "id_album": "-462831705",
    "description": "Cat_165584",
    "title": "Cat_165584",
    "link_img": "https://live.staticflickr.com/65535/50018054727_67968c7691_o.jpg",
    "id_image": "Cat_165584",
    "count_view": 0
  },
  {
    "link_thumb": "https://live.staticflickr.com/65535/50020535892_1de579a5a8_n.jpg",
    "id_album": "-149330232",
    "description": "Dog_340984",
    "title": "Dog_340984",
    "link_img": "https://live.staticflickr.com/65535/50020535892_be0cc23d4f_o.jpg",
    "id_image": "Dog_340984",
    "count_view": 0
  },
  {
    "link_thumb": "https://live.staticflickr.com/65535/50352642626_6dfc1d58c5_n.jpg",
    "id_album": "-462831703",
    "description": "Cat_682412",
    "title": "Cat_682412",
    "link_img": "https://live.staticflickr.com/65535/50352642626_bcd275220e_o.jpg",
    "id_image": "Cat_682412",
    "count_view": 0
  },
  {
    "link_thumb": "https://live.staticflickr.com/65535/50021588668_81974e762d_n.jpg",
    "id_album": "1894617400",
    "description": "Lynx_289732",
    "title": "Lynx_289732",
    "link_img": "https://live.staticflickr.com/65535/50021588668_3a7d751639_o.jpg",
    "id_image": "Lynx_289732",
    "count_view": 0
  },
  {
    "link_thumb": "https://live.staticflickr.com/65535/50017385973_1e5eaa010f_n.jpg",
    "id_album": "-462831705",
    "description": "Cat_262666",
    "title": "Cat_262666",
    "link_img": "https://live.staticflickr.com/65535/50017385973_ae48a8edfa_o.jpg",
    "id_image": "Cat_262666",
    "count_view": 0
  },
  {
    "link_thumb": "https://live.staticflickr.com/65535/50020142236_9d6bc8924d_n.jpg",
    "id_album": "-149330232",
    "description": "Dog_196293",
    "title": "Dog_196293",
    "link_img": "https://live.staticflickr.com/65535/50020142236_ae792bbfc3_o.jpg",
    "id_image": "Dog_196293",
    "count_view": 0
  },
  {
    "link_thumb": "https://live.staticflickr.com/65535/50022867587_62c43707fa_n.jpg",
    "id_album": "-801414987",
    "description": "Peacock_868628",
    "title": "Peacock_868628",
    "link_img": "https://live.staticflickr.com/65535/50022867587_18f36cd834_o.jpg",
    "id_image": "Peacock_868628",
    "count_view": 0
  },
  {
    "link_thumb": "https://live.staticflickr.com/65535/50021231762_1b30ba2e0d_n.jpg",
    "id_album": "-128218148",
    "description": "Fox_585772",
    "title": "Fox_585772",
    "link_img": "https://live.staticflickr.com/65535/50021231762_315f12cdd6_o.jpg",
    "id_image": "Fox_585772",
    "count_view": 0
  },
  {
    "link_thumb": "https://live.staticflickr.com/65535/50020570047_5d2fe636bb_n.jpg",
    "id_album": "-149330232",
    "description": "Dog_356877",
    "title": "Dog_356877",
    "link_img": "https://live.staticflickr.com/65535/50020570047_cbb920b011_o.jpg",
    "id_image": "Dog_356877",
    "count_view": 0
  },
  {
    "link_thumb": "https://live.staticflickr.com/65535/50019584758_0b675f1806_n.jpg",
    "id_album": "-149330232",
    "description": "Dog_110343",
    "title": "Dog_110343",
    "link_img": "https://live.staticflickr.com/65535/50019584758_d987dce747_o.jpg",
    "id_image": "Dog_110343",
    "count_view": 0
  },
  {
    "link_thumb": "https://live.staticflickr.com/65535/50021877681_19f9a2ba3f_n.jpg",
    "id_album": "1918884325",
    "description": "Lemur_711372",
    "title": "Lemur_711372",
    "link_img": "https://live.staticflickr.com/65535/50021877681_b6a3500c94_o.jpg",
    "id_image": "Lemur_711372",
    "count_view": 0
  },
  {
    "link_thumb": "https://live.staticflickr.com/65535/50023452187_37148ee9cd_n.jpg",
    "id_album": "-1862965835",
    "description": "RedEyedTreeFrog_854677",
    "title": "RedEyedTreeFrog_854677",
    "link_img": "https://live.staticflickr.com/65535/50023452187_37b9412396_o.jpg",
    "id_image": "RedEyedTreeFrog_854677",
    "count_view": 0
  },
  {
    "link_thumb": "https://live.staticflickr.com/65535/50021625753_770aaeb11a_n.jpg",
    "id_album": "1894617400",
    "description": "Lynx_915860",
    "title": "Lynx_915860",
    "link_img": "https://live.staticflickr.com/65535/50021625753_cec65ddcf5_o.jpg",
    "id_image": "Lynx_915860",
    "count_view": 0
  },
  {
    "link_thumb": "https://live.staticflickr.com/65535/50024571176_cb262cbc97_n.jpg",
    "id_album": "1104421803",
    "description": "Zebra_367183",
    "title": "Zebra_367183",
    "link_img": "https://live.staticflickr.com/65535/50024571176_61e87a64d9_o.jpg",
    "id_image": "Zebra_367183",
    "count_view": 0
  },
  {
    "link_thumb": "https://live.staticflickr.com/65535/50021636416_9cf9d572aa_n.jpg",
    "id_album": "-712553376",
    "description": "Husky_524471",
    "title": "Husky_524471",
    "link_img": "https://live.staticflickr.com/65535/50021636416_c12c84b081_o.jpg",
    "id_image": "Husky_524471",
    "count_view": 0
  },
  {
    "link_thumb": "https://live.staticflickr.com/65535/50020740128_afe4933ccc_n.jpg",
    "id_album": "-405626519",
    "description": "GermanShepherd_113907",
    "title": "GermanShepherd_113907",
    "link_img": "https://live.staticflickr.com/65535/50020740128_94b17f54cb_o.jpg",
    "id_image": "GermanShepherd_113907",
    "count_view": 0
  },
  {
    "link_thumb": "https://live.staticflickr.com/65535/50022387688_3fb4cabede_n.jpg",
    "id_album": "-356780855",
    "description": "Puffin_813991",
    "title": "Puffin_813991",
    "link_img": "https://live.staticflickr.com/65535/50022387688_01cb85f5c3_o.jpg",
    "id_image": "Puffin_813991",
    "count_view": 0
  },
  {
    "link_thumb": "https://live.staticflickr.com/65535/50022140438_c2177ea512_n.jpg",
    "id_album": "392248205",
    "description": "Penguin_247655",
    "title": "Penguin_247655",
    "link_img": "https://live.staticflickr.com/65535/50022140438_0ae3ca7826_o.jpg",
    "id_image": "Penguin_247655",
    "count_view": 0
  },
  {
    "link_thumb": "https://live.staticflickr.com/65535/50023877232_73230464e0_n.jpg",
    "id_album": "-1131363127",
    "description": "SnowLeopard_184491",
    "title": "SnowLeopard_184491",
    "link_img": "https://live.staticflickr.com/65535/50023877232_ca1613e63a_o.jpg",
    "id_image": "SnowLeopard_184491",
    "count_view": 0
  },
  {
    "link_thumb": "https://live.staticflickr.com/65535/50022943367_9597a7299f_n.jpg",
    "id_album": "392248205",
    "description": "Penguin_266842",
    "title": "Penguin_266842",
    "link_img": "https://live.staticflickr.com/65535/50022943367_f763fa2e9b_o.jpg",
    "id_image": "Penguin_266842",
    "count_view": 0
  },
  {
    "link_thumb": "https://live.staticflickr.com/65535/50021270978_92c76410ae_n.jpg",
    "id_album": "770105808",
    "description": "Kingfisher_920968",
    "title": "Kingfisher_920968",
    "link_img": "https://live.staticflickr.com/65535/50021270978_aaec23b44f_o.jpg",
    "id_image": "Kingfisher_920968",
    "count_view": 0
  },
  {
    "link_thumb": "https://live.staticflickr.com/65535/50021074841_45425094cd_n.jpg",
    "id_album": "844170697",
    "description": "Frog_742862",
    "title": "Frog_742862",
    "link_img": "https://live.staticflickr.com/65535/50021074841_c3c5947a89_o.jpg",
    "id_image": "Frog_742862",
    "count_view": 0
  },
  {
    "link_thumb": "https://live.staticflickr.com/65535/50018937728_f08139bb6a_n.jpg",
    "id_album": "-462831703",
    "description": "Cat_918936",
    "title": "Cat_918936",
    "link_img": "https://live.staticflickr.com/65535/50018937728_e3c667d3a6_o.jpg",
    "id_image": "Cat_918936",
    "count_view": 0
  },
  {
    "link_thumb": "https://live.staticflickr.com/65535/50019779172_e1ef1afe1c_n.jpg",
    "id_album": "-462831705",
    "description": "Cat_95926",
    "title": "Cat_95926",
    "link_img": "https://live.staticflickr.com/65535/50019779172_096dc0f691_o.jpg",
    "id_image": "Cat_95926",
    "count_view": 0
  },
  {
    "link_thumb": "https://live.staticflickr.com/65535/50019266071_ff3ab03705_n.jpg",
    "id_album": "-462831704",
    "description": "Cat_505711",
    "title": "Cat_505711",
    "link_img": "https://live.staticflickr.com/65535/50019266071_7d7f8bccbe_o.jpg",
    "id_image": "Cat_505711",
    "count_view": 0
  },
  {
    "link_thumb": "https://live.staticflickr.com/65535/50021204436_b840629bf9_n.jpg",
    "id_album": "-462831704",
    "description": "Cat_723929",
    "title": "Cat_723929",
    "link_img": "https://live.staticflickr.com/65535/50021204436_b9e587a91d_o.jpg",
    "id_image": "Cat_723929",
    "count_view": 0
  },
  {
    "link_thumb": "https://live.staticflickr.com/65535/50020162183_84f155c6f0_n.jpg",
    "id_album": "-39098563",
    "description": "Eagle_354026",
    "title": "Eagle_354026",
    "link_img": "https://live.staticflickr.com/65535/50020162183_3a44bd2ed7_o.jpg",
    "id_image": "Eagle_354026",
    "count_view": 0
  },
  {
    "link_thumb": "https://live.staticflickr.com/65535/50017056711_ae5276dac8_n.jpg",
    "id_album": "-422187261",
    "description": "Bear_546791",
    "title": "Bear_546791",
    "link_img": "https://live.staticflickr.com/65535/50017056711_e83fce3e0b_o.jpg",
    "id_image": "Bear_546791",
    "count_view": 0
  },
  {
    "link_thumb": "https://live.staticflickr.com/65535/50018065057_258e5ec18d_n.jpg",
    "id_album": "-462831705",
    "description": "Cat_168526",
    "title": "Cat_168526",
    "link_img": "https://live.staticflickr.com/65535/50018065057_e642483284_o.jpg",
    "id_image": "Cat_168526",
    "count_view": 0
  },
  {
    "link_thumb": "https://live.staticflickr.com/65535/50021932191_efb0a3af4f_n.jpg",
    "id_album": "1392348450",
    "description": "Leopard_526893",
    "title": "Leopard_526893",
    "link_img": "https://live.staticflickr.com/65535/50021932191_8fd749b829_o.jpg",
    "id_image": "Leopard_526893",
    "count_view": 0
  },
  {
    "link_thumb": "https://live.staticflickr.com/65535/50017137477_62c788e33b_n.jpg",
    "id_album": "523598895",
    "description": "Artistic_191490",
    "title": "Artistic_191490",
    "link_img": "https://live.staticflickr.com/65535/50017137477_58807a4a98_o.jpg",
    "id_image": "Artistic_191490",
    "count_view": 0
  },
  {
    "link_thumb": "https://live.staticflickr.com/65535/50019641468_4d39890de1_n.jpg",
    "id_album": "-149330232",
    "description": "Dog_241955",
    "title": "Dog_241955",
    "link_img": "https://live.staticflickr.com/65535/50019641468_d6546c019b_o.jpg",
    "id_image": "Dog_241955",
    "count_view": 0
  },
  {
    "link_thumb": "https://live.staticflickr.com/65535/50021148358_edebeeff36_n.jpg",
    "id_album": "1658866795",
    "description": "Insect_404661",
    "title": "Insect_404661",
    "link_img": "https://live.staticflickr.com/65535/50021148358_a9c41ffbb4_o.jpg",
    "id_image": "Insect_404661",
    "count_view": 0
  },
  {
    "link_thumb": "https://live.staticflickr.com/65535/50016427098_467d71eb5f_n.jpg",
    "id_album": "231236068",
    "description": "BaldEagle_341380",
    "title": "BaldEagle_341380",
    "link_img": "https://live.staticflickr.com/65535/50016427098_23d672cab3_o.jpg",
    "id_image": "BaldEagle_341380",
    "count_view": 0
  },
  {
    "link_thumb": "https://live.staticflickr.com/65535/50017563716_929dde92a6_n.jpg",
    "id_album": "-401151552",
    "description": "Butterfly_336377",
    "title": "Butterfly_336377",
    "link_img": "https://live.staticflickr.com/65535/50017563716_d1386f725b_o.jpg",
    "id_image": "Butterfly_336377",
    "count_view": 0
  },
  {
    "link_thumb": "https://live.staticflickr.com/65535/50351955218_24fa4a82cb_n.jpg",
    "id_album": "-462831703",
    "description": "Cat_698282",
    "title": "Cat_698282",
    "link_img": "https://live.staticflickr.com/65535/50351955218_a06b7d476e_o.jpg",
    "id_image": "Cat_698282",
    "count_view": 0
  },
  {
    "link_thumb": "https://live.staticflickr.com/65535/50022154061_f7876e93c7_n.jpg",
    "id_album": "1894617400",
    "description": "Lynx_654991",
    "title": "Lynx_654991",
    "link_img": "https://live.staticflickr.com/65535/50022154061_17d59efd2f_o.jpg",
    "id_image": "Lynx_654991",
    "count_view": 0
  },
  {
    "link_thumb": "https://live.staticflickr.com/65535/50019749697_3630dc7fd1_n.jpg",
    "id_album": "-462831703",
    "description": "Cat_936946",
    "title": "Cat_936946",
    "link_img": "https://live.staticflickr.com/65535/50019749697_2d9d0e8ec9_o.jpg",
    "id_image": "Cat_936946",
    "count_view": 0
  },
  {
    "link_thumb": "https://live.staticflickr.com/65535/50021926957_d05683c4c8_n.jpg",
    "id_album": "1658866795",
    "description": "Insect_393124",
    "title": "Insect_393124",
    "link_img": "https://live.staticflickr.com/65535/50021926957_1845448b02_o.jpg",
    "id_image": "Insect_393124",
    "count_view": 0
  },
  {
    "link_thumb": "https://live.staticflickr.com/65535/50017175456_c00d32b185_n.jpg",
    "id_album": "172748811",
    "description": "Beeeater_753541",
    "title": "Beeeater_753541",
    "link_img": "https://live.staticflickr.com/65535/50017175456_0645f5fdf0_o.jpg",
    "id_image": "Beeeater_753541",
    "count_view": 0
  },
  {
    "link_thumb": "https://live.staticflickr.com/65535/50019755813_b10aa484c6_n.jpg",
    "id_album": "-149330232",
    "description": "Dog_344293",
    "title": "Dog_344293",
    "link_img": "https://live.staticflickr.com/65535/50019755813_afca47cb53_o.jpg",
    "id_image": "Dog_344293",
    "count_view": 0
  },
  {
    "link_thumb": "https://live.staticflickr.com/65535/50023276532_a8c89bb3b0_n.jpg",
    "id_album": "-353898617",
    "description": "Puppy_549945",
    "title": "Puppy_549945",
    "link_img": "https://live.staticflickr.com/65535/50023276532_eaaeb5c3e2_o.jpg",
    "id_image": "Puppy_549945",
    "count_view": 0
  },
  {
    "link_thumb": "https://live.staticflickr.com/65535/50017076036_bec7cee40a_n.jpg",
    "id_album": "-422187261",
    "description": "Bear_745263",
    "title": "Bear_745263",
    "link_img": "https://live.staticflickr.com/65535/50017076036_68b7d66c17_o.jpg",
    "id_image": "Bear_745263",
    "count_view": 0
  },
  {
    "link_thumb": "https://live.staticflickr.com/65535/50021943046_433d9e2c16_n.jpg",
    "id_album": "1392348450",
    "description": "Leopard_685478",
    "title": "Leopard_685478",
    "link_img": "https://live.staticflickr.com/65535/50021943046_f80c512284_o.jpg",
    "id_image": "Leopard_685478",
    "count_view": 0
  },
  {
    "link_thumb": "https://live.staticflickr.com/65535/50018903108_a13583bf11_n.jpg",
    "id_album": "-462831703",
    "description": "Cat_909174",
    "title": "Cat_909174",
    "link_img": "https://live.staticflickr.com/65535/50018903108_6c2830cba4_o.jpg",
    "id_image": "Cat_909174",
    "count_view": 0
  },
  {
    "link_thumb": "https://live.staticflickr.com/65535/50020062746_806091a2fe_n.jpg",
    "id_album": "1903411565",
    "description": "Deer_910540",
    "title": "Deer_910540",
    "link_img": "https://live.staticflickr.com/65535/50020062746_bb11036fd9_o.jpg",
    "id_image": "Deer_910540",
    "count_view": 0
  },
  {
    "link_thumb": "https://live.staticflickr.com/65535/50020671972_950fdabdec_n.jpg",
    "id_album": "-149330231",
    "description": "Dog_438951",
    "title": "Dog_438951",
    "link_img": "https://live.staticflickr.com/65535/50020671972_a973f9a4a7_o.jpg",
    "id_image": "Dog_438951",
    "count_view": 0
  },
  {
    "link_thumb": "https://live.staticflickr.com/65535/50021008731_10e5040f34_n.jpg",
    "id_album": "-128218148",
    "description": "Fox_812294",
    "title": "Fox_812294",
    "link_img": "https://live.staticflickr.com/65535/50021008731_7a19333a51_o.jpg",
    "id_image": "Fox_812294",
    "count_view": 0
  },
  {
    "link_thumb": "https://live.staticflickr.com/65535/50022073057_429c3d5eee_n.jpg",
    "id_album": "771796001",
    "description": "Koala_398631",
    "title": "Koala_398631",
    "link_img": "https://live.staticflickr.com/65535/50022073057_8a4888403e_o.jpg",
    "id_image": "Koala_398631",
    "count_view": 0
  },
  {
    "link_thumb": "https://live.staticflickr.com/65535/50022072978_1413a30072_n.jpg",
    "id_album": "1146438617",
    "description": "Pelican_239785",
    "title": "Pelican_239785",
    "link_img": "https://live.staticflickr.com/65535/50022072978_f2e2cb95a8_o.jpg",
    "id_image": "Pelican_239785",
    "count_view": 0
  },
  {
    "link_thumb": "https://live.staticflickr.com/65535/50019674122_c1ded1d408_n.jpg",
    "id_album": "-462831703",
    "description": "Cat_901704",
    "title": "Cat_901704",
    "link_img": "https://live.staticflickr.com/65535/50019674122_574c6049a7_o.jpg",
    "id_image": "Cat_901704",
    "count_view": 0
  },
  {
    "link_thumb": "https://live.staticflickr.com/65535/50020480292_05e64f08db_n.jpg",
    "id_album": "-149330232",
    "description": "Dog_284787",
    "title": "Dog_284787",
    "link_img": "https://live.staticflickr.com/65535/50020480292_3e6d52f6ea_o.jpg",
    "id_image": "Dog_284787",
    "count_view": 0
  },
  {
    "link_thumb": "https://live.staticflickr.com/65535/50021270072_c5ab2ef0c1_n.jpg",
    "id_album": "-128218148",
    "description": "Fox_886689",
    "title": "Fox_886689",
    "link_img": "https://live.staticflickr.com/65535/50021270072_030dd37b9e_o.jpg",
    "id_image": "Fox_886689",
    "count_view": 0
  },
  {
    "link_thumb": "https://live.staticflickr.com/65535/50020919631_4d2d7bf7f2_n.jpg",
    "id_album": "-1694105481",
    "description": "Fly_404989",
    "title": "Fly_404989",
    "link_img": "https://live.staticflickr.com/65535/50020919631_7f57beb39b_o.jpg",
    "id_image": "Fly_404989",
    "count_view": 0
  },
  {
    "link_thumb": "https://live.staticflickr.com/65535/50016932033_9dc61e5620_n.jpg",
    "id_album": "-1561645279",
    "description": "BlackPanther_696489",
    "title": "BlackPanther_696489",
    "link_img": "https://live.staticflickr.com/65535/50016932033_933230591b_o.jpg",
    "id_image": "BlackPanther_696489",
    "count_view": 0
  },
  {
    "link_thumb": "https://live.staticflickr.com/65535/50022165917_0a9d57393b_n.jpg",
    "id_album": "1392348450",
    "description": "Leopard_367155",
    "title": "Leopard_367155",
    "link_img": "https://live.staticflickr.com/65535/50022165917_a231acce5a_o.jpg",
    "id_image": "Leopard_367155",
    "count_view": 0
  },
  {
    "link_thumb": "https://live.staticflickr.com/65535/50022165057_f532f342d0_n.jpg",
    "id_album": "1392348450",
    "description": "Leopard_365032",
    "title": "Leopard_365032",
    "link_img": "https://live.staticflickr.com/65535/50022165057_f21f522837_o.jpg",
    "id_image": "Leopard_365032",
    "count_view": 0
  },
  {
    "link_thumb": "https://live.staticflickr.com/65535/50022933987_a241d594f5_n.jpg",
    "id_album": "1146438617",
    "description": "Pelican_947858",
    "title": "Pelican_947858",
    "link_img": "https://live.staticflickr.com/65535/50022933987_ba6b1c2a31_o.jpg",
    "id_image": "Pelican_947858",
    "count_view": 0
  },
  {
    "link_thumb": "https://live.staticflickr.com/65535/50352574686_34397fc0d5_n.jpg",
    "id_album": "-462831703",
    "description": "Cat_505008",
    "title": "Cat_505008",
    "link_img": "https://live.staticflickr.com/65535/50352574686_6f9f797914_o.jpg",
    "id_image": "Cat_505008",
    "count_view": 0
  },
  {
    "link_thumb": "https://live.staticflickr.com/65535/50021402562_738dcb347d_n.jpg",
    "id_album": "-462831704",
    "description": "Cat_650923",
    "title": "Cat_650923",
    "link_img": "https://live.staticflickr.com/65535/50021402562_9cee2da6f4_o.jpg",
    "id_image": "Cat_650923",
    "count_view": 0
  },
  {
    "link_thumb": "https://live.staticflickr.com/65535/50021534898_06053de4ec_n.jpg",
    "id_album": "416744915",
    "description": "Lion_903758",
    "title": "Lion_903758",
    "link_img": "https://live.staticflickr.com/65535/50021534898_d9d16270b1_o.jpg",
    "id_image": "Lion_903758",
    "count_view": 0
  },
  {
    "link_thumb": "https://live.staticflickr.com/65535/50022776582_425a0a7bf3_n.jpg",
    "id_album": "-358592519",
    "description": "Panda_200857",
    "title": "Panda_200857",
    "link_img": "https://live.staticflickr.com/65535/50022776582_546261ff2e_o.jpg",
    "id_image": "Panda_200857",
    "count_view": 0
  },
  {
    "link_thumb": "https://live.staticflickr.com/65535/50022562677_9947186bb5_n.jpg",
    "id_album": "1957967135",
    "description": "Mouse_992050",
    "title": "Mouse_992050",
    "link_img": "https://live.staticflickr.com/65535/50022562677_919de671b5_o.jpg",
    "id_image": "Mouse_992050",
    "count_view": 0
  },
  {
    "link_thumb": "https://live.staticflickr.com/65535/50021772842_927bc4bf81_n.jpg",
    "id_album": "-1933715543",
    "description": "Horse_441625",
    "title": "Horse_441625",
    "link_img": "https://live.staticflickr.com/65535/50021772842_f8ae55e58e_o.jpg",
    "id_image": "Horse_441625",
    "count_view": 0
  },
  {
    "link_thumb": "https://live.staticflickr.com/65535/50017278542_6842c832c4_n.jpg",
    "id_album": "-422187261",
    "description": "Bear_301641",
    "title": "Bear_301641",
    "link_img": "https://live.staticflickr.com/65535/50017278542_a53b2ea98b_o.jpg",
    "id_image": "Bear_301641",
    "count_view": 0
  },
  {
    "link_thumb": "https://live.staticflickr.com/65535/50020296448_a12c9863de_n.jpg",
    "id_album": "-1118073211",
    "description": "Fish_287113",
    "title": "Fish_287113",
    "link_img": "https://live.staticflickr.com/65535/50020296448_7937b923e7_o.jpg",
    "id_image": "Fish_287113",
    "count_view": 0
  },
  {
    "link_thumb": "https://live.staticflickr.com/65535/50023572112_9b4a88a5f6_n.jpg",
    "id_album": "1926701726",
    "description": "Robin_707150",
    "title": "Robin_707150",
    "link_img": "https://live.staticflickr.com/65535/50023572112_b3ef4150c2_o.jpg",
    "id_image": "Robin_707150",
    "count_view": 0
  },
  {
    "link_thumb": "https://live.staticflickr.com/65535/50017929087_1f923ea0f8_n.jpg",
    "id_album": "-401151552",
    "description": "Butterfly_787939",
    "title": "Butterfly_787939",
    "link_img": "https://live.staticflickr.com/65535/50017929087_125f41880c_o.jpg",
    "id_image": "Butterfly_787939",
    "count_view": 0
  },
  {
    "link_thumb": "https://live.staticflickr.com/65535/50017816361_da0d24b885_n.jpg",
    "id_album": "-462831705",
    "description": "Cat_178480",
    "title": "Cat_178480",
    "link_img": "https://live.staticflickr.com/65535/50017816361_e5c6800c65_o.jpg",
    "id_image": "Cat_178480",
    "count_view": 0
  },
  {
    "link_thumb": "https://live.staticflickr.com/65535/50017173041_6f5cf91624_n.jpg",
    "id_album": "172748811",
    "description": "Beeeater_590432",
    "title": "Beeeater_590432",
    "link_img": "https://live.staticflickr.com/65535/50017173041_785dde1be7_o.jpg",
    "id_image": "Beeeater_590432",
    "count_view": 0
  },
  {
    "link_thumb": "https://live.staticflickr.com/65535/50022115652_71025daed5_n.jpg",
    "id_album": "-1882491687",
    "description": "Ladybug_691664",
    "title": "Ladybug_691664",
    "link_img": "https://live.staticflickr.com/65535/50022115652_1b336c8d0b_o.jpg",
    "id_image": "Ladybug_691664",
    "count_view": 0
  },
  {
    "link_thumb": "https://live.staticflickr.com/65535/50352432116_ea52b217c9_n.jpg",
    "id_album": "-462831703",
    "description": "Cat_229670",
    "title": "Cat_229670",
    "link_img": "https://live.staticflickr.com/65535/50352432116_76034a1ff9_o.jpg",
    "id_image": "Cat_229670",
    "count_view": 0
  },
  {
    "link_thumb": "https://live.staticflickr.com/65535/50018304037_30a72373ca_n.jpg",
    "id_album": "-462831702",
    "description": "Cat_356534",
    "title": "Cat_356534",
    "link_img": "https://live.staticflickr.com/65535/50018304037_cecf42113b_o.jpg",
    "id_image": "Cat_356534",
    "count_view": 0
  },
  {
    "link_thumb": "https://live.staticflickr.com/65535/50018076572_4015cc4263_n.jpg",
    "id_album": "-462831705",
    "description": "Cat_176964",
    "title": "Cat_176964",
    "link_img": "https://live.staticflickr.com/65535/50018076572_dec564e03e_o.jpg",
    "id_image": "Cat_176964",
    "count_view": 0
  },
  {
    "link_thumb": "https://live.staticflickr.com/65535/50020643428_960a215deb_n.jpg",
    "id_album": "-462831704",
    "description": "Cat_705491",
    "title": "Cat_705491",
    "link_img": "https://live.staticflickr.com/65535/50020643428_8cbdf8aef5_o.jpg",
    "id_image": "Cat_705491",
    "count_view": 0
  },
  {
    "link_thumb": "https://live.staticflickr.com/65535/50017794891_dbbbc8ce50_n.jpg",
    "id_album": "-462831705",
    "description": "Cat_166233",
    "title": "Cat_166233",
    "link_img": "https://live.staticflickr.com/65535/50017794891_d2f703fd21_o.jpg",
    "id_image": "Cat_166233",
    "count_view": 0
  },
  {
    "link_thumb": "https://live.staticflickr.com/65535/50016836126_8ebe02686e_n.jpg",
    "id_album": "-1741290715",
    "description": "Ant_462035",
    "title": "Ant_462035",
    "link_img": "https://live.staticflickr.com/65535/50016836126_61ccc84a1b_o.jpg",
    "id_image": "Ant_462035",
    "count_view": 0
  },
  {
    "link_thumb": "https://live.staticflickr.com/65535/50022111487_d9c2ce355c_n.jpg",
    "id_album": "-1882491687",
    "description": "Ladybug_508681",
    "title": "Ladybug_508681",
    "link_img": "https://live.staticflickr.com/65535/50022111487_f6ddb22d6e_o.jpg",
    "id_image": "Ladybug_508681",
    "count_view": 0
  },
  {
    "link_thumb": "https://live.staticflickr.com/65535/50017248607_9146624a24_n.jpg",
    "id_album": "809937717",
    "description": "Beagle_438682",
    "title": "Beagle_438682",
    "link_img": "https://live.staticflickr.com/65535/50017248607_e574e9dea2_o.jpg",
    "id_image": "Beagle_438682",
    "count_view": 0
  },
  {
    "link_thumb": "https://live.staticflickr.com/65535/50020156372_47810c2677_n.jpg",
    "id_album": "1475096665",
    "description": "Crocodile_703631",
    "title": "Crocodile_703631",
    "link_img": "https://live.staticflickr.com/65535/50020156372_fdacf320d0_o.jpg",
    "id_image": "Crocodile_703631",
    "count_view": 0
  },
  {
    "link_thumb": "https://live.staticflickr.com/65535/50018764723_9dbfd1e179_n.jpg",
    "id_album": "-462831704",
    "description": "Cat_529694",
    "title": "Cat_529694",
    "link_img": "https://live.staticflickr.com/65535/50018764723_f28a26bc9b_o.jpg",
    "id_image": "Cat_529694",
    "count_view": 0
  },
  {
    "link_thumb": "https://live.staticflickr.com/65535/50020848653_854073795b_n.jpg",
    "id_album": "1950225324",
    "description": "Gorilla_353935",
    "title": "Gorilla_353935",
    "link_img": "https://live.staticflickr.com/65535/50020848653_b8a9c59f70_o.jpg",
    "id_image": "Gorilla_353935",
    "count_view": 0
  },
  {
    "link_thumb": "https://live.staticflickr.com/65535/50021728676_f95acb25a7_n.jpg",
    "id_album": "-843028318",
    "description": "Jaguar_451577",
    "title": "Jaguar_451577",
    "link_img": "https://live.staticflickr.com/65535/50021728676_2546a306c9_o.jpg",
    "id_image": "Jaguar_451577",
    "count_view": 0
  },
  {
    "link_thumb": "https://live.staticflickr.com/65535/50022959052_05c521e367_n.jpg",
    "id_album": "392248205",
    "description": "Penguin_468338",
    "title": "Penguin_468338",
    "link_img": "https://live.staticflickr.com/65535/50022959052_95c5f9b7d9_o.jpg",
    "id_image": "Penguin_468338",
    "count_view": 0
  },
  {
    "link_thumb": "https://live.staticflickr.com/65535/50023312076_b223b6a0fa_n.jpg",
    "id_album": "1926701726",
    "description": "Robin_509799",
    "title": "Robin_509799",
    "link_img": "https://live.staticflickr.com/65535/50023312076_7309b4814b_o.jpg",
    "id_image": "Robin_509799",
    "count_view": 0
  },
  {
    "link_thumb": "https://live.staticflickr.com/65535/50016959908_2a7853fca3_n.jpg",
    "id_album": "782930701",
    "description": "BorderCollie_691657",
    "title": "BorderCollie_691657",
    "link_img": "https://live.staticflickr.com/65535/50016959908_abb956bee7_o.jpg",
    "id_image": "BorderCollie_691657",
    "count_view": 0
  },
  {
    "link_thumb": "https://live.staticflickr.com/65535/50017787547_875f93754f_n.jpg",
    "id_album": "368532157",
    "description": "Bulldog_409000",
    "title": "Bulldog_409000",
    "link_img": "https://live.staticflickr.com/65535/50017787547_c061173b1e_o.jpg",
    "id_image": "Bulldog_409000",
    "count_view": 0
  },
  {
    "link_thumb": "https://live.staticflickr.com/65535/50023735922_3f3c358097_n.jpg",
    "id_album": "-755466332",
    "description": "Sheep_408480",
    "title": "Sheep_408480",
    "link_img": "https://live.staticflickr.com/65535/50023735922_9f397f044c_o.jpg",
    "id_image": "Sheep_408480",
    "count_view": 0
  },
  {
    "link_thumb": "https://live.staticflickr.com/65535/50017503216_22029e93d5_n.jpg",
    "id_album": "782930701",
    "description": "BorderCollie_870137",
    "title": "BorderCollie_870137",
    "link_img": "https://live.staticflickr.com/65535/50017503216_6a22491a5a_o.jpg",
    "id_image": "BorderCollie_870137",
    "count_view": 0
  },
  {
    "link_thumb": "https://live.staticflickr.com/65535/50019734746_a8aed0795d_n.jpg",
    "id_album": "-1481843714",
    "description": "Cheetah_889341",
    "title": "Cheetah_889341",
    "link_img": "https://live.staticflickr.com/65535/50019734746_035dc55199_o.jpg",
    "id_image": "Cheetah_889341",
    "count_view": 0
  },
  {
    "link_thumb": "https://live.staticflickr.com/65535/50016649873_4cfc2fac04_n.jpg",
    "id_album": "172748811",
    "description": "Beeeater_693348",
    "title": "Beeeater_693348",
    "link_img": "https://live.staticflickr.com/65535/50016649873_3d812f5f9e_o.jpg",
    "id_image": "Beeeater_693348",
    "count_view": 0
  },
  {
    "link_thumb": "https://live.staticflickr.com/65535/50023464512_2950864a93_n.jpg",
    "id_album": "332874268",
    "description": "RedPanda_363065",
    "title": "RedPanda_363065",
    "link_img": "https://live.staticflickr.com/65535/50023464512_717f946926_o.jpg",
    "id_image": "RedPanda_363065",
    "count_view": 0
  },
  {
    "link_thumb": "https://live.staticflickr.com/65535/50017578451_454a2fd8d0_n.jpg",
    "id_album": "-401151552",
    "description": "Butterfly_384941",
    "title": "Butterfly_384941",
    "link_img": "https://live.staticflickr.com/65535/50017578451_fb172eca2a_o.jpg",
    "id_image": "Butterfly_384941",
    "count_view": 0
  },
  {
    "link_thumb": "https://live.staticflickr.com/65535/50017279502_9a0d20edee_n.jpg",
    "id_album": "-422187261",
    "description": "Bear_310229",
    "title": "Bear_310229",
    "link_img": "https://live.staticflickr.com/65535/50017279502_8f383ab3a3_o.jpg",
    "id_image": "Bear_310229",
    "count_view": 0
  },
  {
    "link_thumb": "https://live.staticflickr.com/65535/50022405177_5e7251b487_n.jpg",
    "id_album": "1894617400",
    "description": "Lynx_421400",
    "title": "Lynx_421400",
    "link_img": "https://live.staticflickr.com/65535/50022405177_c0ca82b0f2_o.jpg",
    "id_image": "Lynx_421400",
    "count_view": 0
  },
  {
    "link_thumb": "https://live.staticflickr.com/65535/50022521212_bc3b406842_n.jpg",
    "id_album": "-784970094",
    "description": "Monkey_754000",
    "title": "Monkey_754000",
    "link_img": "https://live.staticflickr.com/65535/50022521212_9d90ef595a_o.jpg",
    "id_image": "Monkey_754000",
    "count_view": 0
  },
  {
    "link_thumb": "https://live.staticflickr.com/65535/50018952273_83268e8f9a_n.jpg",
    "id_album": "-462831703",
    "description": "Cat_930896",
    "title": "Cat_930896",
    "link_img": "https://live.staticflickr.com/65535/50018952273_275b7c0ee5_o.jpg",
    "id_image": "Cat_930896",
    "count_view": 0
  },
  {
    "link_thumb": "https://live.staticflickr.com/65535/50023111611_6b71742016_n.jpg",
    "id_album": "-1940643173",
    "description": "Rabbit_446910",
    "title": "Rabbit_446910",
    "link_img": "https://live.staticflickr.com/65535/50023111611_48817d40e6_o.jpg",
    "id_image": "Rabbit_446910",
    "count_view": 0
  },
  {
    "link_thumb": "https://live.staticflickr.com/65535/50021563668_645e948931_n.jpg",
    "id_album": "-656526748",
    "description": "Lizard_325466",
    "title": "Lizard_325466",
    "link_img": "https://live.staticflickr.com/65535/50021563668_dc5ee9d7c8_o.jpg",
    "id_image": "Lizard_325466",
    "count_view": 0
  },
  {
    "link_thumb": "https://live.staticflickr.com/65535/50020066578_b2c92bf8a6_n.jpg",
    "id_album": "-1859457960",
    "description": "Dove_516998",
    "title": "Dove_516998",
    "link_img": "https://live.staticflickr.com/65535/50020066578_803059cd63_o.jpg",
    "id_image": "Dove_516998",
    "count_view": 0
  },
  {
    "link_thumb": "https://live.staticflickr.com/65535/50022266547_8c94f94b6b_n.jpg",
    "id_album": "416744915",
    "description": "Lion_399671",
    "title": "Lion_399671",
    "link_img": "https://live.staticflickr.com/65535/50022266547_130722014e_o.jpg",
    "id_image": "Lion_399671",
    "count_view": 0
  },
  {
    "link_thumb": "https://live.staticflickr.com/65535/50019079308_e76b056a0c_n.jpg",
    "id_album": "-420782796",
    "description": "Caterpillar_527223",
    "title": "Caterpillar_527223",
    "link_img": "https://live.staticflickr.com/65535/50019079308_f6642b4768_o.jpg",
    "id_image": "Caterpillar_527223",
    "count_view": 0
  },
  {
    "link_thumb": "https://live.staticflickr.com/65535/50017938506_6885538c7a_n.jpg",
    "id_album": "-462831702",
    "description": "Cat_285210",
    "title": "Cat_285210",
    "link_img": "https://live.staticflickr.com/65535/50017938506_e7fbdef90a_o.jpg",
    "id_image": "Cat_285210",
    "count_view": 0
  },
  {
    "link_thumb": "https://live.staticflickr.com/65535/50023277611_4d32cb90d2_n.jpg",
    "id_album": "48367914",
    "description": "Rhino_368687",
    "title": "Rhino_368687",
    "link_img": "https://live.staticflickr.com/65535/50023277611_c69e0fe399_o.jpg",
    "id_image": "Rhino_368687",
    "count_view": 0
  },
  {
    "link_thumb": "https://live.staticflickr.com/65535/50017239253_e80752f816_n.jpg",
    "id_album": "-462831705",
    "description": "Cat_117123",
    "title": "Cat_117123",
    "link_img": "https://live.staticflickr.com/65535/50017239253_71d83f6b15_o.jpg",
    "id_image": "Cat_117123",
    "count_view": 0
  },
  {
    "link_thumb": "https://live.staticflickr.com/65535/50019425027_60915af6be_n.jpg",
    "id_album": "-462831702",
    "description": "Cat_425356",
    "title": "Cat_425356",
    "link_img": "https://live.staticflickr.com/65535/50019425027_9295587738_o.jpg",
    "id_image": "Cat_425356",
    "count_view": 0
  },
  {
    "link_thumb": "https://live.staticflickr.com/65535/50017563668_06d88f9740_n.jpg",
    "id_album": "-462831702",
    "description": "Cat_370258",
    "title": "Cat_370258",
    "link_img": "https://live.staticflickr.com/65535/50017563668_097cce5e5c_o.jpg",
    "id_image": "Cat_370258",
    "count_view": 0
  },
  {
    "link_thumb": "https://live.staticflickr.com/65535/50019583413_619a8ffe87_n.jpg",
    "id_album": "-149330232",
    "description": "Dog_102945",
    "title": "Dog_102945",
    "link_img": "https://live.staticflickr.com/65535/50019583413_7f958ce4dc_o.jpg",
    "id_image": "Dog_102945",
    "count_view": 0
  },
  {
    "link_thumb": "https://live.staticflickr.com/65535/50021609321_a192cdd19a_n.jpg",
    "id_album": "2144294979",
    "description": "Hummingbird_397294",
    "title": "Hummingbird_397294",
    "link_img": "https://live.staticflickr.com/65535/50021609321_4e539bc9e3_o.jpg",
    "id_image": "Hummingbird_397294",
    "count_view": 0
  },
  {
    "link_thumb": "https://live.staticflickr.com/65535/50020276222_335afeda60_n.jpg",
    "id_album": "1903411565",
    "description": "Deer_520590",
    "title": "Deer_520590",
    "link_img": "https://live.staticflickr.com/65535/50020276222_2c61280173_o.jpg",
    "id_image": "Deer_520590",
    "count_view": 0
  },
  {
    "link_thumb": "https://live.staticflickr.com/65535/50020251198_714e498d08_n.jpg",
    "id_album": "1270947998",
    "description": "Elephant_746984",
    "title": "Elephant_746984",
    "link_img": "https://live.staticflickr.com/65535/50020251198_1f1c973456_o.jpg",
    "id_image": "Elephant_746984",
    "count_view": 0
  },
  {
    "link_thumb": "https://live.staticflickr.com/65535/50023537551_435edc18fe_n.jpg",
    "id_album": "-800019164",
    "description": "Snail_710717",
    "title": "Snail_710717",
    "link_img": "https://live.staticflickr.com/65535/50023537551_212ea8734a_o.jpg",
    "id_image": "Snail_710717",
    "count_view": 0
  },
  {
    "link_thumb": "https://live.staticflickr.com/65535/50019626383_d56f8f923f_n.jpg",
    "id_album": "-149330232",
    "description": "Dog_217172",
    "title": "Dog_217172",
    "link_img": "https://live.staticflickr.com/65535/50019626383_a4167a0321_o.jpg",
    "id_image": "Dog_217172",
    "count_view": 0
  },
  {
    "link_thumb": "https://live.staticflickr.com/65535/50022364608_478e751020_n.jpg",
    "id_album": "-356780855",
    "description": "Puffin_269560",
    "title": "Puffin_269560",
    "link_img": "https://live.staticflickr.com/65535/50022364608_64d32e9f18_o.jpg",
    "id_image": "Puffin_269560",
    "count_view": 0
  },
  {
    "link_thumb": "https://live.staticflickr.com/65535/50023475688_73699d8fcd_n.jpg",
    "id_album": "1579675410",
    "description": "Swan_991958",
    "title": "Swan_991958",
    "link_img": "https://live.staticflickr.com/65535/50023475688_966b9d80e3_o.jpg",
    "id_image": "Swan_991958",
    "count_view": 0
  },
  {
    "link_thumb": "https://live.staticflickr.com/65535/50022631937_9f79d3a981_n.jpg",
    "id_album": "106807275",
    "description": "Otter_775099",
    "title": "Otter_775099",
    "link_img": "https://live.staticflickr.com/65535/50022631937_c22e4e9b41_o.jpg",
    "id_image": "Otter_775099",
    "count_view": 0
  },
  {
    "link_thumb": "https://live.staticflickr.com/65535/50019822507_381a9990c3_n.jpg",
    "id_album": "-462831703",
    "description": "Cat_992596",
    "title": "Cat_992596",
    "link_img": "https://live.staticflickr.com/65535/50019822507_3d16aa6818_o.jpg",
    "id_image": "Cat_992596",
    "count_view": 0
  },
  {
    "link_thumb": "https://live.staticflickr.com/65535/50021668516_02efd399f6_n.jpg",
    "id_album": "1658866795",
    "description": "Insect_391732",
    "title": "Insect_391732",
    "link_img": "https://live.staticflickr.com/65535/50021668516_8a4bc51c29_o.jpg",
    "id_image": "Insect_391732",
    "count_view": 0
  },
  {
    "link_thumb": "https://live.staticflickr.com/65535/50017506003_1de9e18630_n.jpg",
    "id_album": "-462831702",
    "description": "Cat_351034",
    "title": "Cat_351034",
    "link_img": "https://live.staticflickr.com/65535/50017506003_9121e32fd4_o.jpg",
    "id_image": "Cat_351034",
    "count_view": 0
  },
  {
    "link_thumb": "https://live.staticflickr.com/65535/50020335971_f7b3afb9e7_n.jpg",
    "id_album": "-149330232",
    "description": "Dog_368040",
    "title": "Dog_368040",
    "link_img": "https://live.staticflickr.com/65535/50020335971_257489963c_o.jpg",
    "id_image": "Dog_368040",
    "count_view": 0
  },
  {
    "link_thumb": "https://live.staticflickr.com/65535/50019822288_d0a5723e8d_n.jpg",
    "id_album": "-149330232",
    "description": "Dog_379253",
    "title": "Dog_379253",
    "link_img": "https://live.staticflickr.com/65535/50019822288_619aa818e5_o.jpg",
    "id_image": "Dog_379253",
    "count_view": 0
  },
  {
    "link_thumb": "https://live.staticflickr.com/65535/50018138342_d69750e805_n.jpg",
    "id_album": "-462831705",
    "description": "Cat_232471",
    "title": "Cat_232471",
    "link_img": "https://live.staticflickr.com/65535/50018138342_963333cb84_o.jpg",
    "id_image": "Cat_232471",
    "count_view": 0
  },
  {
    "link_thumb": "https://live.staticflickr.com/65535/50022545392_0bdc62e7e0_n.jpg",
    "id_album": "1957967135",
    "description": "Mouse_276217",
    "title": "Mouse_276217",
    "link_img": "https://live.staticflickr.com/65535/50022545392_e37de35af3_o.jpg",
    "id_image": "Mouse_276217",
    "count_view": 0
  },
  {
    "link_thumb": "https://live.staticflickr.com/65535/50020894527_706581786e_n.jpg",
    "id_album": "-405058657",
    "description": "Dragonfly_721264",
    "title": "Dragonfly_721264",
    "link_img": "https://live.staticflickr.com/65535/50020894527_47079bc3e4_o.jpg",
    "id_image": "Dragonfly_721264",
    "count_view": 0
  },
  {
    "link_thumb": "https://live.staticflickr.com/65535/50019667902_149eca507f_n.jpg",
    "id_album": "-462831703",
    "description": "Cat_899439",
    "title": "Cat_899439",
    "link_img": "https://live.staticflickr.com/65535/50019667902_25c4d877d8_o.jpg",
    "id_image": "Cat_899439",
    "count_view": 0
  },
  {
    "link_thumb": "https://live.staticflickr.com/65535/50019605397_5ee475b0ba_n.jpg",
    "id_album": "-462831705",
    "description": "Cat_86695",
    "title": "Cat_86695",
    "link_img": "https://live.staticflickr.com/65535/50019605397_e6b8064559_o.jpg",
    "id_image": "Cat_86695",
    "count_view": 0
  },
  {
    "link_thumb": "https://live.staticflickr.com/65535/50019360666_8c559e228f_n.jpg",
    "id_album": "-462831703",
    "description": "Cat_872504",
    "title": "Cat_872504",
    "link_img": "https://live.staticflickr.com/65535/50019360666_bd0bbe209e_o.jpg",
    "id_image": "Cat_872504",
    "count_view": 0
  },
  {
    "link_thumb": "https://live.staticflickr.com/65535/50021193888_bf4393c934_n.jpg",
    "id_album": "-843028318",
    "description": "Jaguar_691659",
    "title": "Jaguar_691659",
    "link_img": "https://live.staticflickr.com/65535/50021193888_e5aee25911_o.jpg",
    "id_image": "Jaguar_691659",
    "count_view": 0
  },
  {
    "link_thumb": "https://live.staticflickr.com/65535/50020828838_a54ed5c526_n.jpg",
    "id_album": "2060159334",
    "description": "GoldenRetriever_930921",
    "title": "GoldenRetriever_930921",
    "link_img": "https://live.staticflickr.com/65535/50020828838_1f4eb68e13_o.jpg",
    "id_image": "GoldenRetriever_930921",
    "count_view": 0
  },
  {
    "link_thumb": "https://live.staticflickr.com/65535/50020546623_25bc987b30_n.jpg",
    "id_album": "844170697",
    "description": "Frog_986598",
    "title": "Frog_986598",
    "link_img": "https://live.staticflickr.com/65535/50020546623_79cf7e8844_o.jpg",
    "id_image": "Frog_986598",
    "count_view": 0
  },
  {
    "link_thumb": "https://live.staticflickr.com/65535/50018388072_8d2275b3c4_n.jpg",
    "id_album": "-462831702",
    "description": "Cat_393941",
    "title": "Cat_393941",
    "link_img": "https://live.staticflickr.com/65535/50018388072_eda8b32ffd_o.jpg",
    "id_image": "Cat_393941",
    "count_view": 0
  },
  {
    "link_thumb": "https://live.staticflickr.com/65535/50017287897_185a8d5d08_n.jpg",
    "id_album": "-422187261",
    "description": "Bear_349761",
    "title": "Bear_349761",
    "link_img": "https://live.staticflickr.com/65535/50017287897_57147197ab_o.jpg",
    "id_image": "Bear_349761",
    "count_view": 0
  },
  {
    "link_thumb": "https://live.staticflickr.com/65535/50017561651_0a0c328c40_n.jpg",
    "id_album": "-401151552",
    "description": "Butterfly_327617",
    "title": "Butterfly_327617",
    "link_img": "https://live.staticflickr.com/65535/50017561651_4dec7eec0c_o.jpg",
    "id_image": "Butterfly_327617",
    "count_view": 0
  },
  {
    "link_thumb": "https://live.staticflickr.com/65535/50017508031_1405ea2fd5_n.jpg",
    "id_album": "782930701",
    "description": "BorderCollie_910720",
    "title": "BorderCollie_910720",
    "link_img": "https://live.staticflickr.com/65535/50017508031_63eee7a08b_o.jpg",
    "id_image": "BorderCollie_910720",
    "count_view": 0
  },
  {
    "link_thumb": "https://live.staticflickr.com/65535/50022666576_20801b85d0_n.jpg",
    "id_album": "1146438617",
    "description": "Pelican_792901",
    "title": "Pelican_792901",
    "link_img": "https://live.staticflickr.com/65535/50022666576_be8bc5d60e_o.jpg",
    "id_image": "Pelican_792901",
    "count_view": 0
  },
  {
    "link_thumb": "https://live.staticflickr.com/65535/50020755863_4762bceace_n.jpg",
    "id_album": "-405626519",
    "description": "GermanShepherd_726789",
    "title": "GermanShepherd_726789",
    "link_img": "https://live.staticflickr.com/65535/50020755863_dcec5a0b72_o.jpg",
    "id_image": "GermanShepherd_726789",
    "count_view": 0
  },
  {
    "link_thumb": "https://live.staticflickr.com/65535/50016890221_2e0ce1856a_n.jpg",
    "id_album": "523598895",
    "description": "Artistic_274994",
    "title": "Artistic_274994",
    "link_img": "https://live.staticflickr.com/65535/50016890221_9ca9d98bcc_o.jpg",
    "id_image": "Artistic_274994",
    "count_view": 0
  },
  {
    "link_thumb": "https://live.staticflickr.com/65535/50017492993_8c365c428e_n.jpg",
    "id_album": "-462831702",
    "description": "Cat_345386",
    "title": "Cat_345386",
    "link_img": "https://live.staticflickr.com/65535/50017492993_4d2067fc8a_o.jpg",
    "id_image": "Cat_345386",
    "count_view": 0
  },
  {
    "link_thumb": "https://live.staticflickr.com/65535/50021218781_c8041d10cb_n.jpg",
    "id_album": "-462831703",
    "description": "Cat_739450",
    "title": "Cat_739450",
    "link_img": "https://live.staticflickr.com/65535/50021218781_6167ffef8d_o.jpg",
    "id_image": "Cat_739450",
    "count_view": 0
  },
  {
    "link_thumb": "https://live.staticflickr.com/65535/50021220186_c7a4a6175a_n.jpg",
    "id_album": "-462831703",
    "description": "Cat_740883",
    "title": "Cat_740883",
    "link_img": "https://live.staticflickr.com/65535/50021220186_de9628ba36_o.jpg",
    "id_image": "Cat_740883",
    "count_view": 0
  },
  {
    "link_thumb": "https://live.staticflickr.com/65535/50020677947_38188d2cd2_n.jpg",
    "id_album": "-149330231",
    "description": "Dog_453333",
    "title": "Dog_453333",
    "link_img": "https://live.staticflickr.com/65535/50020677947_fa749d9f6f_o.jpg",
    "id_image": "Dog_453333",
    "count_view": 0
  },
  {
    "link_thumb": "https://live.staticflickr.com/65535/50016996358_1c0dc17f75_n.jpg",
    "id_album": "368532157",
    "description": "Bulldog_280475",
    "title": "Bulldog_280475",
    "link_img": "https://live.staticflickr.com/65535/50016996358_1f788dbb9b_o.jpg",
    "id_image": "Bulldog_280475",
    "count_view": 0
  },
  {
    "link_thumb": "https://live.staticflickr.com/65535/50017570986_ae2f0b0d90_n.jpg",
    "id_album": "-401151552",
    "description": "Butterfly_366099",
    "title": "Butterfly_366099",
    "link_img": "https://live.staticflickr.com/65535/50017570986_006d4d35fc_o.jpg",
    "id_image": "Butterfly_366099",
    "count_view": 0
  },
  {
    "link_thumb": "https://live.staticflickr.com/65535/50020455003_50e76e6849_n.jpg",
    "id_album": "-128218148",
    "description": "Fox_741837",
    "title": "Fox_741837",
    "link_img": "https://live.staticflickr.com/65535/50020455003_4b6497cb45_o.jpg",
    "id_image": "Fox_741837",
    "count_view": 0
  },
  {
    "link_thumb": "https://live.staticflickr.com/65535/50021850646_876f1b12ab_n.jpg",
    "id_album": "-1882491687",
    "description": "Ladybug_431259",
    "title": "Ladybug_431259",
    "link_img": "https://live.staticflickr.com/65535/50021850646_598999d48a_o.jpg",
    "id_image": "Ladybug_431259",
    "count_view": 0
  },
  {
    "link_thumb": "https://live.staticflickr.com/65535/50017498777_85f5d67a78_n.jpg",
    "id_album": "-1846011410",
    "description": "Bird_324885",
    "title": "Bird_324885",
    "link_img": "https://live.staticflickr.com/65535/50017498777_7280648a6e_o.jpg",
    "id_image": "Bird_324885",
    "count_view": 0
  },
  {
    "link_thumb": "https://live.staticflickr.com/65535/50023392352_bbd68069b5_n.jpg",
    "id_album": "-1940643173",
    "description": "Rabbit_951327",
    "title": "Rabbit_951327",
    "link_img": "https://live.staticflickr.com/65535/50023392352_195b8df492_o.jpg",
    "id_image": "Rabbit_951327",
    "count_view": 0
  },
  {
    "link_thumb": "https://live.staticflickr.com/65535/50019740922_b344a633e7_n.jpg",
    "id_album": "-462831703",
    "description": "Cat_931338",
    "title": "Cat_931338",
    "link_img": "https://live.staticflickr.com/65535/50019740922_62f840bd72_o.jpg",
    "id_image": "Cat_931338",
    "count_view": 0
  },
  {
    "link_thumb": "https://live.staticflickr.com/65535/50020554312_3d13d877ec_n.jpg",
    "id_album": "-149330232",
    "description": "Dog_349475",
    "title": "Dog_349475",
    "link_img": "https://live.staticflickr.com/65535/50020554312_f78be1b519_o.jpg",
    "id_image": "Dog_349475",
    "count_view": 0
  },
  {
    "link_thumb": "https://live.staticflickr.com/65535/50019353433_666e6b5122_n.jpg",
    "id_album": "815329026",
    "description": "Crab_981881",
    "title": "Crab_981881",
    "link_img": "https://live.staticflickr.com/65535/50019353433_e4267c06b5_o.jpg",
    "id_image": "Crab_981881",
    "count_view": 0
  },
  {
    "link_thumb": "https://live.staticflickr.com/65535/50017126197_e5f8c2c598_n.jpg",
    "id_album": "523598895",
    "description": "Artistic_116114",
    "title": "Artistic_116114",
    "link_img": "https://live.staticflickr.com/65535/50017126197_5051196d08_o.jpg",
    "id_image": "Artistic_116114",
    "count_view": 0
  },
  {
    "link_thumb": "https://live.staticflickr.com/65535/50021253817_c44041530d_n.jpg",
    "id_album": "-128218148",
    "description": "Fox_753793",
    "title": "Fox_753793",
    "link_img": "https://live.staticflickr.com/65535/50021253817_2548d736b2_o.jpg",
    "id_image": "Fox_753793",
    "count_view": 0
  },
  {
    "link_thumb": "https://live.staticflickr.com/65535/50021353208_b876ffb785_n.jpg",
    "id_album": "1392348450",
    "description": "Leopard_284855",
    "title": "Leopard_284855",
    "link_img": "https://live.staticflickr.com/65535/50021353208_c562bd9777_o.jpg",
    "id_image": "Leopard_284855",
    "count_view": 0
  },
  {
    "link_thumb": "https://live.staticflickr.com/65535/50352781882_d57a25c0e0_n.jpg",
    "id_album": "-462831703",
    "description": "Cat_596631",
    "title": "Cat_596631",
    "link_img": "https://live.staticflickr.com/65535/50352781882_bda4ee9a45_o.jpg",
    "id_image": "Cat_596631",
    "count_view": 0
  },
  {
    "link_thumb": "https://live.staticflickr.com/65535/50023077401_57532f3117_n.jpg",
    "id_album": "470794721",
    "description": "Python_417666",
    "title": "Python_417666",
    "link_img": "https://live.staticflickr.com/65535/50023077401_3cf7476746_o.jpg",
    "id_image": "Python_417666",
    "count_view": 0
  },
  {
    "link_thumb": "https://live.staticflickr.com/65535/50021646201_f4ef706e2b_n.jpg",
    "id_album": "-737856092",
    "description": "Iguana_271561",
    "title": "Iguana_271561",
    "link_img": "https://live.staticflickr.com/65535/50021646201_07ea67429a_o.jpg",
    "id_image": "Iguana_271561",
    "count_view": 0
  },
  {
    "link_thumb": "https://live.staticflickr.com/65535/50017414181_8df273186e_n.jpg",
    "id_album": "-1846011410",
    "description": "Bird_726774",
    "title": "Bird_726774",
    "link_img": "https://live.staticflickr.com/65535/50017414181_8bb1976dcd_o.jpg",
    "id_image": "Bird_726774",
    "count_view": 0
  },
  {
    "link_thumb": "https://live.staticflickr.com/65535/50021467247_3b08de3745_n.jpg",
    "id_album": "-462831703",
    "description": "Cat_735028",
    "title": "Cat_735028",
    "link_img": "https://live.staticflickr.com/65535/50021467247_284b7d6051_o.jpg",
    "id_image": "Cat_735028",
    "count_view": 0
  },
  {
    "link_thumb": "https://live.staticflickr.com/65535/50019818598_3a8ac9d0c7_n.jpg",
    "id_album": "-149330232",
    "description": "Dog_376052",
    "title": "Dog_376052",
    "link_img": "https://live.staticflickr.com/65535/50019818598_bb767d93dd_o.jpg",
    "id_image": "Dog_376052",
    "count_view": 0
  },
  {
    "link_thumb": "https://live.staticflickr.com/65535/50018699528_efe75c5d1c_n.jpg",
    "id_album": "-462831704",
    "description": "Cat_459467",
    "title": "Cat_459467",
    "link_img": "https://live.staticflickr.com/65535/50018699528_8f726c90e6_o.jpg",
    "id_image": "Cat_459467",
    "count_view": 0
  },
  {
    "link_thumb": "https://live.staticflickr.com/65535/50019228898_b08976d51f_n.jpg",
    "id_album": "791455625",
    "description": "Chipmunk_353508",
    "title": "Chipmunk_353508",
    "link_img": "https://live.staticflickr.com/65535/50019228898_c48d66a9e7_o.jpg",
    "id_image": "Chipmunk_353508",
    "count_view": 0
  },
  {
    "link_thumb": "https://live.staticflickr.com/65535/50021922532_397773f654_n.jpg",
    "id_album": "1658866795",
    "description": "Insect_391738",
    "title": "Insect_391738",
    "link_img": "https://live.staticflickr.com/65535/50021922532_74d20713cf_o.jpg",
    "id_image": "Insect_391738",
    "count_view": 0
  },
  {
    "link_thumb": "https://live.staticflickr.com/65535/50022881553_e85a776d03_n.jpg",
    "id_album": "1961094930",
    "description": "Seal_921937",
    "title": "Seal_921937",
    "link_img": "https://live.staticflickr.com/65535/50022881553_727f12332e_o.jpg",
    "id_image": "Seal_921937",
    "count_view": 0
  },
  {
    "link_thumb": "https://live.staticflickr.com/65535/50016911158_5f57b97e71_n.jpg",
    "id_album": "-1846011410",
    "description": "Bird_878442",
    "title": "Bird_878442",
    "link_img": "https://live.staticflickr.com/65535/50016911158_720d6d7f0d_o.jpg",
    "id_image": "Bird_878442",
    "count_view": 0
  },
  {
    "link_thumb": "https://live.staticflickr.com/65535/50020924657_25e5941193_n.jpg",
    "id_album": "1168627767",
    "description": "Duck_700107",
    "title": "Duck_700107",
    "link_img": "https://live.staticflickr.com/65535/50020924657_78bb7b0f3d_o.jpg",
    "id_image": "Duck_700107",
    "count_view": 0
  },
  {
    "link_thumb": "https://live.staticflickr.com/65535/50351729248_3f0829db86_n.jpg",
    "id_album": "-462831703",
    "description": "Cat_209432",
    "title": "Cat_209432",
    "link_img": "https://live.staticflickr.com/65535/50351729248_a138dfecd4_o.jpg",
    "id_image": "Cat_209432",
    "count_view": 0
  },
  {
    "link_thumb": "https://live.staticflickr.com/65535/50020122968_c332ca586a_n.jpg",
    "id_album": "1168627767",
    "description": "Duck_409139",
    "title": "Duck_409139",
    "link_img": "https://live.staticflickr.com/65535/50020122968_a9fd680d37_o.jpg",
    "id_image": "Duck_409139",
    "count_view": 0
  },
  {
    "link_thumb": "https://live.staticflickr.com/65535/50017592761_3a76b638fd_n.jpg",
    "id_album": "-401151552",
    "description": "Butterfly_427565",
    "title": "Butterfly_427565",
    "link_img": "https://live.staticflickr.com/65535/50017592761_4f5481b7b9_o.jpg",
    "id_image": "Butterfly_427565",
    "count_view": 0
  },
  {
    "link_thumb": "https://live.staticflickr.com/65535/50017168886_319ddee5e4_n.jpg",
    "id_album": "1699594607",
    "description": "Bee_926280",
    "title": "Bee_926280",
    "link_img": "https://live.staticflickr.com/65535/50017168886_67de771153_o.jpg",
    "id_image": "Bee_926280",
    "count_view": 0
  },
  {
    "link_thumb": "https://live.staticflickr.com/65535/50021936342_e86aaf3fbf_n.jpg",
    "id_album": "1658866795",
    "description": "Insect_403940",
    "title": "Insect_403940",
    "link_img": "https://live.staticflickr.com/65535/50021936342_8c92396d07_o.jpg",
    "id_image": "Insect_403940",
    "count_view": 0
  },
  {
    "link_thumb": "https://live.staticflickr.com/65535/50020063483_0f3cf8b660_n.jpg",
    "id_album": "-1859457960",
    "description": "Dove_330130",
    "title": "Dove_330130",
    "link_img": "https://live.staticflickr.com/65535/50020063483_75eac06ce6_o.jpg",
    "id_image": "Dove_330130",
    "count_view": 0
  },
  {
    "link_thumb": "https://live.staticflickr.com/65535/50020975302_ac52d60860_n.jpg",
    "id_album": "-39098563",
    "description": "Eagle_595213",
    "title": "Eagle_595213",
    "link_img": "https://live.staticflickr.com/65535/50020975302_cb14e89f13_o.jpg",
    "id_image": "Eagle_595213",
    "count_view": 0
  },
  {
    "link_thumb": "https://live.staticflickr.com/65535/50023934442_0ef35f4c79_n.jpg",
    "id_album": "-1131363127",
    "description": "SnowLeopard_899414",
    "title": "SnowLeopard_899414",
    "link_img": "https://live.staticflickr.com/65535/50023934442_6c02c4cf17_o.jpg",
    "id_image": "SnowLeopard_899414",
    "count_view": 0
  },
  {
    "link_thumb": "https://live.staticflickr.com/65535/50017325317_a2f4c95252_n.jpg",
    "id_album": "-422187261",
    "description": "Bear_662242",
    "title": "Bear_662242",
    "link_img": "https://live.staticflickr.com/65535/50017325317_3f03f2bdd7_o.jpg",
    "id_image": "Bear_662242",
    "count_view": 0
  },
  {
    "link_thumb": "https://live.staticflickr.com/65535/50020901678_245bf85f57_n.jpg",
    "id_album": "54253492",
    "description": "Heron_455465",
    "title": "Heron_455465",
    "link_img": "https://live.staticflickr.com/65535/50020901678_4b8459579a_o.jpg",
    "id_image": "Heron_455465",
    "count_view": 0
  },
  {
    "link_thumb": "https://live.staticflickr.com/65535/50023749093_d56ea314a8_n.jpg",
    "id_album": "901523298",
    "description": "TreeFrog_591704",
    "title": "TreeFrog_591704",
    "link_img": "https://live.staticflickr.com/65535/50023749093_2b627ee3f7_o.jpg",
    "id_image": "TreeFrog_591704",
    "count_view": 0
  },
  {
    "link_thumb": "https://live.staticflickr.com/65535/50016990148_ea5ec5470a_n.jpg",
    "id_album": "1696155652",
    "description": "Boxer_261339",
    "title": "Boxer_261339",
    "link_img": "https://live.staticflickr.com/65535/50016990148_4356b186cb_o.jpg",
    "id_image": "Boxer_261339",
    "count_view": 0
  },
  {
    "link_thumb": "https://live.staticflickr.com/65535/50023142162_372b097a95_n.jpg",
    "id_album": "191452764",
    "description": "PrayingMantis_391714",
    "title": "PrayingMantis_391714",
    "link_img": "https://live.staticflickr.com/65535/50023142162_89d5c9aa7e_o.jpg",
    "id_image": "PrayingMantis_391714",
    "count_view": 0
  },
  {
    "link_thumb": "https://live.staticflickr.com/65535/50023239146_633683629a_n.jpg",
    "id_album": "332874268",
    "description": "RedPanda_922873",
    "title": "RedPanda_922873",
    "link_img": "https://live.staticflickr.com/65535/50023239146_e7862080e1_o.jpg",
    "id_image": "RedPanda_922873",
    "count_view": 0
  },
  {
    "link_thumb": "https://live.staticflickr.com/65535/50020955876_4731b43d93_n.jpg",
    "id_album": "-128218148",
    "description": "Fox_370617",
    "title": "Fox_370617",
    "link_img": "https://live.staticflickr.com/65535/50020955876_7fd05dfb4a_o.jpg",
    "id_image": "Fox_370617",
    "count_view": 0
  },
  {
    "link_thumb": "https://live.staticflickr.com/65535/50019243411_11ebfe2602_n.jpg",
    "id_album": "-462831704",
    "description": "Cat_470350",
    "title": "Cat_470350",
    "link_img": "https://live.staticflickr.com/65535/50019243411_4b1825c909_o.jpg",
    "id_image": "Cat_470350",
    "count_view": 0
  },
  {
    "link_thumb": "https://live.staticflickr.com/65535/50023642346_e202fc6c4d_n.jpg",
    "id_album": "-1131363127",
    "description": "SnowLeopard_392985",
    "title": "SnowLeopard_392985",
    "link_img": "https://live.staticflickr.com/65535/50023642346_27a36c6fd7_o.jpg",
    "id_image": "SnowLeopard_392985",
    "count_view": 0
  },
  {
    "link_thumb": "https://live.staticflickr.com/65535/50017127418_2eae110417_n.jpg",
    "id_album": "-401151552",
    "description": "Butterfly_717687",
    "title": "Butterfly_717687",
    "link_img": "https://live.staticflickr.com/65535/50017127418_c06b26c3ed_o.jpg",
    "id_image": "Butterfly_717687",
    "count_view": 0
  },
  {
    "link_thumb": "https://live.staticflickr.com/65535/50023066672_b630f48144_n.jpg",
    "id_album": "1146438617",
    "description": "Pelican_616093",
    "title": "Pelican_616093",
    "link_img": "https://live.staticflickr.com/65535/50023066672_ebf7c1621c_o.jpg",
    "id_image": "Pelican_616093",
    "count_view": 0
  },
  {
    "link_thumb": "https://live.staticflickr.com/65535/50018287407_d00db109f2_n.jpg",
    "id_album": "-462831702",
    "description": "Cat_348069",
    "title": "Cat_348069",
    "link_img": "https://live.staticflickr.com/65535/50018287407_b22907454c_o.jpg",
    "id_image": "Cat_348069",
    "count_view": 0
  },
  {
    "link_thumb": "https://live.staticflickr.com/65535/50017334032_c30bfd5d8d_n.jpg",
    "id_album": "-422187261",
    "description": "Bear_720776",
    "title": "Bear_720776",
    "link_img": "https://live.staticflickr.com/65535/50017334032_3f76547b81_o.jpg",
    "id_image": "Bear_720776",
    "count_view": 0
  },
  {
    "link_thumb": "https://live.staticflickr.com/65535/50023999271_a15f8a5ae3_n.jpg",
    "id_album": "1244464375",
    "description": "Starfish_689279",
    "title": "Starfish_689279",
    "link_img": "https://live.staticflickr.com/65535/50023999271_fd51e4cefa_o.jpg",
    "id_image": "Starfish_689279",
    "count_view": 0
  },
  {
    "link_thumb": "https://live.staticflickr.com/65535/50019724816_96a8f4c236_n.jpg",
    "id_album": "-1481843714",
    "description": "Cheetah_728270",
    "title": "Cheetah_728270",
    "link_img": "https://live.staticflickr.com/65535/50019724816_92e2f31516_o.jpg",
    "id_image": "Cheetah_728270",
    "count_view": 0
  },
  {
    "link_thumb": "https://live.staticflickr.com/65535/50020047178_a71db70701_n.jpg",
    "id_album": "-54509188",
    "description": "Dolphin_492638",
    "title": "Dolphin_492638",
    "link_img": "https://live.staticflickr.com/65535/50020047178_980652850a_o.jpg",
    "id_image": "Dolphin_492638",
    "count_view": 0
  },
  {
    "link_thumb": "https://live.staticflickr.com/65535/50023336346_77397ff5fb_n.jpg",
    "id_album": "-419757464",
    "description": "SeaLife_215627",
    "title": "SeaLife_215627",
    "link_img": "https://live.staticflickr.com/65535/50023336346_17116295b6_o.jpg",
    "id_image": "SeaLife_215627",
    "count_view": 0
  },
  {
    "link_thumb": "https://live.staticflickr.com/65535/50021024666_f7b94114ea_n.jpg",
    "id_album": "-128218148",
    "description": "Fox_915891",
    "title": "Fox_915891",
    "link_img": "https://live.staticflickr.com/65535/50021024666_c04f1ca1fc_o.jpg",
    "id_image": "Fox_915891",
    "count_view": 0
  },
  {
    "link_thumb": "https://live.staticflickr.com/65535/50022089861_00547106d4_n.jpg",
    "id_album": "416744915",
    "description": "Lion_953665",
    "title": "Lion_953665",
    "link_img": "https://live.staticflickr.com/65535/50022089861_f439fb44c7_o.jpg",
    "id_image": "Lion_953665",
    "count_view": 0
  },
  {
    "link_thumb": "https://live.staticflickr.com/65535/50020623607_7b7b0a9590_n.jpg",
    "id_album": "-149330231",
    "description": "Dog_389332",
    "title": "Dog_389332",
    "link_img": "https://live.staticflickr.com/65535/50020623607_a1ae5ca2f4_o.jpg",
    "id_image": "Dog_389332",
    "count_view": 0
  },
  {
    "link_thumb": "https://live.staticflickr.com/65535/50021324596_ed2ffaaf8e_n.jpg",
    "id_album": "713572662",
    "description": "Giraffe_407238",
    "title": "Giraffe_407238",
    "link_img": "https://live.staticflickr.com/65535/50021324596_33d4014598_o.jpg",
    "id_image": "Giraffe_407238",
    "count_view": 0
  },
  {
    "link_thumb": "https://live.staticflickr.com/65535/50020511137_947e8148f9_n.jpg",
    "id_album": "-149330232",
    "description": "Dog_331467",
    "title": "Dog_331467",
    "link_img": "https://live.staticflickr.com/65535/50020511137_587ebe3762_o.jpg",
    "id_image": "Dog_331467",
    "count_view": 0
  },
  {
    "link_thumb": "https://live.staticflickr.com/65535/50022877596_134b05cc25_n.jpg",
    "id_album": "1008910300",
    "description": "PolarBear_986617",
    "title": "PolarBear_986617",
    "link_img": "https://live.staticflickr.com/65535/50022877596_0f8eb39134_o.jpg",
    "id_image": "PolarBear_986617",
    "count_view": 0
  },
  {
    "link_thumb": "https://live.staticflickr.com/65535/50024135907_33edcb7cbc_n.jpg",
    "id_album": "702283289",
    "description": "Squirrel_426745",
    "title": "Squirrel_426745",
    "link_img": "https://live.staticflickr.com/65535/50024135907_035ae30c6b_o.jpg",
    "id_image": "Squirrel_426745",
    "count_view": 0
  },
  {
    "link_thumb": "https://live.staticflickr.com/65535/50017969112_a2bcc3c8b8_n.jpg",
    "id_album": "-401151552",
    "description": "Butterfly_926944",
    "title": "Butterfly_926944",
    "link_img": "https://live.staticflickr.com/65535/50017969112_f15914d56f_o.jpg",
    "id_image": "Butterfly_926944",
    "count_view": 0
  },
  {
    "link_thumb": "https://live.staticflickr.com/65535/50016617998_95b4fb066a_n.jpg",
    "id_album": "1699594607",
    "description": "Bee_548419",
    "title": "Bee_548419",
    "link_img": "https://live.staticflickr.com/65535/50016617998_b667dd0ac0_o.jpg",
    "id_image": "Bee_548419",
    "count_view": 0
  },
  {
    "link_thumb": "https://live.staticflickr.com/65535/50022461092_89bda5cd88_n.jpg",
    "id_album": "-784970094",
    "description": "Monkey_338284",
    "title": "Monkey_338284",
    "link_img": "https://live.staticflickr.com/65535/50022461092_6438a4aaf7_o.jpg",
    "id_image": "Monkey_338284",
    "count_view": 0
  },
  {
    "link_thumb": "https://live.staticflickr.com/65535/50019981518_38ef95722e_n.jpg",
    "id_album": "-149330231",
    "description": "Dog_789850",
    "title": "Dog_789850",
    "link_img": "https://live.staticflickr.com/65535/50019981518_4b28eb1f7a_o.jpg",
    "id_image": "Dog_789850",
    "count_view": 0
  },
  {
    "link_thumb": "https://live.staticflickr.com/65535/50016407148_85a6c4fc3f_n.jpg",
    "id_album": "390697200",
    "description": "AustralianShepherd_651122",
    "title": "AustralianShepherd_651122",
    "link_img": "https://live.staticflickr.com/65535/50016407148_a59111989f_o.jpg",
    "id_image": "AustralianShepherd_651122",
    "count_view": 0
  },
  {
    "link_thumb": "https://live.staticflickr.com/65535/50019126948_fc06d0e587_n.jpg",
    "id_album": "-766919393",
    "description": "Chameleon_649427",
    "title": "Chameleon_649427",
    "link_img": "https://live.staticflickr.com/65535/50019126948_e76835fe73_o.jpg",
    "id_image": "Chameleon_649427",
    "count_view": 0
  },
  {
    "link_thumb": "https://live.staticflickr.com/65535/50022413652_49bc021bb8_n.jpg",
    "id_album": "1894617400",
    "description": "Lynx_591717",
    "title": "Lynx_591717",
    "link_img": "https://live.staticflickr.com/65535/50022413652_47a1a7bd86_o.jpg",
    "id_image": "Lynx_591717",
    "count_view": 0
  },
  {
    "link_thumb": "https://live.staticflickr.com/65535/50020918366_68fe5a8d25_n.jpg",
    "id_album": "-1694105481",
    "description": "Fly_322568",
    "title": "Fly_322568",
    "link_img": "https://live.staticflickr.com/65535/50020918366_5e296a6db3_o.jpg",
    "id_image": "Fly_322568",
    "count_view": 0
  },
  {
    "link_thumb": "https://live.staticflickr.com/65535/50017988472_8f5e50197c_n.jpg",
    "id_album": "-1131161368",
    "description": "Camel_571900",
    "title": "Camel_571900",
    "link_img": "https://live.staticflickr.com/65535/50017988472_37779acd88_o.jpg",
    "id_image": "Camel_571900",
    "count_view": 0
  },
  {
    "link_thumb": "https://live.staticflickr.com/65535/50018307027_edb7daef65_n.jpg",
    "id_album": "-462831702",
    "description": "Cat_357938",
    "title": "Cat_357938",
    "link_img": "https://live.staticflickr.com/65535/50018307027_accde81fe9_o.jpg",
    "id_image": "Cat_357938",
    "count_view": 0
  },
  {
    "link_thumb": "https://live.staticflickr.com/65535/50016982756_1a3373d6ed_n.jpg",
    "id_album": "809937717",
    "description": "Beagle_101788",
    "title": "Beagle_101788",
    "link_img": "https://live.staticflickr.com/65535/50016982756_2ef3bf6c08_o.jpg",
    "id_image": "Beagle_101788",
    "count_view": 0
  },
  {
    "link_thumb": "https://live.staticflickr.com/65535/50021859347_df77965252_n.jpg",
    "id_album": "2144294979",
    "description": "Hummingbird_370794",
    "title": "Hummingbird_370794",
    "link_img": "https://live.staticflickr.com/65535/50021859347_95dd2644ca_o.jpg",
    "id_image": "Hummingbird_370794",
    "count_view": 0
  },
  {
    "link_thumb": "https://live.staticflickr.com/65535/50022178567_5108cffa12_n.jpg",
    "id_album": "1392348450",
    "description": "Leopard_409421",
    "title": "Leopard_409421",
    "link_img": "https://live.staticflickr.com/65535/50022178567_11b5b6be4a_o.jpg",
    "id_image": "Leopard_409421",
    "count_view": 0
  },
  {
    "link_thumb": "https://live.staticflickr.com/65535/50020704427_464dfddd43_n.jpg",
    "id_album": "-149330231",
    "description": "Dog_516180",
    "title": "Dog_516180",
    "link_img": "https://live.staticflickr.com/65535/50020704427_f596430c02_o.jpg",
    "id_image": "Dog_516180",
    "count_view": 0
  },
  {
    "link_thumb": "https://live.staticflickr.com/65535/50023807417_131063c228_n.jpg",
    "id_album": "-800019164",
    "description": "Snail_88730",
    "title": "Snail_88730",
    "link_img": "https://live.staticflickr.com/65535/50023807417_8a020f05c6_o.jpg",
    "id_image": "Snail_88730",
    "count_view": 0
  },
  {
    "link_thumb": "https://live.staticflickr.com/65535/50023254542_7e10297306_n.jpg",
    "id_album": "-353898617",
    "description": "Puppy_436678",
    "title": "Puppy_436678",
    "link_img": "https://live.staticflickr.com/65535/50023254542_1e86aa7ac7_o.jpg",
    "id_image": "Puppy_436678",
    "count_view": 0
  },
  {
    "link_thumb": "https://live.staticflickr.com/65535/50017553536_cc86746d43_n.jpg",
    "id_album": "-401151552",
    "description": "Butterfly_263893",
    "title": "Butterfly_263893",
    "link_img": "https://live.staticflickr.com/65535/50017553536_34c33847c6_o.jpg",
    "id_image": "Butterfly_263893",
    "count_view": 0
  },
  {
    "link_thumb": "https://live.staticflickr.com/65535/50023632633_ae1cc3803f_n.jpg",
    "id_album": "405170427",
    "description": "Tiger_585151",
    "title": "Tiger_585151",
    "link_img": "https://live.staticflickr.com/65535/50023632633_b9691875d6_o.jpg",
    "id_image": "Tiger_585151",
    "count_view": 0
  },
  {
    "link_thumb": "https://live.staticflickr.com/65535/50017328488_c26e7cfe5b_n.jpg",
    "id_album": "-462831705",
    "description": "Cat_210612",
    "title": "Cat_210612",
    "link_img": "https://live.staticflickr.com/65535/50017328488_fa0cbc5cb3_o.jpg",
    "id_image": "Cat_210612",
    "count_view": 0
  },
  {
    "link_thumb": "https://live.staticflickr.com/65535/50021665966_d956523f2f_n.jpg",
    "id_album": "1658866795",
    "description": "Insect_364076",
    "title": "Insect_364076",
    "link_img": "https://live.staticflickr.com/65535/50021665966_212e1485e2_o.jpg",
    "id_image": "Insect_364076",
    "count_view": 0
  },
  {
    "link_thumb": "https://live.staticflickr.com/65535/50017846897_99d10416d2_n.jpg",
    "id_album": "-401151552",
    "description": "Butterfly_407181",
    "title": "Butterfly_407181",
    "link_img": "https://live.staticflickr.com/65535/50017846897_d8cd4d0858_o.jpg",
    "id_image": "Butterfly_407181",
    "count_view": 0
  },
  {
    "link_thumb": "https://live.staticflickr.com/65535/50018079762_fb013ea4d2_n.jpg",
    "id_album": "-462831705",
    "description": "Cat_180958",
    "title": "Cat_180958",
    "link_img": "https://live.staticflickr.com/65535/50018079762_65d0d0f6e0_o.jpg",
    "id_image": "Cat_180958",
    "count_view": 0
  },
  {
    "link_thumb": "https://live.staticflickr.com/65535/50023012667_80a6407f71_n.jpg",
    "id_album": "407660898",
    "description": "Pigeon_359308",
    "title": "Pigeon_359308",
    "link_img": "https://live.staticflickr.com/65535/50023012667_055b3fdda7_o.jpg",
    "id_image": "Pigeon_359308",
    "count_view": 0
  },
  {
    "link_thumb": "https://live.staticflickr.com/65535/50017041416_478ec94f63_n.jpg",
    "id_album": "-422187261",
    "description": "Bear_407242",
    "title": "Bear_407242",
    "link_img": "https://live.staticflickr.com/65535/50017041416_21f3a4dd4f_o.jpg",
    "id_image": "Bear_407242",
    "count_view": 0
  },
  {
    "link_thumb": "https://live.staticflickr.com/65535/50021003596_d5e9c5bcb6_n.jpg",
    "id_album": "-128218148",
    "description": "Fox_778603",
    "title": "Fox_778603",
    "link_img": "https://live.staticflickr.com/65535/50021003596_244508c7f4_o.jpg",
    "id_image": "Fox_778603",
    "count_view": 0
  },
  {
    "link_thumb": "https://live.staticflickr.com/65535/50021009386_97991808f0_n.jpg",
    "id_album": "-128218148",
    "description": "Fox_819332",
    "title": "Fox_819332",
    "link_img": "https://live.staticflickr.com/65535/50021009386_9bdddc8313_o.jpg",
    "id_image": "Fox_819332",
    "count_view": 0
  },
  {
    "link_thumb": "https://live.staticflickr.com/65535/50021310523_da821ef92d_n.jpg",
    "id_album": "-1882491687",
    "description": "Ladybug_468936",
    "title": "Ladybug_468936",
    "link_img": "https://live.staticflickr.com/65535/50021310523_d4a4cfd478_o.jpg",
    "id_image": "Ladybug_468936",
    "count_view": 0
  },
  {
    "link_thumb": "https://live.staticflickr.com/65535/50020414751_36397261c9_n.jpg",
    "id_album": "-149330231",
    "description": "Dog_438505",
    "title": "Dog_438505",
    "link_img": "https://live.staticflickr.com/65535/50020414751_67cf713ded_o.jpg",
    "id_image": "Dog_438505",
    "count_view": 0
  },
  {
    "link_thumb": "https://live.staticflickr.com/65535/50017151662_8bf8bb6e1c_n.jpg",
    "id_album": "523598895",
    "description": "Artistic_286609",
    "title": "Artistic_286609",
    "link_img": "https://live.staticflickr.com/65535/50017151662_3dda94d651_o.jpg",
    "id_image": "Artistic_286609",
    "count_view": 0
  },
  {
    "link_thumb": "https://live.staticflickr.com/65535/50016877296_f4edf66493_n.jpg",
    "id_album": "523598895",
    "description": "Artistic_191122",
    "title": "Artistic_191122",
    "link_img": "https://live.staticflickr.com/65535/50016877296_bd84bf1ba6_o.jpg",
    "id_image": "Artistic_191122",
    "count_view": 0
  },
  {
    "link_thumb": "https://live.staticflickr.com/65535/50022652072_3565fae1da_n.jpg",
    "id_album": "-1384601601",
    "description": "Owl_332229",
    "title": "Owl_332229",
    "link_img": "https://live.staticflickr.com/65535/50022652072_842b674b80_o.jpg",
    "id_image": "Owl_332229",
    "count_view": 0
  },
  {
    "link_thumb": "https://live.staticflickr.com/65535/50021024231_591b7859f4_n.jpg",
    "id_album": "-128218148",
    "description": "Fox_914958",
    "title": "Fox_914958",
    "link_img": "https://live.staticflickr.com/65535/50021024231_14d26e8274_o.jpg",
    "id_image": "Fox_914958",
    "count_view": 0
  },
  {
    "link_thumb": "https://live.staticflickr.com/65535/50021271151_5556ae27f5_n.jpg",
    "id_album": "-462831703",
    "description": "Cat_831987",
    "title": "Cat_831987",
    "link_img": "https://live.staticflickr.com/65535/50021271151_2f90551a90_o.jpg",
    "id_image": "Cat_831987",
    "count_view": 0
  },
  {
    "link_thumb": "https://live.staticflickr.com/65535/50351838948_e96cd6d2ec_n.jpg",
    "id_album": "-462831703",
    "description": "Cat_457821",
    "title": "Cat_457821",
    "link_img": "https://live.staticflickr.com/65535/50351838948_b33affd7c4_o.jpg",
    "id_image": "Cat_457821",
    "count_view": 0
  },
  {
    "link_thumb": "https://live.staticflickr.com/65535/50024242451_cb3d3e1ac8_n.jpg",
    "id_album": "405170427",
    "description": "Tiger_921779",
    "title": "Tiger_921779",
    "link_img": "https://live.staticflickr.com/65535/50024242451_69eec45568_o.jpg",
    "id_image": "Tiger_921779",
    "count_view": 0
  },
  {
    "link_thumb": "https://live.staticflickr.com/65535/50019803067_c855e87822_n.jpg",
    "id_album": "-462831703",
    "description": "Cat_978544",
    "title": "Cat_978544",
    "link_img": "https://live.staticflickr.com/65535/50019803067_bbdac78dfa_o.jpg",
    "id_image": "Cat_978544",
    "count_view": 0
  },
  {
    "link_thumb": "https://live.staticflickr.com/65535/50351877423_3bf74bc488_n.jpg",
    "id_album": "-462831703",
    "description": "Cat_505009",
    "title": "Cat_505009",
    "link_img": "https://live.staticflickr.com/65535/50351877423_93fdd1d2af_o.jpg",
    "id_image": "Cat_505009",
    "count_view": 0
  },
  {
    "link_thumb": "https://live.staticflickr.com/65535/50022608828_f6cfa15d3f_n.jpg",
    "id_album": "248289288",
    "description": "Raccoon_556329",
    "title": "Raccoon_556329",
    "link_img": "https://live.staticflickr.com/65535/50022608828_0e88f56cdc_o.jpg",
    "id_image": "Raccoon_556329",
    "count_view": 0
  },
  {
    "link_thumb": "https://live.staticflickr.com/65535/50019156916_4cf5fa1a4f_n.jpg",
    "id_album": "-462831702",
    "description": "Cat_421408",
    "title": "Cat_421408",
    "link_img": "https://live.staticflickr.com/65535/50019156916_7e1a0a6a99_o.jpg",
    "id_image": "Cat_421408",
    "count_view": 0
  },
  {
    "link_thumb": "https://live.staticflickr.com/65535/50021924492_0b60c0647f_n.jpg",
    "id_album": "1658866795",
    "description": "Insect_393087",
    "title": "Insect_393087",
    "link_img": "https://live.staticflickr.com/65535/50021924492_cd6a29ed10_o.jpg",
    "id_image": "Insect_393087",
    "count_view": 0
  },
  {
    "link_thumb": "https://live.staticflickr.com/65535/50021152978_b355c6a766_n.jpg",
    "id_album": "1658866795",
    "description": "Insect_405555",
    "title": "Insect_405555",
    "link_img": "https://live.staticflickr.com/65535/50021152978_10e3e7fa75_o.jpg",
    "id_image": "Insect_405555",
    "count_view": 0
  },
  {
    "link_thumb": "https://live.staticflickr.com/65535/50022329833_41ed829ed6_n.jpg",
    "id_album": "1008910300",
    "description": "PolarBear_942469",
    "title": "PolarBear_942469",
    "link_img": "https://live.staticflickr.com/65535/50022329833_55b6e5c362_o.jpg",
    "id_image": "PolarBear_942469",
    "count_view": 0
  },
  {
    "link_thumb": "https://live.staticflickr.com/65535/50021123433_508828ce57_n.jpg",
    "id_album": "1658866795",
    "description": "Insect_385709",
    "title": "Insect_385709",
    "link_img": "https://live.staticflickr.com/65535/50021123433_37fdf160b9_o.jpg",
    "id_image": "Insect_385709",
    "count_view": 0
  },
  {
    "link_thumb": "https://live.staticflickr.com/65535/50024052836_e07b81414a_n.jpg",
    "id_album": "405170427",
    "description": "Tiger_260832",
    "title": "Tiger_260832",
    "link_img": "https://live.staticflickr.com/65535/50024052836_ff76b1e7c5_o.jpg",
    "id_image": "Tiger_260832",
    "count_view": 0
  },
  {
    "link_thumb": "https://live.staticflickr.com/65535/50022517993_2c6a1d4c00_n.jpg",
    "id_album": "-353898617",
    "description": "Puppy_774739",
    "title": "Puppy_774739",
    "link_img": "https://live.staticflickr.com/65535/50022517993_0f81c101ff_o.jpg",
    "id_image": "Puppy_774739",
    "count_view": 0
  },
  {
    "link_thumb": "https://live.staticflickr.com/65535/50018815838_067940964f_n.jpg",
    "id_album": "-462831703",
    "description": "Cat_866337",
    "title": "Cat_866337",
    "link_img": "https://live.staticflickr.com/65535/50018815838_722e635e96_o.jpg",
    "id_image": "Cat_866337",
    "count_view": 0
  },
  {
    "link_thumb": "https://live.staticflickr.com/65535/50017602476_0df336bd5f_n.jpg",
    "id_album": "-401151552",
    "description": "Butterfly_454206",
    "title": "Butterfly_454206",
    "link_img": "https://live.staticflickr.com/65535/50017602476_408d94982c_o.jpg",
    "id_image": "Butterfly_454206",
    "count_view": 0
  },
  {
    "link_thumb": "https://live.staticflickr.com/65535/50021751813_7734ef94c8_n.jpg",
    "id_album": "1957967135",
    "description": "Mouse_721568",
    "title": "Mouse_721568",
    "link_img": "https://live.staticflickr.com/65535/50021751813_56af2d8d03_o.jpg",
    "id_image": "Mouse_721568",
    "count_view": 0
  },
  {
    "link_thumb": "https://live.staticflickr.com/65535/50021897226_8342b6deac_n.jpg",
    "id_album": "1392348450",
    "description": "Leopard_328983",
    "title": "Leopard_328983",
    "link_img": "https://live.staticflickr.com/65535/50021897226_3fea5d3058_o.jpg",
    "id_image": "Leopard_328983",
    "count_view": 0
  },
  {
    "link_thumb": "https://live.staticflickr.com/65535/50017186738_16fb619175_n.jpg",
    "id_album": "-401151552",
    "description": "Butterfly_936936",
    "title": "Butterfly_936936",
    "link_img": "https://live.staticflickr.com/65535/50017186738_2cbfe4895e_o.jpg",
    "id_image": "Butterfly_936936",
    "count_view": 0
  },
  {
    "link_thumb": "https://live.staticflickr.com/65535/50022771698_c75b4a17e7_n.jpg",
    "id_album": "1926701726",
    "description": "Robin_712662",
    "title": "Robin_712662",
    "link_img": "https://live.staticflickr.com/65535/50022771698_a6ebf86d0b_o.jpg",
    "id_image": "Robin_712662",
    "count_view": 0
  },
  {
    "link_thumb": "https://live.staticflickr.com/65535/50021389597_0f119c32a8_n.jpg",
    "id_album": "-462831704",
    "description": "Cat_595990",
    "title": "Cat_595990",
    "link_img": "https://live.staticflickr.com/65535/50021389597_5089d1268f_o.jpg",
    "id_image": "Cat_595990",
    "count_view": 0
  },
  {
    "link_thumb": "https://live.staticflickr.com/65535/50021377533_eb4b9644ec_n.jpg",
    "id_album": "1392348450",
    "description": "Leopard_406084",
    "title": "Leopard_406084",
    "link_img": "https://live.staticflickr.com/65535/50021377533_365fabc43a_o.jpg",
    "id_image": "Leopard_406084",
    "count_view": 0
  },
  {
    "link_thumb": "https://live.staticflickr.com/65535/50018217852_2a0bb45be1_n.jpg",
    "id_album": "-462831702",
    "description": "Cat_313080",
    "title": "Cat_313080",
    "link_img": "https://live.staticflickr.com/65535/50018217852_630e1c1db6_o.jpg",
    "id_image": "Cat_313080",
    "count_view": 0
  },
  {
    "link_thumb": "https://live.staticflickr.com/65535/50019153228_17a97d1f05_n.jpg",
    "id_album": "-1481843714",
    "description": "Cheetah_228801",
    "title": "Cheetah_228801",
    "link_img": "https://live.staticflickr.com/65535/50019153228_5077555b99_o.jpg",
    "id_image": "Cheetah_228801",
    "count_view": 0
  },
  {
    "link_thumb": "https://live.staticflickr.com/65535/50021722286_8422a880b9_n.jpg",
    "id_album": "-843028318",
    "description": "Jaguar_380163",
    "title": "Jaguar_380163",
    "link_img": "https://live.staticflickr.com/65535/50021722286_ddab34e18f_o.jpg",
    "id_image": "Jaguar_380163",
    "count_view": 0
  },
  {
    "link_thumb": "https://live.staticflickr.com/65535/50020466701_aed9a593d1_n.jpg",
    "id_album": "-149330231",
    "description": "Dog_595666",
    "title": "Dog_595666",
    "link_img": "https://live.staticflickr.com/65535/50020466701_00d0894489_o.jpg",
    "id_image": "Dog_595666",
    "count_view": 0
  },
  {
    "link_thumb": "https://live.staticflickr.com/65535/50019400401_5934407c01_n.jpg",
    "id_album": "-462831703",
    "description": "Cat_890767",
    "title": "Cat_890767",
    "link_img": "https://live.staticflickr.com/65535/50019400401_151e88a0cb_o.jpg",
    "id_image": "Cat_890767",
    "count_view": 0
  },
  {
    "link_thumb": "https://live.staticflickr.com/65535/50017030766_f523f41cef_n.jpg",
    "id_album": "-422187261",
    "description": "Bear_362629",
    "title": "Bear_362629",
    "link_img": "https://live.staticflickr.com/65535/50017030766_72865794ce_o.jpg",
    "id_image": "Bear_362629",
    "count_view": 0
  },
  {
    "link_thumb": "https://live.staticflickr.com/65535/50352592221_e72a5c5c4c_n.jpg",
    "id_album": "-462831703",
    "description": "Cat_531427",
    "title": "Cat_531427",
    "link_img": "https://live.staticflickr.com/65535/50352592221_368f75d5f6_o.jpg",
    "id_image": "Cat_531427",
    "count_view": 0
  },
  {
    "link_thumb": "https://live.staticflickr.com/65535/50352531496_c660e76f04_n.jpg",
    "id_album": "-462831703",
    "description": "Cat_453327",
    "title": "Cat_453327",
    "link_img": "https://live.staticflickr.com/65535/50352531496_f8ffc4dd37_o.jpg",
    "id_image": "Cat_453327",
    "count_view": 0
  },
  {
    "link_thumb": "https://live.staticflickr.com/65535/50352768197_1878cd9518_n.jpg",
    "id_album": "-462831703",
    "description": "Cat_566201",
    "title": "Cat_566201",
    "link_img": "https://live.staticflickr.com/65535/50352768197_99c560de71_o.jpg",
    "id_image": "Cat_566201",
    "count_view": 0
  },
  {
    "link_thumb": "https://live.staticflickr.com/65535/50016870156_035de94abd_n.jpg",
    "id_album": "523598895",
    "description": "Artistic_149839",
    "title": "Artistic_149839",
    "link_img": "https://live.staticflickr.com/65535/50016870156_9d367a1cb5_o.jpg",
    "id_image": "Artistic_149839",
    "count_view": 0
  },
  {
    "link_thumb": "https://live.staticflickr.com/65535/50023580842_15273eb400_n.jpg",
    "id_album": "1512228924",
    "description": "ScarletMacaw_397188",
    "title": "ScarletMacaw_397188",
    "link_img": "https://live.staticflickr.com/65535/50023580842_171e6baaf6_o.jpg",
    "id_image": "ScarletMacaw_397188",
    "count_view": 0
  },
  {
    "link_thumb": "https://live.staticflickr.com/65535/50020914343_f331c151c0_n.jpg",
    "id_album": "-362549635",
    "description": "Hippo_817960",
    "title": "Hippo_817960",
    "link_img": "https://live.staticflickr.com/65535/50020914343_18ba32819a_o.jpg",
    "id_image": "Hippo_817960",
    "count_view": 0
  },
  {
    "link_thumb": "https://live.staticflickr.com/65535/50020443921_e7eaf244ea_n.jpg",
    "id_album": "-149330231",
    "description": "Dog_508219",
    "title": "Dog_508219",
    "link_img": "https://live.staticflickr.com/65535/50020443921_9a8b9b7bfe_o.jpg",
    "id_image": "Dog_508219",
    "count_view": 0
  },
  {
    "link_thumb": "https://live.staticflickr.com/65535/50023101291_e24c194d2a_n.jpg",
    "id_album": "-1940643173",
    "description": "Rabbit_377943",
    "title": "Rabbit_377943",
    "link_img": "https://live.staticflickr.com/65535/50023101291_c3bc72fee9_o.jpg",
    "id_image": "Rabbit_377943",
    "count_view": 0
  },
  {
    "link_thumb": "https://live.staticflickr.com/65535/50024562156_f0f936059a_n.jpg",
    "id_album": "-709711865",
    "description": "Wolf_96294",
    "title": "Wolf_96294",
    "link_img": "https://live.staticflickr.com/65535/50024562156_7d122e2790_o.jpg",
    "id_image": "Wolf_96294",
    "count_view": 0
  },
  {
    "link_thumb": "https://live.staticflickr.com/65535/50017384141_c5c4f78fb2_n.jpg",
    "id_album": "-1846011410",
    "description": "Bird_597185",
    "title": "Bird_597185",
    "link_img": "https://live.staticflickr.com/65535/50017384141_399faa0680_o.jpg",
    "id_image": "Bird_597185",
    "count_view": 0
  },
  {
    "link_thumb": "https://live.staticflickr.com/65535/50020856953_3d45364772_n.jpg",
    "id_album": "-1168906494",
    "description": "Grasshopper_323723",
    "title": "Grasshopper_323723",
    "link_img": "https://live.staticflickr.com/65535/50020856953_0e8f8d8851_o.jpg",
    "id_image": "Grasshopper_323723",
    "count_view": 0
  },
  {
    "link_thumb": "https://live.staticflickr.com/65535/50018005636_07bd6efbf5_n.jpg",
    "id_album": "-462831702",
    "description": "Cat_337376",
    "title": "Cat_337376",
    "link_img": "https://live.staticflickr.com/65535/50018005636_99bccc3b86_o.jpg",
    "id_image": "Cat_337376",
    "count_view": 0
  },
  {
    "link_thumb": "https://live.staticflickr.com/65535/50352564396_fc740726f7_n.jpg",
    "id_album": "-462831703",
    "description": "Cat_493955",
    "title": "Cat_493955",
    "link_img": "https://live.staticflickr.com/65535/50352564396_f8a70062e0_o.jpg",
    "id_image": "Cat_493955",
    "count_view": 0
  },
  {
    "link_thumb": "https://live.staticflickr.com/65535/50017485407_809f79c17c_n.jpg",
    "id_album": "-1846011410",
    "description": "Bird_271677",
    "title": "Bird_271677",
    "link_img": "https://live.staticflickr.com/65535/50017485407_f25c070c9a_o.jpg",
    "id_image": "Bird_271677",
    "count_view": 0
  },
  {
    "link_thumb": "https://live.staticflickr.com/65535/50020265283_2c3f89332d_n.jpg",
    "id_album": "1270947998",
    "description": "Elephant_904917",
    "title": "Elephant_904917",
    "link_img": "https://live.staticflickr.com/65535/50020265283_33be3f12b7_o.jpg",
    "id_image": "Elephant_904917",
    "count_view": 0
  },
  {
    "link_thumb": "https://live.staticflickr.com/65535/50017021443_ed41feaa91_n.jpg",
    "id_album": "-401151552",
    "description": "Butterfly_234450",
    "title": "Butterfly_234450",
    "link_img": "https://live.staticflickr.com/65535/50017021443_829776357e_o.jpg",
    "id_image": "Butterfly_234450",
    "count_view": 0
  },
  {
    "link_thumb": "https://live.staticflickr.com/65535/50018171987_854ef9c863_n.jpg",
    "id_album": "-462831705",
    "description": "Cat_261316",
    "title": "Cat_261316",
    "link_img": "https://live.staticflickr.com/65535/50018171987_40cb3b7dce_o.jpg",
    "id_image": "Cat_261316",
    "count_view": 0
  },
  {
    "link_thumb": "https://live.staticflickr.com/65535/50021607207_dc176dac88_n.jpg",
    "id_album": "2060159334",
    "description": "GoldenRetriever_650999",
    "title": "GoldenRetriever_650999",
    "link_img": "https://live.staticflickr.com/65535/50021607207_3daf3843b5_o.jpg",
    "id_image": "GoldenRetriever_650999",
    "count_view": 0
  },
  {
    "link_thumb": "https://live.staticflickr.com/65535/50020678328_05a3940610_n.jpg",
    "id_album": "-462831703",
    "description": "Cat_741307",
    "title": "Cat_741307",
    "link_img": "https://live.staticflickr.com/65535/50020678328_95d931bc7d_o.jpg",
    "id_image": "Cat_741307",
    "count_view": 0
  },
  {
    "link_thumb": "https://live.staticflickr.com/65535/50352652021_83318cf66a_n.jpg",
    "id_album": "-462831703",
    "description": "Cat_698268",
    "title": "Cat_698268",
    "link_img": "https://live.staticflickr.com/65535/50352652021_b029a144ed_o.jpg",
    "id_image": "Cat_698268",
    "count_view": 0
  }
]