[
  {
    "link_thumb": "https://live.staticflickr.com/65535/50022052057_9e9c588008_n.jpg",
    "id_album": "770105808",
    "description": "Kingfisher_262426",
    "title": "Kingfisher_262426",
    "link_img": "https://live.staticflickr.com/65535/50022052057_729448168b_o.jpg",
    "id_image": "Kingfisher_262426",
    "count_view": 0
  },
  {
    "link_thumb": "https://live.staticflickr.com/65535/50021142787_940f3d9173_n.jpg",
    "id_album": "-1758557371",
    "description": "Flamingo_377269",
    "title": "Flamingo_377269",
    "link_img": "https://live.staticflickr.com/65535/50021142787_ab882d6f66_o.jpg",
    "id_image": "Flamingo_377269",
    "count_view": 0
  },
  {
    "link_thumb": "https://live.staticflickr.com/65535/50020518193_937de5d3b1_n.jpg",
    "id_album": "844170697",
    "description": "Frog_399578",
    "title": "Frog_399578",
    "link_img": "https://live.staticflickr.com/65535/50020518193_8f18808f41_o.jpg",
    "id_image": "Frog_399578",
    "count_view": 0
  },
  {
    "link_thumb": "https://live.staticflickr.com/65535/50022481916_9739644d87_n.jpg",
    "id_album": "-1384601601",
    "description": "Owl_799116",
    "title": "Owl_799116",
    "link_img": "https://live.staticflickr.com/65535/50022481916_f958e52262_o.jpg",
    "id_image": "Owl_799116",
    "count_view": 0
  },
  {
    "link_thumb": "https://live.staticflickr.com/65535/50021717806_e4218b209c_n.jpg",
    "id_album": "-843028318",
    "description": "Jaguar_251279",
    "title": "Jaguar_251279",
    "link_img": "https://live.staticflickr.com/65535/50021717806_e64a7748ff_o.jpg",
    "id_image": "Jaguar_251279",
    "count_view": 0
  },
  {
    "link_thumb": "https://live.staticflickr.com/65535/50017667436_f490365bce_n.jpg",
    "id_album": "-401151552",
    "description": "Butterfly_784836",
    "title": "Butterfly_784836",
    "link_img": "https://live.staticflickr.com/65535/50017667436_d96840a578_o.jpg",
    "id_image": "Butterfly_784836",
    "count_view": 0
  },
  {
    "link_thumb": "https://live.staticflickr.com/65535/50021355338_c8f9d1c558_n.jpg",
    "id_album": "1392348450",
    "description": "Leopard_328647",
    "title": "Leopard_328647",
    "link_img": "https://live.staticflickr.com/65535/50021355338_f5005b748d_o.jpg",
    "id_image": "Leopard_328647",
    "count_view": 0
  },
  {
    "link_thumb": "https://live.staticflickr.com/65535/50023279857_dcf43a1987_n.jpg",
    "id_album": "-353898617",
    "description": "Puppy_559285",
    "title": "Puppy_559285",
    "link_img": "https://live.staticflickr.com/65535/50023279857_55b4e2c773_o.jpg",
    "id_image": "Puppy_559285",
    "count_view": 0
  },
  {
    "link_thumb": "https://live.staticflickr.com/65535/50023440202_fd73825e35_n.jpg",
    "id_album": "-434874555",
    "description": "RainbowLorikeet_904204",
    "title": "RainbowLorikeet_904204",
    "link_img": "https://live.staticflickr.com/65535/50023440202_c57b121603_o.jpg",
    "id_image": "RainbowLorikeet_904204",
    "count_view": 0
  },
  {
    "link_thumb": "https://live.staticflickr.com/65535/50018712208_f01b59dc88_n.jpg",
    "id_album": "-462831704",
    "description": "Cat_469868",
    "title": "Cat_469868",
    "link_img": "https://live.staticflickr.com/65535/50018712208_2aae5a3fd5_o.jpg",
    "id_image": "Cat_469868",
    "count_view": 0
  },
  {
    "link_thumb": "https://live.staticflickr.com/65535/50021374281_b63151d345_n.jpg",
    "id_album": "2060159334",
    "description": "GoldenRetriever_983301",
    "title": "GoldenRetriever_983301",
    "link_img": "https://live.staticflickr.com/65535/50021374281_b9ee77d15f_o.jpg",
    "id_image": "GoldenRetriever_983301",
    "count_view": 0
  },
  {
    "link_thumb": "https://live.staticflickr.com/65535/50023444918_d7737e9767_n.jpg",
    "id_album": "1244464375",
    "description": "Starfish_270353",
    "title": "Starfish_270353",
    "link_img": "https://live.staticflickr.com/65535/50023444918_2f4714befc_o.jpg",
    "id_image": "Starfish_270353",
    "count_view": 0
  },
  {
    "link_thumb": "https://live.staticflickr.com/65535/50017426043_646592b120_n.jpg",
    "id_album": "-462831702",
    "description": "Cat_310024",
    "title": "Cat_310024",
    "link_img": "https://live.staticflickr.com/65535/50017426043_caed2e1190_o.jpg",
    "id_image": "Cat_310024",
    "count_view": 0
  },
  {
    "link_thumb": "https://live.staticflickr.com/65535/50022770143_2e499835d0_n.jpg",
    "id_album": "1926701726",
    "description": "Robin_698514",
    "title": "Robin_698514",
    "link_img": "https://live.staticflickr.com/65535/50022770143_118092fdc2_o.jpg",
    "id_image": "Robin_698514",
    "count_view": 0
  },
  {
    "link_thumb": "https://live.staticflickr.com/65535/50019690336_9d3ed194d1_n.jpg",
    "id_album": "-1481843714",
    "description": "Cheetah_331329",
    "title": "Cheetah_331329",
    "link_img": "https://live.staticflickr.com/65535/50019690336_3c4e029742_o.jpg",
    "id_image": "Cheetah_331329",
    "count_view": 0
  },
  {
    "link_thumb": "https://live.staticflickr.com/65535/50021607008_6237d1689d_n.jpg",
    "id_album": "1894617400",
    "description": "Lynx_448718",
    "title": "Lynx_448718",
    "link_img": "https://live.staticflickr.com/65535/50021607008_7a3900ab5f_o.jpg",
    "id_image": "Lynx_448718",
    "count_view": 0
  },
  {
    "link_thumb": "https://live.staticflickr.com/65535/50017302422_7c201701f6_n.jpg",
    "id_album": "-422187261",
    "description": "Bear_405709",
    "title": "Bear_405709",
    "link_img": "https://live.staticflickr.com/65535/50017302422_8fbd5ff907_o.jpg",
    "id_image": "Bear_405709",
    "count_view": 0
  },
  {
    "link_thumb": "https://live.staticflickr.com/65535/50017050141_03a12e4fa4_n.jpg",
    "id_album": "-422187261",
    "description": "Bear_464649",
    "title": "Bear_464649",
    "link_img": "https://live.staticflickr.com/65535/50017050141_5e895a8e5e_o.jpg",
    "id_image": "Bear_464649",
    "count_view": 0
  },
  {
    "link_thumb": "https://live.staticflickr.com/65535/50016935388_8bdd325b02_n.jpg",
    "id_album": "-530283314",
    "description": "BlueandyellowMacaw_330066",
    "title": "BlueandyellowMacaw_330066",
    "link_img": "https://live.staticflickr.com/65535/50016935388_f0644be026_o.jpg",
    "id_image": "BlueandyellowMacaw_330066",
    "count_view": 0
  },
  {
    "link_thumb": "https://live.staticflickr.com/65535/50020987461_f3505f5f8a_n.jpg",
    "id_album": "-128218148",
    "description": "Fox_668948",
    "title": "Fox_668948",
    "link_img": "https://live.staticflickr.com/65535/50020987461_4532312811_o.jpg",
    "id_image": "Fox_668948",
    "count_view": 0
  },
  {
    "link_thumb": "https://live.staticflickr.com/65535/50022847118_359aa8b39f_n.jpg",
    "id_album": "1656131695",
    "description": "Seagull_758081",
    "title": "Seagull_758081",
    "link_img": "https://live.staticflickr.com/65535/50022847118_e9ae43768d_o.jpg",
    "id_image": "Seagull_758081",
    "count_view": 0
  },
  {
    "link_thumb": "https://live.staticflickr.com/65535/50021493057_326dabea52_n.jpg",
    "id_album": "-462831703",
    "description": "Cat_778372",
    "title": "Cat_778372",
    "link_img": "https://live.staticflickr.com/65535/50021493057_d64c1df038_o.jpg",
    "id_image": "Cat_778372",
    "count_view": 0
  },
  {
    "link_thumb": "https://live.staticflickr.com/65535/50352638627_495d06dd81_n.jpg",
    "id_album": "-462831703",
    "description": "Cat_373817",
    "title": "Cat_373817",
    "link_img": "https://live.staticflickr.com/65535/50352638627_c8114076f8_o.jpg",
    "id_image": "Cat_373817",
    "count_view": 0
  },
  {
    "link_thumb": "https://live.staticflickr.com/65535/50017956892_10ea535bba_n.jpg",
    "id_album": "-401151552",
    "description": "Butterfly_926320",
    "title": "Butterfly_926320",
    "link_img": "https://live.staticflickr.com/65535/50017956892_ed83c4d93d_o.jpg",
    "id_image": "Butterfly_926320",
    "count_view": 0
  },
  {
    "link_thumb": "https://live.staticflickr.com/65535/50021674192_3ee31940dc_n.jpg",
    "id_album": "-1513987841",
    "description": "Hawk_404724",
    "title": "Hawk_404724",
    "link_img": "https://live.staticflickr.com/65535/50021674192_744d05fc63_o.jpg",
    "id_image": "Hawk_404724",
    "count_view": 0
  },
  {
    "link_thumb": "https://live.staticflickr.com/65535/50017935957_b31a36a6dc_n.jpg",
    "id_album": "-401151552",
    "description": "Butterfly_831525",
    "title": "Butterfly_831525",
    "link_img": "https://live.staticflickr.com/65535/50017935957_dca791943d_o.jpg",
    "id_image": "Butterfly_831525",
    "count_view": 0
  },
  {
    "link_thumb": "https://live.staticflickr.com/65535/50019488528_de26e2c0a0_n.jpg",
    "id_album": "1903411565",
    "description": "Deer_523579",
    "title": "Deer_523579",
    "link_img": "https://live.staticflickr.com/65535/50019488528_9cda0ec848_o.jpg",
    "id_image": "Deer_523579",
    "count_view": 0
  },
  {
    "link_thumb": "https://live.staticflickr.com/65535/50019689472_58856307c2_n.jpg",
    "id_album": "-462831703",
    "description": "Cat_908169",
    "title": "Cat_908169",
    "link_img": "https://live.staticflickr.com/65535/50019689472_dd64bc96ee_o.jpg",
    "id_image": "Cat_908169",
    "count_view": 0
  },
  {
    "link_thumb": "https://live.staticflickr.com/65535/50020406083_dc319dd09b_n.jpg",
    "id_album": "-128218148",
    "description": "Fox_340394",
    "title": "Fox_340394",
    "link_img": "https://live.staticflickr.com/65535/50020406083_bd70367c59_o.jpg",
    "id_image": "Fox_340394",
    "count_view": 0
  },
  {
    "link_thumb": "https://live.staticflickr.com/65535/50352609401_3af993f14c_n.jpg",
    "id_album": "-462831703",
    "description": "Cat_566202",
    "title": "Cat_566202",
    "link_img": "https://live.staticflickr.com/65535/50352609401_77a8cb3b1f_o.jpg",
    "id_image": "Cat_566202",
    "count_view": 0
  },
  {
    "link_thumb": "https://live.staticflickr.com/65535/50021023381_54e004bd99_n.jpg",
    "id_album": "-128218148",
    "description": "Fox_912153",
    "title": "Fox_912153",
    "link_img": "https://live.staticflickr.com/65535/50021023381_69a267496d_o.jpg",
    "id_image": "Fox_912153",
    "count_view": 0
  },
  {
    "link_thumb": "https://live.staticflickr.com/65535/50018357347_7df300ddf2_n.jpg",
    "id_album": "-462831702",
    "description": "Cat_373224",
    "title": "Cat_373224",
    "link_img": "https://live.staticflickr.com/65535/50018357347_846639299d_o.jpg",
    "id_image": "Cat_373224",
    "count_view": 0
  },
  {
    "link_thumb": "https://live.staticflickr.com/65535/50016935173_8c198f8789_n.jpg",
    "id_album": "-530283314",
    "description": "BlueandyellowMacaw_326577",
    "title": "BlueandyellowMacaw_326577",
    "link_img": "https://live.staticflickr.com/65535/50016935173_7e32ffa092_o.jpg",
    "id_image": "BlueandyellowMacaw_326577",
    "count_view": 0
  },
  {
    "link_thumb": "https://live.staticflickr.com/65535/50018153101_74ddb0fd29_n.jpg",
    "id_album": "-462831702",
    "description": "Cat_407927",
    "title": "Cat_407927",
    "link_img": "https://live.staticflickr.com/65535/50018153101_b94e774661_o.jpg",
    "id_image": "Cat_407927",
    "count_view": 0
  },
  {
    "link_thumb": "https://live.staticflickr.com/65535/50024533842_4598a38d1a_n.jpg",
    "id_album": "432140049",
    "description": "Toad_737281",
    "title": "Toad_737281",
    "link_img": "https://live.staticflickr.com/65535/50024533842_34fe084829_o.jpg",
    "id_image": "Toad_737281",
    "count_view": 0
  },
  {
    "link_thumb": "https://live.staticflickr.com/65535/50019271171_203abcf3f6_n.jpg",
    "id_album": "-462831704",
    "description": "Cat_513153",
    "title": "Cat_513153",
    "link_img": "https://live.staticflickr.com/65535/50019271171_fe1e194b09_o.jpg",
    "id_image": "Cat_513153",
    "count_view": 0
  },
  {
    "link_thumb": "https://live.staticflickr.com/65535/50016926468_cb75fb31fa_n.jpg",
    "id_album": "-1561645279",
    "description": "BlackPanther_399569",
    "title": "BlackPanther_399569",
    "link_img": "https://live.staticflickr.com/65535/50016926468_5d79d20f8e_o.jpg",
    "id_image": "BlackPanther_399569",
    "count_view": 0
  },
  {
    "link_thumb": "https://live.staticflickr.com/65535/50021157308_d636577412_n.jpg",
    "id_album": "1658866795",
    "description": "Insect_431258",
    "title": "Insect_431258",
    "link_img": "https://live.staticflickr.com/65535/50021157308_c5356e4798_o.jpg",
    "id_image": "Insect_431258",
    "count_view": 0
  },
  {
    "link_thumb": "https://live.staticflickr.com/65535/50019423166_cac76da22e_n.jpg",
    "id_album": "-462831703",
    "description": "Cat_904063",
    "title": "Cat_904063",
    "link_img": "https://live.staticflickr.com/65535/50019423166_f614592872_o.jpg",
    "id_image": "Cat_904063",
    "count_view": 0
  },
  {
    "link_thumb": "https://live.staticflickr.com/65535/50017030181_eb0f02f808_n.jpg",
    "id_album": "-422187261",
    "description": "Bear_361460",
    "title": "Bear_361460",
    "link_img": "https://live.staticflickr.com/65535/50017030181_85df3e03ae_o.jpg",
    "id_image": "Bear_361460",
    "count_view": 0
  },
  {
    "link_thumb": "https://live.staticflickr.com/65535/50018019446_92c4fc1236_n.jpg",
    "id_album": "-462831702",
    "description": "Cat_344388",
    "title": "Cat_344388",
    "link_img": "https://live.staticflickr.com/65535/50018019446_632a5e30bf_o.jpg",
    "id_image": "Cat_344388",
    "count_view": 0
  },
  {
    "link_thumb": "https://live.staticflickr.com/65535/50019665703_a90b1722ba_n.jpg",
    "id_album": "-149330232",
    "description": "Dog_266504",
    "title": "Dog_266504",
    "link_img": "https://live.staticflickr.com/65535/50019665703_a7d976deca_o.jpg",
    "id_image": "Dog_266504",
    "count_view": 0
  },
  {
    "link_thumb": "https://live.staticflickr.com/65535/50020527891_d400774acd_n.jpg",
    "id_album": "-149330231",
    "description": "Dog_865590",
    "title": "Dog_865590",
    "link_img": "https://live.staticflickr.com/65535/50020527891_bb4be36a7e_o.jpg",
    "id_image": "Dog_865590",
    "count_view": 0
  },
  {
    "link_thumb": "https://live.staticflickr.com/65535/50017447286_b160a43e1b_n.jpg",
    "id_album": "-1561645279",
    "description": "BlackPanther_256757",
    "title": "BlackPanther_256757",
    "link_img": "https://live.staticflickr.com/65535/50017447286_9192fdf99f_o.jpg",
    "id_image": "BlackPanther_256757",
    "count_view": 0
  },
  {
    "link_thumb": "https://live.staticflickr.com/65535/50016797588_735038e1d1_n.jpg",
    "id_album": "-1846011410",
    "description": "Bird_424504",
    "title": "Bird_424504",
    "link_img": "https://live.staticflickr.com/65535/50016797588_976a0c4faf_o.jpg",
    "id_image": "Bird_424504",
    "count_view": 0
  },
  {
    "link_thumb": "https://live.staticflickr.com/65535/50022054767_497d0f1965_n.jpg",
    "id_album": "770105808",
    "description": "Kingfisher_413490",
    "title": "Kingfisher_413490",
    "link_img": "https://live.staticflickr.com/65535/50022054767_5116cb81c4_o.jpg",
    "id_image": "Kingfisher_413490",
    "count_view": 0
  },
  {
    "link_thumb": "https://live.staticflickr.com/65535/50023235112_d2a155f739_n.jpg",
    "id_album": "-353898617",
    "description": "Puppy_371074",
    "title": "Puppy_371074",
    "link_img": "https://live.staticflickr.com/65535/50023235112_955a0b44f8_o.jpg",
    "id_image": "Puppy_371074",
    "count_view": 0
  },
  {
    "link_thumb": "https://live.staticflickr.com/65535/50017890447_f19944d11c_n.jpg",
    "id_album": "-401151552",
    "description": "Butterfly_571541",
    "title": "Butterfly_571541",
    "link_img": "https://live.staticflickr.com/65535/50017890447_faae424503_o.jpg",
    "id_image": "Butterfly_571541",
    "count_view": 0
  },
  {
    "link_thumb": "https://live.staticflickr.com/65535/50019624871_4b0609acd1_n.jpg",
    "id_album": "1889777354",
    "description": "CGI_321932",
    "title": "CGI_321932",
    "link_img": "https://live.staticflickr.com/65535/50019624871_359ee34ba7_o.jpg",
    "id_image": "CGI_321932",
    "count_view": 0
  },
  {
    "link_thumb": "https://live.staticflickr.com/65535/50021338548_d08671fdd9_n.jpg",
    "id_album": "1918884325",
    "description": "Lemur_850081",
    "title": "Lemur_850081",
    "link_img": "https://live.staticflickr.com/65535/50021338548_f667d7aac8_o.jpg",
    "id_image": "Lemur_850081",
    "count_view": 0
  },
  {
    "link_thumb": "https://live.staticflickr.com/65535/50016407148_85a6c4fc3f_n.jpg",
    "id_album": "390697200",
    "description": "AustralianShepherd_651122",
    "title": "AustralianShepherd_651122",
    "link_img": "https://live.staticflickr.com/65535/50016407148_a59111989f_o.jpg",
    "id_image": "AustralianShepherd_651122",
    "count_view": 0
  },
  {
    "link_thumb": "https://live.staticflickr.com/65535/50023669517_f4ba80f7ef_n.jpg",
    "id_album": "1961094930",
    "description": "Seal_414257",
    "title": "Seal_414257",
    "link_img": "https://live.staticflickr.com/65535/50023669517_0d3743254d_o.jpg",
    "id_image": "Seal_414257",
    "count_view": 0
  },
  {
    "link_thumb": "https://live.staticflickr.com/65535/50021070092_f4dbaceee5_n.jpg",
    "id_album": "822895535",
    "description": "Falcon_462137",
    "title": "Falcon_462137",
    "link_img": "https://live.staticflickr.com/65535/50021070092_e4676627aa_o.jpg",
    "id_image": "Falcon_462137",
    "count_view": 0
  },
  {
    "link_thumb": "https://live.staticflickr.com/65535/50016766608_a58b350feb_n.jpg",
    "id_album": "-1846011410",
    "description": "Bird_385741",
    "title": "Bird_385741",
    "link_img": "https://live.staticflickr.com/65535/50016766608_b8c806c9f6_o.jpg",
    "id_image": "Bird_385741",
    "count_view": 0
  },
  {
    "link_thumb": "https://live.staticflickr.com/65535/50020725913_e2a5c21ed4_n.jpg",
    "id_album": "-462831703",
    "description": "Cat_828073",
    "title": "Cat_828073",
    "link_img": "https://live.staticflickr.com/65535/50020725913_fd4c27ed02_o.jpg",
    "id_image": "Cat_828073",
    "count_view": 0
  },
  {
    "link_thumb": "https://live.staticflickr.com/65535/50352691782_d3438aa707_n.jpg",
    "id_album": "-462831703",
    "description": "Cat_453658",
    "title": "Cat_453658",
    "link_img": "https://live.staticflickr.com/65535/50352691782_1478eab957_o.jpg",
    "id_image": "Cat_453658",
    "count_view": 0
  },
  {
    "link_thumb": "https://live.staticflickr.com/65535/50020862806_2d58b76f03_n.jpg",
    "id_album": "-1118073211",
    "description": "Fish_529802",
    "title": "Fish_529802",
    "link_img": "https://live.staticflickr.com/65535/50020862806_080d410809_o.jpg",
    "id_image": "Fish_529802",
    "count_view": 0
  },
  {
    "link_thumb": "https://live.staticflickr.com/65535/50020876388_275e250d0d_n.jpg",
    "id_album": "-1513987841",
    "description": "Hawk_277984",
    "title": "Hawk_277984",
    "link_img": "https://live.staticflickr.com/65535/50020876388_d9980db28d_o.jpg",
    "id_image": "Hawk_277984",
    "count_view": 0
  },
  {
    "link_thumb": "https://live.staticflickr.com/65535/50017817211_2805c2cfb2_n.jpg",
    "id_album": "-462831705",
    "description": "Cat_179275",
    "title": "Cat_179275",
    "link_img": "https://live.staticflickr.com/65535/50017817211_b055cfa62a_o.jpg",
    "id_image": "Cat_179275",
    "count_view": 0
  },
  {
    "link_thumb": "https://live.staticflickr.com/65535/50017208041_12e7323147_n.jpg",
    "id_album": "-1846011410",
    "description": "Bird_194253",
    "title": "Bird_194253",
    "link_img": "https://live.staticflickr.com/65535/50017208041_059167e13f_o.jpg",
    "id_image": "Bird_194253",
    "count_view": 0
  },
  {
    "link_thumb": "https://live.staticflickr.com/65535/50016621073_93456ab720_n.jpg",
    "id_album": "1699594607",
    "description": "Bee_574355",
    "title": "Bee_574355",
    "link_img": "https://live.staticflickr.com/65535/50016621073_7069b2028e_o.jpg",
    "id_image": "Bee_574355",
    "count_view": 0
  },
  {
    "link_thumb": "https://live.staticflickr.com/65535/50019449137_f5e8217b04_n.jpg",
    "id_album": "-462831702",
    "description": "Cat_433481",
    "title": "Cat_433481",
    "link_img": "https://live.staticflickr.com/65535/50019449137_52a664e052_o.jpg",
    "id_image": "Cat_433481",
    "count_view": 0
  },
  {
    "link_thumb": "https://live.staticflickr.com/65535/50016347133_d5676a9782_n.jpg",
    "id_album": "523598895",
    "description": "Artistic_172217",
    "title": "Artistic_172217",
    "link_img": "https://live.staticflickr.com/65535/50016347133_4375e874cf_o.jpg",
    "id_image": "Artistic_172217",
    "count_view": 0
  },
  {
    "link_thumb": "https://live.staticflickr.com/65535/50018202797_dc4c96a14b_n.jpg",
    "id_album": "-462831702",
    "description": "Cat_292122",
    "title": "Cat_292122",
    "link_img": "https://live.staticflickr.com/65535/50018202797_a4e7d10bf1_o.jpg",
    "id_image": "Cat_292122",
    "count_view": 0
  },
  {
    "link_thumb": "https://live.staticflickr.com/65535/50021418526_6b51849ffe_n.jpg",
    "id_album": "-1513987841",
    "description": "Hawk_266500",
    "title": "Hawk_266500",
    "link_img": "https://live.staticflickr.com/65535/50021418526_08083ccc3f_o.jpg",
    "id_image": "Hawk_266500",
    "count_view": 0
  },
  {
    "link_thumb": "https://live.staticflickr.com/65535/50019762166_7fb08b90ce_n.jpg",
    "id_album": "791455625",
    "description": "Chipmunk_503725",
    "title": "Chipmunk_503725",
    "link_img": "https://live.staticflickr.com/65535/50019762166_b6c08dd29e_o.jpg",
    "id_image": "Chipmunk_503725",
    "count_view": 0
  },
  {
    "link_thumb": "https://live.staticflickr.com/65535/50016938536_a0b62d32d1_n.jpg",
    "id_album": "390697200",
    "description": "AustralianShepherd_848177",
    "title": "AustralianShepherd_848177",
    "link_img": "https://live.staticflickr.com/65535/50016938536_28e2a45dfe_o.jpg",
    "id_image": "AustralianShepherd_848177",
    "count_view": 0
  },
  {
    "link_thumb": "https://live.staticflickr.com/65535/50024700822_7078c733df_n.jpg",
    "id_album": "766572659",
    "description": "WhiteTiger_428587",
    "title": "WhiteTiger_428587",
    "link_img": "https://live.staticflickr.com/65535/50024700822_6647a86b0a_o.jpg",
    "id_image": "WhiteTiger_428587",
    "count_view": 0
  },
  {
    "link_thumb": "https://live.staticflickr.com/65535/50021103501_50f84706c6_n.jpg",
    "id_album": "-462831704",
    "description": "Cat_545357",
    "title": "Cat_545357",
    "link_img": "https://live.staticflickr.com/65535/50021103501_93e626bc3c_o.jpg",
    "id_image": "Cat_545357",
    "count_view": 0
  },
  {
    "link_thumb": "https://live.staticflickr.com/65535/50017536011_4bc895e08d_n.jpg",
    "id_album": "-401151552",
    "description": "Butterfly_147928",
    "title": "Butterfly_147928",
    "link_img": "https://live.staticflickr.com/65535/50017536011_04e2805af1_o.jpg",
    "id_image": "Butterfly_147928",
    "count_view": 0
  },
  {
    "link_thumb": "https://live.staticflickr.com/65535/50021866971_c80e80ea68_n.jpg",
    "id_album": "-1882491687",
    "description": "Ladybug_87049",
    "title": "Ladybug_87049",
    "link_img": "https://live.staticflickr.com/65535/50021866971_1d81de19e6_o.jpg",
    "id_image": "Ladybug_87049",
    "count_view": 0
  },
  {
    "link_thumb": "https://live.staticflickr.com/65535/50024210836_d4dce6ddd7_n.jpg",
    "id_album": "405170427",
    "description": "Tiger_775122",
    "title": "Tiger_775122",
    "link_img": "https://live.staticflickr.com/65535/50024210836_6e28bf0571_o.jpg",
    "id_image": "Tiger_775122",
    "count_view": 0
  },
  {
    "link_thumb": "https://live.staticflickr.com/65535/50017128656_f7d9983c1b_n.jpg",
    "id_album": "1699594607",
    "description": "Bee_362953",
    "title": "Bee_362953",
    "link_img": "https://live.staticflickr.com/65535/50017128656_a234e057a7_o.jpg",
    "id_image": "Bee_362953",
    "count_view": 0
  },
  {
    "link_thumb": "https://live.staticflickr.com/65535/50020109496_2391aa8603_n.jpg",
    "id_album": "297232732",
    "description": "Dinosaur_958528",
    "title": "Dinosaur_958528",
    "link_img": "https://live.staticflickr.com/65535/50020109496_f8980ce72b_o.jpg",
    "id_image": "Dinosaur_958528",
    "count_view": 0
  },
  {
    "link_thumb": "https://live.staticflickr.com/65535/50022538073_7beee38d99_n.jpg",
    "id_album": "470794721",
    "description": "Python_593422",
    "title": "Python_593422",
    "link_img": "https://live.staticflickr.com/65535/50022538073_693a823974_o.jpg",
    "id_image": "Python_593422",
    "count_view": 0
  },
  {
    "link_thumb": "https://live.staticflickr.com/65535/50017519611_144b601ba9_n.jpg",
    "id_album": "1696155652",
    "description": "Boxer_726415",
    "title": "Boxer_726415",
    "link_img": "https://live.staticflickr.com/65535/50017519611_84d8d61748_o.jpg",
    "id_image": "Boxer_726415",
    "count_view": 0
  },
  {
    "link_thumb": "https://live.staticflickr.com/65535/50019033163_2338b38c0c_n.jpg",
    "id_album": "-462831703",
    "description": "Cat_991681",
    "title": "Cat_991681",
    "link_img": "https://live.staticflickr.com/65535/50019033163_67a5a315b4_o.jpg",
    "id_image": "Cat_991681",
    "count_view": 0
  },
  {
    "link_thumb": "https://live.staticflickr.com/65535/50020709402_b40bb7bbce_n.jpg",
    "id_album": "-149330231",
    "description": "Dog_529905",
    "title": "Dog_529905",
    "link_img": "https://live.staticflickr.com/65535/50020709402_19824a7552_o.jpg",
    "id_image": "Dog_529905",
    "count_view": 0
  },
  {
    "link_thumb": "https://live.staticflickr.com/65535/50017221808_8707593bae_n.jpg",
    "id_album": "-462831705",
    "description": "Cat_108665",
    "title": "Cat_108665",
    "link_img": "https://live.staticflickr.com/65535/50017221808_c54ed2bd44_o.jpg",
    "id_image": "Cat_108665",
    "count_view": 0
  },
  {
    "link_thumb": "https://live.staticflickr.com/65535/50019857356_e2bb7c1886_n.jpg",
    "id_album": "-2144640780",
    "description": "Cow_742785",
    "title": "Cow_742785",
    "link_img": "https://live.staticflickr.com/65535/50019857356_10767473e6_o.jpg",
    "id_image": "Cow_742785",
    "count_view": 0
  },
  {
    "link_thumb": "https://live.staticflickr.com/65535/50017339442_a96bc2e2ff_n.jpg",
    "id_album": "-422187261",
    "description": "Bear_753489",
    "title": "Bear_753489",
    "link_img": "https://live.staticflickr.com/65535/50017339442_c9eb3220bb_o.jpg",
    "id_image": "Bear_753489",
    "count_view": 0
  },
  {
    "link_thumb": "https://live.staticflickr.com/65535/50019740283_2810105a69_n.jpg",
    "id_album": "-149330232",
    "description": "Dog_337754",
    "title": "Dog_337754",
    "link_img": "https://live.staticflickr.com/65535/50019740283_308101e07f_o.jpg",
    "id_image": "Dog_337754",
    "count_view": 0
  },
  {
    "link_thumb": "https://live.staticflickr.com/65535/50021241286_03ac4eedec_n.jpg",
    "id_album": "-462831703",
    "description": "Cat_779285",
    "title": "Cat_779285",
    "link_img": "https://live.staticflickr.com/65535/50021241286_1fed042e5e_o.jpg",
    "id_image": "Cat_779285",
    "count_view": 0
  },
  {
    "link_thumb": "https://live.staticflickr.com/65535/50021260512_ae720e066a_n.jpg",
    "id_album": "-128218148",
    "description": "Fox_800630",
    "title": "Fox_800630",
    "link_img": "https://live.staticflickr.com/65535/50021260512_c945c38bf3_o.jpg",
    "id_image": "Fox_800630",
    "count_view": 0
  },
  {
    "link_thumb": "https://live.staticflickr.com/65535/50019967576_ac7d266b72_n.jpg",
    "id_album": "-1783645069",
    "description": "Dalmatian_728381",
    "title": "Dalmatian_728381",
    "link_img": "https://live.staticflickr.com/65535/50019967576_fe455eb782_o.jpg",
    "id_image": "Dalmatian_728381",
    "count_view": 0
  },
  {
    "link_thumb": "https://live.staticflickr.com/65535/50020939042_332e987399_n.jpg",
    "id_album": "-39098563",
    "description": "Eagle_179251",
    "title": "Eagle_179251",
    "link_img": "https://live.staticflickr.com/65535/50020939042_ec8a31bf6d_o.jpg",
    "id_image": "Eagle_179251",
    "count_view": 0
  },
  {
    "link_thumb": "https://live.staticflickr.com/65535/50021751707_6893915737_n.jpg",
    "id_album": "-1933715543",
    "description": "Horse_352650",
    "title": "Horse_352650",
    "link_img": "https://live.staticflickr.com/65535/50021751707_e84fd13abb_o.jpg",
    "id_image": "Horse_352650",
    "count_view": 0
  },
  {
    "link_thumb": "https://live.staticflickr.com/65535/50017299491_5138ea4989_n.jpg",
    "id_album": "-1846011410",
    "description": "Bird_394871",
    "title": "Bird_394871",
    "link_img": "https://live.staticflickr.com/65535/50017299491_33a6318eec_o.jpg",
    "id_image": "Bird_394871",
    "count_view": 0
  },
  {
    "link_thumb": "https://live.staticflickr.com/65535/50023279087_5ffd8a261d_n.jpg",
    "id_album": "-353898617",
    "description": "Puppy_559282",
    "title": "Puppy_559282",
    "link_img": "https://live.staticflickr.com/65535/50023279087_1122bceeb6_o.jpg",
    "id_image": "Puppy_559282",
    "count_view": 0
  },
  {
    "link_thumb": "https://live.staticflickr.com/65535/50019563008_fec54877a3_n.jpg",
    "id_album": "297232732",
    "description": "Dinosaur_564427",
    "title": "Dinosaur_564427",
    "link_img": "https://live.staticflickr.com/65535/50019563008_a28ed48d12_o.jpg",
    "id_image": "Dinosaur_564427",
    "count_view": 0
  },
  {
    "link_thumb": "https://live.staticflickr.com/65535/50020344171_98cbf6426e_n.jpg",
    "id_album": "-149330232",
    "description": "Dog_370703",
    "title": "Dog_370703",
    "link_img": "https://live.staticflickr.com/65535/50020344171_655ecf855e_o.jpg",
    "id_image": "Dog_370703",
    "count_view": 0
  },
  {
    "link_thumb": "https://live.staticflickr.com/65535/50020639021_7dccc24706_n.jpg",
    "id_album": "-405058657",
    "description": "Dragonfly_765126",
    "title": "Dragonfly_765126",
    "link_img": "https://live.staticflickr.com/65535/50020639021_04b9ec2364_o.jpg",
    "id_image": "Dragonfly_765126",
    "count_view": 0
  },
  {
    "link_thumb": "https://live.staticflickr.com/65535/50017575991_7722821828_n.jpg",
    "id_album": "-401151552",
    "description": "Butterfly_378134",
    "title": "Butterfly_378134",
    "link_img": "https://live.staticflickr.com/65535/50017575991_a2c44d4576_o.jpg",
    "id_image": "Butterfly_378134",
    "count_view": 0
  },
  {
    "link_thumb": "https://live.staticflickr.com/65535/50020113186_a24eb298a3_n.jpg",
    "id_album": "-149330232",
    "description": "Dog_102078",
    "title": "Dog_102078",
    "link_img": "https://live.staticflickr.com/65535/50020113186_792a782169_o.jpg",
    "id_image": "Dog_102078",
    "count_view": 0
  },
  {
    "link_thumb": "https://live.staticflickr.com/65535/50022695748_2d22f44d61_n.jpg",
    "id_album": "332874268",
    "description": "RedPanda_887837",
    "title": "RedPanda_887837",
    "link_img": "https://live.staticflickr.com/65535/50022695748_3c1c79d842_o.jpg",
    "id_image": "RedPanda_887837",
    "count_view": 0
  },
  {
    "link_thumb": "https://live.staticflickr.com/65535/50351834838_e6ecc34146_n.jpg",
    "id_album": "-462831703",
    "description": "Cat_453381",
    "title": "Cat_453381",
    "link_img": "https://live.staticflickr.com/65535/50351834838_5cb22716bd_o.jpg",
    "id_image": "Cat_453381",
    "count_view": 0
  },
  {
    "link_thumb": "https://live.staticflickr.com/65535/50023417877_02ddbb1ec7_n.jpg",
    "id_album": "248289288",
    "description": "Raccoon_747951",
    "title": "Raccoon_747951",
    "link_img": "https://live.staticflickr.com/65535/50023417877_4a9e54e861_o.jpg",
    "id_image": "Raccoon_747951",
    "count_view": 0
  },
  {
    "link_thumb": "https://live.staticflickr.com/65535/50020299398_fdfa7d7eb0_n.jpg",
    "id_album": "-1118073211",
    "description": "Fish_311966",
    "title": "Fish_311966",
    "link_img": "https://live.staticflickr.com/65535/50020299398_93059f8100_o.jpg",
    "id_image": "Fish_311966",
    "count_view": 0
  },
  {
    "link_thumb": "https://live.staticflickr.com/65535/50019029168_e863e6c044_n.jpg",
    "id_album": "-462831703",
    "description": "Cat_986784",
    "title": "Cat_986784",
    "link_img": "https://live.staticflickr.com/65535/50019029168_5fbc3ee4e2_o.jpg",
    "id_image": "Cat_986784",
    "count_view": 0
  },
  {
    "link_thumb": "https://live.staticflickr.com/65535/50023588318_062083c51f_n.jpg",
    "id_album": "405170427",
    "description": "Tiger_437656",
    "title": "Tiger_437656",
    "link_img": "https://live.staticflickr.com/65535/50023588318_5779c86625_o.jpg",
    "id_image": "Tiger_437656",
    "count_view": 0
  },
  {
    "link_thumb": "https://live.staticflickr.com/65535/50020041951_1294643a94_n.jpg",
    "id_album": "1903411565",
    "description": "Deer_706678",
    "title": "Deer_706678",
    "link_img": "https://live.staticflickr.com/65535/50020041951_a491d47bbd_o.jpg",
    "id_image": "Deer_706678",
    "count_view": 0
  },
  {
    "link_thumb": "https://live.staticflickr.com/65535/50017177926_b3e18717d1_n.jpg",
    "id_album": "172748811",
    "description": "Beeeater_906476",
    "title": "Beeeater_906476",
    "link_img": "https://live.staticflickr.com/65535/50017177926_701e35dc7e_o.jpg",
    "id_image": "Beeeater_906476",
    "count_view": 0
  },
  {
    "link_thumb": "https://live.staticflickr.com/65535/50019309603_7a3cea0728_n.jpg",
    "id_album": "-2144640780",
    "description": "Cow_367046",
    "title": "Cow_367046",
    "link_img": "https://live.staticflickr.com/65535/50019309603_5ee8ba59d3_o.jpg",
    "id_image": "Cow_367046",
    "count_view": 0
  },
  {
    "link_thumb": "https://live.staticflickr.com/65535/50016741198_ab09613f3c_n.jpg",
    "id_album": "-1846011410",
    "description": "Bird_355055",
    "title": "Bird_355055",
    "link_img": "https://live.staticflickr.com/65535/50016741198_c3af63b7dd_o.jpg",
    "id_image": "Bird_355055",
    "count_view": 0
  },
  {
    "link_thumb": "https://live.staticflickr.com/65535/50021265181_4a55083b08_n.jpg",
    "id_album": "-462831703",
    "description": "Cat_821315",
    "title": "Cat_821315",
    "link_img": "https://live.staticflickr.com/65535/50021265181_86f444a58f_o.jpg",
    "id_image": "Cat_821315",
    "count_view": 0
  },
  {
    "link_thumb": "https://live.staticflickr.com/65535/50020914863_f74b7ce5ce_n.jpg",
    "id_album": "-1933715543",
    "description": "Horse_101545",
    "title": "Horse_101545",
    "link_img": "https://live.staticflickr.com/65535/50020914863_275de613f8_o.jpg",
    "id_image": "Horse_101545",
    "count_view": 0
  },
  {
    "link_thumb": "https://live.staticflickr.com/65535/50016474368_bf94e93020_n.jpg",
    "id_album": "-422187261",
    "description": "Bear_101879",
    "title": "Bear_101879",
    "link_img": "https://live.staticflickr.com/65535/50016474368_f96218d8d2_o.jpg",
    "id_image": "Bear_101879",
    "count_view": 0
  },
  {
    "link_thumb": "https://live.staticflickr.com/65535/50019455146_be97338f10_n.jpg",
    "id_album": "-462831705",
    "description": "Cat_91437",
    "title": "Cat_91437",
    "link_img": "https://live.staticflickr.com/65535/50019455146_c73afba664_o.jpg",
    "id_image": "Cat_91437",
    "count_view": 0
  },
  {
    "link_thumb": "https://live.staticflickr.com/65535/50019141038_23aa8bfbc6_n.jpg",
    "id_album": "-766919393",
    "description": "Chameleon_870166",
    "title": "Chameleon_870166",
    "link_img": "https://live.staticflickr.com/65535/50019141038_283e9621ee_o.jpg",
    "id_image": "Chameleon_870166",
    "count_view": 0
  },
  {
    "link_thumb": "https://live.staticflickr.com/65535/50352678646_2d71be282a_n.jpg",
    "id_album": "-462831702",
    "description": "Cat_101496",
    "title": "Cat_101496",
    "link_img": "https://live.staticflickr.com/65535/50352678646_b294e41907_o.jpg",
    "id_image": "Cat_101496",
    "count_view": 0
  },
  {
    "link_thumb": "https://live.staticflickr.com/65535/50019213261_ea2be669a2_n.jpg",
    "id_album": "-462831704",
    "description": "Cat_443541",
    "title": "Cat_443541",
    "link_img": "https://live.staticflickr.com/65535/50019213261_d51ce84b31_o.jpg",
    "id_image": "Cat_443541",
    "count_view": 0
  },
  {
    "link_thumb": "https://live.staticflickr.com/65535/50018641578_ef18d23703_n.jpg",
    "id_album": "-462831702",
    "description": "Cat_426167",
    "title": "Cat_426167",
    "link_img": "https://live.staticflickr.com/65535/50018641578_fbf2e96226_o.jpg",
    "id_image": "Cat_426167",
    "count_view": 0
  },
  {
    "link_thumb": "https://live.staticflickr.com/65535/50023275233_0ab7381d6c_n.jpg",
    "id_album": "702283289",
    "description": "Squirrel_262923",
    "title": "Squirrel_262923",
    "link_img": "https://live.staticflickr.com/65535/50023275233_9d04cef32e_o.jpg",
    "id_image": "Squirrel_262923",
    "count_view": 0
  },
  {
    "link_thumb": "https://live.staticflickr.com/65535/50023550128_33753a25f4_n.jpg",
    "id_album": "405170427",
    "description": "Tiger_374049",
    "title": "Tiger_374049",
    "link_img": "https://live.staticflickr.com/65535/50023550128_134d2aeb3c_o.jpg",
    "id_image": "Tiger_374049",
    "count_view": 0
  },
  {
    "link_thumb": "https://live.staticflickr.com/65535/50019860217_d0df8045c6_n.jpg",
    "id_album": "-420782796",
    "description": "Caterpillar_391703",
    "title": "Caterpillar_391703",
    "link_img": "https://live.staticflickr.com/65535/50019860217_27aa29922d_o.jpg",
    "id_image": "Caterpillar_391703",
    "count_view": 0
  },
  {
    "link_thumb": "https://live.staticflickr.com/65535/50018912123_8eaf676200_n.jpg",
    "id_album": "-462831705",
    "description": "Cat_91379",
    "title": "Cat_91379",
    "link_img": "https://live.staticflickr.com/65535/50018912123_7ecef0b803_o.jpg",
    "id_image": "Cat_91379",
    "count_view": 0
  },
  {
    "link_thumb": "https://live.staticflickr.com/65535/50023221727_1545543995_n.jpg",
    "id_album": "-353898617",
    "description": "Puppy_357952",
    "title": "Puppy_357952",
    "link_img": "https://live.staticflickr.com/65535/50023221727_3825f5ffd8_o.jpg",
    "id_image": "Puppy_357952",
    "count_view": 0
  },
  {
    "link_thumb": "https://live.staticflickr.com/65535/50020006886_14cff09d4e_n.jpg",
    "id_album": "1903411565",
    "description": "Deer_420974",
    "title": "Deer_420974",
    "link_img": "https://live.staticflickr.com/65535/50020006886_3090639186_o.jpg",
    "id_image": "Deer_420974",
    "count_view": 0
  },
  {
    "link_thumb": "https://live.staticflickr.com/65535/50023206168_78cbc9f0db_n.jpg",
    "id_album": "-1082521515",
    "description": "Spider_398741",
    "title": "Spider_398741",
    "link_img": "https://live.staticflickr.com/65535/50023206168_5938495d03_o.jpg",
    "id_image": "Spider_398741",
    "count_view": 0
  },
  {
    "link_thumb": "https://live.staticflickr.com/65535/50017294443_e6b2480537_n.jpg",
    "id_album": "-462831705",
    "description": "Cat_181056",
    "title": "Cat_181056",
    "link_img": "https://live.staticflickr.com/65535/50017294443_0795ff225d_o.jpg",
    "id_image": "Cat_181056",
    "count_view": 0
  },
  {
    "link_thumb": "https://live.staticflickr.com/65535/50024009121_678f86d04a_n.jpg",
    "id_album": "1579675410",
    "description": "Swan_442028",
    "title": "Swan_442028",
    "link_img": "https://live.staticflickr.com/65535/50024009121_0d73bd4d00_o.jpg",
    "id_image": "Swan_442028",
    "count_view": 0
  },
  {
    "link_thumb": "https://live.staticflickr.com/65535/50017712311_275cb5d32e_n.jpg",
    "id_album": "-401151552",
    "description": "Butterfly_931136",
    "title": "Butterfly_931136",
    "link_img": "https://live.staticflickr.com/65535/50017712311_0a4cf10ddd_o.jpg",
    "id_image": "Butterfly_931136",
    "count_view": 0
  },
  {
    "link_thumb": "https://live.staticflickr.com/65535/50017417698_bef7bbb743_n.jpg",
    "id_album": "-462831702",
    "description": "Cat_296680",
    "title": "Cat_296680",
    "link_img": "https://live.staticflickr.com/65535/50017417698_8a0f5ebfd9_o.jpg",
    "id_image": "Cat_296680",
    "count_view": 0
  },
  {
    "link_thumb": "https://live.staticflickr.com/65535/50022169162_28c3fd9da5_n.jpg",
    "id_album": "1392348450",
    "description": "Leopard_374236",
    "title": "Leopard_374236",
    "link_img": "https://live.staticflickr.com/65535/50022169162_b086b31b5d_o.jpg",
    "id_image": "Leopard_374236",
    "count_view": 0
  },
  {
    "link_thumb": "https://live.staticflickr.com/65535/50020661303_77e60a78ed_n.jpg",
    "id_album": "-462831704",
    "description": "Cat_723846",
    "title": "Cat_723846",
    "link_img": "https://live.staticflickr.com/65535/50020661303_4ce75b58b7_o.jpg",
    "id_image": "Cat_723846",
    "count_view": 0
  },
  {
    "link_thumb": "https://live.staticflickr.com/65535/50021411071_11dccd8a5e_n.jpg",
    "id_album": "82558972",
    "description": "GuineaPig_822777",
    "title": "GuineaPig_822777",
    "link_img": "https://live.staticflickr.com/65535/50021411071_2ffe5fe9ea_o.jpg",
    "id_image": "GuineaPig_822777",
    "count_view": 0
  },
  {
    "link_thumb": "https://live.staticflickr.com/65535/50022037176_8d243680b4_n.jpg",
    "id_album": "416744915",
    "description": "Lion_618359",
    "title": "Lion_618359",
    "link_img": "https://live.staticflickr.com/65535/50022037176_02d7aeb490_o.jpg",
    "id_image": "Lion_618359",
    "count_view": 0
  },
  {
    "link_thumb": "https://live.staticflickr.com/65535/50351949613_9e3894e555_n.jpg",
    "id_album": "-462831703",
    "description": "Cat_689099",
    "title": "Cat_689099",
    "link_img": "https://live.staticflickr.com/65535/50351949613_c821bfeb9a_o.jpg",
    "id_image": "Cat_689099",
    "count_view": 0
  },
  {
    "link_thumb": "https://live.staticflickr.com/65535/50020168632_91320c7de1_n.jpg",
    "id_album": "-392100404",
    "description": "Crow_703208",
    "title": "Crow_703208",
    "link_img": "https://live.staticflickr.com/65535/50020168632_7a94864618_o.jpg",
    "id_image": "Crow_703208",
    "count_view": 0
  },
  {
    "link_thumb": "https://live.staticflickr.com/65535/50020687358_4d00829657_n.jpg",
    "id_album": "-462831703",
    "description": "Cat_755411",
    "title": "Cat_755411",
    "link_img": "https://live.staticflickr.com/65535/50020687358_2575799953_o.jpg",
    "id_image": "Cat_755411",
    "count_view": 0
  },
  {
    "link_thumb": "https://live.staticflickr.com/65535/50021106021_fbb1d5f0de_n.jpg",
    "id_album": "-462831704",
    "description": "Cat_548835",
    "title": "Cat_548835",
    "link_img": "https://live.staticflickr.com/65535/50021106021_a15ed0a4e9_o.jpg",
    "id_image": "Cat_548835",
    "count_view": 0
  },
  {
    "link_thumb": "https://live.staticflickr.com/65535/50020234706_846a13d043_n.jpg",
    "id_album": "-149330232",
    "description": "Dog_313994",
    "title": "Dog_313994",
    "link_img": "https://live.staticflickr.com/65535/50020234706_383037af86_o.jpg",
    "id_image": "Dog_313994",
    "count_view": 0
  },
  {
    "link_thumb": "https://live.staticflickr.com/65535/50019424267_d3bd80f68d_n.jpg",
    "id_album": "-462831702",
    "description": "Cat_425054",
    "title": "Cat_425054",
    "link_img": "https://live.staticflickr.com/65535/50019424267_cc1c24ed76_o.jpg",
    "id_image": "Cat_425054",
    "count_view": 0
  },
  {
    "link_thumb": "https://live.staticflickr.com/65535/50018684028_3fce306014_n.jpg",
    "id_album": "-462831704",
    "description": "Cat_443708",
    "title": "Cat_443708",
    "link_img": "https://live.staticflickr.com/65535/50018684028_8019f6f8a4_o.jpg",
    "id_image": "Cat_443708",
    "count_view": 0
  },
  {
    "link_thumb": "https://live.staticflickr.com/65535/50023676993_f38c391bf5_n.jpg",
    "id_album": "405170427",
    "description": "Tiger_839620",
    "title": "Tiger_839620",
    "link_img": "https://live.staticflickr.com/65535/50023676993_e2ba576028_o.jpg",
    "id_image": "Tiger_839620",
    "count_view": 0
  },
  {
    "link_thumb": "https://live.staticflickr.com/65535/50021578472_ec35b0452c_n.jpg",
    "id_album": "713572662",
    "description": "Giraffe_394594",
    "title": "Giraffe_394594",
    "link_img": "https://live.staticflickr.com/65535/50021578472_aefa008cb3_o.jpg",
    "id_image": "Giraffe_394594",
    "count_view": 0
  },
  {
    "link_thumb": "https://live.staticflickr.com/65535/50021883542_517b335a77_n.jpg",
    "id_album": "-712553376",
    "description": "Husky_373737",
    "title": "Husky_373737",
    "link_img": "https://live.staticflickr.com/65535/50021883542_0f126219c4_o.jpg",
    "id_image": "Husky_373737",
    "count_view": 0
  },
  {
    "link_thumb": "https://live.staticflickr.com/65535/50022051577_9e523f77d4_n.jpg",
    "id_album": "770105808",
    "description": "Kingfisher_233599",
    "title": "Kingfisher_233599",
    "link_img": "https://live.staticflickr.com/65535/50022051577_1eb7affd6f_o.jpg",
    "id_image": "Kingfisher_233599",
    "count_view": 0
  },
  {
    "link_thumb": "https://live.staticflickr.com/65535/50017785181_9fed2c88d5_n.jpg",
    "id_album": "-462831705",
    "description": "Cat_149201",
    "title": "Cat_149201",
    "link_img": "https://live.staticflickr.com/65535/50017785181_5aa0bb899e_o.jpg",
    "id_image": "Cat_149201",
    "count_view": 0
  },
  {
    "link_thumb": "https://live.staticflickr.com/65535/50019929891_1ceb61b991_n.jpg",
    "id_album": "1273365283",
    "description": "Cute_280152",
    "title": "Cute_280152",
    "link_img": "https://live.staticflickr.com/65535/50019929891_b039711e5b_o.jpg",
    "id_image": "Cute_280152",
    "count_view": 0
  },
  {
    "link_thumb": "https://live.staticflickr.com/65535/50020810748_ca4e35473b_n.jpg",
    "id_album": "2060159334",
    "description": "GoldenRetriever_651000",
    "title": "GoldenRetriever_651000",
    "link_img": "https://live.staticflickr.com/65535/50020810748_df2884c2ac_o.jpg",
    "id_image": "GoldenRetriever_651000",
    "count_view": 0
  },
  {
    "link_thumb": "https://live.staticflickr.com/65535/50020783263_78ab1a29bd_n.jpg",
    "id_album": "713572662",
    "description": "Giraffe_424158",
    "title": "Giraffe_424158",
    "link_img": "https://live.staticflickr.com/65535/50020783263_b794a07475_o.jpg",
    "id_image": "Giraffe_424158",
    "count_view": 0
  },
  {
    "link_thumb": "https://live.staticflickr.com/65535/50016968406_7d9864e3c1_n.jpg",
    "id_album": "231236068",
    "description": "BaldEagle_784325",
    "title": "BaldEagle_784325",
    "link_img": "https://live.staticflickr.com/65535/50016968406_9bd932a380_o.jpg",
    "id_image": "BaldEagle_784325",
    "count_view": 0
  },
  {
    "link_thumb": "https://live.staticflickr.com/65535/50020711463_143d677976_n.jpg",
    "id_album": "-462831703",
    "description": "Cat_793629",
    "title": "Cat_793629",
    "link_img": "https://live.staticflickr.com/65535/50020711463_c8b2e0927b_o.jpg",
    "id_image": "Cat_793629",
    "count_view": 0
  },
  {
    "link_thumb": "https://live.staticflickr.com/65535/50020103717_1f70ab808b_n.jpg",
    "id_album": "-2144640780",
    "description": "Cow_430576",
    "title": "Cow_430576",
    "link_img": "https://live.staticflickr.com/65535/50020103717_df49ca3b53_o.jpg",
    "id_image": "Cow_430576",
    "count_view": 0
  },
  {
    "link_thumb": "https://live.staticflickr.com/65535/50019911707_904c665e84_n.jpg",
    "id_album": "-766919393",
    "description": "Chameleon_560017",
    "title": "Chameleon_560017",
    "link_img": "https://live.staticflickr.com/65535/50019911707_9e1edb3f7e_o.jpg",
    "id_image": "Chameleon_560017",
    "count_view": 0
  },
  {
    "link_thumb": "https://live.staticflickr.com/65535/50016931971_4e902b1d29_n.jpg",
    "id_album": "390697200",
    "description": "AustralianShepherd_650869",
    "title": "AustralianShepherd_650869",
    "link_img": "https://live.staticflickr.com/65535/50016931971_5294555c24_o.jpg",
    "id_image": "AustralianShepherd_650869",
    "count_view": 0
  },
  {
    "link_thumb": "https://live.staticflickr.com/65535/50022484608_f1ffd2ecea_n.jpg",
    "id_album": "-353898617",
    "description": "Puppy_587411",
    "title": "Puppy_587411",
    "link_img": "https://live.staticflickr.com/65535/50022484608_94bfcf966b_o.jpg",
    "id_image": "Puppy_587411",
    "count_view": 0
  },
  {
    "link_thumb": "https://live.staticflickr.com/65535/50021853446_3d2832687c_n.jpg",
    "id_album": "-1882491687",
    "description": "Ladybug_471210",
    "title": "Ladybug_471210",
    "link_img": "https://live.staticflickr.com/65535/50021853446_a01a19fd78_o.jpg",
    "id_image": "Ladybug_471210",
    "count_view": 0
  },
  {
    "link_thumb": "https://live.staticflickr.com/65535/50021748218_8f76186465_n.jpg",
    "id_album": "1957967135",
    "description": "Mouse_424608",
    "title": "Mouse_424608",
    "link_img": "https://live.staticflickr.com/65535/50021748218_f3b4208a7f_o.jpg",
    "id_image": "Mouse_424608",
    "count_view": 0
  },
  {
    "link_thumb": "https://live.staticflickr.com/65535/50022209013_93266db6af_n.jpg",
    "id_album": "407660898",
    "description": "Pigeon_275235",
    "title": "Pigeon_275235",
    "link_img": "https://live.staticflickr.com/65535/50022209013_68d561a7fc_o.jpg",
    "id_image": "Pigeon_275235",
    "count_view": 0
  },
  {
    "link_thumb": "https://live.staticflickr.com/65535/50017157033_a7e92f8172_n.jpg",
    "id_album": "-401151552",
    "description": "Butterfly_870759",
    "title": "Butterfly_870759",
    "link_img": "https://live.staticflickr.com/65535/50017157033_f59c58a67f_o.jpg",
    "id_image": "Butterfly_870759",
    "count_view": 0
  },
  {
    "link_thumb": "https://live.staticflickr.com/65535/50019549217_5316b2ee6f_n.jpg",
    "id_album": "-462831704",
    "description": "Cat_527452",
    "title": "Cat_527452",
    "link_img": "https://live.staticflickr.com/65535/50019549217_d223c76623_o.jpg",
    "id_image": "Cat_527452",
    "count_view": 0
  },
  {
    "link_thumb": "https://live.staticflickr.com/65535/50016926958_178baceb16_n.jpg",
    "id_album": "-1561645279",
    "description": "BlackPanther_414961",
    "title": "BlackPanther_414961",
    "link_img": "https://live.staticflickr.com/65535/50016926958_56babc68a7_o.jpg",
    "id_image": "BlackPanther_414961",
    "count_view": 0
  },
  {
    "link_thumb": "https://live.staticflickr.com/65535/50020305398_1de760b56f_n.jpg",
    "id_album": "-1118073211",
    "description": "Fish_354488",
    "title": "Fish_354488",
    "link_img": "https://live.staticflickr.com/65535/50020305398_c723887a47_o.jpg",
    "id_image": "Fish_354488",
    "count_view": 0
  },
  {
    "link_thumb": "https://live.staticflickr.com/65535/50020440993_47108a65d0_n.jpg",
    "id_album": "-128218148",
    "description": "Fox_650204",
    "title": "Fox_650204",
    "link_img": "https://live.staticflickr.com/65535/50020440993_b32b2fa2ca_o.jpg",
    "id_image": "Fox_650204",
    "count_view": 0
  },
  {
    "link_thumb": "https://live.staticflickr.com/65535/50022005132_ba849e9951_n.jpg",
    "id_album": "665694624",
    "description": "JapaneseMacaque_519336",
    "title": "JapaneseMacaque_519336",
    "link_img": "https://live.staticflickr.com/65535/50022005132_172b4b1e26_o.jpg",
    "id_image": "JapaneseMacaque_519336",
    "count_view": 0
  },
  {
    "link_thumb": "https://live.staticflickr.com/65535/50020546193_06dfc1e573_n.jpg",
    "id_album": "844170697",
    "description": "Frog_983086",
    "title": "Frog_983086",
    "link_img": "https://live.staticflickr.com/65535/50020546193_0ecb71fa7b_o.jpg",
    "id_image": "Frog_983086",
    "count_view": 0
  },
  {
    "link_thumb": "https://live.staticflickr.com/65535/50023333336_0561177e04_n.jpg",
    "id_album": "-419757464",
    "description": "SeaLife_158198",
    "title": "SeaLife_158198",
    "link_img": "https://live.staticflickr.com/65535/50023333336_b419b46c33_o.jpg",
    "id_image": "SeaLife_158198",
    "count_view": 0
  },
  {
    "link_thumb": "https://live.staticflickr.com/65535/50023743122_0faae49080_n.jpg",
    "id_album": "-755466332",
    "description": "Sheep_677310",
    "title": "Sheep_677310",
    "link_img": "https://live.staticflickr.com/65535/50023743122_550f7b15f2_o.jpg",
    "id_image": "Sheep_677310",
    "count_view": 0
  },
  {
    "link_thumb": "https://live.staticflickr.com/65535/50021587502_6383f7c08e_n.jpg",
    "id_album": "713572662",
    "description": "Giraffe_795327",
    "title": "Giraffe_795327",
    "link_img": "https://live.staticflickr.com/65535/50021587502_36cc796bd8_o.jpg",
    "id_image": "Giraffe_795327",
    "count_view": 0
  },
  {
    "link_thumb": "https://live.staticflickr.com/65535/50021412742_f0438bd3ac_n.jpg",
    "id_album": "-462831704",
    "description": "Cat_672517",
    "title": "Cat_672517",
    "link_img": "https://live.staticflickr.com/65535/50021412742_b13b9f5737_o.jpg",
    "id_image": "Cat_672517",
    "count_view": 0
  },
  {
    "link_thumb": "https://live.staticflickr.com/65535/50020720101_d34b71f89f_n.jpg",
    "id_album": "-39098563",
    "description": "Eagle_597066",
    "title": "Eagle_597066",
    "link_img": "https://live.staticflickr.com/65535/50020720101_cecbab954e_o.jpg",
    "id_image": "Eagle_597066",
    "count_view": 0
  },
  {
    "link_thumb": "https://live.staticflickr.com/65535/50019969673_4bc62e7d9e_n.jpg",
    "id_album": "-149330231",
    "description": "Dog_741618",
    "title": "Dog_741618",
    "link_img": "https://live.staticflickr.com/65535/50019969673_bb4aab664a_o.jpg",
    "id_image": "Dog_741618",
    "count_view": 0
  },
  {
    "link_thumb": "https://live.staticflickr.com/65535/50018411157_492616efa2_n.jpg",
    "id_album": "-462831702",
    "description": "Cat_407159",
    "title": "Cat_407159",
    "link_img": "https://live.staticflickr.com/65535/50018411157_657a351b6e_o.jpg",
    "id_image": "Cat_407159",
    "count_view": 0
  },
  {
    "link_thumb": "https://live.staticflickr.com/65535/50023108086_7be2d457fa_n.jpg",
    "id_album": "-1940643173",
    "description": "Rabbit_427012",
    "title": "Rabbit_427012",
    "link_img": "https://live.staticflickr.com/65535/50023108086_16e367bfaa_o.jpg",
    "id_image": "Rabbit_427012",
    "count_view": 0
  },
  {
    "link_thumb": "https://live.staticflickr.com/65535/50018704528_84fcab952c_n.jpg",
    "id_album": "-462831704",
    "description": "Cat_462220",
    "title": "Cat_462220",
    "link_img": "https://live.staticflickr.com/65535/50018704528_999e36168c_o.jpg",
    "id_image": "Cat_462220",
    "count_view": 0
  },
  {
    "link_thumb": "https://live.staticflickr.com/65535/50017970642_f6c4c6c8f4_n.jpg",
    "id_album": "-401151552",
    "description": "Butterfly_927169",
    "title": "Butterfly_927169",
    "link_img": "https://live.staticflickr.com/65535/50017970642_43f0e9d8a9_o.jpg",
    "id_image": "Butterfly_927169",
    "count_view": 0
  },
  {
    "link_thumb": "https://live.staticflickr.com/65535/50023079251_e8570cc9d6_n.jpg",
    "id_album": "470794721",
    "description": "Python_556292",
    "title": "Python_556292",
    "link_img": "https://live.staticflickr.com/65535/50023079251_ef3238c1af_o.jpg",
    "id_image": "Python_556292",
    "count_view": 0
  },
  {
    "link_thumb": "https://live.staticflickr.com/65535/50021741552_b1830f160f_n.jpg",
    "id_album": "-1933715543",
    "description": "Horse_329195",
    "title": "Horse_329195",
    "link_img": "https://live.staticflickr.com/65535/50021741552_c492d3a732_o.jpg",
    "id_image": "Horse_329195",
    "count_view": 0
  },
  {
    "link_thumb": "https://live.staticflickr.com/65535/50016292513_03d2de012f_n.jpg",
    "id_album": "-1473450542",
    "description": "Alpaca_548464",
    "title": "Alpaca_548464",
    "link_img": "https://live.staticflickr.com/65535/50016292513_1c296d42be_o.jpg",
    "id_image": "Alpaca_548464",
    "count_view": 0
  },
  {
    "link_thumb": "https://live.staticflickr.com/65535/50016316708_df0551a518_n.jpg",
    "id_album": "-834314226",
    "description": "ArcticFox_416306",
    "title": "ArcticFox_416306",
    "link_img": "https://live.staticflickr.com/65535/50016316708_e9afe89121_o.jpg",
    "id_image": "ArcticFox_416306",
    "count_view": 0
  },
  {
    "link_thumb": "https://live.staticflickr.com/65535/50020869091_d7059ddca0_n.jpg",
    "id_album": "-1118073211",
    "description": "Fish_607734",
    "title": "Fish_607734",
    "link_img": "https://live.staticflickr.com/65535/50020869091_a5b97fba4f_o.jpg",
    "id_image": "Fish_607734",
    "count_view": 0
  },
  {
    "link_thumb": "https://live.staticflickr.com/65535/50022324838_39812a79b6_n.jpg",
    "id_album": "1008910300",
    "description": "PolarBear_912151",
    "title": "PolarBear_912151",
    "link_img": "https://live.staticflickr.com/65535/50022324838_b383127fcd_o.jpg",
    "id_image": "PolarBear_912151",
    "count_view": 0
  },
  {
    "link_thumb": "https://live.staticflickr.com/65535/50023272447_3cfbca33e7_n.jpg",
    "id_album": "-353898617",
    "description": "Puppy_534661",
    "title": "Puppy_534661",
    "link_img": "https://live.staticflickr.com/65535/50023272447_40b8b9201d_o.jpg",
    "id_image": "Puppy_534661",
    "count_view": 0
  },
  {
    "link_thumb": "https://live.staticflickr.com/65535/50023526753_fee675d892_n.jpg",
    "id_album": "405170427",
    "description": "Tiger_348102",
    "title": "Tiger_348102",
    "link_img": "https://live.staticflickr.com/65535/50023526753_e2e70d2b6e_o.jpg",
    "id_image": "Tiger_348102",
    "count_view": 0
  },
  {
    "link_thumb": "https://live.staticflickr.com/65535/50351857798_bb1e5d160b_n.jpg",
    "id_album": "-462831703",
    "description": "Cat_471884",
    "title": "Cat_471884",
    "link_img": "https://live.staticflickr.com/65535/50351857798_d027d2cbaa_o.jpg",
    "id_image": "Cat_471884",
    "count_view": 0
  },
  {
    "link_thumb": "https://live.staticflickr.com/65535/50019194401_5f4feca51c_n.jpg",
    "id_album": "-462831704",
    "description": "Cat_434570",
    "title": "Cat_434570",
    "link_img": "https://live.staticflickr.com/65535/50019194401_67ef74569e_o.jpg",
    "id_image": "Cat_434570",
    "count_view": 0
  },
  {
    "link_thumb": "https://live.staticflickr.com/65535/50019908666_8bb287d524_n.jpg",
    "id_album": "-392100404",
    "description": "Crow_601557",
    "title": "Crow_601557",
    "link_img": "https://live.staticflickr.com/65535/50019908666_c6f7037791_o.jpg",
    "id_image": "Crow_601557",
    "count_view": 0
  },
  {
    "link_thumb": "https://live.staticflickr.com/65535/50017213907_4fb55b311c_n.jpg",
    "id_album": "231236068",
    "description": "BaldEagle_278032",
    "title": "BaldEagle_278032",
    "link_img": "https://live.staticflickr.com/65535/50017213907_719673672d_o.jpg",
    "id_image": "BaldEagle_278032",
    "count_view": 0
  },
  {
    "link_thumb": "https://live.staticflickr.com/65535/50018370447_5a74e35c1c_n.jpg",
    "id_album": "-462831702",
    "description": "Cat_381414",
    "title": "Cat_381414",
    "link_img": "https://live.staticflickr.com/65535/50018370447_e31b6cc224_o.jpg",
    "id_image": "Cat_381414",
    "count_view": 0
  },
  {
    "link_thumb": "https://live.staticflickr.com/65535/50021336418_b26f967c6b_n.jpg",
    "id_album": "1918884325",
    "description": "Lemur_735392",
    "title": "Lemur_735392",
    "link_img": "https://live.staticflickr.com/65535/50021336418_14539aa855_o.jpg",
    "id_image": "Lemur_735392",
    "count_view": 0
  },
  {
    "link_thumb": "https://live.staticflickr.com/65535/50017329523_ced0dd8dc2_n.jpg",
    "id_album": "-462831705",
    "description": "Cat_210903",
    "title": "Cat_210903",
    "link_img": "https://live.staticflickr.com/65535/50017329523_63e65c821f_o.jpg",
    "id_image": "Cat_210903",
    "count_view": 0
  },
  {
    "link_thumb": "https://live.staticflickr.com/65535/50021305376_9e2ae16383_n.jpg",
    "id_album": "-405626519",
    "description": "GermanShepherd_868099",
    "title": "GermanShepherd_868099",
    "link_img": "https://live.staticflickr.com/65535/50021305376_cba278e4c2_o.jpg",
    "id_image": "GermanShepherd_868099",
    "count_view": 0
  },
  {
    "link_thumb": "https://live.staticflickr.com/65535/50021418091_986d81d67b_n.jpg",
    "id_album": "-1513987841",
    "description": "Hawk_249815",
    "title": "Hawk_249815",
    "link_img": "https://live.staticflickr.com/65535/50021418091_665d5eea4b_o.jpg",
    "id_image": "Hawk_249815",
    "count_view": 0
  },
  {
    "link_thumb": "https://live.staticflickr.com/65535/50017237863_b5138c4d05_n.jpg",
    "id_album": "-462831705",
    "description": "Cat_117101",
    "title": "Cat_117101",
    "link_img": "https://live.staticflickr.com/65535/50017237863_534154ff30_o.jpg",
    "id_image": "Cat_117101",
    "count_view": 0
  },
  {
    "link_thumb": "https://live.staticflickr.com/65535/50019196861_fc2216cd36_n.jpg",
    "id_album": "-462831704",
    "description": "Cat_436161",
    "title": "Cat_436161",
    "link_img": "https://live.staticflickr.com/65535/50019196861_408f1f224b_o.jpg",
    "id_image": "Cat_436161",
    "count_view": 0
  },
  {
    "link_thumb": "https://live.staticflickr.com/65535/50019921882_a585d2fbe9_n.jpg",
    "id_album": "-766919393",
    "description": "Chameleon_785746",
    "title": "Chameleon_785746",
    "link_img": "https://live.staticflickr.com/65535/50019921882_44f10c178c_o.jpg",
    "id_image": "Chameleon_785746",
    "count_view": 0
  },
  {
    "link_thumb": "https://live.staticflickr.com/65535/50017749276_006315dfaa_n.jpg",
    "id_album": "-462831705",
    "description": "Cat_107968",
    "title": "Cat_107968",
    "link_img": "https://live.staticflickr.com/65535/50017749276_c0f8269404_o.jpg",
    "id_image": "Cat_107968",
    "count_view": 0
  },
  {
    "link_thumb": "https://live.staticflickr.com/65535/50021728536_48071a5d4e_n.jpg",
    "id_album": "-843028318",
    "description": "Jaguar_451576",
    "title": "Jaguar_451576",
    "link_img": "https://live.staticflickr.com/65535/50021728536_acd4e72a66_o.jpg",
    "id_image": "Jaguar_451576",
    "count_view": 0
  },
  {
    "link_thumb": "https://live.staticflickr.com/65535/50020512467_025460a2e2_n.jpg",
    "id_album": "-149330232",
    "description": "Dog_331861",
    "title": "Dog_331861",
    "link_img": "https://live.staticflickr.com/65535/50020512467_2acb78f18f_o.jpg",
    "id_image": "Dog_331861",
    "count_view": 0
  },
  {
    "link_thumb": "https://live.staticflickr.com/65535/50019626882_b973d34946_n.jpg",
    "id_album": "-462831703",
    "description": "Cat_874652",
    "title": "Cat_874652",
    "link_img": "https://live.staticflickr.com/65535/50019626882_d4c24fb7bc_o.jpg",
    "id_image": "Cat_874652",
    "count_view": 0
  },
  {
    "link_thumb": "https://live.staticflickr.com/65535/50019411796_f90bd42976_n.jpg",
    "id_album": "-462831703",
    "description": "Cat_899621",
    "title": "Cat_899621",
    "link_img": "https://live.staticflickr.com/65535/50019411796_31a8eed9f4_o.jpg",
    "id_image": "Cat_899621",
    "count_view": 0
  },
  {
    "link_thumb": "https://live.staticflickr.com/65535/50017015701_f5204281ae_n.jpg",
    "id_album": "-422187261",
    "description": "Bear_279338",
    "title": "Bear_279338",
    "link_img": "https://live.staticflickr.com/65535/50017015701_a594f67863_o.jpg",
    "id_image": "Bear_279338",
    "count_view": 0
  },
  {
    "link_thumb": "https://live.staticflickr.com/65535/50019391896_47ee9fbda4_n.jpg",
    "id_album": "-462831703",
    "description": "Cat_882587",
    "title": "Cat_882587",
    "link_img": "https://live.staticflickr.com/65535/50019391896_11bfce1181_o.jpg",
    "id_image": "Cat_882587",
    "count_view": 0
  },
  {
    "link_thumb": "https://live.staticflickr.com/65535/50019594132_6749de5287_n.jpg",
    "id_album": "-462831703",
    "description": "Cat_863401",
    "title": "Cat_863401",
    "link_img": "https://live.staticflickr.com/65535/50019594132_b2d8c1ffc7_o.jpg",
    "id_image": "Cat_863401",
    "count_view": 0
  },
  {
    "link_thumb": "https://live.staticflickr.com/65535/50017357148_40079c6acb_n.jpg",
    "id_album": "-462831705",
    "description": "Cat_236364",
    "title": "Cat_236364",
    "link_img": "https://live.staticflickr.com/65535/50017357148_e5764c90e6_o.jpg",
    "id_image": "Cat_236364",
    "count_view": 0
  },
  {
    "link_thumb": "https://live.staticflickr.com/65535/50017229211_4b702c08bb_n.jpg",
    "id_album": "-1846011410",
    "description": "Bird_278021",
    "title": "Bird_278021",
    "link_img": "https://live.staticflickr.com/65535/50017229211_109456f18e_o.jpg",
    "id_image": "Bird_278021",
    "count_view": 0
  },
  {
    "link_thumb": "https://live.staticflickr.com/65535/50020995396_e0e31e6c12_n.jpg",
    "id_album": "-128218148",
    "description": "Fox_725379",
    "title": "Fox_725379",
    "link_img": "https://live.staticflickr.com/65535/50020995396_4b30dd7e5d_o.jpg",
    "id_image": "Fox_725379",
    "count_view": 0
  },
  {
    "link_thumb": "https://live.staticflickr.com/65535/50020974196_b3a198bcf6_n.jpg",
    "id_album": "-128218148",
    "description": "Fox_542563",
    "title": "Fox_542563",
    "link_img": "https://live.staticflickr.com/65535/50020974196_ed1c98cfb1_o.jpg",
    "id_image": "Fox_542563",
    "count_view": 0
  },
  {
    "link_thumb": "https://live.staticflickr.com/65535/50016876381_3d5dd41500_n.jpg",
    "id_album": "523598895",
    "description": "Artistic_182388",
    "title": "Artistic_182388",
    "link_img": "https://live.staticflickr.com/65535/50016876381_333c81dbce_o.jpg",
    "id_image": "Artistic_182388",
    "count_view": 0
  },
  {
    "link_thumb": "https://live.staticflickr.com/65535/50018931088_8171f2991f_n.jpg",
    "id_album": "-462831705",
    "description": "Cat_91510",
    "title": "Cat_91510",
    "link_img": "https://live.staticflickr.com/65535/50018931088_93f8821600_o.jpg",
    "id_image": "Cat_91510",
    "count_view": 0
  },
  {
    "link_thumb": "https://live.staticflickr.com/65535/50021294192_9a3d87f2d3_n.jpg",
    "id_album": "704811092",
    "description": "FrenchBulldog_439893",
    "title": "FrenchBulldog_439893",
    "link_img": "https://live.staticflickr.com/65535/50021294192_ba547a4a34_o.jpg",
    "id_image": "FrenchBulldog_439893",
    "count_view": 0
  },
  {
    "link_thumb": "https://live.staticflickr.com/65535/50019529743_401e2c418f_n.jpg",
    "id_album": "1903411565",
    "description": "Deer_876157",
    "title": "Deer_876157",
    "link_img": "https://live.staticflickr.com/65535/50019529743_fa64367370_o.jpg",
    "id_image": "Deer_876157",
    "count_view": 0
  },
  {
    "link_thumb": "https://live.staticflickr.com/65535/50352767832_4f68a350a2_n.jpg",
    "id_album": "-462831703",
    "description": "Cat_565243",
    "title": "Cat_565243",
    "link_img": "https://live.staticflickr.com/65535/50352767832_c5c406ea2d_o.jpg",
    "id_image": "Cat_565243",
    "count_view": 0
  },
  {
    "link_thumb": "https://live.staticflickr.com/65535/50019001278_6297918853_n.jpg",
    "id_album": "-462831703",
    "description": "Cat_966779",
    "title": "Cat_966779",
    "link_img": "https://live.staticflickr.com/65535/50019001278_c202f8026a_o.jpg",
    "id_image": "Cat_966779",
    "count_view": 0
  },
  {
    "link_thumb": "https://live.staticflickr.com/65535/50017968272_ac02981857_n.jpg",
    "id_album": "-401151552",
    "description": "Butterfly_926941",
    "title": "Butterfly_926941",
    "link_img": "https://live.staticflickr.com/65535/50017968272_53bccc74ac_o.jpg",
    "id_image": "Butterfly_926941",
    "count_view": 0
  },
  {
    "link_thumb": "https://live.staticflickr.com/65535/50023075756_912ca0933a_n.jpg",
    "id_album": "470794721",
    "description": "Python_26823",
    "title": "Python_26823",
    "link_img": "https://live.staticflickr.com/65535/50023075756_9ab8d3f0ae_o.jpg",
    "id_image": "Python_26823",
    "count_view": 0
  },
  {
    "link_thumb": "https://live.staticflickr.com/65535/50022692376_ed3792a851_n.jpg",
    "id_album": "392248205",
    "description": "Penguin_367238",
    "title": "Penguin_367238",
    "link_img": "https://live.staticflickr.com/65535/50022692376_126127d045_o.jpg",
    "id_image": "Penguin_367238",
    "count_view": 0
  },
  {
    "link_thumb": "https://live.staticflickr.com/65535/50023742762_0d853ceb3b_n.jpg",
    "id_album": "-755466332",
    "description": "Sheep_636274",
    "title": "Sheep_636274",
    "link_img": "https://live.staticflickr.com/65535/50023742762_87984a3e76_o.jpg",
    "id_image": "Sheep_636274",
    "count_view": 0
  },
  {
    "link_thumb": "https://live.staticflickr.com/65535/50022317756_b352c72a1c_n.jpg",
    "id_album": "1015034486",
    "description": "Muteswan_416270",
    "title": "Muteswan_416270",
    "link_img": "https://live.staticflickr.com/65535/50022317756_a771bf8669_o.jpg",
    "id_image": "Muteswan_416270",
    "count_view": 0
  },
  {
    "link_thumb": "https://live.staticflickr.com/65535/50022108832_e35de4906c_n.jpg",
    "id_album": "-1882491687",
    "description": "Ladybug_470085",
    "title": "Ladybug_470085",
    "link_img": "https://live.staticflickr.com/65535/50022108832_468fab3ed6_o.jpg",
    "id_image": "Ladybug_470085",
    "count_view": 0
  },
  {
    "link_thumb": "https://live.staticflickr.com/65535/50020081812_62007de1e6_n.jpg",
    "id_album": "-1868680171",
    "description": "Cougar_590436",
    "title": "Cougar_590436",
    "link_img": "https://live.staticflickr.com/65535/50020081812_e6af6102c9_o.jpg",
    "id_image": "Cougar_590436",
    "count_view": 0
  },
  {
    "link_thumb": "https://live.staticflickr.com/65535/50018410072_e35490763f_n.jpg",
    "id_album": "-462831702",
    "description": "Cat_407058",
    "title": "Cat_407058",
    "link_img": "https://live.staticflickr.com/65535/50018410072_beed7a798b_o.jpg",
    "id_image": "Cat_407058",
    "count_view": 0
  },
  {
    "link_thumb": "https://live.staticflickr.com/65535/50020006441_55204e4697_n.jpg",
    "id_album": "1903411565",
    "description": "Deer_417779",
    "title": "Deer_417779",
    "link_img": "https://live.staticflickr.com/65535/50020006441_c565611011_o.jpg",
    "id_image": "Deer_417779",
    "count_view": 0
  },
  {
    "link_thumb": "https://live.staticflickr.com/65535/50022161352_358476aa00_n.jpg",
    "id_album": "1392348450",
    "description": "Leopard_356859",
    "title": "Leopard_356859",
    "link_img": "https://live.staticflickr.com/65535/50022161352_8941bb3089_o.jpg",
    "id_image": "Leopard_356859",
    "count_view": 0
  },
  {
    "link_thumb": "https://live.staticflickr.com/65535/50021828366_5737c42a9a_n.jpg",
    "id_album": "1307335982",
    "description": "LabradorRetriever_423144",
    "title": "LabradorRetriever_423144",
    "link_img": "https://live.staticflickr.com/65535/50021828366_5759573e35_o.jpg",
    "id_image": "LabradorRetriever_423144",
    "count_view": 0
  },
  {
    "link_thumb": "https://live.staticflickr.com/65535/50022540478_8dcb76e149_n.jpg",
    "id_album": "470794721",
    "description": "Python_784952",
    "title": "Python_784952",
    "link_img": "https://live.staticflickr.com/65535/50022540478_6c188c1b22_o.jpg",
    "id_image": "Python_784952",
    "count_view": 0
  },
  {
    "link_thumb": "https://live.staticflickr.com/65535/50020943492_b9980c9f90_n.jpg",
    "id_album": "-39098563",
    "description": "Eagle_271275",
    "title": "Eagle_271275",
    "link_img": "https://live.staticflickr.com/65535/50020943492_26a244bf94_o.jpg",
    "id_image": "Eagle_271275",
    "count_view": 0
  },
  {
    "link_thumb": "https://live.staticflickr.com/65535/50023094551_059ec87f05_n.jpg",
    "id_album": "-1940643173",
    "description": "Rabbit_284079",
    "title": "Rabbit_284079",
    "link_img": "https://live.staticflickr.com/65535/50023094551_fc5937f06f_o.jpg",
    "id_image": "Rabbit_284079",
    "count_view": 0
  },
  {
    "link_thumb": "https://live.staticflickr.com/65535/50021639138_c4266a67aa_n.jpg",
    "id_album": "-1173056085",
    "description": "Macaw_913155",
    "title": "Macaw_913155",
    "link_img": "https://live.staticflickr.com/65535/50021639138_4b5c222ec0_o.jpg",
    "id_image": "Macaw_913155",
    "count_view": 0
  },
  {
    "link_thumb": "https://live.staticflickr.com/65535/50016435538_1e10d66b45_n.jpg",
    "id_album": "231236068",
    "description": "BaldEagle_591303",
    "title": "BaldEagle_591303",
    "link_img": "https://live.staticflickr.com/65535/50016435538_bc5d2b9fd1_o.jpg",
    "id_image": "BaldEagle_591303",
    "count_view": 0
  },
  {
    "link_thumb": "https://live.staticflickr.com/65535/50017826292_bc028aede2_n.jpg",
    "id_album": "-401151552",
    "description": "Butterfly_342015",
    "title": "Butterfly_342015",
    "link_img": "https://live.staticflickr.com/65535/50017826292_418528e6f5_o.jpg",
    "id_image": "Butterfly_342015",
    "count_view": 0
  },
  {
    "link_thumb": "https://live.staticflickr.com/65535/50018770598_5510864d86_n.jpg",
    "id_album": "-462831704",
    "description": "Cat_533006",
    "title": "Cat_533006",
    "link_img": "https://live.staticflickr.com/65535/50018770598_96abdea650_o.jpg",
    "id_image": "Cat_533006",
    "count_view": 0
  },
  {
    "link_thumb": "https://live.staticflickr.com/65535/50018736183_99c2de02cf_n.jpg",
    "id_album": "-462831704",
    "description": "Cat_506049",
    "title": "Cat_506049",
    "link_img": "https://live.staticflickr.com/65535/50018736183_86c7aa6d9c_o.jpg",
    "id_image": "Cat_506049",
    "count_view": 0
  },
  {
    "link_thumb": "https://live.staticflickr.com/65535/50352702147_c551b533e0_n.jpg",
    "id_album": "-462831703",
    "description": "Cat_461633",
    "title": "Cat_461633",
    "link_img": "https://live.staticflickr.com/65535/50352702147_ff6b80b983_o.jpg",
    "id_image": "Cat_461633",
    "count_view": 0
  },
  {
    "link_thumb": "https://live.staticflickr.com/65535/50017995257_c2ffbc7821_n.jpg",
    "id_album": "189994021",
    "description": "Cardinal_572327",
    "title": "Cardinal_572327",
    "link_img": "https://live.staticflickr.com/65535/50017995257_af26423400_o.jpg",
    "id_image": "Cardinal_572327",
    "count_view": 0
  },
  {
    "link_thumb": "https://live.staticflickr.com/65535/50020941762_12163a0a95_n.jpg",
    "id_album": "-39098563",
    "description": "Eagle_249249",
    "title": "Eagle_249249",
    "link_img": "https://live.staticflickr.com/65535/50020941762_3bf045bec1_o.jpg",
    "id_image": "Eagle_249249",
    "count_view": 0
  },
  {
    "link_thumb": "https://live.staticflickr.com/65535/50017866751_e7d1ea26f8_n.jpg",
    "id_album": "-462831705",
    "description": "Cat_217357",
    "title": "Cat_217357",
    "link_img": "https://live.staticflickr.com/65535/50017866751_0075e49412_o.jpg",
    "id_image": "Cat_217357",
    "count_view": 0
  },
  {
    "link_thumb": "https://live.staticflickr.com/65535/50021017436_7817f2796e_n.jpg",
    "id_album": "-128218148",
    "description": "Fox_890101",
    "title": "Fox_890101",
    "link_img": "https://live.staticflickr.com/65535/50021017436_d35fd73009_o.jpg",
    "id_image": "Fox_890101",
    "count_view": 0
  },
  {
    "link_thumb": "https://live.staticflickr.com/65535/50017246996_9338cd7a5f_n.jpg",
    "id_album": "-1846011410",
    "description": "Bird_337501",
    "title": "Bird_337501",
    "link_img": "https://live.staticflickr.com/65535/50017246996_c7e6a2127c_o.jpg",
    "id_image": "Bird_337501",
    "count_view": 0
  },
  {
    "link_thumb": "https://live.staticflickr.com/65535/50017468473_689d5e99c2_n.jpg",
    "id_album": "-462831702",
    "description": "Cat_333837",
    "title": "Cat_333837",
    "link_img": "https://live.staticflickr.com/65535/50017468473_fdfa147226_o.jpg",
    "id_image": "Cat_333837",
    "count_view": 0
  },
  {
    "link_thumb": "https://live.staticflickr.com/65535/50016885796_43fe97e58d_n.jpg",
    "id_album": "523598895",
    "description": "Artistic_235675",
    "title": "Artistic_235675",
    "link_img": "https://live.staticflickr.com/65535/50016885796_0330f2103d_o.jpg",
    "id_image": "Artistic_235675",
    "count_view": 0
  },
  {
    "link_thumb": "https://live.staticflickr.com/65535/50017360143_32c02025be_n.jpg",
    "id_album": "-462831705",
    "description": "Cat_236453",
    "title": "Cat_236453",
    "link_img": "https://live.staticflickr.com/65535/50017360143_58ea9f7ae1_o.jpg",
    "id_image": "Cat_236453",
    "count_view": 0
  },
  {
    "link_thumb": "https://live.staticflickr.com/65535/50020777267_88e559d565_n.jpg",
    "id_album": "-149330231",
    "description": "Dog_838872",
    "title": "Dog_838872",
    "link_img": "https://live.staticflickr.com/65535/50020777267_04f36c0cb2_o.jpg",
    "id_image": "Dog_838872",
    "count_view": 0
  },
  {
    "link_thumb": "https://live.staticflickr.com/65535/50017399667_e8e8608ab6_n.jpg",
    "id_album": "1699594607",
    "description": "Bee_441947",
    "title": "Bee_441947",
    "link_img": "https://live.staticflickr.com/65535/50017399667_68660c6651_o.jpg",
    "id_image": "Bee_441947",
    "count_view": 0
  },
  {
    "link_thumb": "https://live.staticflickr.com/65535/50017077852_bdc4cb9111_n.jpg",
    "id_album": "-1473450542",
    "description": "Alpaca_548385",
    "title": "Alpaca_548385",
    "link_img": "https://live.staticflickr.com/65535/50017077852_1d724dc0bc_o.jpg",
    "id_image": "Alpaca_548385",
    "count_view": 0
  },
  {
    "link_thumb": "https://live.staticflickr.com/65535/50022130452_ff8b1906e5_n.jpg",
    "id_album": "1918884325",
    "description": "Lemur_422950",
    "title": "Lemur_422950",
    "link_img": "https://live.staticflickr.com/65535/50022130452_1683858747_o.jpg",
    "id_image": "Lemur_422950",
    "count_view": 0
  },
  {
    "link_thumb": "https://live.staticflickr.com/65535/50017375757_cfb143827b_n.jpg",
    "id_album": "-422187261",
    "description": "Bear_998668",
    "title": "Bear_998668",
    "link_img": "https://live.staticflickr.com/65535/50017375757_94178e8143_o.jpg",
    "id_image": "Bear_998668",
    "count_view": 0
  },
  {
    "link_thumb": "https://live.staticflickr.com/65535/50017853282_64bbfb0ceb_n.jpg",
    "id_album": "-401151552",
    "description": "Butterfly_425062",
    "title": "Butterfly_425062",
    "link_img": "https://live.staticflickr.com/65535/50017853282_544c7124df_o.jpg",
    "id_image": "Butterfly_425062",
    "count_view": 0
  },
  {
    "link_thumb": "https://live.staticflickr.com/65535/50017555577_773642cd75_n.jpg",
    "id_album": "-1846011410",
    "description": "Bird_390389",
    "title": "Bird_390389",
    "link_img": "https://live.staticflickr.com/65535/50017555577_7a9533774a_o.jpg",
    "id_image": "Bird_390389",
    "count_view": 0
  },
  {
    "link_thumb": "https://live.staticflickr.com/65535/50019386661_1854ff43ec_n.jpg",
    "id_album": "-462831703",
    "description": "Cat_879799",
    "title": "Cat_879799",
    "link_img": "https://live.staticflickr.com/65535/50019386661_b6cf2ef1d4_o.jpg",
    "id_image": "Cat_879799",
    "count_view": 0
  },
  {
    "link_thumb": "https://live.staticflickr.com/65535/50020174131_ca607ac3ba_n.jpg",
    "id_album": "-149330232",
    "description": "Dog_243793",
    "title": "Dog_243793",
    "link_img": "https://live.staticflickr.com/65535/50020174131_8372996c6d_o.jpg",
    "id_image": "Dog_243793",
    "count_view": 0
  },
  {
    "link_thumb": "https://live.staticflickr.com/65535/50020349396_18821a8710_n.jpg",
    "id_album": "-149330232",
    "description": "Dog_374187",
    "title": "Dog_374187",
    "link_img": "https://live.staticflickr.com/65535/50020349396_360c413640_o.jpg",
    "id_image": "Dog_374187",
    "count_view": 0
  },
  {
    "link_thumb": "https://live.staticflickr.com/65535/50021444422_58861b5edf_n.jpg",
    "id_album": "-462831704",
    "description": "Cat_708994",
    "title": "Cat_708994",
    "link_img": "https://live.staticflickr.com/65535/50021444422_b7c24d119c_o.jpg",
    "id_image": "Cat_708994",
    "count_view": 0
  },
  {
    "link_thumb": "https://live.staticflickr.com/65535/50021381136_4b412f0b13_n.jpg",
    "id_album": "-817970789",
    "description": "Goose_351474",
    "title": "Goose_351474",
    "link_img": "https://live.staticflickr.com/65535/50021381136_f539afe358_o.jpg",
    "id_image": "Goose_351474",
    "count_view": 0
  },
  {
    "link_thumb": "https://live.staticflickr.com/65535/50019802956_a154c13241_n.jpg",
    "id_album": "-1868680171",
    "description": "Cougar_224508",
    "title": "Cougar_224508",
    "link_img": "https://live.staticflickr.com/65535/50019802956_da0369ae5f_o.jpg",
    "id_image": "Cougar_224508",
    "count_view": 0
  },
  {
    "link_thumb": "https://live.staticflickr.com/65535/50021826856_7e9a21f664_n.jpg",
    "id_album": "1307335982",
    "description": "LabradorRetriever_361883",
    "title": "LabradorRetriever_361883",
    "link_img": "https://live.staticflickr.com/65535/50021826856_7df3ae2f49_o.jpg",
    "id_image": "LabradorRetriever_361883",
    "count_view": 0
  },
  {
    "link_thumb": "https://live.staticflickr.com/65535/50019910687_1702af616f_n.jpg",
    "id_album": "-766919393",
    "description": "Chameleon_523569",
    "title": "Chameleon_523569",
    "link_img": "https://live.staticflickr.com/65535/50019910687_121cd7d44d_o.jpg",
    "id_image": "Chameleon_523569",
    "count_view": 0
  },
  {
    "link_thumb": "https://live.staticflickr.com/65535/50022997073_d764437568_n.jpg",
    "id_album": "-800019164",
    "description": "Snail_734819",
    "title": "Snail_734819",
    "link_img": "https://live.staticflickr.com/65535/50022997073_69f88bf42f_o.jpg",
    "id_image": "Snail_734819",
    "count_view": 0
  }
]