[
  {
    "link_thumb": "https://live.staticflickr.com/65535/50020046627_b094f3621c_n.jpg",
    "id_album": "-1462118852",
    "description": "Corgi_1002455",
    "title": "Corgi_1002455",
    "link_img": "https://live.staticflickr.com/65535/50020046627_6701596f7d_o.jpg",
    "id_image": "Corgi_1002455",
    "count_view": 0
  },
  {
    "link_thumb": "https://live.staticflickr.com/65535/50019789506_2d8a6093bb_n.jpg",
    "id_album": "-1462118852",
    "description": "Corgi_1002456",
    "title": "Corgi_1002456",
    "link_img": "https://live.staticflickr.com/65535/50019789506_a40f5fc2f4_o.jpg",
    "id_image": "Corgi_1002456",
    "count_view": 0
  },
  {
    "link_thumb": "https://live.staticflickr.com/65535/50019789656_83b9c1a15e_n.jpg",
    "id_album": "-1462118852",
    "description": "Corgi_22714",
    "title": "Corgi_22714",
    "link_img": "https://live.staticflickr.com/65535/50019789656_eb7be8dd9c_o.jpg",
    "id_image": "Corgi_22714",
    "count_view": 0
  },
  {
    "link_thumb": "https://live.staticflickr.com/65535/50019789806_53fa3e9683_n.jpg",
    "id_album": "-1462118852",
    "description": "Corgi_230795",
    "title": "Corgi_230795",
    "link_img": "https://live.staticflickr.com/65535/50019789806_dfb3f0f4e5_o.jpg",
    "id_image": "Corgi_230795",
    "count_view": 0
  },
  {
    "link_thumb": "https://live.staticflickr.com/65535/50019789976_134803f0a0_n.jpg",
    "id_album": "-1462118852",
    "description": "Corgi_329902",
    "title": "Corgi_329902",
    "link_img": "https://live.staticflickr.com/65535/50019789976_af141d40d5_o.jpg",
    "id_image": "Corgi_329902",
    "count_view": 0
  },
  {
    "link_thumb": "https://live.staticflickr.com/65535/50020047702_cb960cd155_n.jpg",
    "id_album": "-1462118852",
    "description": "Corgi_335664",
    "title": "Corgi_335664",
    "link_img": "https://live.staticflickr.com/65535/50020047702_c314a1f881_o.jpg",
    "id_image": "Corgi_335664",
    "count_view": 0
  },
  {
    "link_thumb": "https://live.staticflickr.com/65535/50019261568_23bf708c97_n.jpg",
    "id_album": "-1462118852",
    "description": "Corgi_337304",
    "title": "Corgi_337304",
    "link_img": "https://live.staticflickr.com/65535/50019261568_8fd41b0ba8_o.jpg",
    "id_image": "Corgi_337304",
    "count_view": 0
  },
  {
    "link_thumb": "https://live.staticflickr.com/65535/50019790561_5337eba6fb_n.jpg",
    "id_album": "-1462118852",
    "description": "Corgi_339453",
    "title": "Corgi_339453",
    "link_img": "https://live.staticflickr.com/65535/50019790561_7136d555e0_o.jpg",
    "id_image": "Corgi_339453",
    "count_view": 0
  },
  {
    "link_thumb": "https://live.staticflickr.com/65535/50020048247_5a05b7b61c_n.jpg",
    "id_album": "-1462118852",
    "description": "Corgi_339620",
    "title": "Corgi_339620",
    "link_img": "https://live.staticflickr.com/65535/50020048247_54e63e1ff6_o.jpg",
    "id_image": "Corgi_339620",
    "count_view": 0
  },
  {
    "link_thumb": "https://live.staticflickr.com/65535/50019262083_4fb21d2581_n.jpg",
    "id_album": "-1462118852",
    "description": "Corgi_341589",
    "title": "Corgi_341589",
    "link_img": "https://live.staticflickr.com/65535/50019262083_9cd06c3103_o.jpg",
    "id_image": "Corgi_341589",
    "count_view": 0
  },
  {
    "link_thumb": "https://live.staticflickr.com/65535/50019791266_a76226f694_n.jpg",
    "id_album": "-1462118852",
    "description": "Corgi_342031",
    "title": "Corgi_342031",
    "link_img": "https://live.staticflickr.com/65535/50019791266_d8ba5a1783_o.jpg",
    "id_image": "Corgi_342031",
    "count_view": 0
  },
  {
    "link_thumb": "https://live.staticflickr.com/65535/50019262613_767e984330_n.jpg",
    "id_album": "-1462118852",
    "description": "Corgi_353509",
    "title": "Corgi_353509",
    "link_img": "https://live.staticflickr.com/65535/50019262613_59e0418c95_o.jpg",
    "id_image": "Corgi_353509",
    "count_view": 0
  },
  {
    "link_thumb": "https://live.staticflickr.com/65535/50020049227_4d91d436ea_n.jpg",
    "id_album": "-1462118852",
    "description": "Corgi_355253",
    "title": "Corgi_355253",
    "link_img": "https://live.staticflickr.com/65535/50020049227_a956e71a9b_o.jpg",
    "id_image": "Corgi_355253",
    "count_view": 0
  },
  {
    "link_thumb": "https://live.staticflickr.com/65535/50020049582_58f3f18c07_n.jpg",
    "id_album": "-1462118852",
    "description": "Corgi_369051",
    "title": "Corgi_369051",
    "link_img": "https://live.staticflickr.com/65535/50020049582_a3f272d3f6_o.jpg",
    "id_image": "Corgi_369051",
    "count_view": 0
  },
  {
    "link_thumb": "https://live.staticflickr.com/65535/50020049757_cd8cfb8f3a_n.jpg",
    "id_album": "-1462118852",
    "description": "Corgi_408956",
    "title": "Corgi_408956",
    "link_img": "https://live.staticflickr.com/65535/50020049757_9d0fddf4e6_o.jpg",
    "id_image": "Corgi_408956",
    "count_view": 0
  },
  {
    "link_thumb": "https://live.staticflickr.com/65535/50020049937_2a815a4b05_n.jpg",
    "id_album": "-1462118852",
    "description": "Corgi_436934",
    "title": "Corgi_436934",
    "link_img": "https://live.staticflickr.com/65535/50020049937_e0969ab08d_o.jpg",
    "id_image": "Corgi_436934",
    "count_view": 0
  },
  {
    "link_thumb": "https://live.staticflickr.com/65535/50019792636_8fe263f94d_n.jpg",
    "id_album": "-1462118852",
    "description": "Corgi_49331",
    "title": "Corgi_49331",
    "link_img": "https://live.staticflickr.com/65535/50019792636_7750531886_o.jpg",
    "id_image": "Corgi_49331",
    "count_view": 0
  },
  {
    "link_thumb": "https://live.staticflickr.com/65535/50019792881_a4924453fb_n.jpg",
    "id_album": "-1462118852",
    "description": "Corgi_49345",
    "title": "Corgi_49345",
    "link_img": "https://live.staticflickr.com/65535/50019792881_f343fa2e69_o.jpg",
    "id_image": "Corgi_49345",
    "count_view": 0
  },
  {
    "link_thumb": "https://live.staticflickr.com/65535/50019264263_93108c9c99_n.jpg",
    "id_album": "-1462118852",
    "description": "Corgi_576679",
    "title": "Corgi_576679",
    "link_img": "https://live.staticflickr.com/65535/50019264263_8f56bf7b2d_o.jpg",
    "id_image": "Corgi_576679",
    "count_view": 0
  },
  {
    "link_thumb": "https://live.staticflickr.com/65535/50020051042_f658877c19_n.jpg",
    "id_album": "-1462118852",
    "description": "Corgi_598375",
    "title": "Corgi_598375",
    "link_img": "https://live.staticflickr.com/65535/50020051042_9ba599992f_o.jpg",
    "id_image": "Corgi_598375",
    "count_view": 0
  },
  {
    "link_thumb": "https://live.staticflickr.com/65535/50020051187_fd4cc5a16b_n.jpg",
    "id_album": "-1462118852",
    "description": "Corgi_650867",
    "title": "Corgi_650867",
    "link_img": "https://live.staticflickr.com/65535/50020051187_17fc1f3cfb_o.jpg",
    "id_image": "Corgi_650867",
    "count_view": 0
  },
  {
    "link_thumb": "https://live.staticflickr.com/65535/50019793671_c9daafdc34_n.jpg",
    "id_album": "-1462118852",
    "description": "Corgi_651116",
    "title": "Corgi_651116",
    "link_img": "https://live.staticflickr.com/65535/50019793671_d3716d9c84_o.jpg",
    "id_image": "Corgi_651116",
    "count_view": 0
  },
  {
    "link_thumb": "https://live.staticflickr.com/65535/50019793826_1a92a987cc_n.jpg",
    "id_album": "-1462118852",
    "description": "Corgi_728421",
    "title": "Corgi_728421",
    "link_img": "https://live.staticflickr.com/65535/50019793826_5e61d26c9b_o.jpg",
    "id_image": "Corgi_728421",
    "count_view": 0
  },
  {
    "link_thumb": "https://live.staticflickr.com/65535/50019265293_f4d1f9992a_n.jpg",
    "id_album": "-1462118852",
    "description": "Corgi_749240",
    "title": "Corgi_749240",
    "link_img": "https://live.staticflickr.com/65535/50019265293_276a016308_o.jpg",
    "id_image": "Corgi_749240",
    "count_view": 0
  },
  {
    "link_thumb": "https://live.staticflickr.com/65535/50019265458_bddc713195_n.jpg",
    "id_album": "-1462118852",
    "description": "Corgi_779508",
    "title": "Corgi_779508",
    "link_img": "https://live.staticflickr.com/65535/50019265458_030149cf7e_o.jpg",
    "id_image": "Corgi_779508",
    "count_view": 0
  },
  {
    "link_thumb": "https://live.staticflickr.com/65535/50019265723_841785ea28_n.jpg",
    "id_album": "-1462118852",
    "description": "Corgi_779509",
    "title": "Corgi_779509",
    "link_img": "https://live.staticflickr.com/65535/50019265723_e1a5c0a90c_o.jpg",
    "id_image": "Corgi_779509",
    "count_view": 0
  },
  {
    "link_thumb": "https://live.staticflickr.com/65535/50020052667_822868a073_n.jpg",
    "id_album": "-1462118852",
    "description": "Corgi_779510",
    "title": "Corgi_779510",
    "link_img": "https://live.staticflickr.com/65535/50020052667_aa96fc05ba_o.jpg",
    "id_image": "Corgi_779510",
    "count_view": 0
  },
  {
    "link_thumb": "https://live.staticflickr.com/65535/50020052877_343f0644a6_n.jpg",
    "id_album": "-1462118852",
    "description": "Corgi_817932",
    "title": "Corgi_817932",
    "link_img": "https://live.staticflickr.com/65535/50020052877_f1c476e16b_o.jpg",
    "id_image": "Corgi_817932",
    "count_view": 0
  },
  {
    "link_thumb": "https://live.staticflickr.com/65535/50019795241_13a3b8734c_n.jpg",
    "id_album": "-1462118852",
    "description": "Corgi_852154",
    "title": "Corgi_852154",
    "link_img": "https://live.staticflickr.com/65535/50019795241_6470be0686_o.jpg",
    "id_image": "Corgi_852154",
    "count_view": 0
  },
  {
    "link_thumb": "https://live.staticflickr.com/65535/50019795436_28f2823a27_n.jpg",
    "id_album": "-1462118852",
    "description": "Corgi_852156",
    "title": "Corgi_852156",
    "link_img": "https://live.staticflickr.com/65535/50019795436_7c22d6f5f8_o.jpg",
    "id_image": "Corgi_852156",
    "count_view": 0
  },
  {
    "link_thumb": "https://live.staticflickr.com/65535/50019795626_0d57088033_n.jpg",
    "id_album": "-1462118852",
    "description": "Corgi_865788",
    "title": "Corgi_865788",
    "link_img": "https://live.staticflickr.com/65535/50019795626_35da5ab762_o.jpg",
    "id_image": "Corgi_865788",
    "count_view": 0
  },
  {
    "link_thumb": "https://live.staticflickr.com/65535/50019795886_283dc8ea33_n.jpg",
    "id_album": "-1462118852",
    "description": "Corgi_866472",
    "title": "Corgi_866472",
    "link_img": "https://live.staticflickr.com/65535/50019795886_8ea575503f_o.jpg",
    "id_image": "Corgi_866472",
    "count_view": 0
  },
  {
    "link_thumb": "https://live.staticflickr.com/65535/50019796046_97814b60c2_n.jpg",
    "id_album": "-1462118852",
    "description": "Corgi_869685",
    "title": "Corgi_869685",
    "link_img": "https://live.staticflickr.com/65535/50019796046_dfbd38feb0_o.jpg",
    "id_image": "Corgi_869685",
    "count_view": 0
  },
  {
    "link_thumb": "https://live.staticflickr.com/65535/50019267413_ef68b3006a_n.jpg",
    "id_album": "-1462118852",
    "description": "Corgi_869876",
    "title": "Corgi_869876",
    "link_img": "https://live.staticflickr.com/65535/50019267413_94707f1298_o.jpg",
    "id_image": "Corgi_869876",
    "count_view": 0
  },
  {
    "link_thumb": "https://live.staticflickr.com/65535/50019267638_9b4767aa8d_n.jpg",
    "id_album": "-1462118852",
    "description": "Corgi_871861",
    "title": "Corgi_871861",
    "link_img": "https://live.staticflickr.com/65535/50019267638_b76fc9f03d_o.jpg",
    "id_image": "Corgi_871861",
    "count_view": 0
  },
  {
    "link_thumb": "https://live.staticflickr.com/65535/50020054492_2469268608_n.jpg",
    "id_album": "-1462118852",
    "description": "Corgi_872449",
    "title": "Corgi_872449",
    "link_img": "https://live.staticflickr.com/65535/50020054492_6fd363e019_o.jpg",
    "id_image": "Corgi_872449",
    "count_view": 0
  },
  {
    "link_thumb": "https://live.staticflickr.com/65535/50019268053_4c5d5e27b4_n.jpg",
    "id_album": "-1462118852",
    "description": "Corgi_877384",
    "title": "Corgi_877384",
    "link_img": "https://live.staticflickr.com/65535/50019268053_370d59319e_o.jpg",
    "id_image": "Corgi_877384",
    "count_view": 0
  },
  {
    "link_thumb": "https://live.staticflickr.com/65535/50020054917_c4735cb1f1_n.jpg",
    "id_album": "-1462118852",
    "description": "Corgi_878408",
    "title": "Corgi_878408",
    "link_img": "https://live.staticflickr.com/65535/50020054917_09320e87ee_o.jpg",
    "id_image": "Corgi_878408",
    "count_view": 0
  },
  {
    "link_thumb": "https://live.staticflickr.com/65535/50020055132_b81a0c8494_n.jpg",
    "id_album": "-1462118852",
    "description": "Corgi_879225",
    "title": "Corgi_879225",
    "link_img": "https://live.staticflickr.com/65535/50020055132_411558ef47_o.jpg",
    "id_image": "Corgi_879225",
    "count_view": 0
  },
  {
    "link_thumb": "https://live.staticflickr.com/65535/50019268848_77cff8e13a_n.jpg",
    "id_album": "-1462118852",
    "description": "Corgi_881438",
    "title": "Corgi_881438",
    "link_img": "https://live.staticflickr.com/65535/50019268848_2bbfbc559b_o.jpg",
    "id_image": "Corgi_881438",
    "count_view": 0
  },
  {
    "link_thumb": "https://live.staticflickr.com/65535/50020055712_e7342b929a_n.jpg",
    "id_album": "-1462118852",
    "description": "Corgi_888405",
    "title": "Corgi_888405",
    "link_img": "https://live.staticflickr.com/65535/50020055712_d13e7450af_o.jpg",
    "id_image": "Corgi_888405",
    "count_view": 0
  },
  {
    "link_thumb": "https://live.staticflickr.com/65535/50019269223_ea6d5ab1da_n.jpg",
    "id_album": "-1462118852",
    "description": "Corgi_890573",
    "title": "Corgi_890573",
    "link_img": "https://live.staticflickr.com/65535/50019269223_d3c1342f15_o.jpg",
    "id_image": "Corgi_890573",
    "count_view": 0
  },
  {
    "link_thumb": "https://live.staticflickr.com/65535/50019269368_e9faac5c60_n.jpg",
    "id_album": "-1462118852",
    "description": "Corgi_892691",
    "title": "Corgi_892691",
    "link_img": "https://live.staticflickr.com/65535/50019269368_983edc9672_o.jpg",
    "id_image": "Corgi_892691",
    "count_view": 0
  },
  {
    "link_thumb": "https://live.staticflickr.com/65535/50020056232_aa7cddc8bb_n.jpg",
    "id_album": "-1462118852",
    "description": "Corgi_893986",
    "title": "Corgi_893986",
    "link_img": "https://live.staticflickr.com/65535/50020056232_af00abb468_o.jpg",
    "id_image": "Corgi_893986",
    "count_view": 0
  },
  {
    "link_thumb": "https://live.staticflickr.com/65535/50019269923_dcc0fe8bfa_n.jpg",
    "id_album": "-1462118852",
    "description": "Corgi_898442",
    "title": "Corgi_898442",
    "link_img": "https://live.staticflickr.com/65535/50019269923_10e16d3b2a_o.jpg",
    "id_image": "Corgi_898442",
    "count_view": 0
  },
  {
    "link_thumb": "https://live.staticflickr.com/65535/50019798986_70238c90f3_n.jpg",
    "id_album": "-1462118852",
    "description": "Corgi_900270",
    "title": "Corgi_900270",
    "link_img": "https://live.staticflickr.com/65535/50019798986_f01cfc110c_o.jpg",
    "id_image": "Corgi_900270",
    "count_view": 0
  },
  {
    "link_thumb": "https://live.staticflickr.com/65535/50019270268_80d7847b92_n.jpg",
    "id_album": "-1462118852",
    "description": "Corgi_932339",
    "title": "Corgi_932339",
    "link_img": "https://live.staticflickr.com/65535/50019270268_81a4960acf_o.jpg",
    "id_image": "Corgi_932339",
    "count_view": 0
  }
]