[
  {
    "link_thumb": "https://live.staticflickr.com/65535/50018205467_63ac9d9999_n.jpg",
    "id_album": "-462831702",
    "description": "Cat_294720",
    "title": "Cat_294720",
    "link_img": "https://live.staticflickr.com/65535/50018205467_ff598665b6_o.jpg",
    "id_image": "Cat_294720",
    "count_view": 0
  },
  {
    "link_thumb": "https://live.staticflickr.com/65535/50019438022_56659e8091_n.jpg",
    "id_album": "-462831702",
    "description": "Cat_428546",
    "title": "Cat_428546",
    "link_img": "https://live.staticflickr.com/65535/50019438022_4ea9ecb0ee_o.jpg",
    "id_image": "Cat_428546",
    "count_view": 0
  },
  {
    "link_thumb": "https://live.staticflickr.com/65535/50020655388_9b1c79e09a_n.jpg",
    "id_album": "-462831704",
    "description": "Cat_716009",
    "title": "Cat_716009",
    "link_img": "https://live.staticflickr.com/65535/50020655388_13995b4454_o.jpg",
    "id_image": "Cat_716009",
    "count_view": 0
  },
  {
    "link_thumb": "https://live.staticflickr.com/65535/50019873438_cfab09eb13_n.jpg",
    "id_album": "-149330231",
    "description": "Dog_426480",
    "title": "Dog_426480",
    "link_img": "https://live.staticflickr.com/65535/50019873438_7c81b6feeb_o.jpg",
    "id_image": "Dog_426480",
    "count_view": 0
  },
  {
    "link_thumb": "https://live.staticflickr.com/65535/50019816497_7435634ac6_n.jpg",
    "id_album": "-462831703",
    "description": "Cat_986127",
    "title": "Cat_986127",
    "link_img": "https://live.staticflickr.com/65535/50019816497_4ba29d3400_o.jpg",
    "id_image": "Cat_986127",
    "count_view": 0
  },
  {
    "link_thumb": "https://live.staticflickr.com/65535/50019684062_00fbbb27e8_n.jpg",
    "id_album": "-462831703",
    "description": "Cat_905048",
    "title": "Cat_905048",
    "link_img": "https://live.staticflickr.com/65535/50019684062_4881e0a69b_o.jpg",
    "id_image": "Cat_905048",
    "count_view": 0
  },
  {
    "link_thumb": "https://live.staticflickr.com/65535/50023521946_50b1945063_n.jpg",
    "id_album": "-800019164",
    "description": "Snail_409427",
    "title": "Snail_409427",
    "link_img": "https://live.staticflickr.com/65535/50023521946_f6f317dc65_o.jpg",
    "id_image": "Snail_409427",
    "count_view": 0
  },
  {
    "link_thumb": "https://live.staticflickr.com/65535/50021728448_aa7092301f_n.jpg",
    "id_album": "-817970387",
    "description": "Moose_405067",
    "title": "Moose_405067",
    "link_img": "https://live.staticflickr.com/65535/50021728448_6f4bf9ef9b_o.jpg",
    "id_image": "Moose_405067",
    "count_view": 0
  },
  {
    "link_thumb": "https://live.staticflickr.com/65535/50020431482_07931288e8_n.jpg",
    "id_album": "-149330232",
    "description": "Dog_242115",
    "title": "Dog_242115",
    "link_img": "https://live.staticflickr.com/65535/50020431482_a962c21a51_o.jpg",
    "id_image": "Dog_242115",
    "count_view": 0
  },
  {
    "link_thumb": "https://live.staticflickr.com/65535/50023985448_e7e3a2189b_n.jpg",
    "id_album": "-709711865",
    "description": "Wolf_679663",
    "title": "Wolf_679663",
    "link_img": "https://live.staticflickr.com/65535/50023985448_c32767db9a_o.jpg",
    "id_image": "Wolf_679663",
    "count_view": 0
  },
  {
    "link_thumb": "https://live.staticflickr.com/65535/50019998686_b7c9ca030a_n.jpg",
    "id_album": "1903411565",
    "description": "Deer_364406",
    "title": "Deer_364406",
    "link_img": "https://live.staticflickr.com/65535/50019998686_d46721d18a_o.jpg",
    "id_image": "Deer_364406",
    "count_view": 0
  },
  {
    "link_thumb": "https://live.staticflickr.com/65535/50019771988_8567984a78_n.jpg",
    "id_album": "-149330232",
    "description": "Dog_354047",
    "title": "Dog_354047",
    "link_img": "https://live.staticflickr.com/65535/50019771988_2567c8b82b_o.jpg",
    "id_image": "Dog_354047",
    "count_view": 0
  },
  {
    "link_thumb": "https://live.staticflickr.com/65535/50018006286_e48654d022_n.jpg",
    "id_album": "-462831702",
    "description": "Cat_337734",
    "title": "Cat_337734",
    "link_img": "https://live.staticflickr.com/65535/50018006286_7b4ed935eb_o.jpg",
    "id_image": "Cat_337734",
    "count_view": 0
  },
  {
    "link_thumb": "https://live.staticflickr.com/65535/50021310951_da36aea04c_n.jpg",
    "id_album": "-405626519",
    "description": "GermanShepherd_921788",
    "title": "GermanShepherd_921788",
    "link_img": "https://live.staticflickr.com/65535/50021310951_53bdb388e3_o.jpg",
    "id_image": "GermanShepherd_921788",
    "count_view": 0
  },
  {
    "link_thumb": "https://live.staticflickr.com/65535/50019778493_4490d2a9d1_n.jpg",
    "id_album": "-149330232",
    "description": "Dog_356158",
    "title": "Dog_356158",
    "link_img": "https://live.staticflickr.com/65535/50019778493_6446d5a37e_o.jpg",
    "id_image": "Dog_356158",
    "count_view": 0
  },
  {
    "link_thumb": "https://live.staticflickr.com/65535/50022073157_4937a39e5f_n.jpg",
    "id_album": "771796001",
    "description": "Koala_398787",
    "title": "Koala_398787",
    "link_img": "https://live.staticflickr.com/65535/50022073157_27cc5ee863_o.jpg",
    "id_image": "Koala_398787",
    "count_view": 0
  },
  {
    "link_thumb": "https://live.staticflickr.com/65535/50021590047_e34d1a1d94_n.jpg",
    "id_album": "713572662",
    "description": "Giraffe_932168",
    "title": "Giraffe_932168",
    "link_img": "https://live.staticflickr.com/65535/50021590047_20505e176d_o.jpg",
    "id_image": "Giraffe_932168",
    "count_view": 0
  },
  {
    "link_thumb": "https://live.staticflickr.com/65535/50017276956_84ac7cd016_n.jpg",
    "id_album": "-1846011410",
    "description": "Bird_366971",
    "title": "Bird_366971",
    "link_img": "https://live.staticflickr.com/65535/50017276956_23dacc0001_o.jpg",
    "id_image": "Bird_366971",
    "count_view": 0
  },
  {
    "link_thumb": "https://live.staticflickr.com/65535/50021358968_971e818101_n.jpg",
    "id_album": "1392348450",
    "description": "Leopard_347051",
    "title": "Leopard_347051",
    "link_img": "https://live.staticflickr.com/65535/50021358968_7d9a52b72f_o.jpg",
    "id_image": "Leopard_347051",
    "count_view": 0
  },
  {
    "link_thumb": "https://live.staticflickr.com/65535/50021476362_b2d85e737d_n.jpg",
    "id_album": "-462831703",
    "description": "Cat_743240",
    "title": "Cat_743240",
    "link_img": "https://live.staticflickr.com/65535/50021476362_63867dc11f_o.jpg",
    "id_image": "Cat_743240",
    "count_view": 0
  },
  {
    "link_thumb": "https://live.staticflickr.com/65535/50017404063_3a92d0478b_n.jpg",
    "id_album": "-462831702",
    "description": "Cat_275515",
    "title": "Cat_275515",
    "link_img": "https://live.staticflickr.com/65535/50017404063_8994447694_o.jpg",
    "id_image": "Cat_275515",
    "count_view": 0
  },
  {
    "link_thumb": "https://live.staticflickr.com/65535/50022123007_1d47305016_n.jpg",
    "id_album": "-1882491687",
    "description": "Ladybug_868936",
    "title": "Ladybug_868936",
    "link_img": "https://live.staticflickr.com/65535/50022123007_472747ba7c_o.jpg",
    "id_image": "Ladybug_868936",
    "count_view": 0
  },
  {
    "link_thumb": "https://live.staticflickr.com/65535/50019774618_c7bb1700ce_n.jpg",
    "id_album": "-149330232",
    "description": "Dog_354482",
    "title": "Dog_354482",
    "link_img": "https://live.staticflickr.com/65535/50019774618_2f11fa6943_o.jpg",
    "id_image": "Dog_354482",
    "count_view": 0
  },
  {
    "link_thumb": "https://live.staticflickr.com/65535/50352775627_9f3422a822_n.jpg",
    "id_album": "-462831703",
    "description": "Cat_591620",
    "title": "Cat_591620",
    "link_img": "https://live.staticflickr.com/65535/50352775627_acfe46f2f1_o.jpg",
    "id_image": "Cat_591620",
    "count_view": 0
  },
  {
    "link_thumb": "https://live.staticflickr.com/65535/50017521763_818bf110f7_n.jpg",
    "id_album": "-462831702",
    "description": "Cat_359125",
    "title": "Cat_359125",
    "link_img": "https://live.staticflickr.com/65535/50017521763_cdb2b7d0cb_o.jpg",
    "id_image": "Cat_359125",
    "count_view": 0
  },
  {
    "link_thumb": "https://live.staticflickr.com/65535/50018103096_0a2f182d88_n.jpg",
    "id_album": "-462831702",
    "description": "Cat_377997",
    "title": "Cat_377997",
    "link_img": "https://live.staticflickr.com/65535/50018103096_06ea0d66f3_o.jpg",
    "id_image": "Cat_377997",
    "count_view": 0
  },
  {
    "link_thumb": "https://live.staticflickr.com/65535/50352570742_561b0f1e96_n.jpg",
    "id_album": "-462831703",
    "description": "Cat_184960",
    "title": "Cat_184960",
    "link_img": "https://live.staticflickr.com/65535/50352570742_2041f63ffe_o.jpg",
    "id_image": "Cat_184960",
    "count_view": 0
  },
  {
    "link_thumb": "https://live.staticflickr.com/65535/50022347171_21eb50b804_n.jpg",
    "id_album": "588679857",
    "description": "Orangutan_332918",
    "title": "Orangutan_332918",
    "link_img": "https://live.staticflickr.com/65535/50022347171_4bebd920ff_o.jpg",
    "id_image": "Orangutan_332918",
    "count_view": 0
  },
  {
    "link_thumb": "https://live.staticflickr.com/65535/50022326817_84e70a3cbb_n.jpg",
    "id_album": "416744915",
    "description": "Lion_857335",
    "title": "Lion_857335",
    "link_img": "https://live.staticflickr.com/65535/50022326817_f53ec13e14_o.jpg",
    "id_image": "Lion_857335",
    "count_view": 0
  },
  {
    "link_thumb": "https://live.staticflickr.com/65535/50016432448_1a5253e75b_n.jpg",
    "id_album": "231236068",
    "description": "BaldEagle_475840",
    "title": "BaldEagle_475840",
    "link_img": "https://live.staticflickr.com/65535/50016432448_6e476da4dc_o.jpg",
    "id_image": "BaldEagle_475840",
    "count_view": 0
  },
  {
    "link_thumb": "https://live.staticflickr.com/65535/50017349877_d39ca6ab28_n.jpg",
    "id_album": "-422187261",
    "description": "Bear_854688",
    "title": "Bear_854688",
    "link_img": "https://live.staticflickr.com/65535/50017349877_1b771e6409_o.jpg",
    "id_image": "Bear_854688",
    "count_view": 0
  },
  {
    "link_thumb": "https://live.staticflickr.com/65535/50020376708_0bb767017c_n.jpg",
    "id_album": "-1694105481",
    "description": "Fly_393470",
    "title": "Fly_393470",
    "link_img": "https://live.staticflickr.com/65535/50020376708_b45cf7b43b_o.jpg",
    "id_image": "Fly_393470",
    "count_view": 0
  },
  {
    "link_thumb": "https://live.staticflickr.com/65535/50021343296_4750c2c24e_n.jpg",
    "id_album": "-804131074",
    "description": "Goat_650145",
    "title": "Goat_650145",
    "link_img": "https://live.staticflickr.com/65535/50021343296_a3ab1362af_o.jpg",
    "id_image": "Goat_650145",
    "count_view": 0
  },
  {
    "link_thumb": "https://live.staticflickr.com/65535/50017471668_d8ea955c34_n.jpg",
    "id_album": "-462831702",
    "description": "Cat_335099",
    "title": "Cat_335099",
    "link_img": "https://live.staticflickr.com/65535/50017471668_b85ba7ced8_o.jpg",
    "id_image": "Cat_335099",
    "count_view": 0
  },
  {
    "link_thumb": "https://live.staticflickr.com/65535/50020318942_1cb3feb439_n.jpg",
    "id_album": "1903411565",
    "description": "Deer_880439",
    "title": "Deer_880439",
    "link_img": "https://live.staticflickr.com/65535/50020318942_e77d931ce4_o.jpg",
    "id_image": "Deer_880439",
    "count_view": 0
  },
  {
    "link_thumb": "https://live.staticflickr.com/65535/50020508172_a6fb65c99a_n.jpg",
    "id_album": "-149330232",
    "description": "Dog_330386",
    "title": "Dog_330386",
    "link_img": "https://live.staticflickr.com/65535/50020508172_a3198b78c8_o.jpg",
    "id_image": "Dog_330386",
    "count_view": 0
  },
  {
    "link_thumb": "https://live.staticflickr.com/65535/50020813658_65c2b2748d_n.jpg",
    "id_album": "2060159334",
    "description": "GoldenRetriever_715236",
    "title": "GoldenRetriever_715236",
    "link_img": "https://live.staticflickr.com/65535/50020813658_27ca9589b2_o.jpg",
    "id_image": "GoldenRetriever_715236",
    "count_view": 0
  },
  {
    "link_thumb": "https://live.staticflickr.com/65535/50023157386_14d864b73f_n.jpg",
    "id_album": "248289288",
    "description": "Raccoon_650177",
    "title": "Raccoon_650177",
    "link_img": "https://live.staticflickr.com/65535/50023157386_4b4b396aea_o.jpg",
    "id_image": "Raccoon_650177",
    "count_view": 0
  },
  {
    "link_thumb": "https://live.staticflickr.com/65535/50018393077_971dc03078_n.jpg",
    "id_album": "-462831702",
    "description": "Cat_396333",
    "title": "Cat_396333",
    "link_img": "https://live.staticflickr.com/65535/50018393077_9e3e51afa0_o.jpg",
    "id_image": "Cat_396333",
    "count_view": 0
  },
  {
    "link_thumb": "https://live.staticflickr.com/65535/50020863341_414d4b1c09_n.jpg",
    "id_album": "-1118073211",
    "description": "Fish_541507",
    "title": "Fish_541507",
    "link_img": "https://live.staticflickr.com/65535/50020863341_0095c71f0d_o.jpg",
    "id_image": "Fish_541507",
    "count_view": 0
  },
  {
    "link_thumb": "https://live.staticflickr.com/65535/50019845661_1e40718758_n.jpg",
    "id_album": "-2144640780",
    "description": "Cow_438151",
    "title": "Cow_438151",
    "link_img": "https://live.staticflickr.com/65535/50019845661_405f545964_o.jpg",
    "id_image": "Cow_438151",
    "count_view": 0
  },
  {
    "link_thumb": "https://live.staticflickr.com/65535/50022402622_2453fa11a6_n.jpg",
    "id_album": "1894617400",
    "description": "Lynx_406094",
    "title": "Lynx_406094",
    "link_img": "https://live.staticflickr.com/65535/50022402622_9a9be40fce_o.jpg",
    "id_image": "Lynx_406094",
    "count_view": 0
  },
  {
    "link_thumb": "https://live.staticflickr.com/65535/50352566647_db49270593_n.jpg",
    "id_album": "-462831703",
    "description": "Cat_173021",
    "title": "Cat_173021",
    "link_img": "https://live.staticflickr.com/65535/50352566647_e6753ce3cc_o.jpg",
    "id_image": "Cat_173021",
    "count_view": 0
  },
  {
    "link_thumb": "https://live.staticflickr.com/65535/50021804261_af83111ecf_n.jpg",
    "id_album": "770105808",
    "description": "Kingfisher_593951",
    "title": "Kingfisher_593951",
    "link_img": "https://live.staticflickr.com/65535/50021804261_d3fc25d34d_o.jpg",
    "id_image": "Kingfisher_593951",
    "count_view": 0
  },
  {
    "link_thumb": "https://live.staticflickr.com/65535/50019974888_001e95f078_n.jpg",
    "id_album": "-149330231",
    "description": "Dog_755353",
    "title": "Dog_755353",
    "link_img": "https://live.staticflickr.com/65535/50019974888_d16bdda44a_o.jpg",
    "id_image": "Dog_755353",
    "count_view": 0
  },
  {
    "link_thumb": "https://live.staticflickr.com/65535/50021232936_57a59629f0_n.jpg",
    "id_album": "-462831703",
    "description": "Cat_764678",
    "title": "Cat_764678",
    "link_img": "https://live.staticflickr.com/65535/50021232936_db2a8a007b_o.jpg",
    "id_image": "Cat_764678",
    "count_view": 0
  },
  {
    "link_thumb": "https://live.staticflickr.com/65535/50021797041_7363c9ea9e_n.jpg",
    "id_album": "770105808",
    "description": "Kingfisher_335318",
    "title": "Kingfisher_335318",
    "link_img": "https://live.staticflickr.com/65535/50021797041_375e641073_o.jpg",
    "id_image": "Kingfisher_335318",
    "count_view": 0
  },
  {
    "link_thumb": "https://live.staticflickr.com/65535/50018080302_6ee137a2fb_n.jpg",
    "id_album": "-462831705",
    "description": "Cat_181032",
    "title": "Cat_181032",
    "link_img": "https://live.staticflickr.com/65535/50018080302_dc711edd43_o.jpg",
    "id_image": "Cat_181032",
    "count_view": 0
  },
  {
    "link_thumb": "https://live.staticflickr.com/65535/50017325511_f96b792077_n.jpg",
    "id_album": "-1846011410",
    "description": "Bird_426890",
    "title": "Bird_426890",
    "link_img": "https://live.staticflickr.com/65535/50017325511_9bdd1f473c_o.jpg",
    "id_image": "Bird_426890",
    "count_view": 0
  },
  {
    "link_thumb": "https://live.staticflickr.com/65535/50019264263_93108c9c99_n.jpg",
    "id_album": "-1462118852",
    "description": "Corgi_576679",
    "title": "Corgi_576679",
    "link_img": "https://live.staticflickr.com/65535/50019264263_8f56bf7b2d_o.jpg",
    "id_image": "Corgi_576679",
    "count_view": 0
  },
  {
    "link_thumb": "https://live.staticflickr.com/65535/50017665416_a2e9fb4622_n.jpg",
    "id_album": "-401151552",
    "description": "Butterfly_774740",
    "title": "Butterfly_774740",
    "link_img": "https://live.staticflickr.com/65535/50017665416_fdab3e86fd_o.jpg",
    "id_image": "Butterfly_774740",
    "count_view": 0
  },
  {
    "link_thumb": "https://live.staticflickr.com/65535/50022941438_e30ecc55f7_n.jpg",
    "id_album": "-755466332",
    "description": "Sheep_672030",
    "title": "Sheep_672030",
    "link_img": "https://live.staticflickr.com/65535/50022941438_88e487f65a_o.jpg",
    "id_image": "Sheep_672030",
    "count_view": 0
  },
  {
    "link_thumb": "https://live.staticflickr.com/65535/50020122448_e5a7554157_n.jpg",
    "id_album": "1168627767",
    "description": "Duck_406293",
    "title": "Duck_406293",
    "link_img": "https://live.staticflickr.com/65535/50020122448_ab9cdc20ff_o.jpg",
    "id_image": "Duck_406293",
    "count_view": 0
  },
  {
    "link_thumb": "https://live.staticflickr.com/65535/50024468401_292db24f1d_n.jpg",
    "id_album": "-709711865",
    "description": "Wolf_251874",
    "title": "Wolf_251874",
    "link_img": "https://live.staticflickr.com/65535/50024468401_bf557bf98b_o.jpg",
    "id_image": "Wolf_251874",
    "count_view": 0
  },
  {
    "link_thumb": "https://live.staticflickr.com/65535/50020501953_421a6ff1bd_n.jpg",
    "id_album": "704811092",
    "description": "FrenchBulldog_716046",
    "title": "FrenchBulldog_716046",
    "link_img": "https://live.staticflickr.com/65535/50020501953_aefe961164_o.jpg",
    "id_image": "FrenchBulldog_716046",
    "count_view": 0
  },
  {
    "link_thumb": "https://live.staticflickr.com/65535/50021268691_c2bd0929dc_n.jpg",
    "id_album": "-462831703",
    "description": "Cat_830105",
    "title": "Cat_830105",
    "link_img": "https://live.staticflickr.com/65535/50021268691_cf622cf901_o.jpg",
    "id_image": "Cat_830105",
    "count_view": 0
  },
  {
    "link_thumb": "https://live.staticflickr.com/65535/50016509173_3828e84251_n.jpg",
    "id_album": "-422187261",
    "description": "Bear_368311",
    "title": "Bear_368311",
    "link_img": "https://live.staticflickr.com/65535/50016509173_217d8662ca_o.jpg",
    "id_image": "Bear_368311",
    "count_view": 0
  },
  {
    "link_thumb": "https://live.staticflickr.com/65535/50018240667_3856d3b3da_n.jpg",
    "id_album": "-462831702",
    "description": "Cat_327240",
    "title": "Cat_327240",
    "link_img": "https://live.staticflickr.com/65535/50018240667_6ea87fb8e8_o.jpg",
    "id_image": "Cat_327240",
    "count_view": 0
  },
  {
    "link_thumb": "https://live.staticflickr.com/65535/50020393766_09d8ed552a_n.jpg",
    "id_album": "-149330231",
    "description": "Dog_412274",
    "title": "Dog_412274",
    "link_img": "https://live.staticflickr.com/65535/50020393766_050fc4441f_o.jpg",
    "id_image": "Dog_412274",
    "count_view": 0
  },
  {
    "link_thumb": "https://live.staticflickr.com/65535/50023067551_0056bfd899_n.jpg",
    "id_album": "-353898617",
    "description": "Puppy_874917",
    "title": "Puppy_874917",
    "link_img": "https://live.staticflickr.com/65535/50023067551_57b5841bdc_o.jpg",
    "id_image": "Puppy_874917",
    "count_view": 0
  },
  {
    "link_thumb": "https://live.staticflickr.com/65535/50024114462_2e7887f376_n.jpg",
    "id_album": "702283289",
    "description": "Squirrel_386685",
    "title": "Squirrel_386685",
    "link_img": "https://live.staticflickr.com/65535/50024114462_7f2bcd80e6_o.jpg",
    "id_image": "Squirrel_386685",
    "count_view": 0
  },
  {
    "link_thumb": "https://live.staticflickr.com/65535/50017223787_fdc5efe107_n.jpg",
    "id_album": "231236068",
    "description": "BaldEagle_591928",
    "title": "BaldEagle_591928",
    "link_img": "https://live.staticflickr.com/65535/50017223787_99bc5830a2_o.jpg",
    "id_image": "BaldEagle_591928",
    "count_view": 0
  },
  {
    "link_thumb": "https://live.staticflickr.com/65535/50020739778_95c36e59dd_n.jpg",
    "id_album": "-405626519",
    "description": "GermanShepherd_101925",
    "title": "GermanShepherd_101925",
    "link_img": "https://live.staticflickr.com/65535/50020739778_73e2cc65cf_o.jpg",
    "id_image": "GermanShepherd_101925",
    "count_view": 0
  },
  {
    "link_thumb": "https://live.staticflickr.com/65535/50019978886_5e857ecb55_n.jpg",
    "id_album": "1903411565",
    "description": "Deer_180256",
    "title": "Deer_180256",
    "link_img": "https://live.staticflickr.com/65535/50019978886_b8a10b1f08_o.jpg",
    "id_image": "Deer_180256",
    "count_view": 0
  },
  {
    "link_thumb": "https://live.staticflickr.com/65535/50020681236_38a0844073_n.jpg",
    "id_album": "-39098563",
    "description": "Eagle_145176",
    "title": "Eagle_145176",
    "link_img": "https://live.staticflickr.com/65535/50020681236_0bae538d32_o.jpg",
    "id_image": "Eagle_145176",
    "count_view": 0
  },
  {
    "link_thumb": "https://live.staticflickr.com/65535/50021613531_3143851638_n.jpg",
    "id_album": "2144294979",
    "description": "Hummingbird_527018",
    "title": "Hummingbird_527018",
    "link_img": "https://live.staticflickr.com/65535/50021613531_7bde487e5d_o.jpg",
    "id_image": "Hummingbird_527018",
    "count_view": 0
  },
  {
    "link_thumb": "https://live.staticflickr.com/65535/50016831426_3e7e1c9120_n.jpg",
    "id_album": "-1741290715",
    "description": "Ant_361660",
    "title": "Ant_361660",
    "link_img": "https://live.staticflickr.com/65535/50016831426_60b60b23eb_o.jpg",
    "id_image": "Ant_361660",
    "count_view": 0
  },
  {
    "link_thumb": "https://live.staticflickr.com/65535/50021832017_7952501db7_n.jpg",
    "id_album": "-1933715543",
    "description": "Horse_884347",
    "title": "Horse_884347",
    "link_img": "https://live.staticflickr.com/65535/50021832017_050b9ee19e_o.jpg",
    "id_image": "Horse_884347",
    "count_view": 0
  },
  {
    "link_thumb": "https://live.staticflickr.com/65535/50018318357_fa991e7a35_n.jpg",
    "id_album": "-462831702",
    "description": "Cat_361852",
    "title": "Cat_361852",
    "link_img": "https://live.staticflickr.com/65535/50018318357_d51aa77e8c_o.jpg",
    "id_image": "Cat_361852",
    "count_view": 0
  },
  {
    "link_thumb": "https://live.staticflickr.com/65535/50019249168_e232e92880_n.jpg",
    "id_album": "643379324",
    "description": "Clownfish_236254",
    "title": "Clownfish_236254",
    "link_img": "https://live.staticflickr.com/65535/50019249168_43f04d3eaa_o.jpg",
    "id_image": "Clownfish_236254",
    "count_view": 0
  },
  {
    "link_thumb": "https://live.staticflickr.com/65535/50351737708_3e8a6c0cf3_n.jpg",
    "id_album": "-462831703",
    "description": "Cat_236206",
    "title": "Cat_236206",
    "link_img": "https://live.staticflickr.com/65535/50351737708_977b86236a_o.jpg",
    "id_image": "Cat_236206",
    "count_view": 0
  },
  {
    "link_thumb": "https://live.staticflickr.com/65535/50021263537_5cab37b0b5_n.jpg",
    "id_album": "-128218148",
    "description": "Fox_830119",
    "title": "Fox_830119",
    "link_img": "https://live.staticflickr.com/65535/50021263537_7131968a18_o.jpg",
    "id_image": "Fox_830119",
    "count_view": 0
  },
  {
    "link_thumb": "https://live.staticflickr.com/65535/50352791977_ecbba13d7e_n.jpg",
    "id_album": "-462831703",
    "description": "Cat_650947",
    "title": "Cat_650947",
    "link_img": "https://live.staticflickr.com/65535/50352791977_1da63e0af5_o.jpg",
    "id_image": "Cat_650947",
    "count_view": 0
  },
  {
    "link_thumb": "https://live.staticflickr.com/65535/50351767773_31b58ff01f_n.jpg",
    "id_album": "-462831703",
    "description": "Cat_361640",
    "title": "Cat_361640",
    "link_img": "https://live.staticflickr.com/65535/50351767773_27ff2f295f_o.jpg",
    "id_image": "Cat_361640",
    "count_view": 0
  },
  {
    "link_thumb": "https://live.staticflickr.com/65535/50019832406_d5d864b3f7_n.jpg",
    "id_album": "-1868680171",
    "description": "Cougar_996367",
    "title": "Cougar_996367",
    "link_img": "https://live.staticflickr.com/65535/50019832406_a78763b46d_o.jpg",
    "id_image": "Cougar_996367",
    "count_view": 0
  },
  {
    "link_thumb": "https://live.staticflickr.com/65535/50019147843_87cab5d734_n.jpg",
    "id_album": "-1481843714",
    "description": "Cheetah_122376",
    "title": "Cheetah_122376",
    "link_img": "https://live.staticflickr.com/65535/50019147843_1bcf869272_o.jpg",
    "id_image": "Cheetah_122376",
    "count_view": 0
  },
  {
    "link_thumb": "https://live.staticflickr.com/65535/50017362886_fdd1148af4_n.jpg",
    "id_album": "-1846011410",
    "description": "Bird_546080",
    "title": "Bird_546080",
    "link_img": "https://live.staticflickr.com/65535/50017362886_e5b93732b9_o.jpg",
    "id_image": "Bird_546080",
    "count_view": 0
  },
  {
    "link_thumb": "https://live.staticflickr.com/65535/50024842192_8fdfcdea5b_n.jpg",
    "id_album": "1104421803",
    "description": "Zebra_930228",
    "title": "Zebra_930228",
    "link_img": "https://live.staticflickr.com/65535/50024842192_eedb1d3317_o.jpg",
    "id_image": "Zebra_930228",
    "count_view": 0
  },
  {
    "link_thumb": "https://live.staticflickr.com/65535/50020533313_d4bb62eb88_n.jpg",
    "id_album": "844170697",
    "description": "Frog_803352",
    "title": "Frog_803352",
    "link_img": "https://live.staticflickr.com/65535/50020533313_08365c66dc_o.jpg",
    "id_image": "Frog_803352",
    "count_view": 0
  },
  {
    "link_thumb": "https://live.staticflickr.com/65535/50017125718_2f9b651de6_n.jpg",
    "id_album": "-401151552",
    "description": "Butterfly_711044",
    "title": "Butterfly_711044",
    "link_img": "https://live.staticflickr.com/65535/50017125718_2ef967fbfb_o.jpg",
    "id_image": "Butterfly_711044",
    "count_view": 0
  },
  {
    "link_thumb": "https://live.staticflickr.com/65535/50017641201_7197336b66_n.jpg",
    "id_album": "-401151552",
    "description": "Butterfly_684527",
    "title": "Butterfly_684527",
    "link_img": "https://live.staticflickr.com/65535/50017641201_e33e08ef72_o.jpg",
    "id_image": "Butterfly_684527",
    "count_view": 0
  },
  {
    "link_thumb": "https://live.staticflickr.com/65535/50019906808_a6de47c9b1_n.jpg",
    "id_album": "-149330231",
    "description": "Dog_492715",
    "title": "Dog_492715",
    "link_img": "https://live.staticflickr.com/65535/50019906808_199ac8662c_o.jpg",
    "id_image": "Dog_492715",
    "count_view": 0
  },
  {
    "link_thumb": "https://live.staticflickr.com/65535/50016836216_9b97b95dff_n.jpg",
    "id_album": "-1741290715",
    "description": "Ant_462036",
    "title": "Ant_462036",
    "link_img": "https://live.staticflickr.com/65535/50016836216_02e8aa4de9_o.jpg",
    "id_image": "Ant_462036",
    "count_view": 0
  },
  {
    "link_thumb": "https://live.staticflickr.com/65535/50021474376_f641228b79_n.jpg",
    "id_album": "-1933715543",
    "description": "Horse_247686",
    "title": "Horse_247686",
    "link_img": "https://live.staticflickr.com/65535/50021474376_1af7acd58d_o.jpg",
    "id_image": "Horse_247686",
    "count_view": 0
  },
  {
    "link_thumb": "https://live.staticflickr.com/65535/50023579427_d0a0706ff5_n.jpg",
    "id_album": "1512228924",
    "description": "ScarletMacaw_277245",
    "title": "ScarletMacaw_277245",
    "link_img": "https://live.staticflickr.com/65535/50023579427_32cb032377_o.jpg",
    "id_image": "ScarletMacaw_277245",
    "count_view": 0
  },
  {
    "link_thumb": "https://live.staticflickr.com/65535/50022143231_4d72d466b8_n.jpg",
    "id_album": "1894617400",
    "description": "Lynx_407064",
    "title": "Lynx_407064",
    "link_img": "https://live.staticflickr.com/65535/50022143231_701c3e83a1_o.jpg",
    "id_image": "Lynx_407064",
    "count_view": 0
  },
  {
    "link_thumb": "https://live.staticflickr.com/65535/50020558542_4df13eb018_n.jpg",
    "id_album": "-149330232",
    "description": "Dog_351467",
    "title": "Dog_351467",
    "link_img": "https://live.staticflickr.com/65535/50020558542_96d0b44235_o.jpg",
    "id_image": "Dog_351467",
    "count_view": 0
  },
  {
    "link_thumb": "https://live.staticflickr.com/65535/50021197806_5912c6436e_n.jpg",
    "id_album": "-462831704",
    "description": "Cat_715318",
    "title": "Cat_715318",
    "link_img": "https://live.staticflickr.com/65535/50021197806_9278ffb6bb_o.jpg",
    "id_image": "Cat_715318",
    "count_view": 0
  },
  {
    "link_thumb": "https://live.staticflickr.com/65535/50020458958_b209bf659e_n.jpg",
    "id_album": "-128218148",
    "description": "Fox_771404",
    "title": "Fox_771404",
    "link_img": "https://live.staticflickr.com/65535/50020458958_d3eef6c59a_o.jpg",
    "id_image": "Fox_771404",
    "count_view": 0
  },
  {
    "link_thumb": "https://live.staticflickr.com/65535/50020520986_b77e70d28f_n.jpg",
    "id_album": "-149330231",
    "description": "Dog_839863",
    "title": "Dog_839863",
    "link_img": "https://live.staticflickr.com/65535/50020520986_42a5d570fd_o.jpg",
    "id_image": "Dog_839863",
    "count_view": 0
  },
  {
    "link_thumb": "https://live.staticflickr.com/65535/50022320008_565659dbbc_n.jpg",
    "id_album": "1008910300",
    "description": "PolarBear_857924",
    "title": "PolarBear_857924",
    "link_img": "https://live.staticflickr.com/65535/50022320008_2b83afc598_o.jpg",
    "id_image": "PolarBear_857924",
    "count_view": 0
  },
  {
    "link_thumb": "https://live.staticflickr.com/65535/50023192496_efaed5465e_n.jpg",
    "id_album": "-1862965835",
    "description": "RedEyedTreeFrog_671553",
    "title": "RedEyedTreeFrog_671553",
    "link_img": "https://live.staticflickr.com/65535/50023192496_a7dc3f94c7_o.jpg",
    "id_image": "RedEyedTreeFrog_671553",
    "count_view": 0
  },
  {
    "link_thumb": "https://live.staticflickr.com/65535/50351711268_cf74483ff5_n.jpg",
    "id_album": "-462831703",
    "description": "Cat_174524",
    "title": "Cat_174524",
    "link_img": "https://live.staticflickr.com/65535/50351711268_fdf54ef11d_o.jpg",
    "id_image": "Cat_174524",
    "count_view": 0
  },
  {
    "link_thumb": "https://live.staticflickr.com/65535/50024260472_57b88412a0_n.jpg",
    "id_album": "1244464375",
    "description": "Starfish_911648",
    "title": "Starfish_911648",
    "link_img": "https://live.staticflickr.com/65535/50024260472_47aa2a5c5c_o.jpg",
    "id_image": "Starfish_911648",
    "count_view": 0
  },
  {
    "link_thumb": "https://live.staticflickr.com/65535/50022619948_43527962ff_n.jpg",
    "id_album": "248289288",
    "description": "Raccoon_772243",
    "title": "Raccoon_772243",
    "link_img": "https://live.staticflickr.com/65535/50022619948_9b83b6d394_o.jpg",
    "id_image": "Raccoon_772243",
    "count_view": 0
  },
  {
    "link_thumb": "https://live.staticflickr.com/65535/50021220933_f949a21bd7_n.jpg",
    "id_album": "1562047127",
    "description": "Jellyfish_386683",
    "title": "Jellyfish_386683",
    "link_img": "https://live.staticflickr.com/65535/50021220933_ebdc211b1e_o.jpg",
    "id_image": "Jellyfish_386683",
    "count_view": 0
  },
  {
    "link_thumb": "https://live.staticflickr.com/65535/50024454251_0eb6f9a278_n.jpg",
    "id_album": "766572659",
    "description": "WhiteTiger_998054",
    "title": "WhiteTiger_998054",
    "link_img": "https://live.staticflickr.com/65535/50024454251_f22961efd6_o.jpg",
    "id_image": "WhiteTiger_998054",
    "count_view": 0
  },
  {
    "link_thumb": "https://live.staticflickr.com/65535/50021259093_6737f6ea68_n.jpg",
    "id_album": "770105808",
    "description": "Kingfisher_523830",
    "title": "Kingfisher_523830",
    "link_img": "https://live.staticflickr.com/65535/50021259093_7becc64eaf_o.jpg",
    "id_image": "Kingfisher_523830",
    "count_view": 0
  },
  {
    "link_thumb": "https://live.staticflickr.com/65535/50023423063_c60c900231_n.jpg",
    "id_album": "702283289",
    "description": "Squirrel_914778",
    "title": "Squirrel_914778",
    "link_img": "https://live.staticflickr.com/65535/50023423063_decea1fda3_o.jpg",
    "id_image": "Squirrel_914778",
    "count_view": 0
  },
  {
    "link_thumb": "https://live.staticflickr.com/65535/50021238606_8e4ceb1728_n.jpg",
    "id_album": "-462831703",
    "description": "Cat_776462",
    "title": "Cat_776462",
    "link_img": "https://live.staticflickr.com/65535/50021238606_9b25cda7df_o.jpg",
    "id_image": "Cat_776462",
    "count_view": 0
  },
  {
    "link_thumb": "https://live.staticflickr.com/65535/50017049826_9cbba68900_n.jpg",
    "id_album": "-422187261",
    "description": "Bear_463695",
    "title": "Bear_463695",
    "link_img": "https://live.staticflickr.com/65535/50017049826_1c099f238a_o.jpg",
    "id_image": "Bear_463695",
    "count_view": 0
  },
  {
    "link_thumb": "https://live.staticflickr.com/65535/50023094121_f369269c80_n.jpg",
    "id_album": "-1940643173",
    "description": "Rabbit_281557",
    "title": "Rabbit_281557",
    "link_img": "https://live.staticflickr.com/65535/50023094121_4ce2cd49af_o.jpg",
    "id_image": "Rabbit_281557",
    "count_view": 0
  },
  {
    "link_thumb": "https://live.staticflickr.com/65535/50017890007_635c703cae_n.jpg",
    "id_album": "-401151552",
    "description": "Butterfly_570950",
    "title": "Butterfly_570950",
    "link_img": "https://live.staticflickr.com/65535/50017890007_0484f02c58_o.jpg",
    "id_image": "Butterfly_570950",
    "count_view": 0
  },
  {
    "link_thumb": "https://live.staticflickr.com/65535/50022097037_86d9275d53_n.jpg",
    "id_album": "-1882491687",
    "description": "Ladybug_257987",
    "title": "Ladybug_257987",
    "link_img": "https://live.staticflickr.com/65535/50022097037_193fdcb554_o.jpg",
    "id_image": "Ladybug_257987",
    "count_view": 0
  },
  {
    "link_thumb": "https://live.staticflickr.com/65535/50020873548_528b1ca1d4_n.jpg",
    "id_album": "109779448",
    "description": "Hare_561712",
    "title": "Hare_561712",
    "link_img": "https://live.staticflickr.com/65535/50020873548_d8e2708bf1_o.jpg",
    "id_image": "Hare_561712",
    "count_view": 0
  },
  {
    "link_thumb": "https://live.staticflickr.com/65535/50017287093_f0ddab7977_n.jpg",
    "id_album": "-462831705",
    "description": "Cat_176154",
    "title": "Cat_176154",
    "link_img": "https://live.staticflickr.com/65535/50017287093_3c60a114b5_o.jpg",
    "id_image": "Cat_176154",
    "count_view": 0
  },
  {
    "link_thumb": "https://live.staticflickr.com/65535/50024085311_2035edff9e_n.jpg",
    "id_album": "405170427",
    "description": "Tiger_364953",
    "title": "Tiger_364953",
    "link_img": "https://live.staticflickr.com/65535/50024085311_964a278a64_o.jpg",
    "id_image": "Tiger_364953",
    "count_view": 0
  },
  {
    "link_thumb": "https://live.staticflickr.com/65535/50016895056_a09f3d37e4_n.jpg",
    "id_album": "523598895",
    "description": "Artistic_317135",
    "title": "Artistic_317135",
    "link_img": "https://live.staticflickr.com/65535/50016895056_29c4607303_o.jpg",
    "id_image": "Artistic_317135",
    "count_view": 0
  },
  {
    "link_thumb": "https://live.staticflickr.com/65535/50021447947_eb22fb65ff_n.jpg",
    "id_album": "-462831704",
    "description": "Cat_712263",
    "title": "Cat_712263",
    "link_img": "https://live.staticflickr.com/65535/50021447947_a362b4c2ca_o.jpg",
    "id_image": "Cat_712263",
    "count_view": 0
  },
  {
    "link_thumb": "https://live.staticflickr.com/65535/50018842968_d139d3d55b_n.jpg",
    "id_album": "-462831703",
    "description": "Cat_876243",
    "title": "Cat_876243",
    "link_img": "https://live.staticflickr.com/65535/50018842968_e98193f421_o.jpg",
    "id_image": "Cat_876243",
    "count_view": 0
  },
  {
    "link_thumb": "https://live.staticflickr.com/65535/50017519217_5d052eea67_n.jpg",
    "id_album": "-1846011410",
    "description": "Bird_347756",
    "title": "Bird_347756",
    "link_img": "https://live.staticflickr.com/65535/50017519217_14ecfab700_o.jpg",
    "id_image": "Bird_347756",
    "count_view": 0
  },
  {
    "link_thumb": "https://live.staticflickr.com/65535/50020402068_4c94056a2c_n.jpg",
    "id_album": "-128218148",
    "description": "Fox_324173",
    "title": "Fox_324173",
    "link_img": "https://live.staticflickr.com/65535/50020402068_f89639bdd9_o.jpg",
    "id_image": "Fox_324173",
    "count_view": 0
  },
  {
    "link_thumb": "https://live.staticflickr.com/65535/50017519442_49dc0709c2_n.jpg",
    "id_album": "-1846011410",
    "description": "Bird_347819",
    "title": "Bird_347819",
    "link_img": "https://live.staticflickr.com/65535/50017519442_ddcda329b7_o.jpg",
    "id_image": "Bird_347819",
    "count_view": 0
  },
  {
    "link_thumb": "https://live.staticflickr.com/65535/50021918201_990cbb3206_n.jpg",
    "id_album": "1392348450",
    "description": "Leopard_394098",
    "title": "Leopard_394098",
    "link_img": "https://live.staticflickr.com/65535/50021918201_ab1e878207_o.jpg",
    "id_image": "Leopard_394098",
    "count_view": 0
  },
  {
    "link_thumb": "https://live.staticflickr.com/65535/50020526301_9b1a8321d4_n.jpg",
    "id_album": "-149330231",
    "description": "Dog_863812",
    "title": "Dog_863812",
    "link_img": "https://live.staticflickr.com/65535/50020526301_92df6c9b01_o.jpg",
    "id_image": "Dog_863812",
    "count_view": 0
  },
  {
    "link_thumb": "https://live.staticflickr.com/65535/50016409568_718d21017b_n.jpg",
    "id_album": "390697200",
    "description": "AustralianShepherd_766872",
    "title": "AustralianShepherd_766872",
    "link_img": "https://live.staticflickr.com/65535/50016409568_4fa8a6bdc4_o.jpg",
    "id_image": "AustralianShepherd_766872",
    "count_view": 0
  },
  {
    "link_thumb": "https://live.staticflickr.com/65535/50019792018_59d89c3468_n.jpg",
    "id_album": "-149330232",
    "description": "Dog_364257",
    "title": "Dog_364257",
    "link_img": "https://live.staticflickr.com/65535/50019792018_45c817675a_o.jpg",
    "id_image": "Dog_364257",
    "count_view": 0
  },
  {
    "link_thumb": "https://live.staticflickr.com/65535/50022324838_39812a79b6_n.jpg",
    "id_album": "1008910300",
    "description": "PolarBear_912151",
    "title": "PolarBear_912151",
    "link_img": "https://live.staticflickr.com/65535/50022324838_b383127fcd_o.jpg",
    "id_image": "PolarBear_912151",
    "count_view": 0
  },
  {
    "link_thumb": "https://live.staticflickr.com/65535/50021331102_9d415ef81f_n.jpg",
    "id_album": "844170697",
    "description": "Frog_821508",
    "title": "Frog_821508",
    "link_img": "https://live.staticflickr.com/65535/50021331102_e33394309a_o.jpg",
    "id_image": "Frog_821508",
    "count_view": 0
  },
  {
    "link_thumb": "https://live.staticflickr.com/65535/50019145036_289ca12ddf_n.jpg",
    "id_album": "-462831702",
    "description": "Cat_413741",
    "title": "Cat_413741",
    "link_img": "https://live.staticflickr.com/65535/50019145036_6e6f31960c_o.jpg",
    "id_image": "Cat_413741",
    "count_view": 0
  },
  {
    "link_thumb": "https://live.staticflickr.com/65535/50018219947_d4d4064818_n.jpg",
    "id_album": "-462831702",
    "description": "Cat_315706",
    "title": "Cat_315706",
    "link_img": "https://live.staticflickr.com/65535/50018219947_f111b6d2ef_o.jpg",
    "id_image": "Cat_315706",
    "count_view": 0
  },
  {
    "link_thumb": "https://live.staticflickr.com/65535/50016460018_db446d666c_n.jpg",
    "id_album": "809937717",
    "description": "Beagle_435050",
    "title": "Beagle_435050",
    "link_img": "https://live.staticflickr.com/65535/50016460018_9e2c002522_o.jpg",
    "id_image": "Beagle_435050",
    "count_view": 0
  },
  {
    "link_thumb": "https://live.staticflickr.com/65535/50017630911_83ca1bd97c_n.jpg",
    "id_album": "-401151552",
    "description": "Butterfly_572452",
    "title": "Butterfly_572452",
    "link_img": "https://live.staticflickr.com/65535/50017630911_ca03a9ec0f_o.jpg",
    "id_image": "Butterfly_572452",
    "count_view": 0
  },
  {
    "link_thumb": "https://live.staticflickr.com/65535/50021631403_5b4b772e6f_n.jpg",
    "id_album": "1894617400",
    "description": "Lynx_988107",
    "title": "Lynx_988107",
    "link_img": "https://live.staticflickr.com/65535/50021631403_b8df1882a0_o.jpg",
    "id_image": "Lynx_988107",
    "count_view": 0
  },
  {
    "link_thumb": "https://live.staticflickr.com/65535/50020348421_587041b741_n.jpg",
    "id_album": "-149330232",
    "description": "Dog_373040",
    "title": "Dog_373040",
    "link_img": "https://live.staticflickr.com/65535/50020348421_92ac55d36e_o.jpg",
    "id_image": "Dog_373040",
    "count_view": 0
  },
  {
    "link_thumb": "https://live.staticflickr.com/65535/50021632178_91783a7d82_n.jpg",
    "id_album": "1894617400",
    "description": "Lynx_994112",
    "title": "Lynx_994112",
    "link_img": "https://live.staticflickr.com/65535/50021632178_dd11ef9724_o.jpg",
    "id_image": "Lynx_994112",
    "count_view": 0
  },
  {
    "link_thumb": "https://live.staticflickr.com/65535/50023920567_c7ba3b4b22_n.jpg",
    "id_album": "-1131363127",
    "description": "SnowLeopard_585145",
    "title": "SnowLeopard_585145",
    "link_img": "https://live.staticflickr.com/65535/50023920567_c707455cbd_o.jpg",
    "id_image": "SnowLeopard_585145",
    "count_view": 0
  },
  {
    "link_thumb": "https://live.staticflickr.com/65535/50020257863_876beaf0e3_n.jpg",
    "id_album": "1270947998",
    "description": "Elephant_806933",
    "title": "Elephant_806933",
    "link_img": "https://live.staticflickr.com/65535/50020257863_c388c645a6_o.jpg",
    "id_image": "Elephant_806933",
    "count_view": 0
  },
  {
    "link_thumb": "https://live.staticflickr.com/65535/50023576627_eede870abd_n.jpg",
    "id_album": "1926701726",
    "description": "Robin_889609",
    "title": "Robin_889609",
    "link_img": "https://live.staticflickr.com/65535/50023576627_42bfec37e6_o.jpg",
    "id_image": "Robin_889609",
    "count_view": 0
  },
  {
    "link_thumb": "https://live.staticflickr.com/65535/50019156756_846458c2d3_n.jpg",
    "id_album": "-462831702",
    "description": "Cat_421385",
    "title": "Cat_421385",
    "link_img": "https://live.staticflickr.com/65535/50019156756_d249c5d702_o.jpg",
    "id_image": "Cat_421385",
    "count_view": 0
  },
  {
    "link_thumb": "https://live.staticflickr.com/65535/50352475891_d673af98e8_n.jpg",
    "id_album": "-462831703",
    "description": "Cat_370221",
    "title": "Cat_370221",
    "link_img": "https://live.staticflickr.com/65535/50352475891_93ff84693b_o.jpg",
    "id_image": "Cat_370221",
    "count_view": 0
  },
  {
    "link_thumb": "https://live.staticflickr.com/65535/50024527777_2f4b739852_n.jpg",
    "id_album": "432140049",
    "description": "Toad_407604",
    "title": "Toad_407604",
    "link_img": "https://live.staticflickr.com/65535/50024527777_0df6d15721_o.jpg",
    "id_image": "Toad_407604",
    "count_view": 0
  },
  {
    "link_thumb": "https://live.staticflickr.com/65535/50020856953_3d45364772_n.jpg",
    "id_album": "-1168906494",
    "description": "Grasshopper_323723",
    "title": "Grasshopper_323723",
    "link_img": "https://live.staticflickr.com/65535/50020856953_0e8f8d8851_o.jpg",
    "id_image": "Grasshopper_323723",
    "count_view": 0
  },
  {
    "link_thumb": "https://live.staticflickr.com/65535/50022778163_5f596cc768_n.jpg",
    "id_album": "1512228924",
    "description": "ScarletMacaw_277934",
    "title": "ScarletMacaw_277934",
    "link_img": "https://live.staticflickr.com/65535/50022778163_df1468f293_o.jpg",
    "id_image": "ScarletMacaw_277934",
    "count_view": 0
  },
  {
    "link_thumb": "https://live.staticflickr.com/65535/50019281571_3e93cab1c3_n.jpg",
    "id_album": "-462831704",
    "description": "Cat_521536",
    "title": "Cat_521536",
    "link_img": "https://live.staticflickr.com/65535/50019281571_7837544be7_o.jpg",
    "id_image": "Cat_521536",
    "count_view": 0
  },
  {
    "link_thumb": "https://live.staticflickr.com/65535/50021391561_bef97b5ff6_n.jpg",
    "id_album": "1950225324",
    "description": "Gorilla_365054",
    "title": "Gorilla_365054",
    "link_img": "https://live.staticflickr.com/65535/50021391561_4fdc90ce1c_o.jpg",
    "id_image": "Gorilla_365054",
    "count_view": 0
  },
  {
    "link_thumb": "https://live.staticflickr.com/65535/50020706117_8b95d75b03_n.jpg",
    "id_album": "-149330231",
    "description": "Dog_523767",
    "title": "Dog_523767",
    "link_img": "https://live.staticflickr.com/65535/50020706117_47f99a39d1_o.jpg",
    "id_image": "Dog_523767",
    "count_view": 0
  },
  {
    "link_thumb": "https://live.staticflickr.com/65535/50024588927_13af453e7e_n.jpg",
    "id_album": "46520366",
    "description": "Turtle_83660",
    "title": "Turtle_83660",
    "link_img": "https://live.staticflickr.com/65535/50024588927_3297a93c12_o.jpg",
    "id_image": "Turtle_83660",
    "count_view": 0
  },
  {
    "link_thumb": "https://live.staticflickr.com/65535/50016570868_e5d602b27a_n.jpg",
    "id_album": "-422187261",
    "description": "Bear_886716",
    "title": "Bear_886716",
    "link_img": "https://live.staticflickr.com/65535/50016570868_8b9b36bb18_o.jpg",
    "id_image": "Bear_886716",
    "count_view": 0
  },
  {
    "link_thumb": "https://live.staticflickr.com/65535/50018842708_6264ed46bf_n.jpg",
    "id_album": "-462831703",
    "description": "Cat_876160",
    "title": "Cat_876160",
    "link_img": "https://live.staticflickr.com/65535/50018842708_c6c67aed6d_o.jpg",
    "id_image": "Cat_876160",
    "count_view": 0
  },
  {
    "link_thumb": "https://live.staticflickr.com/65535/50351785378_742469d8fe_n.jpg",
    "id_album": "-462831703",
    "description": "Cat_376516",
    "title": "Cat_376516",
    "link_img": "https://live.staticflickr.com/65535/50351785378_71771885a5_o.jpg",
    "id_image": "Cat_376516",
    "count_view": 0
  },
  {
    "link_thumb": "https://live.staticflickr.com/65535/50021419422_86672eaa59_n.jpg",
    "id_album": "-462831704",
    "description": "Cat_683501",
    "title": "Cat_683501",
    "link_img": "https://live.staticflickr.com/65535/50021419422_98b8a330cc_o.jpg",
    "id_image": "Cat_683501",
    "count_view": 0
  },
  {
    "link_thumb": "https://live.staticflickr.com/65535/50021626886_d40a2d50ba_n.jpg",
    "id_album": "-712553376",
    "description": "Husky_113325",
    "title": "Husky_113325",
    "link_img": "https://live.staticflickr.com/65535/50021626886_74d8610b49_o.jpg",
    "id_image": "Husky_113325",
    "count_view": 0
  },
  {
    "link_thumb": "https://live.staticflickr.com/65535/50016957146_d388648a0c_n.jpg",
    "id_album": "231236068",
    "description": "BaldEagle_425412",
    "title": "BaldEagle_425412",
    "link_img": "https://live.staticflickr.com/65535/50016957146_7c32a1a07a_o.jpg",
    "id_image": "BaldEagle_425412",
    "count_view": 0
  },
  {
    "link_thumb": "https://live.staticflickr.com/65535/50020529813_70d30639a8_n.jpg",
    "id_album": "844170697",
    "description": "Frog_704386",
    "title": "Frog_704386",
    "link_img": "https://live.staticflickr.com/65535/50020529813_69ea5796fd_o.jpg",
    "id_image": "Frog_704386",
    "count_view": 0
  },
  {
    "link_thumb": "https://live.staticflickr.com/65535/50017739537_d7943d3166_n.jpg",
    "id_album": "782930701",
    "description": "BorderCollie_275581",
    "title": "BorderCollie_275581",
    "link_img": "https://live.staticflickr.com/65535/50017739537_18dae915e8_o.jpg",
    "id_image": "BorderCollie_275581",
    "count_view": 0
  },
  {
    "link_thumb": "https://live.staticflickr.com/65535/50023752448_d301f4e24d_n.jpg",
    "id_album": "46520366",
    "description": "Turtle_104667",
    "title": "Turtle_104667",
    "link_img": "https://live.staticflickr.com/65535/50023752448_b9d6b01da8_o.jpg",
    "id_image": "Turtle_104667",
    "count_view": 0
  },
  {
    "link_thumb": "https://live.staticflickr.com/65535/50020795263_d2c1a07018_n.jpg",
    "id_album": "713572662",
    "description": "Giraffe_993386",
    "title": "Giraffe_993386",
    "link_img": "https://live.staticflickr.com/65535/50020795263_e41ed0f3a1_o.jpg",
    "id_image": "Giraffe_993386",
    "count_view": 0
  },
  {
    "link_thumb": "https://live.staticflickr.com/65535/50023968657_7ae7be0419_n.jpg",
    "id_album": "-359606417",
    "description": "Sparrow_597193",
    "title": "Sparrow_597193",
    "link_img": "https://live.staticflickr.com/65535/50023968657_4e2a6f5a85_o.jpg",
    "id_image": "Sparrow_597193",
    "count_view": 0
  },
  {
    "link_thumb": "https://live.staticflickr.com/65535/50019738061_889b4a06d6_n.jpg",
    "id_album": "-1481843714",
    "description": "Cheetah_947045",
    "title": "Cheetah_947045",
    "link_img": "https://live.staticflickr.com/65535/50019738061_fe8d5102b2_o.jpg",
    "id_image": "Cheetah_947045",
    "count_view": 0
  },
  {
    "link_thumb": "https://live.staticflickr.com/65535/50018947748_7992834495_n.jpg",
    "id_album": "-462831703",
    "description": "Cat_927349",
    "title": "Cat_927349",
    "link_img": "https://live.staticflickr.com/65535/50018947748_36cea9747e_o.jpg",
    "id_image": "Cat_927349",
    "count_view": 0
  },
  {
    "link_thumb": "https://live.staticflickr.com/65535/50018907818_e0e74745e1_n.jpg",
    "id_album": "-462831703",
    "description": "Cat_911647",
    "title": "Cat_911647",
    "link_img": "https://live.staticflickr.com/65535/50018907818_3a7798487a_o.jpg",
    "id_image": "Cat_911647",
    "count_view": 0
  },
  {
    "link_thumb": "https://live.staticflickr.com/65535/50019276086_bcb0f3df57_n.jpg",
    "id_album": "-462831704",
    "description": "Cat_516056",
    "title": "Cat_516056",
    "link_img": "https://live.staticflickr.com/65535/50019276086_f58c1003ae_o.jpg",
    "id_image": "Cat_516056",
    "count_view": 0
  },
  {
    "link_thumb": "https://live.staticflickr.com/65535/50017388621_28b3d13f70_n.jpg",
    "id_album": "-1846011410",
    "description": "Bird_615893",
    "title": "Bird_615893",
    "link_img": "https://live.staticflickr.com/65535/50017388621_011615e370_o.jpg",
    "id_image": "Bird_615893",
    "count_view": 0
  },
  {
    "link_thumb": "https://live.staticflickr.com/65535/50019653248_de00706d9a_n.jpg",
    "id_album": "-149330232",
    "description": "Dog_255822",
    "title": "Dog_255822",
    "link_img": "https://live.staticflickr.com/65535/50019653248_e6b8524d82_o.jpg",
    "id_image": "Dog_255822",
    "count_view": 0
  },
  {
    "link_thumb": "https://live.staticflickr.com/65535/50016931821_8489e1d267_n.jpg",
    "id_album": "390697200",
    "description": "AustralianShepherd_635590",
    "title": "AustralianShepherd_635590",
    "link_img": "https://live.staticflickr.com/65535/50016931821_4b08ed8a5a_o.jpg",
    "id_image": "AustralianShepherd_635590",
    "count_view": 0
  },
  {
    "link_thumb": "https://live.staticflickr.com/65535/50020219586_f3b8472a89_n.jpg",
    "id_album": "-149330232",
    "description": "Dog_281467",
    "title": "Dog_281467",
    "link_img": "https://live.staticflickr.com/65535/50020219586_5cd148bab6_o.jpg",
    "id_image": "Dog_281467",
    "count_view": 0
  },
  {
    "link_thumb": "https://live.staticflickr.com/65535/50021695837_bc0cd62994_n.jpg",
    "id_album": "54253492",
    "description": "Heron_433436",
    "title": "Heron_433436",
    "link_img": "https://live.staticflickr.com/65535/50021695837_6020811d54_o.jpg",
    "id_image": "Heron_433436",
    "count_view": 0
  },
  {
    "link_thumb": "https://live.staticflickr.com/65535/50019687063_2996a136c3_n.jpg",
    "id_album": "-149330232",
    "description": "Dog_278755",
    "title": "Dog_278755",
    "link_img": "https://live.staticflickr.com/65535/50019687063_32243982af_o.jpg",
    "id_image": "Dog_278755",
    "count_view": 0
  },
  {
    "link_thumb": "https://live.staticflickr.com/65535/50022630443_c42ef2874f_n.jpg",
    "id_album": "-434874555",
    "description": "RainbowLorikeet_396159",
    "title": "RainbowLorikeet_396159",
    "link_img": "https://live.staticflickr.com/65535/50022630443_474992ffcb_o.jpg",
    "id_image": "RainbowLorikeet_396159",
    "count_view": 0
  },
  {
    "link_thumb": "https://live.staticflickr.com/65535/50022560478_f38cf940aa_n.jpg",
    "id_album": "-1940643173",
    "description": "Rabbit_388806",
    "title": "Rabbit_388806",
    "link_img": "https://live.staticflickr.com/65535/50022560478_647f4df73c_o.jpg",
    "id_image": "Rabbit_388806",
    "count_view": 0
  },
  {
    "link_thumb": "https://live.staticflickr.com/65535/50017799546_b36335d977_n.jpg",
    "id_album": "-462831705",
    "description": "Cat_166905",
    "title": "Cat_166905",
    "link_img": "https://live.staticflickr.com/65535/50017799546_9c17e35164_o.jpg",
    "id_image": "Cat_166905",
    "count_view": 0
  },
  {
    "link_thumb": "https://live.staticflickr.com/65535/50020798947_1ce7c3c892_n.jpg",
    "id_album": "-149330231",
    "description": "Dog_909163",
    "title": "Dog_909163",
    "link_img": "https://live.staticflickr.com/65535/50020798947_afea3be42e_o.jpg",
    "id_image": "Dog_909163",
    "count_view": 0
  },
  {
    "link_thumb": "https://live.staticflickr.com/65535/50019912262_b576a7f68b_n.jpg",
    "id_album": "-766919393",
    "description": "Chameleon_573034",
    "title": "Chameleon_573034",
    "link_img": "https://live.staticflickr.com/65535/50019912262_69893b02d3_o.jpg",
    "id_image": "Chameleon_573034",
    "count_view": 0
  },
  {
    "link_thumb": "https://live.staticflickr.com/65535/50352773962_7496936086_n.jpg",
    "id_album": "-462831703",
    "description": "Cat_585264",
    "title": "Cat_585264",
    "link_img": "https://live.staticflickr.com/65535/50352773962_c606ed3617_o.jpg",
    "id_image": "Cat_585264",
    "count_view": 0
  },
  {
    "link_thumb": "https://live.staticflickr.com/65535/50021210662_7a644c17d2_n.jpg",
    "id_album": "-128218148",
    "description": "Fox_380937",
    "title": "Fox_380937",
    "link_img": "https://live.staticflickr.com/65535/50021210662_97c644f7b2_o.jpg",
    "id_image": "Fox_380937",
    "count_view": 0
  },
  {
    "link_thumb": "https://live.staticflickr.com/65535/50021833021_cc26042165_n.jpg",
    "id_album": "1307335982",
    "description": "LabradorRetriever_785683",
    "title": "LabradorRetriever_785683",
    "link_img": "https://live.staticflickr.com/65535/50021833021_1fc89b5079_o.jpg",
    "id_image": "LabradorRetriever_785683",
    "count_view": 0
  },
  {
    "link_thumb": "https://live.staticflickr.com/65535/50019085608_34c32ff08f_n.jpg",
    "id_album": "-420782796",
    "description": "Caterpillar_942693",
    "title": "Caterpillar_942693",
    "link_img": "https://live.staticflickr.com/65535/50019085608_ae025f1b44_o.jpg",
    "id_image": "Caterpillar_942693",
    "count_view": 0
  },
  {
    "link_thumb": "https://live.staticflickr.com/65535/50017123837_d45467d3f3_n.jpg",
    "id_album": "523598895",
    "description": "Artistic_115089",
    "title": "Artistic_115089",
    "link_img": "https://live.staticflickr.com/65535/50017123837_8b0d435e3c_o.jpg",
    "id_image": "Artistic_115089",
    "count_view": 0
  },
  {
    "link_thumb": "https://live.staticflickr.com/65535/50018161227_f62baf53c0_n.jpg",
    "id_album": "-462831705",
    "description": "Cat_246148",
    "title": "Cat_246148",
    "link_img": "https://live.staticflickr.com/65535/50018161227_b8c9fb0ecf_o.jpg",
    "id_image": "Cat_246148",
    "count_view": 0
  },
  {
    "link_thumb": "https://live.staticflickr.com/65535/50024440982_bac31495cf_n.jpg",
    "id_album": "405170427",
    "description": "Tiger_590416",
    "title": "Tiger_590416",
    "link_img": "https://live.staticflickr.com/65535/50024440982_482775e180_o.jpg",
    "id_image": "Tiger_590416",
    "count_view": 0
  },
  {
    "link_thumb": "https://live.staticflickr.com/65535/50352007673_9341742531_n.jpg",
    "id_album": "-462831702",
    "description": "Cat_79707",
    "title": "Cat_79707",
    "link_img": "https://live.staticflickr.com/65535/50352007673_7eb22d45dd_o.jpg",
    "id_image": "Cat_79707",
    "count_view": 0
  },
  {
    "link_thumb": "https://live.staticflickr.com/65535/50020174168_18662143a5_n.jpg",
    "id_album": "-39098563",
    "description": "Eagle_428512",
    "title": "Eagle_428512",
    "link_img": "https://live.staticflickr.com/65535/50020174168_fd5b53ceae_o.jpg",
    "id_image": "Eagle_428512",
    "count_view": 0
  },
  {
    "link_thumb": "https://live.staticflickr.com/65535/50018928668_50296c5ab5_n.jpg",
    "id_album": "-462831705",
    "description": "Cat_91489",
    "title": "Cat_91489",
    "link_img": "https://live.staticflickr.com/65535/50018928668_b5b21ba557_o.jpg",
    "id_image": "Cat_91489",
    "count_view": 0
  },
  {
    "link_thumb": "https://live.staticflickr.com/65535/50021079741_2a7835f063_n.jpg",
    "id_album": "844170697",
    "description": "Frog_852589",
    "title": "Frog_852589",
    "link_img": "https://live.staticflickr.com/65535/50021079741_a7cab01d7c_o.jpg",
    "id_image": "Frog_852589",
    "count_view": 0
  },
  {
    "link_thumb": "https://live.staticflickr.com/65535/50021688802_5ac82d09ae_n.jpg",
    "id_album": "1469520430",
    "description": "Hedgehog_735863",
    "title": "Hedgehog_735863",
    "link_img": "https://live.staticflickr.com/65535/50021688802_39aec00a30_o.jpg",
    "id_image": "Hedgehog_735863",
    "count_view": 0
  },
  {
    "link_thumb": "https://live.staticflickr.com/65535/50021209583_9d0c5a1011_n.jpg",
    "id_album": "665694624",
    "description": "JapaneseMacaque_670217",
    "title": "JapaneseMacaque_670217",
    "link_img": "https://live.staticflickr.com/65535/50021209583_a9dfd437dd_o.jpg",
    "id_image": "JapaneseMacaque_670217",
    "count_view": 0
  },
  {
    "link_thumb": "https://live.staticflickr.com/65535/50022583803_2ef6d86246_n.jpg",
    "id_album": "-1940643173",
    "description": "Rabbit_777684",
    "title": "Rabbit_777684",
    "link_img": "https://live.staticflickr.com/65535/50022583803_467752ed52_o.jpg",
    "id_image": "Rabbit_777684",
    "count_view": 0
  },
  {
    "link_thumb": "https://live.staticflickr.com/65535/50023801653_386b126769_n.jpg",
    "id_album": "410750612",
    "description": "Wasp_926262",
    "title": "Wasp_926262",
    "link_img": "https://live.staticflickr.com/65535/50023801653_272b2e128a_o.jpg",
    "id_image": "Wasp_926262",
    "count_view": 0
  },
  {
    "link_thumb": "https://live.staticflickr.com/65535/50018155116_67ebac9dec_n.jpg",
    "id_album": "-462831702",
    "description": "Cat_408286",
    "title": "Cat_408286",
    "link_img": "https://live.staticflickr.com/65535/50018155116_2d1ce97c0b_o.jpg",
    "id_image": "Cat_408286",
    "count_view": 0
  },
  {
    "link_thumb": "https://live.staticflickr.com/65535/50024417277_90741226bc_n.jpg",
    "id_album": "405170427",
    "description": "Tiger_543023",
    "title": "Tiger_543023",
    "link_img": "https://live.staticflickr.com/65535/50024417277_63f90d64e1_o.jpg",
    "id_image": "Tiger_543023",
    "count_view": 0
  },
  {
    "link_thumb": "https://live.staticflickr.com/65535/50017433297_4ee640dd6a_n.jpg",
    "id_album": "172748811",
    "description": "Beeeater_419495",
    "title": "Beeeater_419495",
    "link_img": "https://live.staticflickr.com/65535/50017433297_7c9dae8e4b_o.jpg",
    "id_image": "Beeeater_419495",
    "count_view": 0
  },
  {
    "link_thumb": "https://live.staticflickr.com/65535/50019440417_619079dc3a_n.jpg",
    "id_album": "-462831702",
    "description": "Cat_430745",
    "title": "Cat_430745",
    "link_img": "https://live.staticflickr.com/65535/50019440417_04b9d422ed_o.jpg",
    "id_image": "Cat_430745",
    "count_view": 0
  },
  {
    "link_thumb": "https://live.staticflickr.com/65535/50352672037_55c7b868a4_n.jpg",
    "id_album": "-462831703",
    "description": "Cat_427179",
    "title": "Cat_427179",
    "link_img": "https://live.staticflickr.com/65535/50352672037_e7e676e8cc_o.jpg",
    "id_image": "Cat_427179",
    "count_view": 0
  },
  {
    "link_thumb": "https://live.staticflickr.com/65535/50017320297_d24d4922f4_n.jpg",
    "id_album": "-422187261",
    "description": "Bear_588332",
    "title": "Bear_588332",
    "link_img": "https://live.staticflickr.com/65535/50017320297_4bd4b8468d_o.jpg",
    "id_image": "Bear_588332",
    "count_view": 0
  },
  {
    "link_thumb": "https://live.staticflickr.com/65535/50021247831_8c7f3c3e70_n.jpg",
    "id_album": "-462831703",
    "description": "Cat_788771",
    "title": "Cat_788771",
    "link_img": "https://live.staticflickr.com/65535/50021247831_d8427d842d_o.jpg",
    "id_image": "Cat_788771",
    "count_view": 0
  },
  {
    "link_thumb": "https://live.staticflickr.com/65535/50016321953_e02fb7155e_n.jpg",
    "id_album": "-834314226",
    "description": "ArcticFox_718612",
    "title": "ArcticFox_718612",
    "link_img": "https://live.staticflickr.com/65535/50016321953_9ec3412b33_o.jpg",
    "id_image": "ArcticFox_718612",
    "count_view": 0
  },
  {
    "link_thumb": "https://live.staticflickr.com/65535/50352556732_36b8ea0871_n.jpg",
    "id_album": "-462831703",
    "description": "Cat_113493",
    "title": "Cat_113493",
    "link_img": "https://live.staticflickr.com/65535/50352556732_f5083cc844_o.jpg",
    "id_image": "Cat_113493",
    "count_view": 0
  },
  {
    "link_thumb": "https://live.staticflickr.com/65535/50020523531_8663f65e9f_n.jpg",
    "id_album": "-149330231",
    "description": "Dog_852999",
    "title": "Dog_852999",
    "link_img": "https://live.staticflickr.com/65535/50020523531_f45cd8a296_o.jpg",
    "id_image": "Dog_852999",
    "count_view": 0
  },
  {
    "link_thumb": "https://live.staticflickr.com/65535/50021617087_d831ddc430_n.jpg",
    "id_album": "2060159334",
    "description": "GoldenRetriever_866830",
    "title": "GoldenRetriever_866830",
    "link_img": "https://live.staticflickr.com/65535/50021617087_3d709eb50d_o.jpg",
    "id_image": "GoldenRetriever_866830",
    "count_view": 0
  },
  {
    "link_thumb": "https://live.staticflickr.com/65535/50024430431_b20789756b_n.jpg",
    "id_album": "766572659",
    "description": "WhiteTiger_289511",
    "title": "WhiteTiger_289511",
    "link_img": "https://live.staticflickr.com/65535/50024430431_d6993b866a_o.jpg",
    "id_image": "WhiteTiger_289511",
    "count_view": 0
  },
  {
    "link_thumb": "https://live.staticflickr.com/65535/50016950663_bdfd648e29_n.jpg",
    "id_album": "-530283314",
    "description": "BlueandyellowMacaw_941963",
    "title": "BlueandyellowMacaw_941963",
    "link_img": "https://live.staticflickr.com/65535/50016950663_940a5c15d2_o.jpg",
    "id_image": "BlueandyellowMacaw_941963",
    "count_view": 0
  },
  {
    "link_thumb": "https://live.staticflickr.com/65535/50019246381_898165b3bd_n.jpg",
    "id_album": "-462831704",
    "description": "Cat_478928",
    "title": "Cat_478928",
    "link_img": "https://live.staticflickr.com/65535/50019246381_b0d5145cb2_o.jpg",
    "id_image": "Cat_478928",
    "count_view": 0
  },
  {
    "link_thumb": "https://live.staticflickr.com/65535/50017115236_b3885f50c0_n.jpg",
    "id_album": "1699594607",
    "description": "Bee_110521",
    "title": "Bee_110521",
    "link_img": "https://live.staticflickr.com/65535/50017115236_59c722b553_o.jpg",
    "id_image": "Bee_110521",
    "count_view": 0
  },
  {
    "link_thumb": "https://live.staticflickr.com/65535/50352587326_1a30bebbc2_n.jpg",
    "id_album": "-462831703",
    "description": "Cat_526093",
    "title": "Cat_526093",
    "link_img": "https://live.staticflickr.com/65535/50352587326_4cfb04ee2d_o.jpg",
    "id_image": "Cat_526093",
    "count_view": 0
  },
  {
    "link_thumb": "https://live.staticflickr.com/65535/50018119441_7627a14222_n.jpg",
    "id_album": "-462831702",
    "description": "Cat_388126",
    "title": "Cat_388126",
    "link_img": "https://live.staticflickr.com/65535/50018119441_6de0cc0c07_o.jpg",
    "id_image": "Cat_388126",
    "count_view": 0
  },
  {
    "link_thumb": "https://live.staticflickr.com/65535/50022181182_12033472c1_n.jpg",
    "id_album": "1392348450",
    "description": "Leopard_425433",
    "title": "Leopard_425433",
    "link_img": "https://live.staticflickr.com/65535/50022181182_39c6155618_o.jpg",
    "id_image": "Leopard_425433",
    "count_view": 0
  },
  {
    "link_thumb": "https://live.staticflickr.com/65535/50017042253_842aa3ce50_n.jpg",
    "id_album": "-401151552",
    "description": "Butterfly_355676",
    "title": "Butterfly_355676",
    "link_img": "https://live.staticflickr.com/65535/50017042253_9c649d61d8_o.jpg",
    "id_image": "Butterfly_355676",
    "count_view": 0
  },
  {
    "link_thumb": "https://live.staticflickr.com/65535/50020460417_29a94e41c6_n.jpg",
    "id_album": "-149330232",
    "description": "Dog_271698",
    "title": "Dog_271698",
    "link_img": "https://live.staticflickr.com/65535/50020460417_1fccf9f462_o.jpg",
    "id_image": "Dog_271698",
    "count_view": 0
  },
  {
    "link_thumb": "https://live.staticflickr.com/65535/50021197941_95af91d906_n.jpg",
    "id_album": "-462831704",
    "description": "Cat_715502",
    "title": "Cat_715502",
    "link_img": "https://live.staticflickr.com/65535/50021197941_5eccfbf4cb_o.jpg",
    "id_image": "Cat_715502",
    "count_view": 0
  },
  {
    "link_thumb": "https://live.staticflickr.com/65535/50020392056_6393dabe93_n.jpg",
    "id_album": "-149330231",
    "description": "Dog_411534",
    "title": "Dog_411534",
    "link_img": "https://live.staticflickr.com/65535/50020392056_b25db06f45_o.jpg",
    "id_image": "Dog_411534",
    "count_view": 0
  },
  {
    "link_thumb": "https://live.staticflickr.com/65535/50022051857_3b00d9e78a_n.jpg",
    "id_album": "770105808",
    "description": "Kingfisher_246208",
    "title": "Kingfisher_246208",
    "link_img": "https://live.staticflickr.com/65535/50022051857_77e69136d2_o.jpg",
    "id_image": "Kingfisher_246208",
    "count_view": 0
  },
  {
    "link_thumb": "https://live.staticflickr.com/65535/50018942768_194b42f856_n.jpg",
    "id_album": "-462831703",
    "description": "Cat_922703",
    "title": "Cat_922703",
    "link_img": "https://live.staticflickr.com/65535/50018942768_952432a227_o.jpg",
    "id_image": "Cat_922703",
    "count_view": 0
  },
  {
    "link_thumb": "https://live.staticflickr.com/65535/50022814882_5dc9feff0f_n.jpg",
    "id_album": "405592235",
    "description": "Parrot_153021",
    "title": "Parrot_153021",
    "link_img": "https://live.staticflickr.com/65535/50022814882_6e4f489af7_o.jpg",
    "id_image": "Parrot_153021",
    "count_view": 0
  },
  {
    "link_thumb": "https://live.staticflickr.com/65535/50019387436_6ce17e9ded_n.jpg",
    "id_album": "-462831703",
    "description": "Cat_880235",
    "title": "Cat_880235",
    "link_img": "https://live.staticflickr.com/65535/50019387436_ecfd7b668d_o.jpg",
    "id_image": "Cat_880235",
    "count_view": 0
  },
  {
    "link_thumb": "https://live.staticflickr.com/65535/50017705287_923210e581_n.jpg",
    "id_album": "-1846011410",
    "description": "Bird_991727",
    "title": "Bird_991727",
    "link_img": "https://live.staticflickr.com/65535/50017705287_95290be671_o.jpg",
    "id_image": "Bird_991727",
    "count_view": 0
  },
  {
    "link_thumb": "https://live.staticflickr.com/65535/50351817173_ae0e839222_n.jpg",
    "id_album": "-462831703",
    "description": "Cat_427494",
    "title": "Cat_427494",
    "link_img": "https://live.staticflickr.com/65535/50351817173_660c08e3d6_o.jpg",
    "id_image": "Cat_427494",
    "count_view": 0
  },
  {
    "link_thumb": "https://live.staticflickr.com/65535/50023931942_a2e55ec7d7_n.jpg",
    "id_album": "-1131363127",
    "description": "SnowLeopard_784070",
    "title": "SnowLeopard_784070",
    "link_img": "https://live.staticflickr.com/65535/50023931942_67800e59e5_o.jpg",
    "id_image": "SnowLeopard_784070",
    "count_view": 0
  },
  {
    "link_thumb": "https://live.staticflickr.com/65535/50020585873_6a587b1535_n.jpg",
    "id_album": "-462831704",
    "description": "Cat_591179",
    "title": "Cat_591179",
    "link_img": "https://live.staticflickr.com/65535/50020585873_226e458431_o.jpg",
    "id_image": "Cat_591179",
    "count_view": 0
  },
  {
    "link_thumb": "https://live.staticflickr.com/65535/50020701478_924803ca89_n.jpg",
    "id_album": "-462831703",
    "description": "Cat_782425",
    "title": "Cat_782425",
    "link_img": "https://live.staticflickr.com/65535/50020701478_dc39285d1e_o.jpg",
    "id_image": "Cat_782425",
    "count_view": 0
  },
  {
    "link_thumb": "https://live.staticflickr.com/65535/50020688711_0965d84102_n.jpg",
    "id_album": "-39098563",
    "description": "Eagle_299802",
    "title": "Eagle_299802",
    "link_img": "https://live.staticflickr.com/65535/50020688711_5c66eeedb4_o.jpg",
    "id_image": "Eagle_299802",
    "count_view": 0
  },
  {
    "link_thumb": "https://live.staticflickr.com/65535/50021960121_8dd21498fd_n.jpg",
    "id_album": "1392348450",
    "description": "Leopard_938082",
    "title": "Leopard_938082",
    "link_img": "https://live.staticflickr.com/65535/50021960121_dba772d7ee_o.jpg",
    "id_image": "Leopard_938082",
    "count_view": 0
  },
  {
    "link_thumb": "https://live.staticflickr.com/65535/50020817083_d571277caf_n.jpg",
    "id_album": "2060159334",
    "description": "GoldenRetriever_797278",
    "title": "GoldenRetriever_797278",
    "link_img": "https://live.staticflickr.com/65535/50020817083_2daf2c51d0_o.jpg",
    "id_image": "GoldenRetriever_797278",
    "count_view": 0
  },
  {
    "link_thumb": "https://live.staticflickr.com/65535/50017076683_b6c4b5de43_n.jpg",
    "id_album": "-401151552",
    "description": "Butterfly_454173",
    "title": "Butterfly_454173",
    "link_img": "https://live.staticflickr.com/65535/50017076683_71e62cb0f5_o.jpg",
    "id_image": "Butterfly_454173",
    "count_view": 0
  },
  {
    "link_thumb": "https://live.staticflickr.com/65535/50022875473_91dd6922e4_n.jpg",
    "id_album": "1961094930",
    "description": "Seal_687952",
    "title": "Seal_687952",
    "link_img": "https://live.staticflickr.com/65535/50022875473_18ac346875_o.jpg",
    "id_image": "Seal_687952",
    "count_view": 0
  },
  {
    "link_thumb": "https://live.staticflickr.com/65535/50024683057_960502d3c8_n.jpg",
    "id_album": "545627045",
    "description": "Whitestork_718473",
    "title": "Whitestork_718473",
    "link_img": "https://live.staticflickr.com/65535/50024683057_3f2d105e57_o.jpg",
    "id_image": "Whitestork_718473",
    "count_view": 0
  },
  {
    "link_thumb": "https://live.staticflickr.com/65535/50018792433_49a13466ab_n.jpg",
    "id_album": "-462831703",
    "description": "Cat_852988",
    "title": "Cat_852988",
    "link_img": "https://live.staticflickr.com/65535/50018792433_96e780fa0d_o.jpg",
    "id_image": "Cat_852988",
    "count_view": 0
  },
  {
    "link_thumb": "https://live.staticflickr.com/65535/50016909111_e6a2be4c9d_n.jpg",
    "id_album": "523598895",
    "description": "Artistic_509546",
    "title": "Artistic_509546",
    "link_img": "https://live.staticflickr.com/65535/50016909111_d4ee62844c_o.jpg",
    "id_image": "Artistic_509546",
    "count_view": 0
  },
  {
    "link_thumb": "https://live.staticflickr.com/65535/50021079586_36c5915c16_n.jpg",
    "id_album": "844170697",
    "description": "Frog_852403",
    "title": "Frog_852403",
    "link_img": "https://live.staticflickr.com/65535/50021079586_d6c2b15aaf_o.jpg",
    "id_image": "Frog_852403",
    "count_view": 0
  },
  {
    "link_thumb": "https://live.staticflickr.com/65535/50019379411_7a2c0b8bb5_n.jpg",
    "id_album": "-462831703",
    "description": "Cat_877981",
    "title": "Cat_877981",
    "link_img": "https://live.staticflickr.com/65535/50019379411_b8cb53a4e3_o.jpg",
    "id_image": "Cat_877981",
    "count_view": 0
  },
  {
    "link_thumb": "https://live.staticflickr.com/65535/50017624717_8a8975a6e5_n.jpg",
    "id_album": "-1846011410",
    "description": "Bird_549146",
    "title": "Bird_549146",
    "link_img": "https://live.staticflickr.com/65535/50017624717_939820e48a_o.jpg",
    "id_image": "Bird_549146",
    "count_view": 0
  },
  {
    "link_thumb": "https://live.staticflickr.com/65535/50017472887_796907fdd9_n.jpg",
    "id_album": "-1846011410",
    "description": "Bird_212354",
    "title": "Bird_212354",
    "link_img": "https://live.staticflickr.com/65535/50017472887_fda4137f63_o.jpg",
    "id_image": "Bird_212354",
    "count_view": 0
  },
  {
    "link_thumb": "https://live.staticflickr.com/65535/50021390603_e29857aa58_n.jpg",
    "id_album": "1392348450",
    "description": "Leopard_529991",
    "title": "Leopard_529991",
    "link_img": "https://live.staticflickr.com/65535/50021390603_6bde150c87_o.jpg",
    "id_image": "Leopard_529991",
    "count_view": 0
  },
  {
    "link_thumb": "https://live.staticflickr.com/65535/50017114823_104545a48e_n.jpg",
    "id_album": "-401151552",
    "description": "Butterfly_681040",
    "title": "Butterfly_681040",
    "link_img": "https://live.staticflickr.com/65535/50017114823_e0f398e15d_o.jpg",
    "id_image": "Butterfly_681040",
    "count_view": 0
  },
  {
    "link_thumb": "https://live.staticflickr.com/65535/50017050973_2d5498c974_n.jpg",
    "id_album": "-401151552",
    "description": "Butterfly_380027",
    "title": "Butterfly_380027",
    "link_img": "https://live.staticflickr.com/65535/50017050973_7e66a9ba60_o.jpg",
    "id_image": "Butterfly_380027",
    "count_view": 0
  },
  {
    "link_thumb": "https://live.staticflickr.com/65535/50021849032_e58e216b10_n.jpg",
    "id_album": "773713550",
    "description": "Hoverfly_348337",
    "title": "Hoverfly_348337",
    "link_img": "https://live.staticflickr.com/65535/50021849032_c72cb23555_o.jpg",
    "id_image": "Hoverfly_348337",
    "count_view": 0
  },
  {
    "link_thumb": "https://live.staticflickr.com/65535/50019014983_36749e6dbb_n.jpg",
    "id_album": "-462831703",
    "description": "Cat_977997",
    "title": "Cat_977997",
    "link_img": "https://live.staticflickr.com/65535/50019014983_2be0392ff8_o.jpg",
    "id_image": "Cat_977997",
    "count_view": 0
  },
  {
    "link_thumb": "https://live.staticflickr.com/65535/50021071202_1eba013b8f_n.jpg",
    "id_album": "822895535",
    "description": "Falcon_541344",
    "title": "Falcon_541344",
    "link_img": "https://live.staticflickr.com/65535/50021071202_52934ff55f_o.jpg",
    "id_image": "Falcon_541344",
    "count_view": 0
  },
  {
    "link_thumb": "https://live.staticflickr.com/65535/50020723868_16dc17355e_n.jpg",
    "id_album": "-462831703",
    "description": "Cat_821947",
    "title": "Cat_821947",
    "link_img": "https://live.staticflickr.com/65535/50020723868_c3c582bc93_o.jpg",
    "id_image": "Cat_821947",
    "count_view": 0
  },
  {
    "link_thumb": "https://live.staticflickr.com/65535/50021264376_2db58b4cba_n.jpg",
    "id_album": "-462831703",
    "description": "Cat_819588",
    "title": "Cat_819588",
    "link_img": "https://live.staticflickr.com/65535/50021264376_5e88f31131_o.jpg",
    "id_image": "Cat_819588",
    "count_view": 0
  },
  {
    "link_thumb": "https://live.staticflickr.com/65535/50022432522_08dabc4af6_n.jpg",
    "id_album": "1894617400",
    "description": "Lynx_983508",
    "title": "Lynx_983508",
    "link_img": "https://live.staticflickr.com/65535/50022432522_71567a460e_o.jpg",
    "id_image": "Lynx_983508",
    "count_view": 0
  },
  {
    "link_thumb": "https://live.staticflickr.com/65535/50022144547_8a4c00d727_n.jpg",
    "id_album": "1392348450",
    "description": "Leopard_210492",
    "title": "Leopard_210492",
    "link_img": "https://live.staticflickr.com/65535/50022144547_e9ec26958a_o.jpg",
    "id_image": "Leopard_210492",
    "count_view": 0
  },
  {
    "link_thumb": "https://live.staticflickr.com/65535/50020948241_d9154e8ec4_n.jpg",
    "id_album": "-128218148",
    "description": "Fox_337134",
    "title": "Fox_337134",
    "link_img": "https://live.staticflickr.com/65535/50020948241_6cc8bec82d_o.jpg",
    "id_image": "Fox_337134",
    "count_view": 0
  },
  {
    "link_thumb": "https://live.staticflickr.com/65535/50022755028_053c82fdbd_n.jpg",
    "id_album": "48367914",
    "description": "Rhino_650736",
    "title": "Rhino_650736",
    "link_img": "https://live.staticflickr.com/65535/50022755028_3dde3ebb5e_o.jpg",
    "id_image": "Rhino_650736",
    "count_view": 0
  },
  {
    "link_thumb": "https://live.staticflickr.com/65535/50017798492_1d7a9a569f_n.jpg",
    "id_album": "-401151552",
    "description": "Butterfly_153491",
    "title": "Butterfly_153491",
    "link_img": "https://live.staticflickr.com/65535/50017798492_2beff51b7b_o.jpg",
    "id_image": "Butterfly_153491",
    "count_view": 0
  },
  {
    "link_thumb": "https://live.staticflickr.com/65535/50020171736_65ee8a419a_n.jpg",
    "id_album": "-149330232",
    "description": "Dog_240954",
    "title": "Dog_240954",
    "link_img": "https://live.staticflickr.com/65535/50020171736_5c9aae435a_o.jpg",
    "id_image": "Dog_240954",
    "count_view": 0
  },
  {
    "link_thumb": "https://live.staticflickr.com/65535/50016953671_4bded1c8c3_n.jpg",
    "id_album": "231236068",
    "description": "BaldEagle_358104",
    "title": "BaldEagle_358104",
    "link_img": "https://live.staticflickr.com/65535/50016953671_fa26f926c5_o.jpg",
    "id_image": "BaldEagle_358104",
    "count_view": 0
  },
  {
    "link_thumb": "https://live.staticflickr.com/65535/50019832637_67d83f508b_n.jpg",
    "id_album": "-462831703",
    "description": "Cat_998666",
    "title": "Cat_998666",
    "link_img": "https://live.staticflickr.com/65535/50019832637_c7af3fecfd_o.jpg",
    "id_image": "Cat_998666",
    "count_view": 0
  },
  {
    "link_thumb": "https://live.staticflickr.com/65535/50021859296_54a34d0d18_n.jpg",
    "id_album": "-1882491687",
    "description": "Ladybug_680700",
    "title": "Ladybug_680700",
    "link_img": "https://live.staticflickr.com/65535/50021859296_262d5767c8_o.jpg",
    "id_image": "Ladybug_680700",
    "count_view": 0
  },
  {
    "link_thumb": "https://live.staticflickr.com/65535/50018304037_30a72373ca_n.jpg",
    "id_album": "-462831702",
    "description": "Cat_356534",
    "title": "Cat_356534",
    "link_img": "https://live.staticflickr.com/65535/50018304037_cecf42113b_o.jpg",
    "id_image": "Cat_356534",
    "count_view": 0
  },
  {
    "link_thumb": "https://live.staticflickr.com/65535/50021726488_5de91fd9b4_n.jpg",
    "id_album": "-817970387",
    "description": "Moose_358874",
    "title": "Moose_358874",
    "link_img": "https://live.staticflickr.com/65535/50021726488_4e9d75a850_o.jpg",
    "id_image": "Moose_358874",
    "count_view": 0
  },
  {
    "link_thumb": "https://live.staticflickr.com/65535/50019875916_d8b30f3f54_n.jpg",
    "id_album": "815329026",
    "description": "Crab_325945",
    "title": "Crab_325945",
    "link_img": "https://live.staticflickr.com/65535/50019875916_0916a13736_o.jpg",
    "id_image": "Crab_325945",
    "count_view": 0
  },
  {
    "link_thumb": "https://live.staticflickr.com/65535/50023730676_d15bce1ac0_n.jpg",
    "id_album": "-1082521515",
    "description": "Spider_340526",
    "title": "Spider_340526",
    "link_img": "https://live.staticflickr.com/65535/50023730676_539a1f6d36_o.jpg",
    "id_image": "Spider_340526",
    "count_view": 0
  },
  {
    "link_thumb": "https://live.staticflickr.com/65535/50024346896_79c3623cd8_n.jpg",
    "id_album": "410750612",
    "description": "Wasp_926277",
    "title": "Wasp_926277",
    "link_img": "https://live.staticflickr.com/65535/50024346896_cfaedabc01_o.jpg",
    "id_image": "Wasp_926277",
    "count_view": 0
  },
  {
    "link_thumb": "https://live.staticflickr.com/65535/50023440838_fff37736f3_n.jpg",
    "id_album": "702283289",
    "description": "Squirrel_986126",
    "title": "Squirrel_986126",
    "link_img": "https://live.staticflickr.com/65535/50023440838_d77199a0fd_o.jpg",
    "id_image": "Squirrel_986126",
    "count_view": 0
  },
  {
    "link_thumb": "https://live.staticflickr.com/65535/50019506661_2b3848bdc3_n.jpg",
    "id_album": "-462831703",
    "description": "Cat_943636",
    "title": "Cat_943636",
    "link_img": "https://live.staticflickr.com/65535/50019506661_80b0424e81_o.jpg",
    "id_image": "Cat_943636",
    "count_view": 0
  },
  {
    "link_thumb": "https://live.staticflickr.com/65535/50020665528_8c75c305fd_n.jpg",
    "id_album": "-462831704",
    "description": "Cat_725830",
    "title": "Cat_725830",
    "link_img": "https://live.staticflickr.com/65535/50020665528_20712f90b5_o.jpg",
    "id_image": "Cat_725830",
    "count_view": 0
  },
  {
    "link_thumb": "https://live.staticflickr.com/65535/50021031856_e65505d93f_n.jpg",
    "id_album": "-128218148",
    "description": "Fox_969643",
    "title": "Fox_969643",
    "link_img": "https://live.staticflickr.com/65535/50021031856_a18498dde7_o.jpg",
    "id_image": "Fox_969643",
    "count_view": 0
  },
  {
    "link_thumb": "https://live.staticflickr.com/65535/50020006441_55204e4697_n.jpg",
    "id_album": "1903411565",
    "description": "Deer_417779",
    "title": "Deer_417779",
    "link_img": "https://live.staticflickr.com/65535/50020006441_c565611011_o.jpg",
    "id_image": "Deer_417779",
    "count_view": 0
  },
  {
    "link_thumb": "https://live.staticflickr.com/65535/50021271872_f2bb8d9461_n.jpg",
    "id_album": "-128218148",
    "description": "Fox_899278",
    "title": "Fox_899278",
    "link_img": "https://live.staticflickr.com/65535/50021271872_9b1364558a_o.jpg",
    "id_image": "Fox_899278",
    "count_view": 0
  },
  {
    "link_thumb": "https://live.staticflickr.com/65535/50023087621_0e95666b8f_n.jpg",
    "id_album": "-1940643173",
    "description": "Rabbit_177710",
    "title": "Rabbit_177710",
    "link_img": "https://live.staticflickr.com/65535/50023087621_6cf7bb031d_o.jpg",
    "id_image": "Rabbit_177710",
    "count_view": 0
  },
  {
    "link_thumb": "https://live.staticflickr.com/65535/50023898773_8a3c7d3ee7_n.jpg",
    "id_album": "766572659",
    "description": "WhiteTiger_534573",
    "title": "WhiteTiger_534573",
    "link_img": "https://live.staticflickr.com/65535/50023898773_9b316b0228_o.jpg",
    "id_image": "WhiteTiger_534573",
    "count_view": 0
  },
  {
    "link_thumb": "https://live.staticflickr.com/65535/50021320038_7cc44c7539_n.jpg",
    "id_album": "-1882491687",
    "description": "Ladybug_724090",
    "title": "Ladybug_724090",
    "link_img": "https://live.staticflickr.com/65535/50021320038_73fce6be95_o.jpg",
    "id_image": "Ladybug_724090",
    "count_view": 0
  },
  {
    "link_thumb": "https://live.staticflickr.com/65535/50017452681_9af1e8f03a_n.jpg",
    "id_album": "-1561645279",
    "description": "BlackPanther_399824",
    "title": "BlackPanther_399824",
    "link_img": "https://live.staticflickr.com/65535/50017452681_20746e400b_o.jpg",
    "id_image": "BlackPanther_399824",
    "count_view": 0
  },
  {
    "link_thumb": "https://live.staticflickr.com/65535/50017849157_bcf0aa921b_n.jpg",
    "id_album": "-401151552",
    "description": "Butterfly_411528",
    "title": "Butterfly_411528",
    "link_img": "https://live.staticflickr.com/65535/50017849157_21d2cfb05e_o.jpg",
    "id_image": "Butterfly_411528",
    "count_view": 0
  },
  {
    "link_thumb": "https://live.staticflickr.com/65535/50017095698_72febb75ce_n.jpg",
    "id_album": "-401151552",
    "description": "Butterfly_531389",
    "title": "Butterfly_531389",
    "link_img": "https://live.staticflickr.com/65535/50017095698_b18f17f8c3_o.jpg",
    "id_image": "Butterfly_531389",
    "count_view": 0
  },
  {
    "link_thumb": "https://live.staticflickr.com/65535/50018952108_f901a9a0a6_n.jpg",
    "id_album": "-462831703",
    "description": "Cat_930656",
    "title": "Cat_930656",
    "link_img": "https://live.staticflickr.com/65535/50018952108_913d0a9588_o.jpg",
    "id_image": "Cat_930656",
    "count_view": 0
  },
  {
    "link_thumb": "https://live.staticflickr.com/65535/50022576458_22a4599d1d_n.jpg",
    "id_album": "-1940643173",
    "description": "Rabbit_640126",
    "title": "Rabbit_640126",
    "link_img": "https://live.staticflickr.com/65535/50022576458_124140cfef_o.jpg",
    "id_image": "Rabbit_640126",
    "count_view": 0
  },
  {
    "link_thumb": "https://live.staticflickr.com/65535/50017732747_0a12581671_n.jpg",
    "id_album": "-530283314",
    "description": "BlueandyellowMacaw_663011",
    "title": "BlueandyellowMacaw_663011",
    "link_img": "https://live.staticflickr.com/65535/50017732747_f9a507ff7d_o.jpg",
    "id_image": "BlueandyellowMacaw_663011",
    "count_view": 0
  },
  {
    "link_thumb": "https://live.staticflickr.com/65535/50024276936_22a23fa769_n.jpg",
    "id_album": "-1103743486",
    "description": "Toucan_259800",
    "title": "Toucan_259800",
    "link_img": "https://live.staticflickr.com/65535/50024276936_7d8f521718_o.jpg",
    "id_image": "Toucan_259800",
    "count_view": 0
  },
  {
    "link_thumb": "https://live.staticflickr.com/65535/50021595971_5cd17d8195_n.jpg",
    "id_album": "773713550",
    "description": "Hoverfly_261541",
    "title": "Hoverfly_261541",
    "link_img": "https://live.staticflickr.com/65535/50021595971_898152e9f9_o.jpg",
    "id_image": "Hoverfly_261541",
    "count_view": 0
  },
  {
    "link_thumb": "https://live.staticflickr.com/65535/50017848442_74c4fa0a87_n.jpg",
    "id_album": "-401151552",
    "description": "Butterfly_409619",
    "title": "Butterfly_409619",
    "link_img": "https://live.staticflickr.com/65535/50017848442_25cc1c5546_o.jpg",
    "id_image": "Butterfly_409619",
    "count_view": 0
  },
  {
    "link_thumb": "https://live.staticflickr.com/65535/50021003163_454aaa9e4f_n.jpg",
    "id_album": "-1933715543",
    "description": "Horse_593666",
    "title": "Horse_593666",
    "link_img": "https://live.staticflickr.com/65535/50021003163_3108bef4e9_o.jpg",
    "id_image": "Horse_593666",
    "count_view": 0
  },
  {
    "link_thumb": "https://live.staticflickr.com/65535/50019697697_47211bfee3_n.jpg",
    "id_album": "-462831703",
    "description": "Cat_913325",
    "title": "Cat_913325",
    "link_img": "https://live.staticflickr.com/65535/50019697697_9c3966e0a3_o.jpg",
    "id_image": "Cat_913325",
    "count_view": 0
  },
  {
    "link_thumb": "https://live.staticflickr.com/65535/50017127418_2eae110417_n.jpg",
    "id_album": "-401151552",
    "description": "Butterfly_717687",
    "title": "Butterfly_717687",
    "link_img": "https://live.staticflickr.com/65535/50017127418_c06b26c3ed_o.jpg",
    "id_image": "Butterfly_717687",
    "count_view": 0
  },
  {
    "link_thumb": "https://live.staticflickr.com/65535/50023099116_7137931527_n.jpg",
    "id_album": "-1940643173",
    "description": "Rabbit_364835",
    "title": "Rabbit_364835",
    "link_img": "https://live.staticflickr.com/65535/50023099116_5fb655b4cb_o.jpg",
    "id_image": "Rabbit_364835",
    "count_view": 0
  },
  {
    "link_thumb": "https://live.staticflickr.com/65535/50019358771_de0565fe8d_n.jpg",
    "id_album": "-462831703",
    "description": "Cat_871120",
    "title": "Cat_871120",
    "link_img": "https://live.staticflickr.com/65535/50019358771_fff21c5652_o.jpg",
    "id_image": "Cat_871120",
    "count_view": 0
  },
  {
    "link_thumb": "https://live.staticflickr.com/65535/50019635473_cf2e931c8d_n.jpg",
    "id_album": "-149330232",
    "description": "Dog_234127",
    "title": "Dog_234127",
    "link_img": "https://live.staticflickr.com/65535/50019635473_537705ccc1_o.jpg",
    "id_image": "Dog_234127",
    "count_view": 0
  },
  {
    "link_thumb": "https://live.staticflickr.com/65535/50020713273_ba3d855d76_n.jpg",
    "id_album": "-462831703",
    "description": "Cat_796883",
    "title": "Cat_796883",
    "link_img": "https://live.staticflickr.com/65535/50020713273_963a0e7ddb_o.jpg",
    "id_image": "Cat_796883",
    "count_view": 0
  },
  {
    "link_thumb": "https://live.staticflickr.com/65535/50021917971_df5e23347b_n.jpg",
    "id_album": "1392348450",
    "description": "Leopard_390323",
    "title": "Leopard_390323",
    "link_img": "https://live.staticflickr.com/65535/50021917971_828a7cfcf4_o.jpg",
    "id_image": "Leopard_390323",
    "count_view": 0
  },
  {
    "link_thumb": "https://live.staticflickr.com/65535/50352835047_ddd177cacc_n.jpg",
    "id_album": "-462831703",
    "description": "Cat_983289",
    "title": "Cat_983289",
    "link_img": "https://live.staticflickr.com/65535/50352835047_a8c7a349f6_o.jpg",
    "id_image": "Cat_983289",
    "count_view": 0
  },
  {
    "link_thumb": "https://live.staticflickr.com/65535/50017579266_49221be480_n.jpg",
    "id_album": "-401151552",
    "description": "Butterfly_386670",
    "title": "Butterfly_386670",
    "link_img": "https://live.staticflickr.com/65535/50017579266_6b21cde5d9_o.jpg",
    "id_image": "Butterfly_386670",
    "count_view": 0
  },
  {
    "link_thumb": "https://live.staticflickr.com/65535/50021364152_e16c2d6659_n.jpg",
    "id_album": "-462831704",
    "description": "Cat_553938",
    "title": "Cat_553938",
    "link_img": "https://live.staticflickr.com/65535/50021364152_8631ed8362_o.jpg",
    "id_image": "Cat_553938",
    "count_view": 0
  },
  {
    "link_thumb": "https://live.staticflickr.com/65535/50021053451_7c28284685_n.jpg",
    "id_album": "844170697",
    "description": "Frog_278130",
    "title": "Frog_278130",
    "link_img": "https://live.staticflickr.com/65535/50021053451_54a9d169cd_o.jpg",
    "id_image": "Frog_278130",
    "count_view": 0
  },
  {
    "link_thumb": "https://live.staticflickr.com/65535/50019076523_2181034805_n.jpg",
    "id_album": "-420782796",
    "description": "Caterpillar_403464",
    "title": "Caterpillar_403464",
    "link_img": "https://live.staticflickr.com/65535/50019076523_451de69c87_o.jpg",
    "id_image": "Caterpillar_403464",
    "count_view": 0
  },
  {
    "link_thumb": "https://live.staticflickr.com/65535/50024694592_5935d5d446_n.jpg",
    "id_album": "766572659",
    "description": "WhiteTiger_364956",
    "title": "WhiteTiger_364956",
    "link_img": "https://live.staticflickr.com/65535/50024694592_ae15a1bcd8_o.jpg",
    "id_image": "WhiteTiger_364956",
    "count_view": 0
  },
  {
    "link_thumb": "https://live.staticflickr.com/65535/50016645658_962d41d5db_n.jpg",
    "id_album": "172748811",
    "description": "Beeeater_341633",
    "title": "Beeeater_341633",
    "link_img": "https://live.staticflickr.com/65535/50016645658_1ab761e79b_o.jpg",
    "id_image": "Beeeater_341633",
    "count_view": 0
  },
  {
    "link_thumb": "https://live.staticflickr.com/65535/50022094747_bdabce5ebe_n.jpg",
    "id_album": "-1882491687",
    "description": "Ladybug_162087",
    "title": "Ladybug_162087",
    "link_img": "https://live.staticflickr.com/65535/50022094747_015ccdcd83_o.jpg",
    "id_image": "Ladybug_162087",
    "count_view": 0
  },
  {
    "link_thumb": "https://live.staticflickr.com/65535/50023140548_ff29108f2f_n.jpg",
    "id_album": "1933547265",
    "description": "SnowyOwl_383181",
    "title": "SnowyOwl_383181",
    "link_img": "https://live.staticflickr.com/65535/50023140548_a30d0cebf6_o.jpg",
    "id_image": "SnowyOwl_383181",
    "count_view": 0
  },
  {
    "link_thumb": "https://live.staticflickr.com/65535/50021245082_5c0bf8bfdf_n.jpg",
    "id_album": "-128218148",
    "description": "Fox_703454",
    "title": "Fox_703454",
    "link_img": "https://live.staticflickr.com/65535/50021245082_2bc2fe0404_o.jpg",
    "id_image": "Fox_703454",
    "count_view": 0
  },
  {
    "link_thumb": "https://live.staticflickr.com/65535/50017172091_750f9be4f5_n.jpg",
    "id_album": "172748811",
    "description": "Beeeater_523812",
    "title": "Beeeater_523812",
    "link_img": "https://live.staticflickr.com/65535/50017172091_110a421ac8_o.jpg",
    "id_image": "Beeeater_523812",
    "count_view": 0
  },
  {
    "link_thumb": "https://live.staticflickr.com/65535/50018764058_bb4cc3704e_n.jpg",
    "id_album": "-462831704",
    "description": "Cat_529621",
    "title": "Cat_529621",
    "link_img": "https://live.staticflickr.com/65535/50018764058_331740ef89_o.jpg",
    "id_image": "Cat_529621",
    "count_view": 0
  },
  {
    "link_thumb": "https://live.staticflickr.com/65535/50021207896_6ef929c522_n.jpg",
    "id_album": "-462831704",
    "description": "Cat_725343",
    "title": "Cat_725343",
    "link_img": "https://live.staticflickr.com/65535/50021207896_296f8ddd41_o.jpg",
    "id_image": "Cat_725343",
    "count_view": 0
  },
  {
    "link_thumb": "https://live.staticflickr.com/65535/50018231167_07b540922a_n.jpg",
    "id_album": "-462831702",
    "description": "Cat_324839",
    "title": "Cat_324839",
    "link_img": "https://live.staticflickr.com/65535/50018231167_7429eed66e_o.jpg",
    "id_image": "Cat_324839",
    "count_view": 0
  },
  {
    "link_thumb": "https://live.staticflickr.com/65535/50019512883_bcf2af6fbf_n.jpg",
    "id_album": "1903411565",
    "description": "Deer_715159",
    "title": "Deer_715159",
    "link_img": "https://live.staticflickr.com/65535/50019512883_daf2fe7fdf_o.jpg",
    "id_image": "Deer_715159",
    "count_view": 0
  },
  {
    "link_thumb": "https://live.staticflickr.com/65535/50022740468_f14b59cca5_n.jpg",
    "id_album": "48367914",
    "description": "Rhino_431799",
    "title": "Rhino_431799",
    "link_img": "https://live.staticflickr.com/65535/50022740468_1e25eff835_o.jpg",
    "id_image": "Rhino_431799",
    "count_view": 0
  },
  {
    "link_thumb": "https://live.staticflickr.com/65535/50022799797_5827c2bb46_n.jpg",
    "id_album": "-358592519",
    "description": "Panda_56750",
    "title": "Panda_56750",
    "link_img": "https://live.staticflickr.com/65535/50022799797_db1b5ab877_o.jpg",
    "id_image": "Panda_56750",
    "count_view": 0
  },
  {
    "link_thumb": "https://live.staticflickr.com/65535/50021201611_de71272a68_n.jpg",
    "id_album": "-462831704",
    "description": "Cat_719484",
    "title": "Cat_719484",
    "link_img": "https://live.staticflickr.com/65535/50021201611_59912a64a3_o.jpg",
    "id_image": "Cat_719484",
    "count_view": 0
  },
  {
    "link_thumb": "https://live.staticflickr.com/65535/50021421211_be67b631dc_n.jpg",
    "id_album": "-1513987841",
    "description": "Hawk_425017",
    "title": "Hawk_425017",
    "link_img": "https://live.staticflickr.com/65535/50021421211_952294829d_o.jpg",
    "id_image": "Hawk_425017",
    "count_view": 0
  },
  {
    "link_thumb": "https://live.staticflickr.com/65535/50023660737_dae4e2e00f_n.jpg",
    "id_album": "1961094930",
    "description": "Seal_324872",
    "title": "Seal_324872",
    "link_img": "https://live.staticflickr.com/65535/50023660737_bd2bc9377a_o.jpg",
    "id_image": "Seal_324872",
    "count_view": 0
  },
  {
    "link_thumb": "https://live.staticflickr.com/65535/50023703716_0d194c0585_n.jpg",
    "id_album": "-359606417",
    "description": "Sparrow_426882",
    "title": "Sparrow_426882",
    "link_img": "https://live.staticflickr.com/65535/50023703716_564cd84966_o.jpg",
    "id_image": "Sparrow_426882",
    "count_view": 0
  },
  {
    "link_thumb": "https://live.staticflickr.com/65535/50019650717_158758189c_n.jpg",
    "id_album": "-462831705",
    "description": "Cat_88393",
    "title": "Cat_88393",
    "link_img": "https://live.staticflickr.com/65535/50019650717_35b2048053_o.jpg",
    "id_image": "Cat_88393",
    "count_view": 0
  },
  {
    "link_thumb": "https://live.staticflickr.com/65535/50020533707_d784641547_n.jpg",
    "id_album": "-149330232",
    "description": "Dog_339808",
    "title": "Dog_339808",
    "link_img": "https://live.staticflickr.com/65535/50020533707_5a4b9f0824_o.jpg",
    "id_image": "Dog_339808",
    "count_view": 0
  },
  {
    "link_thumb": "https://live.staticflickr.com/65535/50022155962_14c8d29cff_n.jpg",
    "id_album": "1392348450",
    "description": "Leopard_340030",
    "title": "Leopard_340030",
    "link_img": "https://live.staticflickr.com/65535/50022155962_a4cdce6856_o.jpg",
    "id_image": "Leopard_340030",
    "count_view": 0
  },
  {
    "link_thumb": "https://live.staticflickr.com/65535/50352671236_eee0fca0af_n.jpg",
    "id_album": "-462831703",
    "description": "Cat_955200",
    "title": "Cat_955200",
    "link_img": "https://live.staticflickr.com/65535/50352671236_cafb675288_o.jpg",
    "id_image": "Cat_955200",
    "count_view": 0
  },
  {
    "link_thumb": "https://live.staticflickr.com/65535/50017077608_498b84cf4f_n.jpg",
    "id_album": "-401151552",
    "description": "Butterfly_457325",
    "title": "Butterfly_457325",
    "link_img": "https://live.staticflickr.com/65535/50017077608_2ed80146bc_o.jpg",
    "id_image": "Butterfly_457325",
    "count_view": 0
  },
  {
    "link_thumb": "https://live.staticflickr.com/65535/50352461116_f6d248e80a_n.jpg",
    "id_album": "-462831703",
    "description": "Cat_356861",
    "title": "Cat_356861",
    "link_img": "https://live.staticflickr.com/65535/50352461116_8e301ed020_o.jpg",
    "id_image": "Cat_356861",
    "count_view": 0
  },
  {
    "link_thumb": "https://live.staticflickr.com/65535/50017550921_cd37b49d1f_n.jpg",
    "id_album": "-401151552",
    "description": "Butterfly_244127",
    "title": "Butterfly_244127",
    "link_img": "https://live.staticflickr.com/65535/50017550921_a361f671cd_o.jpg",
    "id_image": "Butterfly_244127",
    "count_view": 0
  },
  {
    "link_thumb": "https://live.staticflickr.com/65535/50021637111_d5ea559617_n.jpg",
    "id_album": "-712553376",
    "description": "Husky_556335",
    "title": "Husky_556335",
    "link_img": "https://live.staticflickr.com/65535/50021637111_72858feb3e_o.jpg",
    "id_image": "Husky_556335",
    "count_view": 0
  },
  {
    "link_thumb": "https://live.staticflickr.com/65535/50020940047_749887cb28_n.jpg",
    "id_album": "-39098563",
    "description": "Eagle_200308",
    "title": "Eagle_200308",
    "link_img": "https://live.staticflickr.com/65535/50020940047_4b311167df_o.jpg",
    "id_image": "Eagle_200308",
    "count_view": 0
  }
]