[
  {
    "total_img": 0,
    "number_page": 0,
    "title": "Otter",
    "tag": "Otter,",
    "description": "Otter",
    "link_thumb": "https://live.staticflickr.com/65535/50022360326_af21bb01e2_n.jpg",
    "id_album": "106807275",
    "total_view": 48
  }
]